﻿<?xml version="1.0" encoding="utf-8"?>
<!DOCTYPE svg PUBLIC "-//W3C//DTD SVG 1.0//EN" "http://www.w3.org/TR/2001/REC-SVG-20010904/DTD/svg10.dtd"[
	<!ENTITY ns_flows "http://ns.adobe.com/Flows/1.0/">
	<!ENTITY ns_svg "http://www.w3.org/2000/svg">
	<!ENTITY ns_xlink "http://www.w3.org/1999/xlink">
	<!ENTITY st0 "font-size:7px;font-family:'MS-PGothic';adobe-font-script:japanese;">
	<!ENTITY st1 "font-size:6px;font-family:'ArialMT';">
	<!-- White fill  -->
	<!ENTITY st2 "fill:#FFFFFF;stroke:#000000; stroke-width:1.41;stroke-linecap:round;stroke-linejoin:round;">
	<!-- Yellow fill  -->
	<!ENTITY st3 "fill:#FFFFCC;stroke:#FFFFCC; stroke-width:0.1;stroke-linecap:round;stroke-linejoin:round;">
	<!-- Gray fill  -->
	<!ENTITY st4 "fill:#CCCCCC;stroke:#CCCCCC; stroke-width:0.1;stroke-linecap:round;stroke-linejoin:round;">
	<!-- Light-blue fill -->
	<!ENTITY st5 "fill:#CCECF4;stroke:#000000; stroke-width:1.133;stroke-linecap:round;stroke-linejoin:round;">
	<!ENTITY st6 "fill:none;stroke-linecap:butt; stroke-linejoin:round;">
	<!ENTITY st7 "fill:none;stroke:#000000;stroke-linecap:round;stroke-linejoin:round;">
	<!ENTITY st8 "enable-background:new    ;">
	<!-- Black fill -->
	<!ENTITY st9 "fill:#000000;stroke:#000000; stroke-linecap:round;stroke-linejoin:round;">
	<!-- SRS note   -->
	<!ENTITY st10 "font-size:9px;font-family:'ArialMT';">
	<!ENTITY st11 "font-size:9px;font-family:'Svg Symbol';">
	<!ENTITY st12 "font-size:6px;font-family:'Svg Symbol';">
	<!ENTITY st13 "fill:none;stroke:#ff0000;stroke-linecap:round;stroke-linejoin:round;">
	<!-- Yellow fill  -->
	<!ENTITY st14 "fill:#FFFF00;stroke:#FFFF00; stroke-width:0.1;stroke-linecap:round;stroke-linejoin:round;">
	<!ENTITY st15 "font-size:6px;font-family:'MS-PGothic';adobe-font-script:japanese;">
	<!ENTITY st16 "1.00 0.00 0.00 1.00">
	<!ENTITY st17 "0.00 -1.00 1.00 0.00">
	<!ENTITY st18 "font-size:6px;font-family:'Arial';">
	<!ENTITY st19 "font-size:9px;font-family:'Arial';">
	<!ENTITY st20 "font-size:6px;font-family:'MS-PGothic','MS PGothic';adobe-font-script:japanese;">
	<!ENTITY st21 "font-size:7px;font-family:'MS-PGothic','MS PGothic';adobe-font-script:japanese;">
	<!ATTLIST svg
		xmlns:ewd CDATA #FIXED "http://shcl.co.jp/ewd"
		xmlns:a CDATA #FIXED "http://ns.adobe.com/AdobeSVGViewerExtensions/3.0/"
		ewd:ver CDATA #IMPLIED
	>
	<!ATTLIST a
		ewd:lineID CDATA #IMPLIED
		ewd:groupID CDATA #IMPLIED
		ewd:figtype CDATA #IMPLIED
		ewd:code CDATA #IMPLIED
		ewd:figID CDATA #IMPLIED
		ewd:pinNo CDATA #IMPLIED
		ewd:comment CDATA #IMPLIED >
	<!ATTLIST g
		ewd:lineID CDATA #IMPLIED
		ewd:groupID CDATA #IMPLIED
		ewd:figtype CDATA #IMPLIED
		ewd:code CDATA #IMPLIED
		ewd:figID CDATA #IMPLIED
		ewd:pinNo CDATA #IMPLIED
		ewd:comment CDATA #IMPLIED >
	<!ATTLIST text
		ewd:textID CDATA #IMPLIED >
	<!ATTLIST title
		ewd:textID CDATA #IMPLIED >
]>
<!-- Generator: Shintec Hozumi YS   -->
<svg onload="call_execInitLoadProc_svg('system')" style="overflow:visible;  enable-background:new 0 0 6207.336 710.000" viewBox="0 0 6207.336 710.000" height="710.000" width="6207.336" xml:space="preserve" ewd:ver="L2.3.0.14" xmlns="&ns_svg;" xmlns:a="http://ns.adobe.com/AdobeSVGViewerExtensions/3.0/" xmlns:ewd="http://shcl.co.jp/ewd" xmlns:xlink="&ns_xlink;">
<path d=" M  3365.44,   426.71  L  3365.44,   375.72  L  3271.95,   375.72  L  3271.95,   409.72  L  3365.44,   409.72  " style="stroke:#000000;stroke-width: 0.85;stroke-dasharray:3, 1.5;&st6;" /><path d=" M  3424.93,   333.23  L  3526.91,   333.23  L  3526.91,   375.72  L  3458.92,   375.72  " style="stroke:#000000;stroke-width: 0.85;stroke-dasharray:3, 1.5;&st6;" /><path d=" M  3373.94,   431.69  L  3368.96,   426.71  " style="stroke-width: 1.42 ;&st7;  " /><path d=" M  3331.44,   452.21  L  3331.44,   460.71  " style="stroke-width: 0.85 ;&st7;  " /><path d=" M  3331.44,   477.71  L  3331.44,   486.20  " style="stroke-width: 0.85 ;&st7;  " /><path d=" M  3412.90,   324.73  L  3407.93,   329.70  " style="stroke-width: 1.42 ;&st7;  " /><path d=" M  3419.96,   341.73  L  3424.93,   336.76  " style="stroke-width: 1.42 ;&st7;  " /><path d=" M  3407.93,   336.76  L  3412.90,   341.73  " style="stroke-width: 1.42 ;&st7;  " /><path d=" M  3424.93,   329.70  L  3419.96,   324.73  " style="stroke-width: 1.42 ;&st7;  " /><path d=" M  3356.94,   438.74  L  3361.91,   443.71  " style="stroke-width: 1.42 ;&st7;  " /><path d=" M  3368.96,   443.71  L  3373.94,   438.74  " style="stroke-width: 1.42 ;&st7;  " /><path d=" M  3361.91,   426.71  L  3356.94,   431.69  " style="stroke-width: 1.42 ;&st7;  " /><path d=" M  3446.90,   367.22  L  3441.92,   372.20  " style="stroke-width: 1.42 ;&st7;  " /><path d=" M  3453.95,   384.22  L  3458.92,   379.25  " style="stroke-width: 1.42 ;&st7;  " /><path d=" M  3441.92,   379.25  L  3446.90,   384.22  " style="stroke-width: 1.42 ;&st7;  " /><path d=" M  3458.92,   372.20  L  3453.95,   367.22  " style="stroke-width: 1.42 ;&st7;  " /><path d=" M  3416.43,   477.71  L  3416.43,   494.70  " style="stroke-width: 0.85 ;&st7;  " /><path d=" M  3407.93,   477.71  L  3424.93,   477.71  L  3424.93,   494.70  L  3407.93,   494.70  L  3407.93,   477.71  " style="stroke-width: 1.42 ;&st7;  " /><path d=" M  3169.97,   321.90  L  3174.22,   321.90  " style="stroke-width: 0.85 ;&st7; stroke-dasharray:3, 1.5;" /><path d=" M  3169.97,   312.83  L  3174.25,   312.83  " style="stroke-width: 0.85 ;&st7; stroke-dasharray:3, 1.5;" /><path d=" M  3169.97,   303.77  L  3178.50,   303.77  " style="stroke-width: 0.85 ;&st7; stroke-dasharray:3, 1.5;" /><path d=" M  3364.24,   408.71  L  3363.97,   409.18  L  3363.88,   409.72  L  3363.97,   410.25  L  3364.24,   410.72  L  3364.66,   411.07  L  3365.17,   411.25  L  3365.71,   411.25  L  3366.22,   411.07  L  3366.63,   410.72  L  3366.90,   410.25  L  3366.99,   409.72  L  3366.90,   409.18  L  3366.63,   408.71  L  3366.22,   408.37  L  3365.71,   408.18  L  3365.17,   408.18  L  3364.66,   408.37  L  3364.24,   408.71  L  3364.64,   409.43  L  3364.64,   410.01  L  3365.01,   410.45  L  3365.58,   410.55  L  3366.09,   410.26  L  3366.29,   409.72  L  3366.09,   409.17  L  3365.58,   408.88  L  3365.01,   408.98  L  3365.44,   409.72  " style="stroke-width: 0.85 ;&st7;  " /><path d=" M  3450.42,   333.23  L  3450.42,   367.22  " style="stroke-width: 0.85 ;&st7; stroke-dasharray:3, 1.5;" /><path d=" M  3441.92,   697.25  L  3441.92,   701.50  " style="stroke-width: 0.85 ;&st7;  " /><path d=" M  3433.42,   701.50  L  3450.42,   701.50  " style="stroke-width: 0.85 ;&st7;  " /><path d=" M  3365.44,   477.71  L  3365.44,   494.70  " style="stroke-width: 0.85 ;&st7;  " /><path d=" M  3449.23,   332.23  L  3448.96,   332.70  L  3448.86,   333.23  L  3448.96,   333.76  L  3449.23,   334.23  L  3449.64,   334.58  L  3450.15,   334.77  L  3450.69,   334.77  L  3451.20,   334.58  L  3451.61,   334.23  L  3451.89,   333.76  L  3451.98,   333.23  L  3451.89,   332.70  L  3451.61,   332.23  L  3451.20,   331.88  L  3450.69,   331.69  L  3450.15,   331.69  L  3449.64,   331.88  L  3449.23,   332.23  L  3449.62,   332.94  L  3449.62,   333.52  L  3450.00,   333.97  L  3450.57,   334.07  L  3451.07,   333.78  L  3451.27,   333.23  L  3451.07,   332.68  L  3450.57,   332.39  L  3450.00,   332.49  L  3450.42,   333.23  " style="stroke-width: 0.85 ;&st7;  " /><path d=" M  3439.09,   707.17  L  3444.76,   707.17  " style="stroke-width: 0.85 ;&st7;  " /><path d=" M  3440.51,   710.00  L  3443.34,   710.00  " style="stroke-width: 0.85 ;&st7;  " /><path d=" M  3437.67,   704.33  L  3446.17,   704.33  " style="stroke-width: 0.85 ;&st7;  " /><path d=" M  3356.94,   477.71  L  3373.93,   477.71  L  3373.93,   494.70  L  3356.94,   494.70  L  3356.94,   477.71  " style="stroke-width: 1.42 ;&st7;  " /><path d=" M  3433.42,   418.22  L  3433.42,   452.21  L  3518.41,   452.21  L  3518.41,   418.22  L  3433.42,   418.22  " style="stroke-width: 1.42 ;&st7;  " /><path d=" M  3365.44,   697.25  L  3365.44,   701.50  " style="stroke-width: 0.85 ;&st7;  " /><path d=" M  3356.94,   701.50  L  3373.93,   701.50  " style="stroke-width: 0.85 ;&st7;  " /><path d=" M  3361.19,   704.33  L  3369.69,   704.33  " style="stroke-width: 0.85 ;&st7;  " /><path d=" M  3362.60,   707.17  L  3368.27,   707.17  " style="stroke-width: 0.85 ;&st7;  " /><path d=" M  3364.02,   710.00  L  3366.85,   710.00  " style="stroke-width: 0.85 ;&st7;  " /><path d=" M  3322.94,   477.71  L  3322.94,   460.71  " style="stroke-width: 1.42 ;&st7;  " /><path d=" M  3339.94,   477.71  L  3339.94,   460.71  " style="stroke-width: 1.42 ;&st7;  " /><path d=" M  3416.43,   697.25  L  3416.43,   701.50  " style="stroke-width: 0.85 ;&st7;  " /><path d=" M  3407.93,   701.50  L  3424.93,   701.50  " style="stroke-width: 0.85 ;&st7;  " /><path d=" M  3412.18,   704.33  L  3420.68,   704.33  " style="stroke-width: 0.85 ;&st7;  " /><path d=" M  3413.59,   707.17  L  3419.26,   707.17  " style="stroke-width: 0.85 ;&st7;  " /><path d=" M  3415.01,   710.00  L  3417.84,   710.00  " style="stroke-width: 0.85 ;&st7;  " /><path d=" M  3144.47,   460.71  L  3144.47,   494.70  L  3246.46,   494.70  L  3246.46,   460.71  L  3144.47,   460.71  " style="stroke-width: 1.42 ;&st7;  " /><path d=" M  3288.92,   243.14  L  3297.45,   243.14  " style="stroke-width: 0.85 ;&st7; stroke-dasharray:3, 1.5;" /><path d=" M  3254.93,   243.14  L  3263.45,   243.14  " style="stroke-width: 0.85 ;&st7; stroke-dasharray:3, 1.5;" /><path d=" M  3220.93,   243.14  L  3229.46,   243.14  " style="stroke-width: 0.85 ;&st7; stroke-dasharray:3, 1.5;" /><path d=" M  3186.94,   243.14  L  3195.46,   243.14  " style="stroke-width: 0.85 ;&st7; stroke-dasharray:3, 1.5;" /><path d=" M  3152.94,   243.14  L  3161.47,   243.14  " style="stroke-width: 0.85 ;&st7; stroke-dasharray:3, 1.5;" /><path d=" M  3288.92,   215.95  L  3297.45,   215.95  " style="stroke-width: 0.85 ;&st7; stroke-dasharray:3, 1.5;" /><path d=" M  3254.93,   215.95  L  3263.45,   215.95  " style="stroke-width: 0.85 ;&st7; stroke-dasharray:3, 1.5;" /><path d=" M  3220.93,   215.95  L  3229.46,   215.95  " style="stroke-width: 0.85 ;&st7; stroke-dasharray:3, 1.5;" /><path d=" M  3186.94,   215.95  L  3195.46,   215.95  " style="stroke-width: 0.85 ;&st7; stroke-dasharray:3, 1.5;" /><path d=" M  3152.94,   215.95  L  3161.47,   215.95  " style="stroke-width: 0.85 ;&st7; stroke-dasharray:3, 1.5;" /><path d=" M  3127.48,    44.28  L  3127.48,   103.77  L  3331.44,   103.77  L  3331.44,    44.28  L  3127.48,    44.28  " style="stroke-width: 1.42 ;&st7;  " /><path d=" M  3288.92,   225.01  L  3297.45,   225.01  " style="stroke-width: 0.85 ;&st7; stroke-dasharray:3, 1.5;" /><path d=" M  3254.93,   225.01  L  3263.45,   225.01  " style="stroke-width: 0.85 ;&st7; stroke-dasharray:3, 1.5;" /><path d=" M  3433.40,   252.21  L  3492.94,   252.21  " style="stroke-width: 0.85 ;&st7; stroke-dasharray:3, 1.5;" /><path d=" M  3424.93,   171.76  L  3424.93,   197.25  " style="stroke-width: 0.85 ;&st7;  " /><path d=" M  3424.93,   188.75  L  3535.41,   188.75  L  3535.41,   171.76  " style="stroke-width: 0.85 ;&st7;  " /><path d=" M  3416.43,   171.76  L  3416.43,   197.25  L  3543.91,   197.25  L  3543.91,   171.76  L  3416.43,   171.76  " style="stroke-width: 1.42 ;&st7;  " /><path d=" M  3423.73,   187.75  L  3423.46,   188.22  L  3423.37,   188.75  L  3423.46,   189.29  L  3423.73,   189.76  L  3424.15,   190.10  L  3424.66,   190.29  L  3425.20,   190.29  L  3425.71,   190.10  L  3426.12,   189.76  L  3426.39,   189.29  L  3426.48,   188.75  L  3426.39,   188.22  L  3426.12,   187.75  L  3425.71,   187.41  L  3425.20,   187.22  L  3424.66,   187.22  L  3424.15,   187.41  L  3423.73,   187.75  L  3424.13,   188.46  L  3424.13,   189.05  L  3424.50,   189.49  L  3425.07,   189.59  L  3425.58,   189.30  L  3425.78,   188.75  L  3425.58,   188.21  L  3425.07,   187.92  L  3424.50,   188.02  L  3424.93,   188.75  " style="stroke-width: 0.85 ;&st7;  " /><path d=" M  3492.91,    69.77  L  3492.91,   103.77  L  3603.40,   103.77  L  3603.40,    69.77  L  3492.91,    69.77  " style="stroke-width: 1.42 ;&st7;  " /><path d=" M  3356.94,    69.77  L  3356.94,   103.77  L  3467.42,   103.77  L  3467.42,    69.77  L  3356.94,    69.77  " style="stroke-width: 1.42 ;&st7;  " /><path d=" M  3152.94,   234.08  L  3161.47,   234.08  " style="stroke-width: 0.85 ;&st7; stroke-dasharray:3, 1.5;" /><path d=" M  3186.94,   234.08  L  3195.46,   234.08  " style="stroke-width: 0.85 ;&st7; stroke-dasharray:3, 1.5;" /><path d=" M  3220.93,   234.08  L  3229.46,   234.08  " style="stroke-width: 0.85 ;&st7; stroke-dasharray:3, 1.5;" /><path d=" M  3254.93,   234.08  L  3263.45,   234.08  " style="stroke-width: 0.85 ;&st7; stroke-dasharray:3, 1.5;" /><path d=" M  3288.92,   234.08  L  3297.45,   234.08  " style="stroke-width: 0.85 ;&st7; stroke-dasharray:3, 1.5;" /><path d=" M  3152.94,   252.21  L  3161.47,   252.21  " style="stroke-width: 0.85 ;&st7; stroke-dasharray:3, 1.5;" /><path d=" M  3186.94,   252.21  L  3195.46,   252.21  " style="stroke-width: 0.85 ;&st7; stroke-dasharray:3, 1.5;" /><path d=" M  3220.93,   252.21  L  3229.46,   252.21  " style="stroke-width: 0.85 ;&st7; stroke-dasharray:3, 1.5;" /><path d=" M  3254.93,   252.21  L  3263.45,   252.21  " style="stroke-width: 0.85 ;&st7; stroke-dasharray:3, 1.5;" /><path d=" M  3288.92,   252.21  L  3297.45,   252.21  " style="stroke-width: 0.85 ;&st7; stroke-dasharray:3, 1.5;" /><path d=" M  3220.93,   225.01  L  3229.46,   225.01  " style="stroke-width: 0.85 ;&st7; stroke-dasharray:3, 1.5;" /><path d=" M  3186.94,   225.01  L  3195.46,   225.01  " style="stroke-width: 0.85 ;&st7; stroke-dasharray:3, 1.5;" /><path d=" M  3152.94,   225.01  L  3161.47,   225.01  " style="stroke-width: 0.85 ;&st7; stroke-dasharray:3, 1.5;" /><path d=" M  3450.42,   171.76  L  3450.42,   180.26  L  3509.91,   180.26  " style="stroke-width: 0.85 ;&st7;  " /><path d=" M  3433.40,   243.14  L  3492.94,   243.14  " style="stroke-width: 0.85 ;&st7; stroke-dasharray:3, 1.5;" /><path d=" M  3200.00,   303.77  C  3200.00    301.26   3197.97    299.24   3195.47    299.24  " style="stroke-width: 1.42 ;&st7;   " /><path d=" M  3195.47,   299.24  C  3192.96    299.24   3190.93    301.26   3190.93    303.77  " style="stroke-width: 1.42 ;&st7;   " /><path d=" M  3190.93,   303.77  C  3190.93    306.27   3192.96    308.30   3195.47    308.30  " style="stroke-width: 1.42 ;&st7;   " /><path d=" M  3195.47,   308.30  C  3197.97    308.30   3200.00    306.27   3200.00    303.77  " style="stroke-width: 1.42 ;&st7;   " /><path d=" M  3166.00,   303.77  C  3166.00    301.26   3163.97    299.24   3161.47    299.24  " style="stroke-width: 1.42 ;&st7;   " /><path d=" M  3161.47,   299.24  C  3158.97    299.24   3156.94    301.26   3156.94    303.77  " style="stroke-width: 1.42 ;&st7;   " /><path d=" M  3156.94,   303.77  C  3156.94    306.27   3158.97    308.30   3161.47    308.30  " style="stroke-width: 1.42 ;&st7;   " /><path d=" M  3161.47,   308.30  C  3163.97    308.30   3166.00    306.27   3166.00    303.77  " style="stroke-width: 1.42 ;&st7;   " /><path d=" M  3259.49,   303.77  C  3259.49    301.26   3257.46    299.24   3254.96    299.24  " style="stroke-width: 1.42 ;&st7;   " /><path d=" M  3254.96,   299.24  C  3252.45    299.24   3250.42    301.26   3250.42    303.77  " style="stroke-width: 1.42 ;&st7;   " /><path d=" M  3250.42,   303.77  C  3250.42    306.27   3252.45    308.30   3254.96    308.30  " style="stroke-width: 1.42 ;&st7;   " /><path d=" M  3254.96,   308.30  C  3257.46    308.30   3259.49    306.27   3259.49    303.77  " style="stroke-width: 1.42 ;&st7;   " /><path d=" M  3200.00,   312.83  C  3200.00    310.33   3197.97    308.30   3195.47    308.30  " style="stroke-width: 1.42 ;&st7;   " /><path d=" M  3195.47,   308.30  C  3192.96    308.30   3190.93    310.33   3190.93    312.83  " style="stroke-width: 1.42 ;&st7;   " /><path d=" M  3190.93,   312.83  C  3190.93    315.34   3192.96    317.37   3195.47    317.37  " style="stroke-width: 1.42 ;&st7;   " /><path d=" M  3195.47,   317.37  C  3197.97    317.37   3200.00    315.34   3200.00    312.83  " style="stroke-width: 1.42 ;&st7;   " /><path d=" M  3166.00,   312.83  C  3166.00    310.33   3163.97    308.30   3161.47    308.30  " style="stroke-width: 1.42 ;&st7;   " /><path d=" M  3161.47,   308.30  C  3158.97    308.30   3156.94    310.33   3156.94    312.83  " style="stroke-width: 1.42 ;&st7;   " /><path d=" M  3156.94,   312.83  C  3156.94    315.34   3158.97    317.37   3161.47    317.37  " style="stroke-width: 1.42 ;&st7;   " /><path d=" M  3161.47,   317.37  C  3163.97    317.37   3166.00    315.34   3166.00    312.83  " style="stroke-width: 1.42 ;&st7;   " /><path d=" M  3259.49,   312.83  C  3259.49    310.33   3257.46    308.30   3254.96    308.30  " style="stroke-width: 1.42 ;&st7;   " /><path d=" M  3254.96,   308.30  C  3252.45    308.30   3250.42    310.33   3250.42    312.83  " style="stroke-width: 1.42 ;&st7;   " /><path d=" M  3250.42,   312.83  C  3250.42    315.34   3252.45    317.37   3254.96    317.37  " style="stroke-width: 1.42 ;&st7;   " /><path d=" M  3254.96,   317.37  C  3257.46    317.37   3259.49    315.34   3259.49    312.83  " style="stroke-width: 1.42 ;&st7;   " /><path d=" M  3259.49,   321.90  C  3259.49    319.39   3257.46    317.37   3254.96    317.37  " style="stroke-width: 1.42 ;&st7;   " /><path d=" M  3254.96,   317.37  C  3252.45    317.37   3250.42    319.39   3250.42    321.90  " style="stroke-width: 1.42 ;&st7;   " /><path d=" M  3250.42,   321.90  C  3250.42    324.40   3252.45    326.43   3254.96    326.43  " style="stroke-width: 1.42 ;&st7;   " /><path d=" M  3254.96,   326.43  C  3257.46    326.43   3259.49    324.40   3259.49    321.90  " style="stroke-width: 1.42 ;&st7;   " /><path d=" M  3166.00,   321.90  C  3166.00    319.39   3163.97    317.37   3161.47    317.37  " style="stroke-width: 1.42 ;&st7;   " /><path d=" M  3161.47,   317.37  C  3158.97    317.37   3156.94    319.39   3156.94    321.90  " style="stroke-width: 1.42 ;&st7;   " /><path d=" M  3156.94,   321.90  C  3156.94    324.40   3158.97    326.43   3161.47    326.43  " style="stroke-width: 1.42 ;&st7;   " /><path d=" M  3161.47,   326.43  C  3163.97    326.43   3166.00    324.40   3166.00    321.90  " style="stroke-width: 1.42 ;&st7;   " /><path d=" M  3200.00,   321.90  C  3200.00    319.39   3197.97    317.37   3195.47    317.37  " style="stroke-width: 1.42 ;&st7;   " /><path d=" M  3195.47,   317.37  C  3192.96    317.37   3190.93    319.39   3190.93    321.90  " style="stroke-width: 1.42 ;&st7;   " /><path d=" M  3190.93,   321.90  C  3190.93    324.40   3192.96    326.43   3195.47    326.43  " style="stroke-width: 1.42 ;&st7;   " /><path d=" M  3195.47,   326.43  C  3197.97    326.43   3200.00    324.40   3200.00    321.90  " style="stroke-width: 1.42 ;&st7;   " /><path d=" M  3331.44,   477.71  C  3333.40    477.71   3334.98    476.12   3334.98    474.16  " style="stroke-width: 0.85 ;&st7;   " /><path d=" M  3334.98,   474.16  C  3334.98    472.21   3333.40    470.62   3331.44    470.62  " style="stroke-width: 0.85 ;&st7;   " /><path d=" M  3331.44,   470.62  C  3330.45    470.62   3329.61    470.98   3328.91    471.69  " style="stroke-width: 0.85 ;&st7;   " /><path d=" M  3328.91,   471.69  C  3330.28    473.08   3332.52    473.11   3333.92    471.74  " style="stroke-width: 0.85 ;&st7;   " /><path d=" M  3333.92,   471.74  C  3335.32    470.37   3335.34    468.13   3333.97    466.73  " style="stroke-width: 0.85 ;&st7;   " /><path d=" M  3333.97,   466.73  C  3332.60    465.33   3330.36    465.31   3328.96    466.68  " style="stroke-width: 0.85 ;&st7;   " /><path d=" M  3328.96,   466.68  C  3328.95    466.69   3328.93    466.71   3328.91    466.73  " style="stroke-width: 0.85 ;&st7;   " /><path d=" M  3328.91,   466.73  C  3330.28    468.13   3332.52    468.15   3333.92    466.78  " style="stroke-width: 0.85 ;&st7;   " /><path d=" M  3333.92,   466.78  C  3335.32    465.41   3335.34    463.17   3333.97    461.77  " style="stroke-width: 0.85 ;&st7;   " /><path d=" M  3333.97,   461.77  C  3333.28    461.06   3332.43    460.71   3331.44    460.71  " style="stroke-width: 0.85 ;&st7;   " /><path d=" M  3339.94,   460.71  C  3339.94    456.01   3336.14    452.21   3331.44    452.21  " style="stroke-width: 1.42 ;&st7;   " /><path d=" M  3331.44,   452.21  C  3326.75    452.21   3322.94    456.01   3322.94    460.71  " style="stroke-width: 1.42 ;&st7;   " /><path d=" M  3322.94,   477.71  C  3322.94    482.40   3326.75    486.20   3331.44    486.20  " style="stroke-width: 1.42 ;&st7;   " /><path d=" M  3331.44,   486.20  C  3336.14    486.20   3339.94    482.40   3339.94    477.71  " style="stroke-width: 1.42 ;&st7;   " /><path d=" M  3480.45,   303.77  C  3480.45    301.26   3478.42    299.24   3475.92    299.24  " style="stroke-width: 1.42 ;&st7;   " /><path d=" M  3475.92,   299.24  C  3473.42    299.24   3471.39    301.26   3471.39    303.77  " style="stroke-width: 1.42 ;&st7;   " /><path d=" M  3471.39,   303.77  C  3471.39    306.27   3473.42    308.30   3475.92    308.30  " style="stroke-width: 1.42 ;&st7;   " /><path d=" M  3475.92,   308.30  C  3478.42    308.30   3480.45    306.27   3480.45    303.77  " style="stroke-width: 1.42 ;&st7;   " /><path d=" M  3496.88,   303.77  C  3496.88    306.27   3498.91    308.30   3501.41    308.30  " style="stroke-width: 1.42 ;&st7;   " /><path d=" M  3480.45,   312.83  C  3480.45    310.33   3478.42    308.30   3475.92    308.30  " style="stroke-width: 1.42 ;&st7;   " /><path d=" M  3475.92,   308.30  C  3473.42    308.30   3471.39    310.33   3471.39    312.83  " style="stroke-width: 1.42 ;&st7;   " /><path d=" M  3471.39,   312.83  C  3471.39    315.34   3473.42    317.37   3475.92    317.37  " style="stroke-width: 1.42 ;&st7;   " /><path d=" M  3475.92,   317.37  C  3478.42    317.37   3480.45    315.34   3480.45    312.83  " style="stroke-width: 1.42 ;&st7;   " /><path d=" M  3496.88,   312.83  C  3496.88    315.34   3498.91    317.37   3501.41    317.37  " style="stroke-width: 1.42 ;&st7;   " /><path d=" M  3318.98,   215.95  C  3318.98    213.45   3316.95    211.42   3314.45    211.42  " style="stroke-width: 1.42 ;&st7;   " /><path d=" M  3314.45,   211.42  C  3311.94    211.42   3309.91    213.45   3309.91    215.95  " style="stroke-width: 1.42 ;&st7;   " /><path d=" M  3309.91,   215.95  C  3309.91    218.45   3311.94    220.48   3314.45    220.48  " style="stroke-width: 1.42 ;&st7;   " /><path d=" M  3314.45,   220.48  C  3316.95    220.48   3318.98    218.45   3318.98    215.95  " style="stroke-width: 1.42 ;&st7;   " /><path d=" M  3284.98,   215.95  C  3284.98    213.45   3282.96    211.42   3280.45    211.42  " style="stroke-width: 1.42 ;&st7;   " /><path d=" M  3280.45,   211.42  C  3277.95    211.42   3275.92    213.45   3275.92    215.95  " style="stroke-width: 1.42 ;&st7;   " /><path d=" M  3275.92,   215.95  C  3275.92    218.45   3277.95    220.48   3280.45    220.48  " style="stroke-width: 1.42 ;&st7;   " /><path d=" M  3280.45,   220.48  C  3282.96    220.48   3284.98    218.45   3284.98    215.95  " style="stroke-width: 1.42 ;&st7;   " /><path d=" M  3284.98,   243.14  C  3284.98    240.64   3282.96    238.61   3280.45    238.61  " style="stroke-width: 1.42 ;&st7;   " /><path d=" M  3280.45,   238.61  C  3277.95    238.61   3275.92    240.64   3275.92    243.14  " style="stroke-width: 1.42 ;&st7;   " /><path d=" M  3275.92,   243.14  C  3275.92    245.65   3277.95    247.68   3280.45    247.68  " style="stroke-width: 1.42 ;&st7;   " /><path d=" M  3280.45,   247.68  C  3282.96    247.68   3284.98    245.65   3284.98    243.14  " style="stroke-width: 1.42 ;&st7;   " /><path d=" M  3250.99,   215.95  C  3250.99    213.45   3248.96    211.42   3246.46    211.42  " style="stroke-width: 1.42 ;&st7;   " /><path d=" M  3246.46,   211.42  C  3243.95    211.42   3241.92    213.45   3241.92    215.95  " style="stroke-width: 1.42 ;&st7;   " /><path d=" M  3241.92,   215.95  C  3241.92    218.45   3243.95    220.48   3246.46    220.48  " style="stroke-width: 1.42 ;&st7;   " /><path d=" M  3246.46,   220.48  C  3248.96    220.48   3250.99    218.45   3250.99    215.95  " style="stroke-width: 1.42 ;&st7;   " /><path d=" M  3250.99,   243.14  C  3250.99    240.64   3248.96    238.61   3246.46    238.61  " style="stroke-width: 1.42 ;&st7;   " /><path d=" M  3246.46,   238.61  C  3243.95    238.61   3241.92    240.64   3241.92    243.14  " style="stroke-width: 1.42 ;&st7;   " /><path d=" M  3241.92,   243.14  C  3241.92    245.65   3243.95    247.68   3246.46    247.68  " style="stroke-width: 1.42 ;&st7;   " /><path d=" M  3246.46,   247.68  C  3248.96    247.68   3250.99    245.65   3250.99    243.14  " style="stroke-width: 1.42 ;&st7;   " /><path d=" M  3217.00,   215.95  C  3217.00    213.45   3214.97    211.42   3212.46    211.42  " style="stroke-width: 1.42 ;&st7;   " /><path d=" M  3212.46,   211.42  C  3209.96    211.42   3207.93    213.45   3207.93    215.95  " style="stroke-width: 1.42 ;&st7;   " /><path d=" M  3207.93,   215.95  C  3207.93    218.45   3209.96    220.48   3212.46    220.48  " style="stroke-width: 1.42 ;&st7;   " /><path d=" M  3212.46,   220.48  C  3214.97    220.48   3217.00    218.45   3217.00    215.95  " style="stroke-width: 1.42 ;&st7;   " /><path d=" M  3149.01,   215.95  C  3149.01    213.45   3146.98    211.42   3144.47    211.42  " style="stroke-width: 1.42 ;&st7;   " /><path d=" M  3144.47,   211.42  C  3141.97    211.42   3139.94    213.45   3139.94    215.95  " style="stroke-width: 1.42 ;&st7;   " /><path d=" M  3139.94,   215.95  C  3139.94    218.45   3141.97    220.48   3144.47    220.48  " style="stroke-width: 1.42 ;&st7;   " /><path d=" M  3144.47,   220.48  C  3146.98    220.48   3149.01    218.45   3149.01    215.95  " style="stroke-width: 1.42 ;&st7;   " /><path d=" M  3183.00,   215.95  C  3183.00    213.45   3180.97    211.42   3178.47    211.42  " style="stroke-width: 1.42 ;&st7;   " /><path d=" M  3178.47,   211.42  C  3175.97    211.42   3173.94    213.45   3173.94    215.95  " style="stroke-width: 1.42 ;&st7;   " /><path d=" M  3173.94,   215.95  C  3173.94    218.45   3175.97    220.48   3178.47    220.48  " style="stroke-width: 1.42 ;&st7;   " /><path d=" M  3178.47,   220.48  C  3180.97    220.48   3183.00    218.45   3183.00    215.95  " style="stroke-width: 1.42 ;&st7;   " /><path d=" M  3217.00,   243.14  C  3217.00    240.64   3214.97    238.61   3212.46    238.61  " style="stroke-width: 1.42 ;&st7;   " /><path d=" M  3212.46,   238.61  C  3209.96    238.61   3207.93    240.64   3207.93    243.14  " style="stroke-width: 1.42 ;&st7;   " /><path d=" M  3207.93,   243.14  C  3207.93    245.65   3209.96    247.68   3212.46    247.68  " style="stroke-width: 1.42 ;&st7;   " /><path d=" M  3212.46,   247.68  C  3214.97    247.68   3217.00    245.65   3217.00    243.14  " style="stroke-width: 1.42 ;&st7;   " /><path d=" M  3183.00,   243.14  C  3183.00    240.64   3180.97    238.61   3178.47    238.61  " style="stroke-width: 1.42 ;&st7;   " /><path d=" M  3178.47,   238.61  C  3175.97    238.61   3173.94    240.64   3173.94    243.14  " style="stroke-width: 1.42 ;&st7;   " /><path d=" M  3173.94,   243.14  C  3173.94    245.65   3175.97    247.68   3178.47    247.68  " style="stroke-width: 1.42 ;&st7;   " /><path d=" M  3178.47,   247.68  C  3180.97    247.68   3183.00    245.65   3183.00    243.14  " style="stroke-width: 1.42 ;&st7;   " /><path d=" M  3149.01,   243.14  C  3149.01    240.64   3146.98    238.61   3144.47    238.61  " style="stroke-width: 1.42 ;&st7;   " /><path d=" M  3144.47,   238.61  C  3141.97    238.61   3139.94    240.64   3139.94    243.14  " style="stroke-width: 1.42 ;&st7;   " /><path d=" M  3139.94,   243.14  C  3139.94    245.65   3141.97    247.68   3144.47    247.68  " style="stroke-width: 1.42 ;&st7;   " /><path d=" M  3144.47,   247.68  C  3146.98    247.68   3149.01    245.65   3149.01    243.14  " style="stroke-width: 1.42 ;&st7;   " /><path d=" M  3318.98,   243.14  C  3318.98    240.64   3316.95    238.61   3314.45    238.61  " style="stroke-width: 1.42 ;&st7;   " /><path d=" M  3314.45,   238.61  C  3311.94    238.61   3309.91    240.64   3309.91    243.14  " style="stroke-width: 1.42 ;&st7;   " /><path d=" M  3309.91,   243.14  C  3309.91    245.65   3311.94    247.68   3314.45    247.68  " style="stroke-width: 1.42 ;&st7;   " /><path d=" M  3314.45,   247.68  C  3316.95    247.68   3318.98    245.65   3318.98    243.14  " style="stroke-width: 1.42 ;&st7;   " /><path d=" M  3149.01,   225.01  C  3149.01    222.51   3146.98    220.48   3144.47    220.48  " style="stroke-width: 1.42 ;&st7;   " /><path d=" M  3144.47,   220.48  C  3141.97    220.48   3139.94    222.51   3139.94    225.01  " style="stroke-width: 1.42 ;&st7;   " /><path d=" M  3139.94,   225.01  C  3139.94    227.52   3141.97    229.55   3144.47    229.55  " style="stroke-width: 1.42 ;&st7;   " /><path d=" M  3144.47,   229.55  C  3146.98    229.55   3149.01    227.52   3149.01    225.01  " style="stroke-width: 1.42 ;&st7;   " /><path d=" M  3183.00,   225.01  C  3183.00    222.51   3180.97    220.48   3178.47    220.48  " style="stroke-width: 1.42 ;&st7;   " /><path d=" M  3178.47,   220.48  C  3175.97    220.48   3173.94    222.51   3173.94    225.01  " style="stroke-width: 1.42 ;&st7;   " /><path d=" M  3173.94,   225.01  C  3173.94    227.52   3175.97    229.55   3178.47    229.55  " style="stroke-width: 1.42 ;&st7;   " /><path d=" M  3178.47,   229.55  C  3180.97    229.55   3183.00    227.52   3183.00    225.01  " style="stroke-width: 1.42 ;&st7;   " /><path d=" M  3250.99,   225.01  C  3250.99    222.51   3248.96    220.48   3246.46    220.48  " style="stroke-width: 1.42 ;&st7;   " /><path d=" M  3246.46,   220.48  C  3243.95    220.48   3241.92    222.51   3241.92    225.01  " style="stroke-width: 1.42 ;&st7;   " /><path d=" M  3241.92,   225.01  C  3241.92    227.52   3243.95    229.55   3246.46    229.55  " style="stroke-width: 1.42 ;&st7;   " /><path d=" M  3246.46,   229.55  C  3248.96    229.55   3250.99    227.52   3250.99    225.01  " style="stroke-width: 1.42 ;&st7;   " /><path d=" M  3217.00,   225.01  C  3217.00    222.51   3214.97    220.48   3212.46    220.48  " style="stroke-width: 1.42 ;&st7;   " /><path d=" M  3212.46,   220.48  C  3209.96    220.48   3207.93    222.51   3207.93    225.01  " style="stroke-width: 1.42 ;&st7;   " /><path d=" M  3207.93,   225.01  C  3207.93    227.52   3209.96    229.55   3212.46    229.55  " style="stroke-width: 1.42 ;&st7;   " /><path d=" M  3212.46,   229.55  C  3214.97    229.55   3217.00    227.52   3217.00    225.01  " style="stroke-width: 1.42 ;&st7;   " /><path d=" M  3318.98,   225.01  C  3318.98    222.51   3316.95    220.48   3314.45    220.48  " style="stroke-width: 1.42 ;&st7;   " /><path d=" M  3314.45,   220.48  C  3311.94    220.48   3309.91    222.51   3309.91    225.01  " style="stroke-width: 1.42 ;&st7;   " /><path d=" M  3309.91,   225.01  C  3309.91    227.52   3311.94    229.55   3314.45    229.55  " style="stroke-width: 1.42 ;&st7;   " /><path d=" M  3314.45,   229.55  C  3316.95    229.55   3318.98    227.52   3318.98    225.01  " style="stroke-width: 1.42 ;&st7;   " /><path d=" M  3284.98,   225.01  C  3284.98    222.51   3282.96    220.48   3280.45    220.48  " style="stroke-width: 1.42 ;&st7;   " /><path d=" M  3280.45,   220.48  C  3277.95    220.48   3275.92    222.51   3275.92    225.01  " style="stroke-width: 1.42 ;&st7;   " /><path d=" M  3275.92,   225.01  C  3275.92    227.52   3277.95    229.55   3280.45    229.55  " style="stroke-width: 1.42 ;&st7;   " /><path d=" M  3280.45,   229.55  C  3282.96    229.55   3284.98    227.52   3284.98    225.01  " style="stroke-width: 1.42 ;&st7;   " /><path d=" M  3013.03,   303.77  C  3013.03    301.26   3011.00    299.24   3008.50    299.24  " style="stroke-width: 1.42 ;&st7;   " /><path d=" M  3008.50,   299.24  C  3005.99    299.24   3003.96    301.26   3003.96    303.77  " style="stroke-width: 1.42 ;&st7;   " /><path d=" M  3003.96,   303.77  C  3003.96    306.27   3005.99    308.30   3008.50    308.30  " style="stroke-width: 1.42 ;&st7;   " /><path d=" M  3008.50,   308.30  C  3011.00    308.30   3013.03    306.27   3013.03    303.77  " style="stroke-width: 1.42 ;&st7;   " /><path d=" M  3013.03,   312.83  C  3013.03    310.33   3011.00    308.30   3008.50    308.30  " style="stroke-width: 1.42 ;&st7;   " /><path d=" M  3008.50,   308.30  C  3005.99    308.30   3003.96    310.33   3003.96    312.83  " style="stroke-width: 1.42 ;&st7;   " /><path d=" M  3003.96,   312.83  C  3003.96    315.34   3005.99    317.37   3008.50    317.37  " style="stroke-width: 1.42 ;&st7;   " /><path d=" M  3008.50,   317.37  C  3011.00    317.37   3013.03    315.34   3013.03    312.83  " style="stroke-width: 1.42 ;&st7;   " /><path d=" M  3403.96,   108.30  C  3403.96    105.80   3401.94    103.77   3399.43    103.77  " style="stroke-width: 1.42 ;&st7;   " /><path d=" M  3399.43,   103.77  C  3396.93    103.77   3394.90    105.80   3394.90    108.30  " style="stroke-width: 1.42 ;&st7;   " /><path d=" M  3394.90,   108.30  C  3394.90    110.80   3396.93    112.83   3399.43    112.83  " style="stroke-width: 1.42 ;&st7;   " /><path d=" M  3399.43,   112.83  C  3401.94    112.83   3403.96    110.80   3403.96    108.30  " style="stroke-width: 1.42 ;&st7;   " /><path d=" M  3378.47,   108.30  C  3378.47    105.80   3376.44    103.77   3373.94    103.77  " style="stroke-width: 1.42 ;&st7;   " /><path d=" M  3373.94,   103.77  C  3371.43    103.77   3369.40    105.80   3369.40    108.30  " style="stroke-width: 1.42 ;&st7;   " /><path d=" M  3369.40,   108.30  C  3369.40    110.80   3371.43    112.83   3373.94    112.83  " style="stroke-width: 1.42 ;&st7;   " /><path d=" M  3373.94,   112.83  C  3376.44    112.83   3378.47    110.80   3378.47    108.30  " style="stroke-width: 1.42 ;&st7;   " /><path d=" M  3403.96,   252.21  C  3403.96    249.71   3401.94    247.68   3399.43    247.68  " style="stroke-width: 1.42 ;&st7;   " /><path d=" M  3399.43,   247.68  C  3396.93    247.68   3394.90    249.71   3394.90    252.21  " style="stroke-width: 1.42 ;&st7;   " /><path d=" M  3394.90,   252.21  C  3394.90    254.71   3396.93    256.74   3399.43    256.74  " style="stroke-width: 1.42 ;&st7;   " /><path d=" M  3399.43,   256.74  C  3401.94    256.74   3403.96    254.71   3403.96    252.21  " style="stroke-width: 1.42 ;&st7;   " /><path d=" M  3403.96,   243.14  C  3403.96    240.64   3401.94    238.61   3399.43    238.61  " style="stroke-width: 1.42 ;&st7;   " /><path d=" M  3399.43,   238.61  C  3396.93    238.61   3394.90    240.64   3394.90    243.14  " style="stroke-width: 1.42 ;&st7;   " /><path d=" M  3394.90,   243.14  C  3394.90    245.65   3396.93    247.68   3399.43    247.68  " style="stroke-width: 1.42 ;&st7;   " /><path d=" M  3399.43,   247.68  C  3401.94    247.68   3403.96    245.65   3403.96    243.14  " style="stroke-width: 1.42 ;&st7;   " /><path d=" M  3429.46,   252.21  C  3429.46    249.71   3427.43    247.68   3424.93    247.68  " style="stroke-width: 1.42 ;&st7;   " /><path d=" M  3424.93,   247.68  C  3422.42    247.68   3420.40    249.71   3420.40    252.21  " style="stroke-width: 1.42 ;&st7;   " /><path d=" M  3420.40,   252.21  C  3420.40    254.71   3422.42    256.74   3424.93    256.74  " style="stroke-width: 1.42 ;&st7;   " /><path d=" M  3424.93,   256.74  C  3427.43    256.74   3429.46    254.71   3429.46    252.21  " style="stroke-width: 1.42 ;&st7;   " /><path d=" M  3429.46,   243.14  C  3429.46    240.64   3427.43    238.61   3424.93    238.61  " style="stroke-width: 1.42 ;&st7;   " /><path d=" M  3424.93,   238.61  C  3422.42    238.61   3420.40    240.64   3420.40    243.14  " style="stroke-width: 1.42 ;&st7;   " /><path d=" M  3420.40,   243.14  C  3420.40    245.65   3422.42    247.68   3424.93    247.68  " style="stroke-width: 1.42 ;&st7;   " /><path d=" M  3424.93,   247.68  C  3427.43    247.68   3429.46    245.65   3429.46    243.14  " style="stroke-width: 1.42 ;&st7;   " /><path d=" M  3378.47,   243.14  C  3378.47    240.64   3376.44    238.61   3373.94    238.61  " style="stroke-width: 1.42 ;&st7;   " /><path d=" M  3373.94,   238.61  C  3371.43    238.61   3369.40    240.64   3369.40    243.14  " style="stroke-width: 1.42 ;&st7;   " /><path d=" M  3369.40,   243.14  C  3369.40    245.65   3371.43    247.68   3373.94    247.68  " style="stroke-width: 1.42 ;&st7;   " /><path d=" M  3373.94,   247.68  C  3376.44    247.68   3378.47    245.65   3378.47    243.14  " style="stroke-width: 1.42 ;&st7;   " /><path d=" M  3378.47,   252.21  C  3378.47    249.71   3376.44    247.68   3373.94    247.68  " style="stroke-width: 1.42 ;&st7;   " /><path d=" M  3373.94,   247.68  C  3371.43    247.68   3369.40    249.71   3369.40    252.21  " style="stroke-width: 1.42 ;&st7;   " /><path d=" M  3369.40,   252.21  C  3369.40    254.71   3371.43    256.74   3373.94    256.74  " style="stroke-width: 1.42 ;&st7;   " /><path d=" M  3373.94,   256.74  C  3376.44    256.74   3378.47    254.71   3378.47    252.21  " style="stroke-width: 1.42 ;&st7;   " /><path d=" M  3454.96,   108.30  C  3454.96    105.80   3452.93    103.77   3450.42    103.77  " style="stroke-width: 1.42 ;&st7;   " /><path d=" M  3450.42,   103.77  C  3447.92    103.77   3445.89    105.80   3445.89    108.30  " style="stroke-width: 1.42 ;&st7;   " /><path d=" M  3445.89,   108.30  C  3445.89    110.80   3447.92    112.83   3450.42    112.83  " style="stroke-width: 1.42 ;&st7;   " /><path d=" M  3450.42,   112.83  C  3452.93    112.83   3454.96    110.80   3454.96    108.30  " style="stroke-width: 1.42 ;&st7;   " /><path d=" M  3429.46,   108.30  C  3429.46    105.80   3427.43    103.77   3424.93    103.77  " style="stroke-width: 1.42 ;&st7;   " /><path d=" M  3424.93,   103.77  C  3422.42    103.77   3420.40    105.80   3420.40    108.30  " style="stroke-width: 1.42 ;&st7;   " /><path d=" M  3420.40,   108.30  C  3420.40    110.80   3422.42    112.83   3424.93    112.83  " style="stroke-width: 1.42 ;&st7;   " /><path d=" M  3424.93,   112.83  C  3427.43    112.83   3429.46    110.80   3429.46    108.30  " style="stroke-width: 1.42 ;&st7;   " /><path d=" M  3149.01,   252.21  C  3149.01    249.71   3146.98    247.68   3144.47    247.68  " style="stroke-width: 1.42 ;&st7;   " /><path d=" M  3144.47,   247.68  C  3141.97    247.68   3139.94    249.71   3139.94    252.21  " style="stroke-width: 1.42 ;&st7;   " /><path d=" M  3139.94,   252.21  C  3139.94    254.71   3141.97    256.74   3144.47    256.74  " style="stroke-width: 1.42 ;&st7;   " /><path d=" M  3144.47,   256.74  C  3146.98    256.74   3149.01    254.71   3149.01    252.21  " style="stroke-width: 1.42 ;&st7;   " /><path d=" M  3183.00,   252.21  C  3183.00    249.71   3180.97    247.68   3178.47    247.68  " style="stroke-width: 1.42 ;&st7;   " /><path d=" M  3178.47,   247.68  C  3175.97    247.68   3173.94    249.71   3173.94    252.21  " style="stroke-width: 1.42 ;&st7;   " /><path d=" M  3173.94,   252.21  C  3173.94    254.71   3175.97    256.74   3178.47    256.74  " style="stroke-width: 1.42 ;&st7;   " /><path d=" M  3178.47,   256.74  C  3180.97    256.74   3183.00    254.71   3183.00    252.21  " style="stroke-width: 1.42 ;&st7;   " /><path d=" M  3250.99,   252.21  C  3250.99    249.71   3248.96    247.68   3246.46    247.68  " style="stroke-width: 1.42 ;&st7;   " /><path d=" M  3246.46,   247.68  C  3243.95    247.68   3241.92    249.71   3241.92    252.21  " style="stroke-width: 1.42 ;&st7;   " /><path d=" M  3241.92,   252.21  C  3241.92    254.71   3243.95    256.74   3246.46    256.74  " style="stroke-width: 1.42 ;&st7;   " /><path d=" M  3246.46,   256.74  C  3248.96    256.74   3250.99    254.71   3250.99    252.21  " style="stroke-width: 1.42 ;&st7;   " /><path d=" M  3217.00,   252.21  C  3217.00    249.71   3214.97    247.68   3212.46    247.68  " style="stroke-width: 1.42 ;&st7;   " /><path d=" M  3212.46,   247.68  C  3209.96    247.68   3207.93    249.71   3207.93    252.21  " style="stroke-width: 1.42 ;&st7;   " /><path d=" M  3207.93,   252.21  C  3207.93    254.71   3209.96    256.74   3212.46    256.74  " style="stroke-width: 1.42 ;&st7;   " /><path d=" M  3212.46,   256.74  C  3214.97    256.74   3217.00    254.71   3217.00    252.21  " style="stroke-width: 1.42 ;&st7;   " /><path d=" M  3318.98,   252.21  C  3318.98    249.71   3316.95    247.68   3314.45    247.68  " style="stroke-width: 1.42 ;&st7;   " /><path d=" M  3314.45,   247.68  C  3311.94    247.68   3309.91    249.71   3309.91    252.21  " style="stroke-width: 1.42 ;&st7;   " /><path d=" M  3309.91,   252.21  C  3309.91    254.71   3311.94    256.74   3314.45    256.74  " style="stroke-width: 1.42 ;&st7;   " /><path d=" M  3314.45,   256.74  C  3316.95    256.74   3318.98    254.71   3318.98    252.21  " style="stroke-width: 1.42 ;&st7;   " /><path d=" M  3284.98,   252.21  C  3284.98    249.71   3282.96    247.68   3280.45    247.68  " style="stroke-width: 1.42 ;&st7;   " /><path d=" M  3280.45,   247.68  C  3277.95    247.68   3275.92    249.71   3275.92    252.21  " style="stroke-width: 1.42 ;&st7;   " /><path d=" M  3275.92,   252.21  C  3275.92    254.71   3277.95    256.74   3280.45    256.74  " style="stroke-width: 1.42 ;&st7;   " /><path d=" M  3280.45,   256.74  C  3282.96    256.74   3284.98    254.71   3284.98    252.21  " style="stroke-width: 1.42 ;&st7;   " /><path d=" M  3149.01,   234.08  C  3149.01    231.58   3146.98    229.55   3144.47    229.55  " style="stroke-width: 1.42 ;&st7;   " /><path d=" M  3144.47,   229.55  C  3141.97    229.55   3139.94    231.58   3139.94    234.08  " style="stroke-width: 1.42 ;&st7;   " /><path d=" M  3139.94,   234.08  C  3139.94    236.58   3141.97    238.61   3144.47    238.61  " style="stroke-width: 1.42 ;&st7;   " /><path d=" M  3144.47,   238.61  C  3146.98    238.61   3149.01    236.58   3149.01    234.08  " style="stroke-width: 1.42 ;&st7;   " /><path d=" M  3183.00,   234.08  C  3183.00    231.58   3180.97    229.55   3178.47    229.55  " style="stroke-width: 1.42 ;&st7;   " /><path d=" M  3178.47,   229.55  C  3175.97    229.55   3173.94    231.58   3173.94    234.08  " style="stroke-width: 1.42 ;&st7;   " /><path d=" M  3173.94,   234.08  C  3173.94    236.58   3175.97    238.61   3178.47    238.61  " style="stroke-width: 1.42 ;&st7;   " /><path d=" M  3178.47,   238.61  C  3180.97    238.61   3183.00    236.58   3183.00    234.08  " style="stroke-width: 1.42 ;&st7;   " /><path d=" M  3217.00,   234.08  C  3217.00    231.58   3214.97    229.55   3212.46    229.55  " style="stroke-width: 1.42 ;&st7;   " /><path d=" M  3212.46,   229.55  C  3209.96    229.55   3207.93    231.58   3207.93    234.08  " style="stroke-width: 1.42 ;&st7;   " /><path d=" M  3207.93,   234.08  C  3207.93    236.58   3209.96    238.61   3212.46    238.61  " style="stroke-width: 1.42 ;&st7;   " /><path d=" M  3212.46,   238.61  C  3214.97    238.61   3217.00    236.58   3217.00    234.08  " style="stroke-width: 1.42 ;&st7;   " /><path d=" M  3250.99,   234.08  C  3250.99    231.58   3248.96    229.55   3246.46    229.55  " style="stroke-width: 1.42 ;&st7;   " /><path d=" M  3246.46,   229.55  C  3243.95    229.55   3241.92    231.58   3241.92    234.08  " style="stroke-width: 1.42 ;&st7;   " /><path d=" M  3241.92,   234.08  C  3241.92    236.58   3243.95    238.61   3246.46    238.61  " style="stroke-width: 1.42 ;&st7;   " /><path d=" M  3246.46,   238.61  C  3248.96    238.61   3250.99    236.58   3250.99    234.08  " style="stroke-width: 1.42 ;&st7;   " /><path d=" M  3284.98,   234.08  C  3284.98    231.58   3282.96    229.55   3280.45    229.55  " style="stroke-width: 1.42 ;&st7;   " /><path d=" M  3280.45,   229.55  C  3277.95    229.55   3275.92    231.58   3275.92    234.08  " style="stroke-width: 1.42 ;&st7;   " /><path d=" M  3275.92,   234.08  C  3275.92    236.58   3277.95    238.61   3280.45    238.61  " style="stroke-width: 1.42 ;&st7;   " /><path d=" M  3280.45,   238.61  C  3282.96    238.61   3284.98    236.58   3284.98    234.08  " style="stroke-width: 1.42 ;&st7;   " /><path d=" M  3318.98,   234.08  C  3318.98    231.58   3316.95    229.55   3314.45    229.55  " style="stroke-width: 1.42 ;&st7;   " /><path d=" M  3314.45,   229.55  C  3311.94    229.55   3309.91    231.58   3309.91    234.08  " style="stroke-width: 1.42 ;&st7;   " /><path d=" M  3309.91,   234.08  C  3309.91    236.58   3311.94    238.61   3314.45    238.61  " style="stroke-width: 1.42 ;&st7;   " /><path d=" M  3314.45,   238.61  C  3316.95    238.61   3318.98    236.58   3318.98    234.08  " style="stroke-width: 1.42 ;&st7;   " /><path d=" M  3013.03,   396.69  C  3013.03    394.18   3011.00    392.15   3008.50    392.15  " style="stroke-width: 1.42 ;&st7;   " /><path d=" M  3008.50,   392.15  C  3005.99    392.15   3003.96    394.18   3003.96    396.69  " style="stroke-width: 1.42 ;&st7;   " /><path d=" M  3003.96,   396.69  C  3003.96    399.19   3005.99    401.22   3008.50    401.22  " style="stroke-width: 1.42 ;&st7;   " /><path d=" M  3008.50,   401.22  C  3011.00    401.22   3013.03    399.19   3013.03    396.69  " style="stroke-width: 1.42 ;&st7;   " /><path d=" M  3013.03,   387.62  C  3013.03    385.12   3011.00    383.09   3008.50    383.09  " style="stroke-width: 1.42 ;&st7;   " /><path d=" M  3008.50,   383.09  C  3005.99    383.09   3003.96    385.12   3003.96    387.62  " style="stroke-width: 1.42 ;&st7;   " /><path d=" M  3003.96,   387.62  C  3003.96    390.12   3005.99    392.15   3008.50    392.15  " style="stroke-width: 1.42 ;&st7;   " /><path d=" M  3008.50,   392.15  C  3011.00    392.15   3013.03    390.12   3013.03    387.62  " style="stroke-width: 1.42 ;&st7;   " /><path d=" M  3013.03,   330.96  C  3013.03    328.46   3011.00    326.43   3008.50    326.43  " style="stroke-width: 1.42 ;&st7;   " /><path d=" M  3008.50,   326.43  C  3005.99    326.43   3003.96    328.46   3003.96    330.96  " style="stroke-width: 1.42 ;&st7;   " /><path d=" M  3003.96,   330.96  C  3003.96    333.47   3005.99    335.50   3008.50    335.50  " style="stroke-width: 1.42 ;&st7;   " /><path d=" M  3008.50,   335.50  C  3011.00    335.50   3013.03    333.47   3013.03    330.96  " style="stroke-width: 1.42 ;&st7;   " /><path d=" M  3013.03,   321.90  C  3013.03    319.39   3011.00    317.37   3008.50    317.37  " style="stroke-width: 1.42 ;&st7;   " /><path d=" M  3008.50,   317.37  C  3005.99    317.37   3003.96    319.39   3003.96    321.90  " style="stroke-width: 1.42 ;&st7;   " /><path d=" M  3003.96,   321.90  C  3003.96    324.40   3005.99    326.43   3008.50    326.43  " style="stroke-width: 1.42 ;&st7;   " /><path d=" M  3008.50,   326.43  C  3011.00    326.43   3013.03    324.40   3013.03    321.90  " style="stroke-width: 1.42 ;&st7;   " /><text style="&st18;" transform="matrix(&st17;  3254.07  497.6 )">C114</text><text style="&st18;" transform="matrix(&st16;  3156.07  295.54 )">NE-</text><text style="&st18;" transform="matrix(&st16;  3148.69  305.74 )">65</text><text style="&st18;" transform="matrix(&st16;  3159.21  305.74 )">B</text><text style="&st18;" transform="matrix(&st17;  3157.78  412.06 )">G-W(*8)</text><text style="&st18;" transform="matrix(&st17;  3191.77  403.92 )">W</text><text style="&st18;" transform="matrix(&st16;  3155.13  457.02 )">2</text><text style="&st18;" transform="matrix(&st16;  3182.68  305.74 )">66</text><text style="&st18;" transform="matrix(&st16;  3193.2  305.74 )">B</text><text style="&st18;" transform="matrix(&st16;  3189.28  295.54 )">NE+</text><text ewd:textID="25" style="&st18;" transform="matrix(&st17;  3261.18  497.61 )">Crankshaft <tspan dy="6.0" x="0 ">Position Sensor</tspan></text><text style="&st18;" transform="matrix(&st16;  3319.53  275.68 )">A38(A),A52(D),C45(B),C46(C)</text><text style="&st18;" transform="matrix(&st16;  3319.54  282.79 )">ECM</text><text style="&st18;" transform="matrix(&st16;  3156.07  468.34 )">NE-</text><text style="&st18;" transform="matrix(&st16;  3189.13  457.02 )">1</text><text style="&st18;" transform="matrix(&st16;  3189.28  468.34 )">NE+</text><text style="&st18;" transform="matrix(&st17;  3225.76  402.6 )">L</text><text style="&st18;" transform="matrix(&st16;  3242.17  305.74 )">64</text><text style="&st18;" transform="matrix(&st16;  3252.69  305.74 )">B</text><text style="&st18;" transform="matrix(&st16;  3241.52  289.6 )">VCNE(*8) <tspan dy="6.0" x="0 ">VCV2(*9)</tspan></text><text style="&st18;" transform="matrix(&st16;  3223.12  457.02 )">3</text><text style="&st18;" transform="matrix(&st16;  3225.02  468.34 )">VC</text><text style="&st18;" transform="matrix(&st16;  3145.35  314.8 )">111</text><text style="&st18;" transform="matrix(&st16;  3159.21  314.8 )">B</text><text style="&st18;" transform="matrix(&st17;  3140.78  407.72 )">Y(*9)</text><text style="&st18;" transform="matrix(&st16;  3179.34  314.8 )">110</text><text style="&st18;" transform="matrix(&st16;  3193.2  314.8 )">B</text><text style="&st18;" transform="matrix(&st16;  3252.69  314.8 )">B</text><text style="&st18;" transform="matrix(&st16;  3242.17  314.8 )">66</text><text style="&st18;" transform="matrix(&st16;  3252.54  323.87 )">C</text><text style="&st18;" transform="matrix(&st16;  3242.14  323.87 )">66</text><text style="&st18;" transform="matrix(&st16;  3159.05  323.87 )">C</text><text style="&st18;" transform="matrix(&st16;  3145.32  323.87 )">111</text><text style="&st18;" transform="matrix(&st16;  3193.05  323.87 )">C</text><text style="&st18;" transform="matrix(&st16;  3179.32  323.87 )">110</text><text style="&st18;" transform="matrix(&st17;  3306.19  489.1 )">C1</text><text ewd:textID="25" style="&st18;" transform="matrix(&st17;  3313.3  489.11 )">Crankshaft <tspan dy="6.0" x="0 ">Position Sensor</tspan></text><text style="&st18;" transform="matrix(&st17;  3327.75  394.49 )">B</text><text style="&st18;" transform="matrix(&st17;  3293.75  395.42 )">W</text><text style="&st18;" transform="matrix(&st16;  3131.69  226.98 )">53</text><text style="&st18;" transform="matrix(&st16;  3142.21  226.98 )">A</text><text style="&st18;" transform="matrix(&st16;  3176.2  226.98 )">A</text><text style="&st18;" transform="matrix(&st16;  3165.68  226.98 )">56</text><text style="&st18;" transform="matrix(&st16;  3233.67  226.98 )">58</text><text style="&st18;" transform="matrix(&st16;  3210.2  226.98 )">A</text><text style="&st18;" transform="matrix(&st16;  3199.68  226.98 )">55</text><text style="&st18;" transform="matrix(&st16;  3244.19  226.98 )">A</text><text style="&st18;" transform="matrix(&st16;  3301.66  226.98 )">57</text><text style="&st18;" transform="matrix(&st16;  3312.18  226.98 )">A</text><text style="&st18;" transform="matrix(&st16;  3267.67  226.98 )">54</text><text style="&st18;" transform="matrix(&st16;  3278.19  226.98 )">A</text><text style="&st18;" transform="matrix(&st17;  3004.8  363.05 )">L-Y</text><text style="&st18;" transform="matrix(&st17;  3016.13  363.28 )">(*6)</text><text style="&st18;" transform="matrix(&st16;  3006.23  305.74 )">B</text><text style="&st18;" transform="matrix(&st16;  3006.23  314.8 )">B</text><text style="&st18;" transform="matrix(&st16;  3003.91  295.54 )">VG</text><text style="&st18;" transform="matrix(&st16;  3415.48  110.27 )">1</text><text style="&st18;" transform="matrix(&st16;  3438.51  204.86 )">C95</text><text ewd:textID="36" style="&st18;" transform="matrix(&st16;  3438.52  211.97 )">Junction <tspan dy="6.0" x="0 ">Connector</tspan></text><text style="&st18;" transform="matrix(&st16;  3420.49  100.07 )">VC</text><text style="&st18;" transform="matrix(&st16;  3489.5  53.02 )">C83(A),C85(B)</text><text ewd:textID="30" style="&st18;" transform="matrix(&st16;  3489.51  60.13 )">Diesel Throttle <tspan dy="6.0" x="0 ">Body Assembly RH</tspan></text><text style="&st18;" transform="matrix(&st16;  3353.53  53.02 )">C84(A),C86(B)</text><text ewd:textID="29" style="&st18;" transform="matrix(&st16;  3353.53  60.13 )">Diesel Throttle <tspan dy="6.0" x="0 ">Body Assembly LH</tspan></text><text style="&st18;" transform="matrix(&st16;  3389.98  110.27 )">3</text><text style="&st18;" transform="matrix(&st16;  3397.17  110.27 )">A</text><text style="&st18;" transform="matrix(&st16;  3364.48  110.27 )">1</text><text style="&st18;" transform="matrix(&st16;  3371.67  110.27 )">B</text><text style="&st18;" transform="matrix(&st16;  3415.25  168.07 )">21</text><text style="&st18;" transform="matrix(&st17;  3421.23  139.14 )">L</text><text style="&st18;" transform="matrix(&st16;  3415.25  205.45 )">20</text><text style="&st18;" transform="matrix(&st17;  3421.23  224.13 )">L</text><text style="&st18;" transform="matrix(&st16;  3386.65  254.18 )">65</text><text style="&st18;" transform="matrix(&st16;  3397.01  254.18 )">C</text><text style="&st18;" transform="matrix(&st16;  3397.17  245.11 )">B</text><text style="&st18;" transform="matrix(&st16;  3386.65  245.11 )">65</text><text style="&st18;" transform="matrix(&st16;  3391.7  264.38 )">VLU2</text><text style="&st18;" transform="matrix(&st16;  3408.81  254.18 )">110</text><text style="&st18;" transform="matrix(&st16;  3422.51  254.18 )">C</text><text style="&st18;" transform="matrix(&st16;  3422.66  245.11 )">B</text><text style="&st18;" transform="matrix(&st16;  3408.81  245.11 )">110</text><text style="&st18;" transform="matrix(&st16;  3416.85  264.38 )">VCVL</text><text style="&st18;" transform="matrix(&st16;  3422.66  110.27 )">A</text><text style="&st18;" transform="matrix(&st17;  3395.74  181.63 )">L</text><text style="&st18;" transform="matrix(&st16;  3391.66  100.07 )">VTA2</text><text style="&st18;" transform="matrix(&st17;  3370.24  184.04 )">BE</text><text style="&st18;" transform="matrix(&st16;  3366.2  264.38 )">LUS2</text><text style="&st18;" transform="matrix(&st16;  3361.15  245.11 )">56</text><text style="&st18;" transform="matrix(&st16;  3371.67  245.11 )">B</text><text style="&st18;" transform="matrix(&st16;  3361.15  254.18 )">56</text><text style="&st18;" transform="matrix(&st16;  3371.52  254.18 )">C</text><text style="&st18;" transform="matrix(&st16;  3365.62  100.07 )">VTAR</text><text style="&st18;" transform="matrix(&st16;  3006.23  398.65 )">A</text><text style="&st18;" transform="matrix(&st16;  3131.69  254.18 )">53</text><text style="&st18;" transform="matrix(&st16;  3142.05  254.18 )">D</text><text style="&st18;" transform="matrix(&st16;  3176.05  254.18 )">D</text><text style="&st18;" transform="matrix(&st16;  3165.68  254.18 )">54</text><text style="&st18;" transform="matrix(&st16;  3233.67  254.18 )">56</text><text style="&st18;" transform="matrix(&st16;  3210.04  254.18 )">D</text><text style="&st18;" transform="matrix(&st16;  3199.68  254.18 )">55</text><text style="&st18;" transform="matrix(&st16;  3244.04  254.18 )">D</text><text style="&st18;" transform="matrix(&st16;  3301.66  254.18 )">58</text><text style="&st18;" transform="matrix(&st16;  3312.03  254.18 )">D</text><text style="&st18;" transform="matrix(&st16;  3267.67  254.18 )">57</text><text style="&st18;" transform="matrix(&st16;  3278.03  254.18 )">D</text><text style="&st18;" transform="matrix(&st16;  3142.21  236.05 )">A</text><text style="&st18;" transform="matrix(&st16;  3131.69  236.05 )">53</text><text style="&st18;" transform="matrix(&st16;  3176.2  236.05 )">A</text><text style="&st18;" transform="matrix(&st16;  3165.68  236.05 )">54</text><text style="&st18;" transform="matrix(&st16;  3210.2  236.05 )">A</text><text style="&st18;" transform="matrix(&st16;  3199.68  236.05 )">55</text><text style="&st18;" transform="matrix(&st16;  3244.19  236.05 )">A</text><text style="&st18;" transform="matrix(&st16;  3233.67  236.05 )">56</text><text style="&st18;" transform="matrix(&st16;  3278.19  236.05 )">A</text><text style="&st18;" transform="matrix(&st16;  3267.67  236.05 )">57</text><text style="&st18;" transform="matrix(&st16;  3312.18  236.05 )">A</text><text style="&st18;" transform="matrix(&st16;  3301.66  236.05 )">58</text><text style="&st18;" transform="matrix(&st16;  3319.54  254.18 )">(RHD *6)</text><text style="&st18;" transform="matrix(&st16;  3319.54  236.05 )">(LHD *6)</text><text ewd:textID="1" style="&st18;" transform="matrix(&st17;  3268.26  406.08 )">(Shielded)</text><text style="&st18;" transform="matrix(&st16;  3325.1  448.52 )">1</text><text style="&st18;" transform="matrix(&st16;  3325.1  494.4 )">2</text><text style="&st18;" transform="matrix(&st17;  3237.1  409.46 )">(*8,*9)</text><text style="&st18;" transform="matrix(&st17;  3203.1  409.46 )">(*8,*9)</text><text style="&st18;" transform="matrix(&st16;  3355.76  502.9 )">21</text><text style="&st18;" transform="matrix(&st16;  3443.5  425.85 )">GND</text><text style="&st18;" transform="matrix(&st16;  3444.08  414.53 )">3</text><text style="&st18;" transform="matrix(&st17;  3373.07  534.92 )">(*10)</text><text style="&st18;" transform="matrix(&st17;  3361.74  532.63 )">BR</text><text style="&st18;" transform="matrix(&st17;  3381.55  497.6 )">C42</text><text ewd:textID="36" style="&st18;" transform="matrix(&st17;  3388.65  497.61 )">Junction <tspan dy="6.0" x="0 ">Connector</tspan></text><text style="&st18;" transform="matrix(&st16;  3469.58  414.53 )">1</text><text style="&st18;" transform="matrix(&st17;  3497.72  357.17 )">W</text><text style="&st18;" transform="matrix(&st17;  3472.22  356.24 )">B</text><text style="&st18;" transform="matrix(&st16;  3463.13  305.74 )">78</text><text style="&st18;" transform="matrix(&st16;  3473.65  305.74 )">B</text><text style="&st18;" transform="matrix(&st16;  3488.63  305.74 )">77</text><text style="&st18;" transform="matrix(&st16;  3499.15  305.74 )">B</text><text style="&st18;" transform="matrix(&st16;  3473.5  314.8 )">C</text><text style="&st18;" transform="matrix(&st16;  3463.13  314.8 )">78</text><text style="&st18;" transform="matrix(&st16;  3498.99  314.8 )">C</text><text style="&st18;" transform="matrix(&st16;  3488.63  314.8 )">77</text><text style="&st18;" transform="matrix(&st16;  3469.74  295.54 )">NE+</text><text style="&st18;" transform="matrix(&st16;  3496.01  295.54 )">NE-</text><text style="&st18;" transform="matrix(&st16;  3495.08  414.53 )">2</text><text style="&st18;" transform="matrix(&st16;  3469.74  425.85 )">NE+</text><text style="&st18;" transform="matrix(&st16;  3496.01  425.85 )">NE-</text><text style="&st18;" transform="matrix(&st17;  3412.73  405.16 )">BR</text><text style="&st18;" transform="matrix(&st17;  3446.73  405.16 )">BR</text><text style="&st18;" transform="matrix(&st17;  3449.56  540.08 )">(LHD *6)</text><text style="&st18;" transform="matrix(&st17;  3438.23  532.63 )">BR</text><text style="&st18;" transform="matrix(&st16;  3260.05  323.87 )">(RHD *9)</text><text style="&st18;" transform="matrix(&st16;  3260.05  305.74 )">(*8)</text><text style="&st18;" transform="matrix(&st16;  3355.76  474.02 )">20</text><text style="&st18;" transform="matrix(&st16;  3200.56  323.87 )">(*27)</text><text style="&st18;" transform="matrix(&st16;  3260.05  314.8 )">(LHD *9)</text><text style="&st18;" transform="matrix(&st16;  3200.56  314.8 )">(*28)</text><text style="&st18;" transform="matrix(&st16;  3406.76  502.9 )">21</text><text style="&st18;" transform="matrix(&st17;  3412.73  532.63 )">BR</text><text style="&st18;" transform="matrix(&st17;  3361.74  464.65 )">BR</text><text style="&st18;" transform="matrix(&st17;  3279.59  398.95 )">(*10)</text><text style="&st18;" transform="matrix(&st17;  3305.09  398.95 )">(*10)</text><text style="&st18;" transform="matrix(&st17;  3339.08  398.95 )">(*10)</text><text style="&st18;" transform="matrix(&st17;  3373.07  466.93 )">(*10)</text><text style="&st18;" transform="matrix(&st17;  3424.07  540.62 )">(RHD *6)</text><text style="&st18;" transform="matrix(&st17;  3424.07  405.78 )">(*6)</text><text style="&st18;" transform="matrix(&st17;  3458.06  405.78 )">(*6)</text><text style="&st18;" transform="matrix(&st17;  3483.56  359.03 )">(*6)</text><text style="&st18;" transform="matrix(&st17;  3432.54  497.6 )">C94</text><text ewd:textID="36" style="&st18;" transform="matrix(&st17;  3439.65  497.61 )">Junction <tspan dy="6.0" x="0 ">Connector</tspan></text><text style="&st18;" transform="matrix(&st16;  3406.76  474.02 )">16</text><text style="&st18;" transform="matrix(&st16;  3312.18  217.92 )">A</text><text style="&st18;" transform="matrix(&st16;  3278.19  217.92 )">A</text><text style="&st18;" transform="matrix(&st16;  3267.67  217.92 )">58</text><text style="&st18;" transform="matrix(&st16;  3278.03  245.11 )">D</text><text style="&st18;" transform="matrix(&st16;  3244.19  217.92 )">A</text><text style="&st18;" transform="matrix(&st16;  3233.67  217.92 )">59</text><text style="&st18;" transform="matrix(&st16;  3244.04  245.11 )">D</text><text style="&st18;" transform="matrix(&st16;  3210.2  217.92 )">A</text><text style="&st18;" transform="matrix(&st16;  3199.68  217.92 )">57</text><text style="&st18;" transform="matrix(&st16;  3210.04  245.11 )">D</text><text style="&st18;" transform="matrix(&st16;  3131.69  217.92 )">55</text><text style="&st18;" transform="matrix(&st16;  3142.21  217.92 )">A</text><text style="&st18;" transform="matrix(&st16;  3319.54  245.11 )">(*27)</text><text style="&st18;" transform="matrix(&st16;  3319.54  217.92 )">(*28)</text><text style="&st18;" transform="matrix(&st16;  3176.2  217.92 )">A</text><text style="&st18;" transform="matrix(&st16;  3165.68  217.92 )">56</text><text style="&st18;" transform="matrix(&st16;  3301.66  217.92 )">60</text><text style="&st18;" transform="matrix(&st16;  3312.03  245.11 )">D</text><text ewd:textID="18" style="&st18;" transform="matrix(&st16;  3124.07  40.58 )">Accelerator Pedal Sensor Assembly</text><text style="&st18;" transform="matrix(&st16;  3176.05  245.11 )">D</text><text style="&st18;" transform="matrix(&st16;  3267.67  245.11 )">58</text><text style="&st18;" transform="matrix(&st16;  3274.15  264.38 )">EPA</text><text style="&st18;" transform="matrix(&st16;  3306.52  264.38 )">EPA2</text><text style="&st18;" transform="matrix(&st16;  3301.66  245.11 )">60</text><text style="&st18;" transform="matrix(&st16;  3199.68  245.11 )">57</text><text style="&st18;" transform="matrix(&st16;  3238.38  264.38 )">VCP2</text><text style="&st18;" transform="matrix(&st16;  3203.99  264.38 )">VCPA</text><text style="&st18;" transform="matrix(&st16;  3233.67  245.11 )">59</text><text style="&st18;" transform="matrix(&st16;  3170.54  264.38 )">VPA2</text><text style="&st18;" transform="matrix(&st16;  3165.68  245.11 )">56</text><text style="&st18;" transform="matrix(&st16;  3142.05  245.11 )">D</text><text style="&st18;" transform="matrix(&st16;  3131.69  245.11 )">55</text><text style="&st18;" transform="matrix(&st16;  3124.06  33.47 )">A31</text><text style="&st18;" transform="matrix(&st16;  3138.14  111.96 )">6</text><text style="&st18;" transform="matrix(&st16;  3172.13  111.96 )">3</text><text style="&st18;" transform="matrix(&st16;  3206.12  111.96 )">4</text><text style="&st18;" transform="matrix(&st16;  3240.12  111.96 )">1</text><text style="&st18;" transform="matrix(&st16;  3274.11  111.96 )">5</text><text style="&st18;" transform="matrix(&st16;  3308.11  111.96 )">2</text><text style="&st18;" transform="matrix(&st17;  3140.78  165.18 )">R</text><text style="&st18;" transform="matrix(&st17;  3174.77  167.51 )">GR</text><text style="&st18;" transform="matrix(&st17;  3208.77  164.64 )">L</text><text style="&st18;" transform="matrix(&st17;  3242.76  165.02 )">V</text><text style="&st18;" transform="matrix(&st17;  3276.76  165.96 )">W</text><text style="&st18;" transform="matrix(&st17;  3310.75  167.04 )">BE</text><text style="&st18;" transform="matrix(&st16;  3138.18  100.07 )">VPA</text><text style="&st18;" transform="matrix(&st16;  3170.54  100.07 )">VPA2</text><text style="&st18;" transform="matrix(&st16;  3203.99  100.07 )">VCPA</text><text style="&st18;" transform="matrix(&st16;  3238.38  100.07 )">VCP2</text><text style="&st18;" transform="matrix(&st16;  3274.15  100.07 )">EPA</text><text style="&st18;" transform="matrix(&st16;  3306.52  100.07 )">EPA2</text><text style="&st18;" transform="matrix(&st16;  3138.18  264.38 )">VPA</text><text style="&st18;" transform="matrix(&st16;  3319.54  226.98 )">(*26)</text><text style="&st18;" transform="matrix(&st16;  3440.97  110.27 )">2</text><text style="&st18;" transform="matrix(&st16;  3440.75  168.07 )">10</text><text style="&st18;" transform="matrix(&st16;  3446.53  100.07 )">E2</text><text style="&st18;" transform="matrix(&st17;  3446.73  141.7 )">BR</text><text style="&st18;" transform="matrix(&st17;  3432.56  142.32 )">(*6)</text><text style="&st18;" transform="matrix(&st17;  3432.56  227.31 )">(*6)</text><text style="&st18;" transform="matrix(&st17;  3407.07  184.81 )">(*6)</text><text style="&st18;" transform="matrix(&st17;  3381.57  184.81 )">(*6)</text><text style="&st18;" transform="matrix(&st16;  3006.23  389.59 )">A</text><text style="&st18;" transform="matrix(&st16;  3013.59  389.59 )">(*3)</text><text style="&st18;" transform="matrix(&st16;  3013.59  398.65 )">(*19)</text><text style="&st18;" transform="matrix(&st16;  3013.59  332.93 )">(RHD *19)</text><text style="&st18;" transform="matrix(&st16;  3006.08  332.93 )">C</text><text style="&st18;" transform="matrix(&st16;  3013.59  323.87 )">(RHD *3)</text><text style="&st18;" transform="matrix(&st16;  3006.08  323.87 )">C</text><text style="&st18;" transform="matrix(&st16;  3013.59  314.8 )">(LHD *19)</text><text style="&st18;" transform="matrix(&st16;  3013.59  305.74 )">(LHD *3)</text><text style="&st18;" transform="matrix(&st17;  3152.11  167.82 )">(*5)</text><text style="&st18;" transform="matrix(&st17;  3186.1  167.82 )">(*5)</text><text style="&st18;" transform="matrix(&st17;  3220.1  167.82 )">(*5)</text><text style="&st18;" transform="matrix(&st17;  3254.09  167.82 )">(*5)</text><text style="&st18;" transform="matrix(&st17;  3288.09  167.82 )">(*5)</text><text style="&st18;" transform="matrix(&st17;  3322.08  167.82 )">(*5)</text><text style="&st18;" transform="matrix(&st16;  3448.16  110.27 )">A</text><text style="&st18;" transform="matrix(&st17;  3458.06  142.32 )">(*6)</text><text style="&st18;" transform="matrix(&st16;  3497.13  254.18 )">87</text><text style="&st18;" transform="matrix(&st16;  3132.78  643.98 )">W</text><text style="&st18;" transform="matrix(&st16;  3081.79  643.98 )">W</text><text style="&st18;" transform="matrix(&st16;  3134.1  660.98 )">L</text><text style="&st18;" transform="matrix(&st16;  3083.11  660.98 )">L</text><text style="&st18;" transform="matrix(&st16;  3124.79  626.98 )">W(LHD)</text><text style="&st18;" transform="matrix(&st16;  3073.8  626.98 )">W(LHD)</text><text style="&st18;" transform="matrix(&st16;  3123.24  609.99 )">GR(LHD)</text><text style="&st18;" transform="matrix(&st16;  3072.25  609.99 )">GR(LHD)</text><text style="&st18;" transform="matrix(&st16;  3124.29  592.99 )">W(RHD)</text><text style="&st18;" transform="matrix(&st16;  3073.3  592.99 )">W(RHD)</text><text style="&st18;" transform="matrix(&st16;  3122.74  575.99 )">GR(RHD)</text><text style="&st18;" transform="matrix(&st16;  3071.75  575.99 )">GR(RHD)</text><text style="&st18;" transform="matrix(&st16;  3200.56  305.74 )">(*29)</text><text style="&st18;" transform="matrix(&st16;  3497.13  245.11 )">87</text></svg>