﻿<?xml version="1.0" encoding="utf-8"?>
<!DOCTYPE svg PUBLIC "-//W3C//DTD SVG 1.0//EN" "http://www.w3.org/TR/2001/REC-SVG-20010904/DTD/svg10.dtd"[
	<!ENTITY ns_flows "http://ns.adobe.com/Flows/1.0/">
	<!ENTITY ns_svg "http://www.w3.org/2000/svg">
	<!ENTITY ns_xlink "http://www.w3.org/1999/xlink">
	<!ENTITY st0 "font-size:7px;font-family:'MS-PGothic';adobe-font-script:japanese;">
	<!ENTITY st1 "font-size:6px;font-family:'ArialMT';">
	<!-- White fill  -->
	<!ENTITY st2 "fill:#FFFFFF;stroke:#000000; stroke-width:1.41;stroke-linecap:round;stroke-linejoin:round;">
	<!-- Yellow fill  -->
	<!ENTITY st3 "fill:#FFFFCC;stroke:#FFFFCC; stroke-width:0.1;stroke-linecap:round;stroke-linejoin:round;">
	<!-- Gray fill  -->
	<!ENTITY st4 "fill:#CCCCCC;stroke:#CCCCCC; stroke-width:0.1;stroke-linecap:round;stroke-linejoin:round;">
	<!-- Light-blue fill -->
	<!ENTITY st5 "fill:#CCECF4;stroke:#000000; stroke-width:1.133;stroke-linecap:round;stroke-linejoin:round;">
	<!ENTITY st6 "fill:none;stroke-linecap:butt; stroke-linejoin:round;">
	<!ENTITY st7 "fill:none;stroke:#000000;stroke-linecap:round;stroke-linejoin:round;">
	<!ENTITY st8 "enable-background:new    ;">
	<!-- Black fill -->
	<!ENTITY st9 "fill:#000000;stroke:#000000; stroke-linecap:round;stroke-linejoin:round;">
	<!-- SRS note   -->
	<!ENTITY st10 "font-size:9px;font-family:'ArialMT';">
	<!ENTITY st11 "font-size:9px;font-family:'Svg Symbol';">
	<!ENTITY st12 "font-size:6px;font-family:'Svg Symbol';">
	<!ENTITY st13 "fill:none;stroke:#ff0000;stroke-linecap:round;stroke-linejoin:round;">
	<!-- Yellow fill  -->
	<!ENTITY st14 "fill:#FFFF00;stroke:#FFFF00; stroke-width:0.1;stroke-linecap:round;stroke-linejoin:round;">
	<!ENTITY st15 "font-size:6px;font-family:'MS-PGothic';adobe-font-script:japanese;">
	<!ENTITY st16 "1.00 0.00 0.00 1.00">
	<!ENTITY st17 "0.00 -1.00 1.00 0.00">
	<!ENTITY st18 "font-size:6px;font-family:'Arial';">
	<!ENTITY st19 "font-size:9px;font-family:'Arial';">
	<!ENTITY st20 "font-size:6px;font-family:'MS-PGothic','MS PGothic';adobe-font-script:japanese;">
	<!ENTITY st21 "font-size:7px;font-family:'MS-PGothic','MS PGothic';adobe-font-script:japanese;">
	<!ATTLIST svg
		xmlns:ewd CDATA #FIXED "http://shcl.co.jp/ewd"
		xmlns:a CDATA #FIXED "http://ns.adobe.com/AdobeSVGViewerExtensions/3.0/"
		ewd:ver CDATA #IMPLIED
	>
	<!ATTLIST a
		ewd:lineID CDATA #IMPLIED
		ewd:groupID CDATA #IMPLIED
		ewd:figtype CDATA #IMPLIED
		ewd:code CDATA #IMPLIED
		ewd:figID CDATA #IMPLIED
		ewd:pinNo CDATA #IMPLIED
		ewd:comment CDATA #IMPLIED >
	<!ATTLIST g
		ewd:lineID CDATA #IMPLIED
		ewd:groupID CDATA #IMPLIED
		ewd:figtype CDATA #IMPLIED
		ewd:code CDATA #IMPLIED
		ewd:figID CDATA #IMPLIED
		ewd:pinNo CDATA #IMPLIED
		ewd:comment CDATA #IMPLIED >
	<!ATTLIST text
		ewd:textID CDATA #IMPLIED >
	<!ATTLIST title
		ewd:textID CDATA #IMPLIED >
]>
<!-- Generator: Shintec Hozumi YS   -->
<svg onload="call_execInitLoadProc_svg('system')" style="overflow:visible;  enable-background:new 0 0 11397.121 710.000" viewBox="0 0 11397.121 710.000" height="710.000" width="11397.121" xml:space="preserve" ewd:ver="L2.3.0.14" xmlns="&ns_svg;" xmlns:a="http://ns.adobe.com/AdobeSVGViewerExtensions/3.0/" xmlns:ewd="http://shcl.co.jp/ewd" xmlns:xlink="&ns_xlink;">
<path d=" M  7546.74,   452.21  L  7538.24,   452.21  " style="stroke-width: 1.42 ;&st7;  " /><path d=" M  7963.17,   474.18  L  7958.20,   469.21  " style="stroke-width: 1.42 ;&st7;  " /><path d=" M  7946.17,   481.24  L  7951.14,   486.20  " style="stroke-width: 1.42 ;&st7;  " /><path d=" M  7958.20,   486.20  L  7963.17,   481.24  " style="stroke-width: 1.42 ;&st7;  " /><path d=" M  7951.14,   469.21  L  7946.17,   474.18  " style="stroke-width: 1.42 ;&st7;  " /><path d=" M  7546.74,   239.75  L  7538.24,   239.75  " style="stroke-width: 1.42 ;&st7;  " /><path d=" M  7563.74,   231.25  L  7572.23,   231.25  " style="stroke-width: 1.42 ;&st7;  " /><path d=" M  7512.74,   452.21  L  7504.25,   452.21  " style="stroke-width: 1.42 ;&st7;  " /><path d=" M  7997.16,   273.74  L  7988.67,   273.74  " style="stroke-width: 1.42 ;&st7;  " /><path d=" M  7597.73,   231.25  L  7606.23,   231.25  " style="stroke-width: 1.42 ;&st7;  " /><path d=" M  7912.18,   418.22  L  7920.68,   418.22  " style="stroke-width: 1.42 ;&st7;  " /><path d=" M  7937.67,   273.74  L  7929.18,   273.74  " style="stroke-width: 1.42 ;&st7;  " /><path d=" M  7946.17,   520.20  L  7954.67,   520.20  " style="stroke-width: 1.42 ;&st7;  " /><path d=" M  7984.42,   438.05  L  7992.91,   438.05  " style="stroke-width: 1.42 ;&st7;  " /><path d=" M  7984.42,   434.08  L  7984.42,   438.05  " style="stroke-width: 1.42 ;&st7;  " /><path d=" M  7992.91,   438.05  L  7992.91,   434.08  " style="stroke-width: 1.42 ;&st7;  " /><path d=" M  7984.42,   415.38  L  7992.91,   415.38  " style="stroke-width: 1.42 ;&st7;  " /><path d=" M  7984.42,   419.35  L  7984.42,   415.38  " style="stroke-width: 1.42 ;&st7;  " /><path d=" M  7992.91,   415.38  L  7992.91,   419.35  " style="stroke-width: 1.42 ;&st7;  " /><path d=" M  7614.73,   452.21  L  7606.23,   452.21  " style="stroke-width: 1.42 ;&st7;  " /><path d=" M  7546.74,   346.26  L  7589.23,   346.26  " style="stroke-width: 0.85 ;&st7; stroke-dasharray:3, 1.5;" /><path d=" M  7542.49,   461.27  L  7538.24,   457.03  L  7533.99,   461.27  " style="stroke-width: 1.42 ;&st7;  " /><path d=" M  7542.49,   457.88  L  7538.24,   453.63  L  7533.99,   457.88  " style="stroke-width: 1.42 ;&st7;  " /><path d=" M  7580.73,   294.70  L  7589.23,   294.70  " style="stroke-width: 0.85 ;&st7; stroke-dasharray:3, 1.5;" /><path d=" M  7546.74,   285.64  L  7555.23,   285.64  " style="stroke-width: 0.85 ;&st7; stroke-dasharray:3, 1.5;" /><path d=" M  7580.73,   285.64  L  7589.23,   285.64  " style="stroke-width: 0.85 ;&st7; stroke-dasharray:3, 1.5;" /><path d=" M  7546.74,   294.70  L  7559.48,   294.70  " style="stroke-width: 0.85 ;&st7; stroke-dasharray:3, 1.5;" /><path d=" M  7958.92,   514.53  L  7954.67,   518.78  L  7950.42,   514.53  " style="stroke-width: 1.42 ;&st7;  " /><path d=" M  7950.42,   511.13  L  7954.67,   515.38  L  7958.92,   511.13  " style="stroke-width: 1.42 ;&st7;  " /><path d=" M  7903.68,   324.73  L  7903.68,   358.73  L  8005.66,   358.73  L  8005.66,   324.73  L  7903.68,   324.73  " style="stroke-width: 1.42 ;&st7;  " /><path d=" M  7924.92,   412.55  L  7920.67,   416.80  L  7916.42,   412.55  " style="stroke-width: 1.42 ;&st7;  " /><path d=" M  7916.42,   409.15  L  7920.67,   413.40  L  7924.92,   409.15  " style="stroke-width: 1.42 ;&st7;  " /><path d=" M  7933.42,   282.80  L  7929.17,   278.56  L  7924.92,   282.80  " style="stroke-width: 1.42 ;&st7;  " /><path d=" M  7933.42,   279.41  L  7929.17,   275.16  L  7924.92,   279.41  " style="stroke-width: 1.42 ;&st7;  " /><path d=" M  7610.48,   225.58  L  7606.23,   229.83  L  7601.98,   225.58  " style="stroke-width: 1.42 ;&st7;  " /><path d=" M  7601.98,   222.18  L  7606.23,   226.43  L  7610.48,   222.18  " style="stroke-width: 1.42 ;&st7;  " /><path d=" M  7954.67,   697.25  L  7954.67,   701.50  " style="stroke-width: 0.85 ;&st7;  " /><path d=" M  7946.17,   701.50  L  7963.17,   701.50  " style="stroke-width: 0.85 ;&st7;  " /><path d=" M  7950.42,   704.33  L  7958.92,   704.33  " style="stroke-width: 0.85 ;&st7;  " /><path d=" M  7951.83,   707.17  L  7957.50,   707.17  " style="stroke-width: 0.85 ;&st7;  " /><path d=" M  7953.25,   710.00  L  7956.08,   710.00  " style="stroke-width: 0.85 ;&st7;  " /><path d=" M  7992.91,   279.41  L  7988.66,   275.16  L  7984.41,   279.41  " style="stroke-width: 1.42 ;&st7;  " /><path d=" M  7992.91,   282.80  L  7988.66,   278.56  L  7984.41,   282.80  " style="stroke-width: 1.42 ;&st7;  " /><path d=" M  7567.98,   222.18  L  7572.23,   226.43  L  7576.48,   222.18  " style="stroke-width: 1.42 ;&st7;  " /><path d=" M  7576.48,   225.58  L  7572.23,   229.83  L  7567.98,   225.58  " style="stroke-width: 1.42 ;&st7;  " /><path d=" M  7542.49,   248.81  L  7538.24,   244.56  L  7533.99,   248.81  " style="stroke-width: 1.42 ;&st7;  " /><path d=" M  7542.49,   245.41  L  7538.24,   241.16  L  7533.99,   245.41  " style="stroke-width: 1.42 ;&st7;  " /><path d=" M  7512.74,   346.26  L  7521.24,   346.26  " style="stroke-width: 0.85 ;&st7; stroke-dasharray:3, 1.5;" /><path d=" M  7546.74,   355.33  L  7593.48,   355.33  " style="stroke-width: 0.85 ;&st7; stroke-dasharray:3, 1.5;" /><path d=" M  7610.48,   461.27  L  7606.23,   457.03  L  7601.98,   461.27  " style="stroke-width: 1.42 ;&st7;  " /><path d=" M  7610.48,   457.88  L  7606.23,   453.63  L  7601.98,   457.88  " style="stroke-width: 1.42 ;&st7;  " /><path d=" M  7610.76,   285.64  C  7610.76    283.13   7608.73    281.10   7606.23    281.10  " style="stroke-width: 1.42 ;&st7;   " /><path d=" M  7606.23,   281.10  C  7603.73    281.10   7601.70    283.13   7601.70    285.64  " style="stroke-width: 1.42 ;&st7;   " /><path d=" M  7601.70,   285.64  C  7601.70    288.14   7603.73    290.17   7606.23    290.17  " style="stroke-width: 1.42 ;&st7;   " /><path d=" M  7606.23,   290.17  C  7608.73    290.17   7610.76    288.14   7610.76    285.64  " style="stroke-width: 1.42 ;&st7;   " /><path d=" M  7576.77,   285.64  C  7576.77    283.13   7574.74    281.10   7572.23    281.10  " style="stroke-width: 1.42 ;&st7;   " /><path d=" M  7572.23,   281.10  C  7569.73    281.10   7567.70    283.13   7567.70    285.64  " style="stroke-width: 1.42 ;&st7;   " /><path d=" M  7567.70,   285.64  C  7567.70    288.14   7569.73    290.17   7572.23    290.17  " style="stroke-width: 1.42 ;&st7;   " /><path d=" M  7572.23,   290.17  C  7574.74    290.17   7576.77    288.14   7576.77    285.64  " style="stroke-width: 1.42 ;&st7;   " /><path d=" M  7542.77,   346.26  C  7542.77    343.76   7540.74    341.73   7538.24    341.73  " style="stroke-width: 1.42 ;&st7;   " /><path d=" M  7538.24,   341.73  C  7535.74    341.73   7533.71    343.76   7533.71    346.26  " style="stroke-width: 1.42 ;&st7;   " /><path d=" M  7533.71,   346.26  C  7533.71    348.76   7535.74    350.79   7538.24    350.79  " style="stroke-width: 1.42 ;&st7;   " /><path d=" M  7538.24,   350.79  C  7540.74    350.79   7542.77    348.76   7542.77    346.26  " style="stroke-width: 1.42 ;&st7;   " /><path d=" M  7542.77,   355.33  C  7542.77    352.82   7540.74    350.79   7538.24    350.79  " style="stroke-width: 1.42 ;&st7;   " /><path d=" M  7538.24,   350.79  C  7535.74    350.79   7533.71    352.82   7533.71    355.33  " style="stroke-width: 1.42 ;&st7;   " /><path d=" M  7533.71,   355.33  C  7533.71    357.83   7535.74    359.86   7538.24    359.86  " style="stroke-width: 1.42 ;&st7;   " /><path d=" M  7538.24,   359.86  C  7540.74    359.86   7542.77    357.83   7542.77    355.33  " style="stroke-width: 1.42 ;&st7;   " /><path d=" M  7508.78,   346.26  C  7508.78    343.76   7506.75    341.73   7504.25    341.73  " style="stroke-width: 1.42 ;&st7;   " /><path d=" M  7504.25,   341.73  C  7501.74    341.73   7499.71    343.76   7499.71    346.26  " style="stroke-width: 1.42 ;&st7;   " /><path d=" M  7504.25,   350.79  C  7506.75    350.79   7508.78    348.76   7508.78    346.26  " style="stroke-width: 1.42 ;&st7;   " /><path d=" M  7542.77,   294.70  C  7542.77    292.20   7540.74    290.17   7538.24    290.17  " style="stroke-width: 1.42 ;&st7;   " /><path d=" M  7538.24,   290.17  C  7535.74    290.17   7533.71    292.20   7533.71    294.70  " style="stroke-width: 1.42 ;&st7;   " /><path d=" M  7533.71,   294.70  C  7533.71    297.21   7535.74    299.24   7538.24    299.24  " style="stroke-width: 1.42 ;&st7;   " /><path d=" M  7538.24,   299.24  C  7540.74    299.24   7542.77    297.21   7542.77    294.70  " style="stroke-width: 1.42 ;&st7;   " /><path d=" M  7610.76,   294.70  C  7610.76    292.20   7608.73    290.17   7606.23    290.17  " style="stroke-width: 1.42 ;&st7;   " /><path d=" M  7606.23,   290.17  C  7603.73    290.17   7601.70    292.20   7601.70    294.70  " style="stroke-width: 1.42 ;&st7;   " /><path d=" M  7601.70,   294.70  C  7601.70    297.21   7603.73    299.24   7606.23    299.24  " style="stroke-width: 1.42 ;&st7;   " /><path d=" M  7606.23,   299.24  C  7608.73    299.24   7610.76    297.21   7610.76    294.70  " style="stroke-width: 1.42 ;&st7;   " /><path d=" M  7576.77,   294.70  C  7576.77    292.20   7574.74    290.17   7572.23    290.17  " style="stroke-width: 1.42 ;&st7;   " /><path d=" M  7572.23,   290.17  C  7569.73    290.17   7567.70    292.20   7567.70    294.70  " style="stroke-width: 1.42 ;&st7;   " /><path d=" M  7567.70,   294.70  C  7567.70    297.21   7569.73    299.24   7572.23    299.24  " style="stroke-width: 1.42 ;&st7;   " /><path d=" M  7572.23,   299.24  C  7574.74    299.24   7576.77    297.21   7576.77    294.70  " style="stroke-width: 1.42 ;&st7;   " /><path d=" M  7542.77,   285.64  C  7542.77    283.13   7540.74    281.10   7538.24    281.10  " style="stroke-width: 1.42 ;&st7;   " /><path d=" M  7538.24,   281.10  C  7535.74    281.10   7533.71    283.13   7533.71    285.64  " style="stroke-width: 1.42 ;&st7;   " /><path d=" M  7533.71,   285.64  C  7533.71    288.14   7535.74    290.17   7538.24    290.17  " style="stroke-width: 1.42 ;&st7;   " /><path d=" M  7538.24,   290.17  C  7540.74    290.17   7542.77    288.14   7542.77    285.64  " style="stroke-width: 1.42 ;&st7;   " /><path d=" M  7980.17,   426.71  C  7980.17    431.41   7983.97    435.21   7988.67    435.21  " style="stroke-width: 1.42 ;&st7;   " /><path d=" M  7988.67,   435.21  C  7993.36    435.21   7997.16    431.41   7997.16    426.71  " style="stroke-width: 1.42 ;&st7;   " /><path d=" M  7997.16,   426.71  C  7997.16    422.02   7993.36    418.22   7988.67    418.22  " style="stroke-width: 1.42 ;&st7;   " /><path d=" M  7988.67,   418.22  C  7983.97    418.22   7980.17    422.02   7980.17    426.71  " style="stroke-width: 1.42 ;&st7;   " /><path d=" M  7610.76,   355.33  C  7610.76    352.82   7608.73    350.79   7606.23    350.79  " style="stroke-width: 1.42 ;&st7;   " /><path d=" M  7606.23,   350.79  C  7603.73    350.79   7601.70    352.82   7601.70    355.33  " style="stroke-width: 1.42 ;&st7;   " /><path d=" M  7601.70,   355.33  C  7601.70    357.83   7603.73    359.86   7606.23    359.86  " style="stroke-width: 1.42 ;&st7;   " /><path d=" M  7606.23,   359.86  C  7608.73    359.86   7610.76    357.83   7610.76    355.33  " style="stroke-width: 1.42 ;&st7;   " /><path d=" M  7610.76,   346.26  C  7610.76    343.76   7608.73    341.73   7606.23    341.73  " style="stroke-width: 1.42 ;&st7;   " /><path d=" M  7606.23,   341.73  C  7603.73    341.73   7601.70    343.76   7601.70    346.26  " style="stroke-width: 1.42 ;&st7;   " /><path d=" M  7601.70,   346.26  C  7601.70    348.76   7603.73    350.79   7606.23    350.79  " style="stroke-width: 1.42 ;&st7;   " /><path d=" M  7606.23,   350.79  C  7608.73    350.79   7610.76    348.76   7610.76    346.26  " style="stroke-width: 1.42 ;&st7;   " /><text style="&st18;" transform="matrix(&st17;  7534.54  207.4 )">Y</text><text style="&st18;" transform="matrix(&st16;  7535.97  287.61 )">B</text><text style="&st18;" transform="matrix(&st16;  7531.67  306.87 )">LIN1</text><text style="&st18;" transform="matrix(&st16;  7524.82  237.47 )">8</text><text style="&st18;" transform="matrix(&st16;  7525.43  287.61 )">20</text><text style="&st18;" transform="matrix(&st17;  7602.53  262.91 )">R</text><text style="&st18;" transform="matrix(&st17;  7602.53  207.67 )">R</text><text style="&st18;" transform="matrix(&st16;  7598.3  306.87 )">PTC2</text><text style="&st18;" transform="matrix(&st16;  7603.96  287.61 )">B</text><text style="&st18;" transform="matrix(&st16;  7593.41  287.61 )">26</text><text style="&st18;" transform="matrix(&st17;  7568.54  262.91 )">R</text><text style="&st18;" transform="matrix(&st17;  7568.54  207.67 )">R</text><text style="&st18;" transform="matrix(&st16;  7564.31  306.87 )">PTC3</text><text style="&st18;" transform="matrix(&st16;  7569.97  287.61 )">B</text><text style="&st18;" transform="matrix(&st16;  7559.42  287.61 )">35</text><text style="&st18;" transform="matrix(&st16;  7555.48  237.47 )">56</text><text style="&st18;" transform="matrix(&st17;  7996.3  465.27 )">(*1)</text><text style="&st18;" transform="matrix(&st17;  7534.54  262.64 )">Y</text><text style="&st18;" transform="matrix(&st16;  7975.25  271.46 )">1</text><text style="&st18;" transform="matrix(&st17;  7925.48  252.8 )">L-R</text><text style="&st18;" transform="matrix(&st17;  7984.97  300.61 )">L</text><text style="&st18;" transform="matrix(&st17;  7950.97  279.37 )">L</text><text style="&st18;" transform="matrix(&st17;  7950.98  547.17 )">W-B</text><text style="&st18;" transform="matrix(&st17;  7500.55  402.6 )">L</text><text style="&st18;" transform="matrix(&st16;  7741.81  151.06 )">R(*21)</text><text style="&st18;" transform="matrix(&st16;  7792.8  151.06 )">R(*21)</text><text style="&st18;" transform="matrix(&st16;  7741.81  168.06 )">R(*21)</text><text style="&st18;" transform="matrix(&st16;  7792.8  168.06 )">R(*21)</text><text style="&st18;" transform="matrix(&st16;  7743.98  550.5 )">L(*1)</text><text style="&st18;" transform="matrix(&st16;  7794.97  550.5 )">L(*1)</text><text style="&st18;" transform="matrix(&st16;  7589.48  237.47 )">52</text><text style="&st18;" transform="matrix(&st16;  7907.26  424.43 )">8</text><text style="&st18;" transform="matrix(&st16;  7915.76  271.46 )">2</text><text style="&st18;" transform="matrix(&st16;  7914.34  366.92 )">3</text><text style="&st18;" transform="matrix(&st17;  7916.98  388.78 )">L-R</text><text style="&st18;" transform="matrix(&st16;  7982.33  321.04 )">1</text><text style="&st18;" transform="matrix(&st16;  7948.33  366.92 )">6</text><text style="&st18;" transform="matrix(&st16;  7982.33  366.92 )">2</text><text style="&st18;" transform="matrix(&st17;  7984.97  388.9 )">B-Y</text><text style="&st18;" transform="matrix(&st16;  7982.33  446.24 )">1</text><text style="&st18;" transform="matrix(&st16;  7982.33  411.69 )">2</text><text style="&st18;" transform="matrix(&st17;  7950.98  501.65 )">W</text><text style="&st18;" transform="matrix(&st16;  7941.25  526.42 )">4</text><text style="&st18;" transform="matrix(&st17;  7950.98  386.92 )">W</text><text style="&st18;" transform="matrix(&st17;  7984.97  463.41 )">W</text><text style="&st18;" transform="matrix(&st16;  7501.98  348.23 )">B</text><text style="&st18;" transform="matrix(&st16;  7535.82  296.67 )">C</text><text style="&st18;" transform="matrix(&st16;  7525.43  296.67 )">37</text><text style="&st18;" transform="matrix(&st16;  7603.81  296.67 )">C</text><text style="&st18;" transform="matrix(&st16;  7593.41  296.67 )">22</text><text style="&st18;" transform="matrix(&st16;  7569.81  296.67 )">C</text><text style="&st18;" transform="matrix(&st16;  7562.75  296.67 )">4</text><text style="&st18;" transform="matrix(&st17;  7936.81  252.8 )">(*1)</text><text style="&st18;" transform="matrix(&st17;  7962.31  282.55 )">(*1)</text><text style="&st18;" transform="matrix(&st17;  7996.3  303.79 )">(*1)</text><text style="&st18;" transform="matrix(&st17;  7928.31  388.78 )">(*1)</text><text style="&st18;" transform="matrix(&st17;  7962.31  388.78 )">(*1)</text><text style="&st18;" transform="matrix(&st17;  7996.3  388.78 )">(*1)</text><text style="&st18;" transform="matrix(&st17;  7511.88  405.78 )">(*1)</text><text style="&st18;" transform="matrix(&st17;  7962.31  503.51 )">(*1)</text><text style="&st18;" transform="matrix(&st17;  7962.31  546.0 )">(*1)</text><text style="&st18;" transform="matrix(&st16;  7611.32  296.67 )">(*2)</text><text style="&st18;" transform="matrix(&st16;  7611.32  287.61 )">(*1)</text><text style="&st18;" transform="matrix(&st16;  7521.49  449.93 )">53</text><text style="&st18;" transform="matrix(&st17;  7545.88  405.78 )">(*3)</text><text style="&st18;" transform="matrix(&st16;  7525.43  348.23 )">34</text><text style="&st18;" transform="matrix(&st16;  7535.97  348.23 )">B</text><text style="&st18;" transform="matrix(&st16;  7525.43  357.3 )">24</text><text style="&st18;" transform="matrix(&st16;  7535.82  357.3 )">C</text><text style="&st18;" transform="matrix(&st17;  7534.54  402.87 )">Y</text><text style="&st18;" transform="matrix(&st16;  7529.0  338.03 )">MGCA</text><text style="&st18;" transform="matrix(&st16;  7794.97  533.5 )">L(*1)</text><text style="&st18;" transform="matrix(&st16;  7743.98  533.5 )">L(*1)</text><text style="&st18;" transform="matrix(&st16;  7794.7  516.5 )">Y(*3)</text><text style="&st18;" transform="matrix(&st16;  7743.71  516.5 )">Y(*3)</text><text style="&st18;" transform="matrix(&st16;  7799.12  626.98 )">G</text><text style="&st18;" transform="matrix(&st16;  7799.43  609.99 )">B</text><text style="&st18;" transform="matrix(&st16;  7748.13  626.98 )">G</text><text style="&st18;" transform="matrix(&st16;  7748.44  609.99 )">B</text><text style="&st18;" transform="matrix(&st16;  7748.13  643.98 )">G</text><text style="&st18;" transform="matrix(&st16;  7748.83  660.98 )">L</text><text style="&st18;" transform="matrix(&st16;  7799.12  643.98 )">G</text><text style="&st18;" transform="matrix(&st16;  7799.82  660.98 )">L</text><text style="&st18;" transform="matrix(&st16;  7985.93  428.68 )">M</text><text style="&st18;" transform="matrix(&st17;  7613.87  267.22 )">(*21)</text><text style="&st18;" transform="matrix(&st17;  7579.87  267.22 )">(*21)</text><text style="&st18;" transform="matrix(&st16;  7743.32  575.99 )">G(*3)</text><text style="&st18;" transform="matrix(&st16;  7794.31  575.99 )">G(*3)</text><text style="&st18;" transform="matrix(&st16;  7792.02  499.5 )">W(*21)</text><text style="&st18;" transform="matrix(&st16;  7741.03  499.5 )">W(*21)</text><text style="&st18;" transform="matrix(&st16;  7611.32  348.23 )">(*1)</text><text style="&st18;" transform="matrix(&st16;  7611.32  357.3 )">(*2)</text><text style="&st18;" transform="matrix(&st16;  7598.3  338.03 )">PTC1</text><text style="&st18;" transform="matrix(&st16;  7603.81  357.3 )">C</text><text style="&st18;" transform="matrix(&st16;  7596.75  357.3 )">3</text><text style="&st18;" transform="matrix(&st16;  7603.96  348.23 )">B</text><text style="&st18;" transform="matrix(&st16;  7593.41  348.23 )">27</text><text style="&st18;" transform="matrix(&st16;  7589.48  449.93 )">51</text><text style="&st18;" transform="matrix(&st17;  7602.53  403.92 )">W</text><text style="&st18;" transform="matrix(&st17;  7613.87  407.44 )">(*21)</text><text style="&st18;" transform="matrix(&st16;  7793.03  134.07 )">Y(*32)</text><text style="&st18;" transform="matrix(&st16;  7742.04  134.07 )">Y(*32)</text><text style="&st18;" transform="matrix(&st17;  7613.87  211.98 )">(*21)</text><text style="&st18;" transform="matrix(&st17;  7579.87  211.98 )">(*21)</text><text style="&st18;" transform="matrix(&st17;  7545.88  211.98 )">(*32)</text><text style="&st18;" transform="matrix(&st17;  7545.88  267.22 )">(*32)</text><text style="&st18;" transform="matrix(&st17;  7534.54  487.85 )">Y</text><text style="&st18;" transform="matrix(&st17;  7545.88  490.76 )">(*3)</text><text style="&st18;" transform="matrix(&st17;  7511.88  490.76 )">(*1)</text><text style="&st18;" transform="matrix(&st17;  7500.55  487.58 )">L</text><text style="&st18;" transform="matrix(&st16;  7745.65  26.42 )">(*1)</text><text style="&st18;" transform="matrix(&st16;  7745.65  15.09 )">L-R</text><text style="&st18;" transform="matrix(&st16;  7796.64  26.42 )">(*1)</text><text style="&st18;" transform="matrix(&st16;  7796.64  15.09 )">L-R</text></svg>