﻿<?xml version="1.0" encoding="utf-8"?>
<!DOCTYPE svg PUBLIC "-//W3C//DTD SVG 1.0//EN" "http://www.w3.org/TR/2001/REC-SVG-20010904/DTD/svg10.dtd"[
	<!ENTITY ns_flows "http://ns.adobe.com/Flows/1.0/">
	<!ENTITY ns_svg "http://www.w3.org/2000/svg">
	<!ENTITY ns_xlink "http://www.w3.org/1999/xlink">
	<!ENTITY st0 "font-size:7px;font-family:'MS-PGothic';adobe-font-script:japanese;">
	<!ENTITY st1 "font-size:6px;font-family:'ArialMT';">
	<!-- White fill  -->
	<!ENTITY st2 "fill:#FFFFFF;stroke:#000000; stroke-width:1.41;stroke-linecap:round;stroke-linejoin:round;">
	<!-- Yellow fill  -->
	<!ENTITY st3 "fill:#FFFFCC;stroke:#FFFFCC; stroke-width:0.1;stroke-linecap:round;stroke-linejoin:round;">
	<!-- Gray fill  -->
	<!ENTITY st4 "fill:#CCCCCC;stroke:#CCCCCC; stroke-width:0.1;stroke-linecap:round;stroke-linejoin:round;">
	<!-- Light-blue fill -->
	<!ENTITY st5 "fill:#CCECF4;stroke:#000000; stroke-width:1.133;stroke-linecap:round;stroke-linejoin:round;">
	<!ENTITY st6 "fill:none;stroke-linecap:butt; stroke-linejoin:round;">
	<!ENTITY st7 "fill:none;stroke:#000000;stroke-linecap:round;stroke-linejoin:round;">
	<!ENTITY st8 "enable-background:new    ;">
	<!-- Black fill -->
	<!ENTITY st9 "fill:#000000;stroke:#000000; stroke-linecap:round;stroke-linejoin:round;">
	<!-- SRS note   -->
	<!ENTITY st10 "font-size:9px;font-family:'ArialMT';">
	<!ENTITY st11 "font-size:9px;font-family:'Svg Symbol';">
	<!ENTITY st12 "font-size:6px;font-family:'Svg Symbol';">
	<!ENTITY st13 "fill:none;stroke:#ff0000;stroke-linecap:round;stroke-linejoin:round;">
	<!-- Yellow fill  -->
	<!ENTITY st14 "fill:#FFFF00;stroke:#FFFF00; stroke-width:0.1;stroke-linecap:round;stroke-linejoin:round;">
	<!ENTITY st15 "font-size:6px;font-family:'MS-PGothic';adobe-font-script:japanese;">
	<!ENTITY st16 "1.00 0.00 0.00 1.00">
	<!ENTITY st17 "0.00 -1.00 1.00 0.00">
	<!ENTITY st18 "font-size:6px;font-family:'Arial';">
	<!ENTITY st19 "font-size:9px;font-family:'Arial';">
	<!ENTITY st20 "font-size:6px;font-family:'MS-PGothic','MS PGothic';adobe-font-script:japanese;">
	<!ENTITY st21 "font-size:7px;font-family:'MS-PGothic','MS PGothic';adobe-font-script:japanese;">
	<!ATTLIST svg
		xmlns:ewd CDATA #FIXED "http://shcl.co.jp/ewd"
		xmlns:a CDATA #FIXED "http://ns.adobe.com/AdobeSVGViewerExtensions/3.0/"
		ewd:ver CDATA #IMPLIED
	>
	<!ATTLIST a
		ewd:lineID CDATA #IMPLIED
		ewd:groupID CDATA #IMPLIED
		ewd:figtype CDATA #IMPLIED
		ewd:code CDATA #IMPLIED
		ewd:figID CDATA #IMPLIED
		ewd:pinNo CDATA #IMPLIED
		ewd:comment CDATA #IMPLIED >
	<!ATTLIST g
		ewd:lineID CDATA #IMPLIED
		ewd:groupID CDATA #IMPLIED
		ewd:figtype CDATA #IMPLIED
		ewd:code CDATA #IMPLIED
		ewd:figID CDATA #IMPLIED
		ewd:pinNo CDATA #IMPLIED
		ewd:comment CDATA #IMPLIED >
	<!ATTLIST text
		ewd:textID CDATA #IMPLIED >
	<!ATTLIST title
		ewd:textID CDATA #IMPLIED >
]>
<!-- Generator: Shintec Hozumi YS   -->
<svg onload="call_execInitLoadProc_svg('system')" style="overflow:visible;  enable-background:new 0 0 3085.693 710.000" viewBox="0 0 3085.693 710.000" height="710.000" width="3085.693" xml:space="preserve" ewd:ver="L2.3.0.14" xmlns="&ns_svg;" xmlns:a="http://ns.adobe.com/AdobeSVGViewerExtensions/3.0/" xmlns:ewd="http://shcl.co.jp/ewd" xmlns:xlink="&ns_xlink;">
<path d=" M    25.50,    69.77  L    25.50,    95.27  " style="stroke-width: 0.85 ;&st7;  " /><path d=" M    27.62,    95.27  L    23.37,    95.27  " style="stroke-width: 1.42 ;&st7;  " /><path d=" M    27.62,   103.77  L    23.37,   103.77  " style="stroke-width: 1.42 ;&st7;  " /><path d=" M    17.00,   222.75  L    25.50,   222.75  " style="stroke-width: 1.42 ;&st7;  " /><path d=" M    17.00,   282.24  L    25.50,   282.24  " style="stroke-width: 1.42 ;&st7;  " /><path d=" M    84.99,    69.77  L    84.99,    95.27  " style="stroke-width: 0.85 ;&st7;  " /><path d=" M    87.11,   103.77  L    82.86,   103.77  " style="stroke-width: 1.42 ;&st7;  " /><path d=" M   146.60,    95.27  L   142.35,    95.27  " style="stroke-width: 1.42 ;&st7;  " /><path d=" M   212.46,   231.25  L   203.97,   231.25  " style="stroke-width: 1.42 ;&st7;  " /><path d=" M   212.46,   290.74  L   203.97,   290.74  " style="stroke-width: 1.42 ;&st7;  " /><path d=" M    87.11,    95.27  L    82.86,    95.27  " style="stroke-width: 1.42 ;&st7;  " /><path d=" M   144.48,    69.77  L   144.48,    95.27  " style="stroke-width: 0.85 ;&st7;  " /><path d=" M   146.60,   103.77  L   142.35,   103.77  " style="stroke-width: 1.42 ;&st7;  " /><path d=" M   382.44,   222.75  L   373.94,   222.75  " style="stroke-width: 1.42 ;&st7;  " /><path d=" M    76.49,   282.24  L    84.99,   282.24  " style="stroke-width: 1.42 ;&st7;  " /><path d=" M    89.24,   276.57  L    84.99,   280.82  L    80.74,   276.57  " style="stroke-width: 1.42 ;&st7;  " /><path d=" M    80.74,   273.17  L    84.99,   277.42  L    89.24,   273.17  " style="stroke-width: 1.42 ;&st7;  " /><path d=" M   378.19,   228.41  L   373.94,   224.16  L   369.69,   228.41  " style="stroke-width: 1.42 ;&st7;  " /><path d=" M   378.19,   231.81  L   373.94,   227.56  L   369.69,   231.81  " style="stroke-width: 1.42 ;&st7;  " /><path d=" M   269.12,   707.17  L   274.79,   707.17  " style="stroke-width: 0.85 ;&st7;  " /><path d=" M   270.54,   710.00  L   273.37,   710.00  " style="stroke-width: 0.85 ;&st7;  " /><path d=" M    84.99,   418.22  L    93.48,   418.22  " style="stroke-width: 0.85 ;&st7;  " /><path d=" M   203.97,   163.26  L   203.97,   180.26  " style="stroke-width: 0.85 ;&st7;  " /><path d=" M    83.79,   417.21  L    83.52,   417.68  L    83.43,   418.22  L    83.52,   418.75  L    83.79,   419.22  L    84.21,   419.56  L    84.71,   419.75  L    85.26,   419.75  L    85.76,   419.56  L    86.18,   419.22  L    86.45,   418.75  L    86.54,   418.22  L    86.45,   417.68  L    86.18,   417.21  L    85.76,   416.87  L    85.26,   416.68  L    84.71,   416.68  L    84.21,   416.87  L    83.79,   417.21  L    84.19,   417.92  L    84.19,   418.51  L    84.56,   418.95  L    85.13,   419.05  L    85.64,   418.76  L    85.84,   418.22  L    85.64,   417.67  L    85.13,   417.38  L    84.56,   417.48  L    84.99,   418.22  " style="stroke-width: 0.85 ;&st7;  " /><path d=" M    84.99,   409.72  L    84.99,   426.71  " style="stroke-width: 0.85 ;&st7;  " /><path d=" M    76.49,   409.72  L    76.49,   426.71  L    93.48,   426.71  L    93.48,   409.72  L    76.49,   409.72  " style="stroke-width: 1.42 ;&st7;  " /><path d=" M   267.71,   704.33  L   276.20,   704.33  " style="stroke-width: 0.85 ;&st7;  " /><path d=" M   263.46,   701.50  L   280.45,   701.50  " style="stroke-width: 0.85 ;&st7;  " /><path d=" M   271.95,   697.25  L   271.95,   701.50  " style="stroke-width: 0.85 ;&st7;  " /><path d=" M   373.94,   154.76  L   373.94,   171.76  " style="stroke-width: 0.85 ;&st7;  " /><path d=" M    29.75,   276.57  L    25.50,   280.82  L    21.25,   276.57  " style="stroke-width: 1.42 ;&st7;  " /><path d=" M    21.25,   273.17  L    25.50,   277.42  L    29.75,   273.17  " style="stroke-width: 1.42 ;&st7;  " /><path d=" M    29.75,   217.08  L    25.50,   221.33  L    21.25,   217.08  " style="stroke-width: 1.42 ;&st7;  " /><path d=" M    21.25,   213.68  L    25.50,   217.93  L    29.75,   213.68  " style="stroke-width: 1.42 ;&st7;  " /><path d=" M   365.44,   154.76  L   382.44,   154.76  L   382.44,   171.76  L   365.44,   171.76  L   365.44,   154.76  " style="stroke-width: 1.42 ;&st7;  " /><path d=" M    12.75,    35.78  L    12.75,    78.27  L    38.24,    78.27  L    38.24,    35.78  L    12.75,    35.78  " style="stroke-width: 1.42 ;&st7;  " /><path d=" M    25.50,    90.37  L    22.66,    87.54  L    22.66,    91.79  L    25.50,    94.62  L    28.33,    91.79  L    28.33,    87.54  L    25.50,    90.37  " style="stroke-width: 0.28 ;&st9;  " /><path d=" M   314.45,   622.18  L  1546.74,   622.18  L  1546.74,   588.19  L   314.45,   588.19  L   314.45,   622.18  " style="stroke-width: 1.42 ;&st7;  " /><path d=" M   208.22,   296.40  L   203.97,   292.15  L   199.72,   296.40  " style="stroke-width: 1.42 ;&st7;  " /><path d=" M   208.22,   299.80  L   203.97,   295.55  L   199.72,   299.80  " style="stroke-width: 1.42 ;&st7;  " /><path d=" M   208.22,   236.91  L   203.97,   232.66  L   199.72,   236.91  " style="stroke-width: 1.42 ;&st7;  " /><path d=" M   208.22,   240.31  L   203.97,   236.06  L   199.72,   240.31  " style="stroke-width: 1.42 ;&st7;  " /><path d=" M   203.97,   163.26  L   203.97,   180.26  " style="stroke-width: 0.85 ;&st7;  " /><path d=" M   195.47,   163.26  L   212.46,   163.26  L   212.46,   180.26  L   195.47,   180.26  L   195.47,   163.26  " style="stroke-width: 1.42 ;&st7;  " /><path d=" M   186.97,   103.77  L  3084.98,   103.77  L  3084.98,    69.77  L   186.97,    69.77  L   186.97,   103.77  " style="stroke-width: 1.42 ;&st7;  " /><path d=" M   131.73,    35.78  L   131.73,    78.27  L   157.22,    78.27  L   157.22,    35.78  L   131.73,    35.78  " style="stroke-width: 1.42 ;&st7;  " /><path d=" M   144.48,    90.37  L   141.64,    87.54  L   141.64,    91.79  L   144.48,    94.62  L   147.31,    91.79  L   147.31,    87.54  L   144.48,    90.37  " style="stroke-width: 0.28 ;&st9;  " /><path d=" M    72.24,    35.78  L    72.24,    78.27  L    97.73,    78.27  L    97.73,    35.78  L    72.24,    35.78  " style="stroke-width: 1.42 ;&st7;  " /><path d=" M    84.99,    90.37  L    82.15,    87.54  L    82.15,    91.79  L    84.99,    94.62  L    87.82,    91.79  L    87.82,    87.54  L    84.99,    90.37  " style="stroke-width: 0.28 ;&st9;  " /><path d=" M   356.94,   307.73  L   390.93,   307.73  L   390.93,   273.74  L   356.94,   273.74  L   356.94,   307.73  " style="stroke-width: 1.42 ;&st7;  " /><path d=" M   378.47,   269.21  C   378.47    266.70    376.44    264.67    373.94    264.67  " style="stroke-width: 1.42 ;&st7;   " /><path d=" M   373.94,   264.67  C   371.43    264.67    369.40    266.70    369.40    269.21  " style="stroke-width: 1.42 ;&st7;   " /><path d=" M   369.40,   269.21  C   369.40    271.71    371.43    273.74    373.94    273.74  " style="stroke-width: 1.42 ;&st7;   " /><path d=" M   373.94,   273.74  C   376.44    273.74    378.47    271.71    378.47    269.21  " style="stroke-width: 1.42 ;&st7;   " /><path d=" M    91.36,    99.52  C    91.36     97.17     89.46     95.27     87.11     95.27  " style="stroke-width: 1.42 ;&st7;   " /><path d=" M   144.48,    47.11  C   141.74     48.72    140.83     52.25    142.44     54.99  " style="stroke-width: 1.42 ;&st7;   " /><path d=" M   142.44,    54.99  C   142.96     55.87    143.59     56.51    144.48     57.03  " style="stroke-width: 1.42 ;&st7;   " /><path d=" M   144.48,    66.94  C   147.21     65.33    148.13     61.80    146.51     59.06  " style="stroke-width: 1.42 ;&st7;   " /><path d=" M   146.51,    59.06  C   145.99     58.18    145.36     57.55    144.48     57.03  " style="stroke-width: 1.42 ;&st7;   " /><path d=" M   145.89,    45.69  C   145.89     44.91    145.26     44.28    144.48     44.28  " style="stroke-width: 0.85 ;&st7;   " /><path d=" M   144.48,    44.28  C   143.69     44.28    143.06     44.91    143.06     45.69  " style="stroke-width: 0.85 ;&st7;   " /><path d=" M   143.06,    45.69  C   143.06     46.48    143.69     47.11    144.48     47.11  " style="stroke-width: 0.85 ;&st7;   " /><path d=" M   144.48,    47.11  C   145.26     47.11    145.89     46.48    145.89     45.69  " style="stroke-width: 0.85 ;&st7;   " /><path d=" M   145.89,    68.36  C   145.89     67.57    145.26     66.94    144.48     66.94  " style="stroke-width: 0.85 ;&st7;   " /><path d=" M   144.48,    66.94  C   143.69     66.94    143.06     67.57    143.06     68.36  " style="stroke-width: 0.85 ;&st7;   " /><path d=" M   143.06,    68.36  C   143.06     69.14    143.69     69.77    144.48     69.77  " style="stroke-width: 0.85 ;&st7;   " /><path d=" M   144.48,    69.77  C   145.26     69.77    145.89     69.14    145.89     68.36  " style="stroke-width: 0.85 ;&st7;   " /><path d=" M   142.35,    95.27  C   140.00     95.27    138.10     97.17    138.10     99.52  " style="stroke-width: 1.42 ;&st7;   " /><path d=" M   138.10,    99.52  C   138.10    101.87    140.00    103.77    142.35    103.77  " style="stroke-width: 1.42 ;&st7;   " /><path d=" M   146.60,   103.77  C   148.95    103.77    150.85    101.87    150.85     99.52  " style="stroke-width: 1.42 ;&st7;   " /><path d=" M   150.85,    99.52  C   150.85     97.17    148.95     95.27    146.60     95.27  " style="stroke-width: 1.42 ;&st7;   " /><path d=" M    25.50,    47.11  C    22.76     48.72     21.85     52.25     23.46     54.99  " style="stroke-width: 1.42 ;&st7;   " /><path d=" M    23.46,    54.99  C    23.98     55.87     24.61     56.51     25.50     57.03  " style="stroke-width: 1.42 ;&st7;   " /><path d=" M    25.50,    66.94  C    28.23     65.33     29.15     61.80     27.53     59.06  " style="stroke-width: 1.42 ;&st7;   " /><path d=" M    27.53,    59.06  C    27.01     58.18     26.38     57.55     25.50     57.03  " style="stroke-width: 1.42 ;&st7;   " /><path d=" M    26.91,    45.69  C    26.91     44.91     26.28     44.28     25.50     44.28  " style="stroke-width: 0.85 ;&st7;   " /><path d=" M    25.50,    44.28  C    24.71     44.28     24.08     44.91     24.08     45.69  " style="stroke-width: 0.85 ;&st7;   " /><path d=" M    24.08,    45.69  C    24.08     46.48     24.71     47.11     25.50     47.11  " style="stroke-width: 0.85 ;&st7;   " /><path d=" M    25.50,    47.11  C    26.28     47.11     26.91     46.48     26.91     45.69  " style="stroke-width: 0.85 ;&st7;   " /><path d=" M    26.91,    68.36  C    26.91     67.57     26.28     66.94     25.50     66.94  " style="stroke-width: 0.85 ;&st7;   " /><path d=" M    25.50,    66.94  C    24.71     66.94     24.08     67.57     24.08     68.36  " style="stroke-width: 0.85 ;&st7;   " /><path d=" M    24.08,    68.36  C    24.08     69.14     24.71     69.77     25.50     69.77  " style="stroke-width: 0.85 ;&st7;   " /><path d=" M    25.50,    69.77  C    26.28     69.77     26.91     69.14     26.91     68.36  " style="stroke-width: 0.85 ;&st7;   " /><path d=" M    23.37,    95.27  C    21.02     95.27     19.12     97.17     19.12     99.52  " style="stroke-width: 1.42 ;&st7;   " /><path d=" M    19.12,    99.52  C    19.12    101.87     21.02    103.77     23.37    103.77  " style="stroke-width: 1.42 ;&st7;   " /><path d=" M    27.62,   103.77  C    29.97    103.77     31.87    101.87     31.87     99.52  " style="stroke-width: 1.42 ;&st7;   " /><path d=" M    31.87,    99.52  C    31.87     97.17     29.97     95.27     27.62     95.27  " style="stroke-width: 1.42 ;&st7;   " /><path d=" M   361.47,   583.65  C   361.47    581.15    359.44    579.12    356.94    579.12  " style="stroke-width: 1.42 ;&st7;   " /><path d=" M   356.94,   579.12  C   354.44    579.12    352.41    581.15    352.41    583.65  " style="stroke-width: 1.42 ;&st7;   " /><path d=" M   352.41,   583.65  C   352.41    586.16    354.44    588.19    356.94    588.19  " style="stroke-width: 1.42 ;&st7;   " /><path d=" M   356.94,   588.19  C   359.44    588.19    361.47    586.16    361.47    583.65  " style="stroke-width: 1.42 ;&st7;   " /><path d=" M    87.11,   103.77  C    89.46    103.77     91.36    101.87     91.36     99.52  " style="stroke-width: 1.42 ;&st7;   " /><path d=" M   208.50,   108.30  C   208.50    105.80    206.47    103.77    203.97    103.77  " style="stroke-width: 1.42 ;&st7;   " /><path d=" M   203.97,   103.77  C   201.46    103.77    199.43    105.80    199.43    108.30  " style="stroke-width: 1.42 ;&st7;   " /><path d=" M   199.43,   108.30  C   199.43    110.80    201.46    112.83    203.97    112.83  " style="stroke-width: 1.42 ;&st7;   " /><path d=" M   203.97,   112.83  C   206.47    112.83    208.50    110.80    208.50    108.30  " style="stroke-width: 1.42 ;&st7;   " /><path d=" M   446.46,   108.30  C   446.46    105.80    444.43    103.77    441.93    103.77  " style="stroke-width: 1.42 ;&st7;   " /><path d=" M   441.93,   103.77  C   439.42    103.77    437.39    105.80    437.39    108.30  " style="stroke-width: 1.42 ;&st7;   " /><path d=" M   437.39,   108.30  C   437.39    110.80    439.42    112.83    441.93    112.83  " style="stroke-width: 1.42 ;&st7;   " /><path d=" M   441.93,   112.83  C   444.43    112.83    446.46    110.80    446.46    108.30  " style="stroke-width: 1.42 ;&st7;   " /><path d=" M    82.86,    95.27  C    80.51     95.27     78.61     97.17     78.61     99.52  " style="stroke-width: 1.42 ;&st7;   " /><path d=" M    86.40,    68.36  C    86.40     67.57     85.77     66.94     84.99     66.94  " style="stroke-width: 0.85 ;&st7;   " /><path d=" M    84.99,    66.94  C    84.20     66.94     83.57     67.57     83.57     68.36  " style="stroke-width: 0.85 ;&st7;   " /><path d=" M    83.57,    68.36  C    83.57     69.14     84.20     69.77     84.99     69.77  " style="stroke-width: 0.85 ;&st7;   " /><path d=" M    84.99,    69.77  C    85.77     69.77     86.40     69.14     86.40     68.36  " style="stroke-width: 0.85 ;&st7;   " /><path d=" M    86.40,    45.69  C    86.40     44.91     85.77     44.28     84.99     44.28  " style="stroke-width: 0.85 ;&st7;   " /><path d=" M    84.99,    44.28  C    84.20     44.28     83.57     44.91     83.57     45.69  " style="stroke-width: 0.85 ;&st7;   " /><path d=" M    83.57,    45.69  C    83.57     46.48     84.20     47.11     84.99     47.11  " style="stroke-width: 0.85 ;&st7;   " /><path d=" M    84.99,    47.11  C    85.77     47.11     86.40     46.48     86.40     45.69  " style="stroke-width: 0.85 ;&st7;   " /><path d=" M    84.99,    66.94  C    87.72     65.33     88.64     61.80     87.02     59.06  " style="stroke-width: 1.42 ;&st7;   " /><path d=" M    87.02,    59.06  C    86.50     58.18     85.87     57.55     84.99     57.03  " style="stroke-width: 1.42 ;&st7;   " /><path d=" M    84.99,    47.11  C    82.25     48.72     81.34     52.25     82.95     54.99  " style="stroke-width: 1.42 ;&st7;   " /><path d=" M    82.95,    54.99  C    83.47     55.87     84.10     56.51     84.99     57.03  " style="stroke-width: 1.42 ;&st7;   " /><path d=" M    78.61,    99.52  C    78.61    101.87     80.51    103.77     82.86    103.77  " style="stroke-width: 1.42 ;&st7;   " /><path d=" M   471.95,   108.30  C   471.95    105.80    469.93    103.77    467.42    103.77  " style="stroke-width: 1.42 ;&st7;   " /><path d=" M   467.42,   103.77  C   464.92    103.77    462.89    105.80    462.89    108.30  " style="stroke-width: 1.42 ;&st7;   " /><path d=" M   462.89,   108.30  C   462.89    110.80    464.92    112.83    467.42    112.83  " style="stroke-width: 1.42 ;&st7;   " /><path d=" M   467.42,   112.83  C   469.93    112.83    471.95    110.80    471.95    108.30  " style="stroke-width: 1.42 ;&st7;   " /><path d=" M   335.98,   583.65  C   335.98    581.15    333.95    579.12    331.44    579.12  " style="stroke-width: 1.42 ;&st7;   " /><path d=" M   331.44,   579.12  C   328.94    579.12    326.91    581.15    326.91    583.65  " style="stroke-width: 1.42 ;&st7;   " /><path d=" M   326.91,   583.65  C   326.91    586.16    328.94    588.19    331.44    588.19  " style="stroke-width: 1.42 ;&st7;   " /><path d=" M   331.44,   588.19  C   333.95    588.19    335.98    586.16    335.98    583.65  " style="stroke-width: 1.42 ;&st7;   " /><path d=" M   250.99,   108.30  C   250.99    105.80    248.96    103.77    246.46    103.77  " style="stroke-width: 1.42 ;&st7;   " /><path d=" M   246.46,   103.77  C   243.96    103.77    241.93    105.80    241.93    108.30  " style="stroke-width: 1.42 ;&st7;   " /><path d=" M   241.93,   108.30  C   241.93    110.80    243.96    112.83    246.46    112.83  " style="stroke-width: 1.42 ;&st7;   " /><path d=" M   246.46,   112.83  C   248.96    112.83    250.99    110.80    250.99    108.30  " style="stroke-width: 1.42 ;&st7;   " /><path d=" M   284.99,   108.30  C   284.99    105.80    282.96    103.77    280.45    103.77  " style="stroke-width: 1.42 ;&st7;   " /><path d=" M   280.45,   103.77  C   277.95    103.77    275.92    105.80    275.92    108.30  " style="stroke-width: 1.42 ;&st7;   " /><path d=" M   275.92,   108.30  C   275.92    110.80    277.95    112.83    280.45    112.83  " style="stroke-width: 1.42 ;&st7;   " /><path d=" M   280.45,   112.83  C   282.96    112.83    284.99    110.80    284.99    108.30  " style="stroke-width: 1.42 ;&st7;   " /><path d=" M   378.47,   108.30  C   378.47    105.80    376.44    103.77    373.94    103.77  " style="stroke-width: 1.42 ;&st7;   " /><path d=" M   373.94,   103.77  C   371.43    103.77    369.40    105.80    369.40    108.30  " style="stroke-width: 1.42 ;&st7;   " /><path d=" M   369.40,   108.30  C   369.40    110.80    371.43    112.83    373.94    112.83  " style="stroke-width: 1.42 ;&st7;   " /><path d=" M   373.94,   112.83  C   376.44    112.83    378.47    110.80    378.47    108.30  " style="stroke-width: 1.42 ;&st7;   " /><path d=" M   420.96,   583.65  C   420.96    581.15    418.93    579.12    416.43    579.12  " style="stroke-width: 1.42 ;&st7;   " /><path d=" M   416.43,   579.12  C   413.93    579.12    411.90    581.15    411.90    583.65  " style="stroke-width: 1.42 ;&st7;   " /><path d=" M   411.90,   583.65  C   411.90    586.16    413.93    588.19    416.43    588.19  " style="stroke-width: 1.42 ;&st7;   " /><path d=" M   416.43,   588.19  C   418.93    588.19    420.96    586.16    420.96    583.65  " style="stroke-width: 1.42 ;&st7;   " /><path d=" M   386.97,   583.65  C   386.97    581.15    384.94    579.12    382.44    579.12  " style="stroke-width: 1.42 ;&st7;   " /><path d=" M   382.44,   579.12  C   379.93    579.12    377.90    581.15    377.90    583.65  " style="stroke-width: 1.42 ;&st7;   " /><path d=" M   377.90,   583.65  C   377.90    586.16    379.93    588.19    382.44    588.19  " style="stroke-width: 1.42 ;&st7;   " /><path d=" M   382.44,   588.19  C   384.94    588.19    386.97    586.16    386.97    583.65  " style="stroke-width: 1.42 ;&st7;   " /><path d=" M   446.46,   583.65  C   446.46    581.15    444.43    579.12    441.93    579.12  " style="stroke-width: 1.42 ;&st7;   " /><path d=" M   441.93,   579.12  C   439.42    579.12    437.39    581.15    437.39    583.65  " style="stroke-width: 1.42 ;&st7;   " /><path d=" M   437.39,   583.65  C   437.39    586.16    439.42    588.19    441.93    588.19  " style="stroke-width: 1.42 ;&st7;   " /><path d=" M   441.93,   588.19  C   444.43    588.19    446.46    586.16    446.46    583.65  " style="stroke-width: 1.42 ;&st7;   " /><path d=" M   471.95,   583.65  C   471.95    581.15    469.93    579.12    467.42    579.12  " style="stroke-width: 1.42 ;&st7;   " /><path d=" M   467.42,   579.12  C   464.92    579.12    462.89    581.15    462.89    583.65  " style="stroke-width: 1.42 ;&st7;   " /><path d=" M   462.89,   583.65  C   462.89    586.16    464.92    588.19    467.42    588.19  " style="stroke-width: 1.42 ;&st7;   " /><path d=" M   467.42,   588.19  C   469.93    588.19    471.95    586.16    471.95    583.65  " style="stroke-width: 1.42 ;&st7;   " /><path d=" M   497.45,   108.30  C   497.45    105.80    495.42    103.77    492.92    103.77  " style="stroke-width: 1.42 ;&st7;   " /><path d=" M   492.92,   103.77  C   490.41    103.77    488.39    105.80    488.39    108.30  " style="stroke-width: 1.42 ;&st7;   " /><path d=" M   488.39,   108.30  C   488.39    110.80    490.41    112.83    492.92    112.83  " style="stroke-width: 1.42 ;&st7;   " /><path d=" M   492.92,   112.83  C   495.42    112.83    497.45    110.80    497.45    108.30  " style="stroke-width: 1.42 ;&st7;   " /><path d=" M   497.45,   583.65  C   497.45    581.15    495.42    579.12    492.92    579.12  " style="stroke-width: 1.42 ;&st7;   " /><path d=" M   492.92,   579.12  C   490.41    579.12    488.39    581.15    488.39    583.65  " style="stroke-width: 1.42 ;&st7;   " /><path d=" M   488.39,   583.65  C   488.39    586.16    490.41    588.19    492.92    588.19  " style="stroke-width: 1.42 ;&st7;   " /><path d=" M   492.92,   588.19  C   495.42    588.19    497.45    586.16    497.45    583.65  " style="stroke-width: 1.42 ;&st7;   " /><text style="&st18;" transform="matrix(&st16;  244.19  110.27 )">A</text><text style="&st18;" transform="matrix(&st16;  267.64  110.27 )">11</text><text style="&st18;" transform="matrix(&st16;  278.19  110.27 )">A</text><text style="&st18;" transform="matrix(&st16;  457.94  110.27 )">5</text><text style="&st18;" transform="matrix(&st16;  465.16  110.27 )">A</text><text style="&st18;" transform="matrix(&st16;  361.12  110.27 )">20</text><text style="&st18;" transform="matrix(&st16;  371.67  110.27 )">B</text><text style="&st18;" transform="matrix(&st16;  354.67  585.62 )">A</text><text style="&st18;" transform="matrix(&st16;  403.62  585.62 )">12</text><text style="&st18;" transform="matrix(&st16;  414.01  585.62 )">D</text><text style="&st18;" transform="matrix(&st16;  372.96  585.62 )">3</text><text style="&st18;" transform="matrix(&st16;  380.17  585.62 )">A</text><text style="&st18;" transform="matrix(&st16;  432.45  585.62 )">7</text><text style="&st18;" transform="matrix(&st16;  439.51  585.62 )">D</text><text style="&st18;" transform="matrix(&st16;  457.94  585.62 )">8</text><text style="&st18;" transform="matrix(&st16;  465.0  585.62 )">D</text><text style="&st18;" transform="matrix(&st16;  376.8  595.82 )">+B2</text><text style="&st18;" transform="matrix(&st16;  483.44  110.27 )">7</text><text style="&st18;" transform="matrix(&st16;  490.65  110.27 )">A</text><text style="&st18;" transform="matrix(&st16;  483.44  585.62 )">1</text><text style="&st18;" transform="matrix(&st16;  490.5  585.62 )">D</text><text style="&st18;" transform="matrix(&st16;  322.86  595.82 )">GND2</text><text style="&st18;" transform="matrix(&st16;  409.82  595.82 )">ACC</text><text style="&st18;" transform="matrix(&st16;  350.02  595.82 )">GND</text><text style="&st18;" transform="matrix(&st16;  461.67  595.82 )">TX+</text><text style="&st18;" transform="matrix(&st16;  436.91  595.82 )">TX-</text><text style="&st18;" transform="matrix(&st16;  319.53  629.79 )">F2(A),F3(F),F18(D),F52(G)</text><text style="&st18;" transform="matrix(&st17;  276.76  133.51 )">GR</text><text style="&st18;" transform="matrix(&st17;  370.24  130.64 )">L</text><text style="&st18;" transform="matrix(&st17;  489.22  275.51 )">B</text><text ewd:textID="37" style="&st18;" transform="matrix(&st16;  319.54  636.9 )">Stereo Component Amplifier Assembly</text><text style="&st18;" transform="matrix(&st16;  201.7  100.07 )">B</text><text style="&st18;" transform="matrix(&st16;  239.54  100.07 )">GND</text><text style="&st18;" transform="matrix(&st16;  273.84  100.07 )">ACC</text><text style="&st18;" transform="matrix(&st16;  484.14  100.07 )">MUTE</text><text style="&st18;" transform="matrix(&st16;  366.2  100.07 )">ADIM</text><text style="&st18;" transform="matrix(&st16;  459.65  100.07 )">ATX+</text><text style="&st18;" transform="matrix(&st16;  434.89  100.07 )">ATX-</text><text ewd:textID="16" style="&st18;" transform="matrix(&st17;  397.15  174.66 )">Junction <tspan dy="6.0" x="0 ">Connector</tspan></text><text style="&st18;" transform="matrix(&st17;  390.05  174.66 )">F73</text><text style="&st18;" transform="matrix(&st16;  360.52  220.47 )">5</text><text style="&st18;" transform="matrix(&st17;  370.24  198.63 )">L</text><text style="&st18;" transform="matrix(&st17;  370.24  249.62 )">L</text><text style="&st18;" transform="matrix(&st16;  101.41  56.17 )">7.5A <tspan dy="6.0" x="0 ">ACC</tspan></text><text style="&st18;" transform="matrix(&st16;  76.4  32.08 )">(ACC)</text><text style="&st18;" transform="matrix(&st16;  138.14  86.47 )">2</text><text style="&st18;" transform="matrix(&st16;  190.55  228.97 )">3</text><text style="&st18;" transform="matrix(&st16;  197.63  159.57 )">2</text><text style="&st18;" transform="matrix(&st16;  201.7  110.27 )">A</text><text style="&st18;" transform="matrix(&st16;  142.6  101.49 )">1</text><text style="&st18;" transform="matrix(&st16;  73.69  101.49 )">1</text><text style="&st18;" transform="matrix(&st16;  194.49  110.27 )">1</text><text style="&st18;" transform="matrix(&st16;  81.09  101.49 )">2E</text><text style="&st18;" transform="matrix(&st16;  160.9  53.34 )">10A <tspan dy="6.0" x="0 ">RAD </tspan><tspan dy="6.0" x="0 ">NO.1</tspan></text><text style="&st18;" transform="matrix(&st16;  136.39  32.08 )">(BAT)</text><text style="&st18;" transform="matrix(&st16;  197.63  188.45 )">1</text><text style="&st18;" transform="matrix(&st16;  321.96  585.62 )">6</text><text style="&st18;" transform="matrix(&st16;  364.26  179.95 )">22</text><text style="&st18;" transform="matrix(&st17;  200.27  258.12 )">L</text><text style="&st18;" transform="matrix(&st17;  140.78  133.67 )">L-B</text><text style="&st18;" transform="matrix(&st16;  429.11  110.27 )">15</text><text style="&st18;" transform="matrix(&st16;  364.26  151.07 )">20</text><text style="&st18;" transform="matrix(&st16;  41.92  56.17 )">30A <tspan dy="6.0" x="0 ">AMP1</tspan></text><text style="&st18;" transform="matrix(&st16;  23.62  101.49 )">1</text><text style="&st18;" transform="matrix(&st16;  19.16  86.47 )">2</text><text style="&st18;" transform="matrix(&st16;  17.41  32.08 )">(BAT)</text><text style="&st18;" transform="matrix(&st16;  8.74  228.97 )">30</text><text style="&st18;" transform="matrix(&st16;  12.08  288.46 )">8</text><text style="&st18;" transform="matrix(&st17;  327.75  559.91 )">W-B</text><text style="&st18;" transform="matrix(&st17;  242.76  133.2 )">BR</text><text style="&st18;" transform="matrix(&st17;  21.8  133.67 )">L-B</text><text style="&st18;" transform="matrix(&st17;  353.25  559.91 )">W-B</text><text style="&st18;" transform="matrix(&st17;  21.8  258.12 )">L</text><text ewd:textID="16" style="&st18;" transform="matrix(&st17;  227.18  183.16 )">Junction <tspan dy="6.0" x="0 ">Connector</tspan></text><text style="&st18;" transform="matrix(&st17;  220.08  183.15 )">F73</text><text style="&st18;" transform="matrix(&st17;  81.29  133.51 )">GR</text><text style="&st18;" transform="matrix(&st17;  412.73  558.44 )">GR</text><text style="&st18;" transform="matrix(&st16;  347.46  585.62 )">2</text><text style="&st18;" transform="matrix(&st16;  439.66  110.27 )">A</text><text style="&st18;" transform="matrix(&st16;  484.14  595.82 )">MUTE</text><text style="&st18;" transform="matrix(&st17;  200.27  130.64 )">L</text><text style="&st18;" transform="matrix(&st16;  187.21  288.46 )">35</text><text style="&st18;" transform="matrix(&st17;  200.27  207.13 )">L</text><text style="&st18;" transform="matrix(&st16;  329.18  585.62 )">A</text><text style="&st18;" transform="matrix(&st16;  75.31  406.03 )">12</text><text style="&st18;" transform="matrix(&st16;  75.31  434.91 )">13</text><text ewd:textID="16" style="&st18;" transform="matrix(&st16;  95.74  435.77 )">Junction Connector</text><text style="&st18;" transform="matrix(&st16;  95.74  428.66 )">F20</text><text style="&st18;" transform="matrix(&st16;  199.22  414.52 )">GR</text><text style="&st18;" transform="matrix(&st16;  199.22  457.01 )">GR</text><text style="&st18;" transform="matrix(&st17;  81.29  320.48 )">GR</text><text style="&st18;" transform="matrix(&st17;  242.76  558.13 )">BR</text><text style="&st18;" transform="matrix(&st16;  233.64  110.27 )">20</text><text style="&st18;" transform="matrix(&st16;  71.57  288.46 )">4</text><text style="&st18;" transform="matrix(&st16;  96.07  414.53 )">20</text><text ewd:textID="24" style="&st18;" transform="matrix(&st16;  294.04  66.08 )">Radio Receiver Assembly</text><text style="&st18;" transform="matrix(&st16;  294.04  58.97 )">F1(A),F19(B),F54(C),F55(D)</text><text style="&st18;" transform="matrix(&st16;  365.31  281.37 )">ACAN</text><text style="&st18;" transform="matrix(&st16;  371.67  271.18 )">B</text><text style="&st18;" transform="matrix(&st16;  361.12  271.18 )">16</text><text ewd:textID="17" style="&st18;" transform="matrix(&st16;  353.53  322.45 )">Main Body <tspan dy="6.0" x="0 ">ECU</tspan></text><text style="&st18;" transform="matrix(&st16;  353.53  315.34 )">E2(B)</text><text style="&st18;" transform="matrix(&st17;  463.73  275.66 )">R</text><text style="&st18;" transform="matrix(&st17;  438.23  276.44 )">W</text><text style="&st18;" transform="matrix(&st17;  378.74  555.57 )">L</text><text style="&st18;" transform="matrix(&st17;  21.8  317.61 )">L</text></svg>