﻿<?xml version="1.0" encoding="utf-8"?>
<!DOCTYPE svg PUBLIC "-//W3C//DTD SVG 1.0//EN" "http://www.w3.org/TR/2001/REC-SVG-20010904/DTD/svg10.dtd"[
	<!ENTITY ns_flows "http://ns.adobe.com/Flows/1.0/">
	<!ENTITY ns_svg "http://www.w3.org/2000/svg">
	<!ENTITY ns_xlink "http://www.w3.org/1999/xlink">
	<!ENTITY st0 "font-size:7px;font-family:'MS-PGothic';adobe-font-script:japanese;">
	<!ENTITY st1 "font-size:6px;font-family:'ArialMT';">
	<!-- White fill  -->
	<!ENTITY st2 "fill:#FFFFFF;stroke:#000000; stroke-width:1.41;stroke-linecap:round;stroke-linejoin:round;">
	<!-- Yellow fill  -->
	<!ENTITY st3 "fill:#FFFFCC;stroke:#FFFFCC; stroke-width:0.1;stroke-linecap:round;stroke-linejoin:round;">
	<!-- Gray fill  -->
	<!ENTITY st4 "fill:#CCCCCC;stroke:#CCCCCC; stroke-width:0.1;stroke-linecap:round;stroke-linejoin:round;">
	<!-- Light-blue fill -->
	<!ENTITY st5 "fill:#CCECF4;stroke:#000000; stroke-width:1.133;stroke-linecap:round;stroke-linejoin:round;">
	<!ENTITY st6 "fill:none;stroke-linecap:butt; stroke-linejoin:round;">
	<!ENTITY st7 "fill:none;stroke:#000000;stroke-linecap:round;stroke-linejoin:round;">
	<!ENTITY st8 "enable-background:new    ;">
	<!-- Black fill -->
	<!ENTITY st9 "fill:#000000;stroke:#000000; stroke-linecap:round;stroke-linejoin:round;">
	<!-- SRS note   -->
	<!ENTITY st10 "font-size:9px;font-family:'ArialMT';">
	<!ENTITY st11 "font-size:9px;font-family:'Svg Symbol';">
	<!ENTITY st12 "font-size:6px;font-family:'Svg Symbol';">
	<!ENTITY st13 "fill:none;stroke:#ff0000;stroke-linecap:round;stroke-linejoin:round;">
	<!-- Yellow fill  -->
	<!ENTITY st14 "fill:#FFFF00;stroke:#FFFF00; stroke-width:0.1;stroke-linecap:round;stroke-linejoin:round;">
	<!ENTITY st15 "font-size:6px;font-family:'MS-PGothic';adobe-font-script:japanese;">
	<!ENTITY st16 "1.00 0.00 0.00 1.00">
	<!ENTITY st17 "0.00 -1.00 1.00 0.00">
	<!ENTITY st18 "font-size:6px;font-family:'Arial';">
	<!ENTITY st19 "font-size:9px;font-family:'Arial';">
	<!ENTITY st20 "font-size:6px;font-family:'MS-PGothic','MS PGothic';adobe-font-script:japanese;">
	<!ENTITY st21 "font-size:7px;font-family:'MS-PGothic','MS PGothic';adobe-font-script:japanese;">
	<!ATTLIST svg
		xmlns:ewd CDATA #FIXED "http://shcl.co.jp/ewd"
		xmlns:a CDATA #FIXED "http://ns.adobe.com/AdobeSVGViewerExtensions/3.0/"
		ewd:ver CDATA #IMPLIED
	>
	<!ATTLIST a
		ewd:lineID CDATA #IMPLIED
		ewd:groupID CDATA #IMPLIED
		ewd:figtype CDATA #IMPLIED
		ewd:code CDATA #IMPLIED
		ewd:figID CDATA #IMPLIED
		ewd:pinNo CDATA #IMPLIED
		ewd:comment CDATA #IMPLIED >
	<!ATTLIST g
		ewd:lineID CDATA #IMPLIED
		ewd:groupID CDATA #IMPLIED
		ewd:figtype CDATA #IMPLIED
		ewd:code CDATA #IMPLIED
		ewd:figID CDATA #IMPLIED
		ewd:pinNo CDATA #IMPLIED
		ewd:comment CDATA #IMPLIED >
	<!ATTLIST text
		ewd:textID CDATA #IMPLIED >
	<!ATTLIST title
		ewd:textID CDATA #IMPLIED >
]>
<!-- Generator: Shintec Hozumi YS   -->
<svg onload="call_execInitLoadProc_svg('system')" style="overflow:visible;  enable-background:new 0 0 6059.488 710.000" viewBox="0 0 6059.488 710.000" height="710.000" width="6059.488" xml:space="preserve" ewd:ver="L2.3.0.14" xmlns="&ns_svg;" xmlns:a="http://ns.adobe.com/AdobeSVGViewerExtensions/3.0/" xmlns:ewd="http://shcl.co.jp/ewd" xmlns:xlink="&ns_xlink;">
<path d=" M  1359.77,   469.21  L  1359.77,   511.70  " style="stroke:#FF7F00;stroke-width: 5.10 ;&st6;" /><path d=" M  1402.27,   469.21  L  1402.27,   511.70  " style="stroke:#00A0C6;stroke-width: 5.10 ;&st6;" /><path d=" M  1359.77,   392.72  L  1359.77,   426.71  " style="stroke:#FF7F00;stroke-width: 5.10 ;&st6;" /><path d=" M  1402.27,   426.71  L  1402.27,   392.72  " style="stroke:#00A0C6;stroke-width: 5.10 ;&st6;" /><path d=" M  1470.25,   435.21  L  1470.25,   392.72  " style="stroke:#000000;stroke-width: 5.10 ;&st6;" /><path d=" M  1436.26,   435.21  L  1436.26,   392.72  " style="stroke:#000000;stroke-width: 5.10 ;&st6;" /><path d=" M  1436.26,   435.21  L  1436.26,   392.72  " style="stroke:#FFFFFF;stroke-width: 4.53 ;&st6;" /><path d=" M  1368.27,   618.65  L  1363.30,   613.68  " style="stroke-width: 1.42 ;&st7;  " /><path d=" M  1351.27,   625.71  L  1356.24,   630.68  " style="stroke-width: 1.42 ;&st7;  " /><path d=" M  1363.30,   630.68  L  1368.27,   625.71  " style="stroke-width: 1.42 ;&st7;  " /><path d=" M  1356.24,   613.68  L  1351.27,   618.65  " style="stroke-width: 1.42 ;&st7;  " /><path d=" M  1410.76,   439.46  L  1410.76,   456.46  " style="stroke-width: 0.85 ;&st7;  " /><path d=" M  1393.77,   439.46  L  1393.77,   456.46  " style="stroke-width: 0.85 ;&st7;  " /><path d=" M  1402.27,   439.46  L  1402.27,   426.71  " style="stroke-width: 0.85 ;&st7;  " /><path d=" M  1399.43,   455.04  L  1402.27,   456.46  " style="stroke-width: 0.85 ;&st7;  " /><path d=" M  1402.27,   439.46  L  1405.10,   440.88  " style="stroke-width: 0.85 ;&st7;  " /><path d=" M  1405.10,   440.88  L  1399.43,   443.71  " style="stroke-width: 0.85 ;&st7;  " /><path d=" M  1399.43,   443.71  L  1405.10,   446.54  " style="stroke-width: 0.85 ;&st7;  " /><path d=" M  1405.10,   446.54  L  1399.43,   449.38  " style="stroke-width: 0.85 ;&st7;  " /><path d=" M  1399.43,   449.38  L  1405.10,   452.21  " style="stroke-width: 0.85 ;&st7;  " /><path d=" M  1405.10,   452.21  L  1399.43,   455.04  " style="stroke-width: 0.85 ;&st7;  " /><path d=" M  1402.27,   469.21  L  1402.27,   456.46  " style="stroke-width: 0.85 ;&st7;  " /><path d=" M  1368.27,   439.46  L  1368.27,   456.46  " style="stroke-width: 0.85 ;&st7;  " /><path d=" M  1351.27,   439.46  L  1351.27,   456.46  " style="stroke-width: 0.85 ;&st7;  " /><path d=" M  1359.77,   439.46  L  1359.77,   426.71  " style="stroke-width: 0.85 ;&st7;  " /><path d=" M  1356.94,   455.04  L  1359.77,   456.46  " style="stroke-width: 0.85 ;&st7;  " /><path d=" M  1359.77,   439.46  L  1362.61,   440.88  " style="stroke-width: 0.85 ;&st7;  " /><path d=" M  1362.61,   440.88  L  1356.94,   443.71  " style="stroke-width: 0.85 ;&st7;  " /><path d=" M  1356.94,   443.71  L  1362.61,   446.54  " style="stroke-width: 0.85 ;&st7;  " /><path d=" M  1362.61,   446.54  L  1356.94,   449.38  " style="stroke-width: 0.85 ;&st7;  " /><path d=" M  1356.94,   449.38  L  1362.61,   452.21  " style="stroke-width: 0.85 ;&st7;  " /><path d=" M  1362.61,   452.21  L  1356.94,   455.04  " style="stroke-width: 0.85 ;&st7;  " /><path d=" M  1359.77,   469.21  L  1359.77,   456.46  " style="stroke-width: 0.85 ;&st7;  " /><path d=" M  1436.26,   435.21  L  1436.26,   443.71  " style="stroke-width: 0.85 ;&st7;  " /><path d=" M  1436.26,   460.71  L  1436.26,   469.21  " style="stroke-width: 0.85 ;&st7;  " /><path d=" M  1470.25,   435.21  L  1470.25,   443.71  " style="stroke-width: 0.85 ;&st7;  " /><path d=" M  1470.25,   460.71  L  1470.25,   469.21  " style="stroke-width: 0.85 ;&st7;  " /><path d=" M  1468.84,   486.20  L  1471.67,   486.20  " style="stroke-width: 0.85 ;&st7;  " /><path d=" M  1467.42,   483.37  L  1473.09,   483.37  " style="stroke-width: 0.85 ;&st7;  " /><path d=" M  1466.00,   480.54  L  1474.50,   480.54  " style="stroke-width: 0.85 ;&st7;  " /><path d=" M  1461.76,   477.71  L  1478.75,   477.71  " style="stroke-width: 0.85 ;&st7;  " /><path d=" M  1470.25,   469.21  L  1470.25,   477.71  " style="stroke-width: 0.85 ;&st7;  " /><path d=" M  1478.75,   469.21  L  1478.75,   435.21  L  1461.76,   435.21  L  1461.76,   469.21  L  1478.75,   469.21  " style="stroke-width: 1.42 ;&st7;  " /><path d=" M  1434.84,   486.20  L  1437.68,   486.20  " style="stroke-width: 0.85 ;&st7;  " /><path d=" M  1433.43,   483.37  L  1439.09,   483.37  " style="stroke-width: 0.85 ;&st7;  " /><path d=" M  1432.01,   480.54  L  1440.51,   480.54  " style="stroke-width: 0.85 ;&st7;  " /><path d=" M  1427.76,   477.71  L  1444.76,   477.71  " style="stroke-width: 0.85 ;&st7;  " /><path d=" M  1436.26,   469.21  L  1436.26,   477.71  " style="stroke-width: 0.85 ;&st7;  " /><path d=" M  1444.76,   469.21  L  1444.76,   435.21  L  1427.76,   435.21  L  1427.76,   469.21  L  1444.76,   469.21  " style="stroke-width: 1.42 ;&st7;  " /><path d=" M  1334.28,   392.72  L  1334.28,   511.70  L  1895.18,   511.70  L  1895.18,   392.72  L  1334.28,   392.72  " style="stroke-width: 1.42 ;&st7;  " /><path d=" M  1347.02,   469.21  L  1347.02,   426.71  L  1372.52,   426.71  L  1372.52,   469.21  L  1347.02,   469.21  " style="stroke-width: 1.42 ;&st7;  " /><path d=" M  1389.52,   469.21  L  1389.52,   426.71  L  1415.01,   426.71  L  1415.01,   469.21  L  1389.52,   469.21  " style="stroke-width: 1.42 ;&st7;  " /><path d=" M  1232.29,   154.76  L  1232.29,   188.75  L  1334.28,   188.75  L  1334.28,   154.76  L  1232.29,   154.76  " style="stroke-width: 1.42 ;&st7;  " /><path d=" M  1111.90,   710.00  L  1114.73,   710.00  " style="stroke-width: 0.85 ;&st7;  " /><path d=" M  1110.48,   707.17  L  1116.15,   707.17  " style="stroke-width: 0.85 ;&st7;  " /><path d=" M  1109.06,   704.33  L  1117.56,   704.33  " style="stroke-width: 0.85 ;&st7;  " /><path d=" M  1138.81,   701.50  L  1155.81,   701.50  " style="stroke-width: 0.85 ;&st7;  " /><path d=" M  1147.31,   697.25  L  1147.31,   701.50  " style="stroke-width: 0.85 ;&st7;  " /><path d=" M  1495.75,   477.71  L  1512.75,   477.71  " style="stroke-width: 0.85 ;&st7;  " /><path d=" M  1512.75,   469.21  L  1512.75,   435.21  L  1495.75,   435.21  L  1495.75,   469.21  L  1512.75,   469.21  " style="stroke-width: 1.42 ;&st7;  " /><path d=" M  1368.27,   329.26  L  1381.05,   329.26  " style="stroke-width: 0.85 ;&st7; stroke-dasharray:3, 1.5;" /><path d=" M  1410.76,   329.26  L  1423.54,   329.26  " style="stroke-width: 0.85 ;&st7; stroke-dasharray:3, 1.5;" /><path d=" M  1444.76,   329.26  L  1457.53,   329.26  " style="stroke-width: 0.85 ;&st7; stroke-dasharray:3, 1.5;" /><path d=" M  1478.75,   329.26  L  1491.53,   329.26  " style="stroke-width: 0.85 ;&st7; stroke-dasharray:3, 1.5;" /><path d=" M  1368.27,   338.33  L  1381.05,   338.33  " style="stroke-width: 0.85 ;&st7; stroke-dasharray:3, 1.5;" /><path d=" M  1410.76,   338.33  L  1423.54,   338.33  " style="stroke-width: 0.85 ;&st7; stroke-dasharray:3, 1.5;" /><path d=" M  1444.76,   338.33  L  1457.53,   338.33  " style="stroke-width: 0.85 ;&st7; stroke-dasharray:3, 1.5;" /><path d=" M  1478.75,   338.33  L  1491.53,   338.33  " style="stroke-width: 0.85 ;&st7; stroke-dasharray:3, 1.5;" /><path d=" M  1143.06,   704.33  L  1151.56,   704.33  " style="stroke-width: 0.85 ;&st7;  " /><path d=" M  1144.47,   707.17  L  1150.14,   707.17  " style="stroke-width: 0.85 ;&st7;  " /><path d=" M  1145.89,   710.00  L  1148.72,   710.00  " style="stroke-width: 0.85 ;&st7;  " /><path d=" M  1113.31,   697.25  L  1113.31,   701.50  " style="stroke-width: 0.85 ;&st7;  " /><path d=" M  1104.81,   701.50  L  1121.81,   701.50  " style="stroke-width: 0.85 ;&st7;  " /><path d=" M  1112.12,   179.25  L  1111.85,   179.72  L  1111.76,   180.26  L  1111.85,   180.79  L  1112.12,   181.26  L  1112.53,   181.60  L  1113.04,   181.79  L  1113.59,   181.79  L  1114.09,   181.60  L  1114.51,   181.26  L  1114.78,   180.79  L  1114.87,   180.26  L  1114.78,   179.72  L  1114.51,   179.25  L  1114.09,   178.91  L  1113.59,   178.72  L  1113.04,   178.72  L  1112.53,   178.91  L  1112.12,   179.25  L  1112.51,   179.96  L  1112.51,   180.55  L  1112.89,   180.99  L  1113.46,   181.09  L  1113.97,   180.80  L  1114.16,   180.26  L  1113.97,   179.71  L  1113.46,   179.42  L  1112.89,   179.52  L  1113.31,   180.26  " style="stroke-width: 0.85 ;&st7;  " /><path d=" M  1137.62,   170.75  L  1137.34,   171.22  L  1137.25,   171.76  L  1137.34,   172.29  L  1137.62,   172.76  L  1138.03,   173.11  L  1138.54,   173.29  L  1139.08,   173.29  L  1139.59,   173.11  L  1140.00,   172.76  L  1140.27,   172.29  L  1140.37,   171.76  L  1140.27,   171.22  L  1140.00,   170.75  L  1139.59,   170.41  L  1139.08,   170.22  L  1138.54,   170.22  L  1138.03,   170.41  L  1137.62,   170.75  L  1138.01,   171.47  L  1138.01,   172.05  L  1138.38,   172.49  L  1138.96,   172.59  L  1139.46,   172.30  L  1139.66,   171.76  L  1139.46,   171.21  L  1138.96,   170.92  L  1138.38,   171.02  L  1138.81,   171.76  " style="stroke-width: 0.85 ;&st7;  " /><path d=" M  1113.31,   180.26  L  1189.80,   180.26  L  1189.80,   163.26  " style="stroke-width: 0.85 ;&st7;  " /><path d=" M  1104.81,   163.26  L  1104.81,   188.75  L  1198.30,   188.75  L  1198.30,   163.26  L  1104.81,   163.26  " style="stroke-width: 1.42 ;&st7;  " /><path d=" M  1138.81,   171.76  L  1164.30,   171.76  L  1164.30,   163.26  " style="stroke-width: 0.85 ;&st7;  " /><path d=" M  1113.31,   163.26  L  1113.31,   188.75  " style="stroke-width: 0.85 ;&st7;  " /><path d=" M  1138.81,   163.26  L  1138.81,   188.75  " style="stroke-width: 0.85 ;&st7;  " /><path d=" M  1147.28,   251.64  L  1232.29,   251.64  " style="stroke-width: 0.85 ;&st7; stroke-dasharray:3, 1.5;" /><path d=" M  1147.28,   260.71  L  1232.29,   260.71  " style="stroke-width: 0.85 ;&st7; stroke-dasharray:3, 1.5;" /><path d=" M  1257.76,   251.64  L  1300.31,   251.64  " style="stroke-width: 0.85 ;&st7; stroke-dasharray:3, 1.5;" /><path d=" M  1257.76,   260.71  L  1300.31,   260.71  " style="stroke-width: 0.85 ;&st7; stroke-dasharray:3, 1.5;" /><path d=" M  1308.78,   338.33  L  1338.55,   338.33  " style="stroke-width: 0.85 ;&st7; stroke-dasharray:3, 1.5;" /><path d=" M  1308.78,   329.26  L  1338.55,   329.26  " style="stroke-width: 0.85 ;&st7; stroke-dasharray:3, 1.5;" /><path d=" M  1151.84,   329.26  C  1151.84    326.76   1149.81    324.73   1147.31    324.73  " style="stroke-width: 1.42 ;&st7;   " /><path d=" M  1147.31,   324.73  C  1144.81    324.73   1142.78    326.76   1142.78    329.26  " style="stroke-width: 1.42 ;&st7;   " /><path d=" M  1142.78,   329.26  C  1142.78    331.77   1144.81    333.80   1147.31    333.80  " style="stroke-width: 1.42 ;&st7;   " /><path d=" M  1147.31,   333.80  C  1149.81    333.80   1151.84    331.77   1151.84    329.26  " style="stroke-width: 1.42 ;&st7;   " /><path d=" M  1304.82,   329.26  C  1304.82    326.76   1302.79    324.73   1300.28    324.73  " style="stroke-width: 1.42 ;&st7;   " /><path d=" M  1300.28,   324.73  C  1297.78    324.73   1295.75    326.76   1295.75    329.26  " style="stroke-width: 1.42 ;&st7;   " /><path d=" M  1295.75,   329.26  C  1295.75    331.77   1297.78    333.80   1300.28    333.80  " style="stroke-width: 1.42 ;&st7;   " /><path d=" M  1300.28,   333.80  C  1302.79    333.80   1304.82    331.77   1304.82    329.26  " style="stroke-width: 1.42 ;&st7;   " /><path d=" M  1304.82,   338.33  C  1304.82    335.83   1302.79    333.80   1300.28    333.80  " style="stroke-width: 1.42 ;&st7;   " /><path d=" M  1300.28,   333.80  C  1297.78    333.80   1295.75    335.83   1295.75    338.33  " style="stroke-width: 1.42 ;&st7;   " /><path d=" M  1295.75,   338.33  C  1295.75    340.83   1297.78    342.86   1300.28    342.86  " style="stroke-width: 1.42 ;&st7;   " /><path d=" M  1300.28,   342.86  C  1302.79    342.86   1304.82    340.83   1304.82    338.33  " style="stroke-width: 1.42 ;&st7;   " /><path d=" M  1474.79,   338.33  C  1474.79    335.83   1472.76    333.80   1470.25    333.80  " style="stroke-width: 1.42 ;&st7;   " /><path d=" M  1470.25,   333.80  C  1467.75    333.80   1465.72    335.83   1465.72    338.33  " style="stroke-width: 1.42 ;&st7;   " /><path d=" M  1465.72,   338.33  C  1465.72    340.83   1467.75    342.86   1470.25    342.86  " style="stroke-width: 1.42 ;&st7;   " /><path d=" M  1470.25,   342.86  C  1472.76    342.86   1474.79    340.83   1474.79    338.33  " style="stroke-width: 1.42 ;&st7;   " /><path d=" M  1440.79,   338.33  C  1440.79    335.83   1438.76    333.80   1436.26    333.80  " style="stroke-width: 1.42 ;&st7;   " /><path d=" M  1436.26,   333.80  C  1433.76    333.80   1431.73    335.83   1431.73    338.33  " style="stroke-width: 1.42 ;&st7;   " /><path d=" M  1431.73,   338.33  C  1431.73    340.83   1433.76    342.86   1436.26    342.86  " style="stroke-width: 1.42 ;&st7;   " /><path d=" M  1436.26,   342.86  C  1438.76    342.86   1440.79    340.83   1440.79    338.33  " style="stroke-width: 1.42 ;&st7;   " /><path d=" M  1364.31,   338.33  C  1364.31    335.83   1362.28    333.80   1359.77    333.80  " style="stroke-width: 1.42 ;&st7;   " /><path d=" M  1359.77,   333.80  C  1357.27    333.80   1355.24    335.83   1355.24    338.33  " style="stroke-width: 1.42 ;&st7;   " /><path d=" M  1355.24,   338.33  C  1355.24    340.83   1357.27    342.86   1359.77    342.86  " style="stroke-width: 1.42 ;&st7;   " /><path d=" M  1359.77,   342.86  C  1362.28    342.86   1364.31    340.83   1364.31    338.33  " style="stroke-width: 1.42 ;&st7;   " /><path d=" M  1406.80,   338.33  C  1406.80    335.83   1404.77    333.80   1402.27    333.80  " style="stroke-width: 1.42 ;&st7;   " /><path d=" M  1402.27,   333.80  C  1399.76    333.80   1397.73    335.83   1397.73    338.33  " style="stroke-width: 1.42 ;&st7;   " /><path d=" M  1397.73,   338.33  C  1397.73    340.83   1399.76    342.86   1402.27    342.86  " style="stroke-width: 1.42 ;&st7;   " /><path d=" M  1402.27,   342.86  C  1404.77    342.86   1406.80    340.83   1406.80    338.33  " style="stroke-width: 1.42 ;&st7;   " /><path d=" M  1499.72,   329.26  C  1499.72    331.77   1501.75    333.80   1504.25    333.80  " style="stroke-width: 1.42 ;&st7;   " /><path d=" M  1406.80,   388.19  C  1406.80    385.68   1404.77    383.65   1402.27    383.65  " style="stroke-width: 1.42 ;&st7;   " /><path d=" M  1402.27,   383.65  C  1399.76    383.65   1397.73    385.68   1397.73    388.19  " style="stroke-width: 1.42 ;&st7;   " /><path d=" M  1397.73,   388.19  C  1397.73    390.69   1399.76    392.72   1402.27    392.72  " style="stroke-width: 1.42 ;&st7;   " /><path d=" M  1402.27,   392.72  C  1404.77    392.72   1406.80    390.69   1406.80    388.19  " style="stroke-width: 1.42 ;&st7;   " /><path d=" M  1499.72,   338.33  C  1499.72    340.83   1501.75    342.86   1504.25    342.86  " style="stroke-width: 1.42 ;&st7;   " /><path d=" M  1474.79,   388.19  C  1474.79    385.68   1472.76    383.65   1470.25    383.65  " style="stroke-width: 1.42 ;&st7;   " /><path d=" M  1470.25,   383.65  C  1467.75    383.65   1465.72    385.68   1465.72    388.19  " style="stroke-width: 1.42 ;&st7;   " /><path d=" M  1465.72,   388.19  C  1465.72    390.69   1467.75    392.72   1470.25    392.72  " style="stroke-width: 1.42 ;&st7;   " /><path d=" M  1470.25,   392.72  C  1472.76    392.72   1474.79    390.69   1474.79    388.19  " style="stroke-width: 1.42 ;&st7;   " /><path d=" M  1499.72,   388.19  C  1499.72    390.69   1501.75    392.72   1504.25    392.72  " style="stroke-width: 1.42 ;&st7;   " /><path d=" M  1364.31,   516.23  C  1364.31    513.73   1362.28    511.70   1359.77    511.70  " style="stroke-width: 1.42 ;&st7;   " /><path d=" M  1359.77,   511.70  C  1357.27    511.70   1355.24    513.73   1355.24    516.23  " style="stroke-width: 1.42 ;&st7;   " /><path d=" M  1355.24,   516.23  C  1355.24    518.74   1357.27    520.76   1359.77    520.76  " style="stroke-width: 1.42 ;&st7;   " /><path d=" M  1359.77,   520.76  C  1362.28    520.76   1364.31    518.74   1364.31    516.23  " style="stroke-width: 1.42 ;&st7;   " /><path d=" M  1406.80,   516.23  C  1406.80    513.73   1404.77    511.70   1402.27    511.70  " style="stroke-width: 1.42 ;&st7;   " /><path d=" M  1402.27,   511.70  C  1399.76    511.70   1397.73    513.73   1397.73    516.23  " style="stroke-width: 1.42 ;&st7;   " /><path d=" M  1397.73,   516.23  C  1397.73    518.74   1399.76    520.76   1402.27    520.76  " style="stroke-width: 1.42 ;&st7;   " /><path d=" M  1402.27,   520.76  C  1404.77    520.76   1406.80    518.74   1406.80    516.23  " style="stroke-width: 1.42 ;&st7;   " /><path d=" M  1321.81,   150.23  C  1321.81    147.72   1319.78    145.69   1317.28    145.69  " style="stroke-width: 1.42 ;&st7;   " /><path d=" M  1317.28,   145.69  C  1314.78    145.69   1312.75    147.72   1312.75    150.23  " style="stroke-width: 1.42 ;&st7;   " /><path d=" M  1312.75,   150.23  C  1312.75    152.73   1314.78    154.76   1317.28    154.76  " style="stroke-width: 1.42 ;&st7;   " /><path d=" M  1317.28,   154.76  C  1319.78    154.76   1321.81    152.73   1321.81    150.23  " style="stroke-width: 1.42 ;&st7;   " /><path d=" M  1117.85,   251.64  C  1117.85    249.14   1115.82    247.11   1113.31    247.11  " style="stroke-width: 1.42 ;&st7;   " /><path d=" M  1113.31,   247.11  C  1110.81    247.11   1108.78    249.14   1108.78    251.64  " style="stroke-width: 1.42 ;&st7;   " /><path d=" M  1108.78,   251.64  C  1108.78    254.15   1110.81    256.18   1113.31    256.18  " style="stroke-width: 1.42 ;&st7;   " /><path d=" M  1113.31,   256.18  C  1115.82    256.18   1117.85    254.15   1117.85    251.64  " style="stroke-width: 1.42 ;&st7;   " /><path d=" M  1117.85,   260.71  C  1117.85    258.21   1115.82    256.18   1113.31    256.18  " style="stroke-width: 1.42 ;&st7;   " /><path d=" M  1113.31,   256.18  C  1110.81    256.18   1108.78    258.21   1108.78    260.71  " style="stroke-width: 1.42 ;&st7;   " /><path d=" M  1108.78,   260.71  C  1108.78    263.21   1110.81    265.24   1113.31    265.24  " style="stroke-width: 1.42 ;&st7;   " /><path d=" M  1113.31,   265.24  C  1115.82    265.24   1117.85    263.21   1117.85    260.71  " style="stroke-width: 1.42 ;&st7;   " /><path d=" M  1143.34,   251.64  C  1143.34    249.14   1141.31    247.11   1138.81    247.11  " style="stroke-width: 1.42 ;&st7;   " /><path d=" M  1138.81,   247.11  C  1136.31    247.11   1134.28    249.14   1134.28    251.64  " style="stroke-width: 1.42 ;&st7;   " /><path d=" M  1134.28,   251.64  C  1134.28    254.15   1136.31    256.18   1138.81    256.18  " style="stroke-width: 1.42 ;&st7;   " /><path d=" M  1138.81,   256.18  C  1141.31    256.18   1143.34    254.15   1143.34    251.64  " style="stroke-width: 1.42 ;&st7;   " /><path d=" M  1143.34,   260.71  C  1143.34    258.21   1141.31    256.18   1138.81    256.18  " style="stroke-width: 1.42 ;&st7;   " /><path d=" M  1138.81,   256.18  C  1136.31    256.18   1134.28    258.21   1134.28    260.71  " style="stroke-width: 1.42 ;&st7;   " /><path d=" M  1134.28,   260.71  C  1134.28    263.21   1136.31    265.24   1138.81    265.24  " style="stroke-width: 1.42 ;&st7;   " /><path d=" M  1138.81,   265.24  C  1141.31    265.24   1143.34    263.21   1143.34    260.71  " style="stroke-width: 1.42 ;&st7;   " /><path d=" M  1253.82,   251.64  C  1253.82    249.14   1251.79    247.11   1249.29    247.11  " style="stroke-width: 1.42 ;&st7;   " /><path d=" M  1249.29,   247.11  C  1246.79    247.11   1244.76    249.14   1244.76    251.64  " style="stroke-width: 1.42 ;&st7;   " /><path d=" M  1244.76,   251.64  C  1244.76    254.15   1246.79    256.18   1249.29    256.18  " style="stroke-width: 1.42 ;&st7;   " /><path d=" M  1249.29,   256.18  C  1251.79    256.18   1253.82    254.15   1253.82    251.64  " style="stroke-width: 1.42 ;&st7;   " /><path d=" M  1253.82,   260.71  C  1253.82    258.21   1251.79    256.18   1249.29    256.18  " style="stroke-width: 1.42 ;&st7;   " /><path d=" M  1249.29,   256.18  C  1246.79    256.18   1244.76    258.21   1244.76    260.71  " style="stroke-width: 1.42 ;&st7;   " /><path d=" M  1244.76,   260.71  C  1244.76    263.21   1246.79    265.24   1249.29    265.24  " style="stroke-width: 1.42 ;&st7;   " /><path d=" M  1249.29,   265.24  C  1251.79    265.24   1253.82    263.21   1253.82    260.71  " style="stroke-width: 1.42 ;&st7;   " /><path d=" M  1287.82,   193.29  C  1287.82    190.78   1285.79    188.75   1283.29    188.75  " style="stroke-width: 1.42 ;&st7;   " /><path d=" M  1283.29,   188.75  C  1280.78    188.75   1278.75    190.78   1278.75    193.29  " style="stroke-width: 1.42 ;&st7;   " /><path d=" M  1278.75,   193.29  C  1278.75    195.79   1280.78    197.82   1283.29    197.82  " style="stroke-width: 1.42 ;&st7;   " /><path d=" M  1283.29,   197.82  C  1285.79    197.82   1287.82    195.79   1287.82    193.29  " style="stroke-width: 1.42 ;&st7;   " /><path d=" M  1321.81,   193.29  C  1321.81    190.78   1319.78    188.75   1317.28    188.75  " style="stroke-width: 1.42 ;&st7;   " /><path d=" M  1317.28,   188.75  C  1314.78    188.75   1312.75    190.78   1312.75    193.29  " style="stroke-width: 1.42 ;&st7;   " /><path d=" M  1312.75,   193.29  C  1312.75    195.79   1314.78    197.82   1317.28    197.82  " style="stroke-width: 1.42 ;&st7;   " /><path d=" M  1317.28,   197.82  C  1319.78    197.82   1321.81    195.79   1321.81    193.29  " style="stroke-width: 1.42 ;&st7;   " /><path d=" M  1253.82,   193.29  C  1253.82    190.78   1251.79    188.75   1249.29    188.75  " style="stroke-width: 1.42 ;&st7;   " /><path d=" M  1249.29,   188.75  C  1246.79    188.75   1244.76    190.78   1244.76    193.29  " style="stroke-width: 1.42 ;&st7;   " /><path d=" M  1244.76,   193.29  C  1244.76    195.79   1246.79    197.82   1249.29    197.82  " style="stroke-width: 1.42 ;&st7;   " /><path d=" M  1249.29,   197.82  C  1251.79    197.82   1253.82    195.79   1253.82    193.29  " style="stroke-width: 1.42 ;&st7;   " /><path d=" M  1287.82,   150.23  C  1287.82    147.72   1285.79    145.69   1283.29    145.69  " style="stroke-width: 1.42 ;&st7;   " /><path d=" M  1283.29,   145.69  C  1280.78    145.69   1278.75    147.72   1278.75    150.23  " style="stroke-width: 1.42 ;&st7;   " /><path d=" M  1278.75,   150.23  C  1278.75    152.73   1280.78    154.76   1283.29    154.76  " style="stroke-width: 1.42 ;&st7;   " /><path d=" M  1283.29,   154.76  C  1285.79    154.76   1287.82    152.73   1287.82    150.23  " style="stroke-width: 1.42 ;&st7;   " /><path d=" M  1253.82,   150.23  C  1253.82    147.72   1251.79    145.69   1249.29    145.69  " style="stroke-width: 1.42 ;&st7;   " /><path d=" M  1249.29,   145.69  C  1246.79    145.69   1244.76    147.72   1244.76    150.23  " style="stroke-width: 1.42 ;&st7;   " /><path d=" M  1244.76,   150.23  C  1244.76    152.73   1246.79    154.76   1249.29    154.76  " style="stroke-width: 1.42 ;&st7;   " /><path d=" M  1249.29,   154.76  C  1251.79    154.76   1253.82    152.73   1253.82    150.23  " style="stroke-width: 1.42 ;&st7;   " /><path d=" M  1151.84,   338.33  C  1151.84    335.83   1149.81    333.80   1147.31    333.80  " style="stroke-width: 1.42 ;&st7;   " /><path d=" M  1147.31,   333.80  C  1144.81    333.80   1142.78    335.83   1142.78    338.33  " style="stroke-width: 1.42 ;&st7;   " /><path d=" M  1142.78,   338.33  C  1142.78    340.83   1144.81    342.86   1147.31    342.86  " style="stroke-width: 1.42 ;&st7;   " /><path d=" M  1147.31,   342.86  C  1149.81    342.86   1151.84    340.83   1151.84    338.33  " style="stroke-width: 1.42 ;&st7;   " /><path d=" M  1474.79,   329.26  C  1474.79    326.76   1472.76    324.73   1470.25    324.73  " style="stroke-width: 1.42 ;&st7;   " /><path d=" M  1470.25,   324.73  C  1467.75    324.73   1465.72    326.76   1465.72    329.26  " style="stroke-width: 1.42 ;&st7;   " /><path d=" M  1465.72,   329.26  C  1465.72    331.77   1467.75    333.80   1470.25    333.80  " style="stroke-width: 1.42 ;&st7;   " /><path d=" M  1470.25,   333.80  C  1472.76    333.80   1474.79    331.77   1474.79    329.26  " style="stroke-width: 1.42 ;&st7;   " /><path d=" M  1440.79,   329.26  C  1440.79    326.76   1438.76    324.73   1436.26    324.73  " style="stroke-width: 1.42 ;&st7;   " /><path d=" M  1436.26,   324.73  C  1433.76    324.73   1431.73    326.76   1431.73    329.26  " style="stroke-width: 1.42 ;&st7;   " /><path d=" M  1431.73,   329.26  C  1431.73    331.77   1433.76    333.80   1436.26    333.80  " style="stroke-width: 1.42 ;&st7;   " /><path d=" M  1436.26,   333.80  C  1438.76    333.80   1440.79    331.77   1440.79    329.26  " style="stroke-width: 1.42 ;&st7;   " /><path d=" M  1433.73,   449.73  C  1435.10    451.13   1437.34    451.15   1438.74    449.78  " style="stroke-width: 0.85 ;&st7;   " /><path d=" M  1438.74,   449.78  C  1440.14    448.41   1440.16    446.17   1438.79    444.77  " style="stroke-width: 0.85 ;&st7;   " /><path d=" M  1438.79,   444.77  C  1438.10    444.07   1437.25    443.71   1436.26    443.71  " style="stroke-width: 0.85 ;&st7;   " /><path d=" M  1433.73,   454.69  C  1435.10    456.09   1437.34    456.11   1438.74    454.74  " style="stroke-width: 0.85 ;&st7;   " /><path d=" M  1438.74,   454.74  C  1440.14    453.37   1440.16    451.13   1438.79    449.73  " style="stroke-width: 0.85 ;&st7;   " /><path d=" M  1438.79,   449.73  C  1437.42    448.33   1435.18    448.31   1433.78    449.68  " style="stroke-width: 0.85 ;&st7;   " /><path d=" M  1433.78,   449.68  C  1433.76    449.70   1433.75    449.71   1433.73    449.73  " style="stroke-width: 0.85 ;&st7;   " /><path d=" M  1436.26,   460.71  C  1438.22    460.71   1439.80    459.12   1439.80    457.17  " style="stroke-width: 0.85 ;&st7;   " /><path d=" M  1439.80,   457.17  C  1439.80    455.21   1438.22    453.63   1436.26    453.63  " style="stroke-width: 0.85 ;&st7;   " /><path d=" M  1436.26,   453.63  C  1435.27    453.63   1434.42    453.98   1433.73    454.69  " style="stroke-width: 0.85 ;&st7;   " /><path d=" M  1467.72,   449.73  C  1469.09    451.13   1471.34    451.15   1472.73    449.78  " style="stroke-width: 0.85 ;&st7;   " /><path d=" M  1472.73,   449.78  C  1474.13    448.41   1474.15    446.17   1472.78    444.77  " style="stroke-width: 0.85 ;&st7;   " /><path d=" M  1472.78,   444.77  C  1472.09    444.07   1471.25    443.71   1470.25    443.71  " style="stroke-width: 0.85 ;&st7;   " /><path d=" M  1467.72,   454.69  C  1469.09    456.09   1471.34    456.11   1472.73    454.74  " style="stroke-width: 0.85 ;&st7;   " /><path d=" M  1472.73,   454.74  C  1474.13    453.37   1474.15    451.13   1472.78    449.73  " style="stroke-width: 0.85 ;&st7;   " /><path d=" M  1472.78,   449.73  C  1471.42    448.33   1469.17    448.31   1467.78    449.68  " style="stroke-width: 0.85 ;&st7;   " /><path d=" M  1467.78,   449.68  C  1467.76    449.70   1467.74    449.71   1467.72    449.73  " style="stroke-width: 0.85 ;&st7;   " /><path d=" M  1470.25,   460.71  C  1472.21    460.71   1473.80    459.12   1473.80    457.17  " style="stroke-width: 0.85 ;&st7;   " /><path d=" M  1473.80,   457.17  C  1473.80    455.21   1472.21    453.63   1470.25    453.63  " style="stroke-width: 0.85 ;&st7;   " /><path d=" M  1470.25,   453.63  C  1469.26    453.63   1468.42    453.98   1467.73    454.69  " style="stroke-width: 0.85 ;&st7;   " /><path d=" M  1364.31,   329.26  C  1364.31    326.76   1362.28    324.73   1359.77    324.73  " style="stroke-width: 1.42 ;&st7;   " /><path d=" M  1359.77,   324.73  C  1357.27    324.73   1355.24    326.76   1355.24    329.26  " style="stroke-width: 1.42 ;&st7;   " /><path d=" M  1355.24,   329.26  C  1355.24    331.77   1357.27    333.80   1359.77    333.80  " style="stroke-width: 1.42 ;&st7;   " /><path d=" M  1359.77,   333.80  C  1362.28    333.80   1364.31    331.77   1364.31    329.26  " style="stroke-width: 1.42 ;&st7;   " /><path d=" M  1406.80,   329.26  C  1406.80    326.76   1404.77    324.73   1402.27    324.73  " style="stroke-width: 1.42 ;&st7;   " /><path d=" M  1402.27,   324.73  C  1399.76    324.73   1397.73    326.76   1397.73    329.26  " style="stroke-width: 1.42 ;&st7;   " /><path d=" M  1397.73,   329.26  C  1397.73    331.77   1399.76    333.80   1402.27    333.80  " style="stroke-width: 1.42 ;&st7;   " /><path d=" M  1402.27,   333.80  C  1404.77    333.80   1406.80    331.77   1406.80    329.26  " style="stroke-width: 1.42 ;&st7;   " /><path d=" M  1368.27,   439.46  C  1368.27    434.77   1364.47    430.96   1359.77    430.96  " style="stroke-width: 0.85 ;&st7;   " /><path d=" M  1359.77,   430.96  C  1355.08    430.96   1351.27    434.77   1351.27    439.46  " style="stroke-width: 0.85 ;&st7;   " /><path d=" M  1351.27,   456.46  C  1351.27    461.15   1355.08    464.96   1359.77    464.96  " style="stroke-width: 0.85 ;&st7;   " /><path d=" M  1359.77,   464.96  C  1364.47    464.96   1368.27    461.15   1368.27    456.46  " style="stroke-width: 0.85 ;&st7;   " /><path d=" M  1410.76,   439.46  C  1410.76    434.77   1406.96    430.96   1402.27    430.96  " style="stroke-width: 0.85 ;&st7;   " /><path d=" M  1402.27,   430.96  C  1397.57    430.96   1393.77    434.77   1393.77    439.46  " style="stroke-width: 0.85 ;&st7;   " /><path d=" M  1393.77,   456.46  C  1393.77    461.15   1397.57    464.96   1402.27    464.96  " style="stroke-width: 0.85 ;&st7;   " /><path d=" M  1402.27,   464.96  C  1406.96    464.96   1410.76    461.15   1410.76    456.46  " style="stroke-width: 0.85 ;&st7;   " /><path d=" M  1440.79,   388.19  C  1440.79    385.68   1438.76    383.65   1436.26    383.65  " style="stroke-width: 1.42 ;&st7;   " /><path d=" M  1436.26,   383.65  C  1433.76    383.65   1431.73    385.68   1431.73    388.19  " style="stroke-width: 1.42 ;&st7;   " /><path d=" M  1431.73,   388.19  C  1431.73    390.69   1433.76    392.72   1436.26    392.72  " style="stroke-width: 1.42 ;&st7;   " /><path d=" M  1436.26,   392.72  C  1438.76    392.72   1440.79    390.69   1440.79    388.19  " style="stroke-width: 1.42 ;&st7;   " /><path d=" M  1364.31,   388.19  C  1364.31    385.68   1362.28    383.65   1359.77    383.65  " style="stroke-width: 1.42 ;&st7;   " /><path d=" M  1359.77,   383.65  C  1357.27    383.65   1355.24    385.68   1355.24    388.19  " style="stroke-width: 1.42 ;&st7;   " /><path d=" M  1355.24,   388.19  C  1355.24    390.69   1357.27    392.72   1359.77    392.72  " style="stroke-width: 1.42 ;&st7;   " /><path d=" M  1359.77,   392.72  C  1362.28    392.72   1364.31    390.69   1364.31    388.19  " style="stroke-width: 1.42 ;&st7;   " /><path d=" M  1321.81,   260.71  C  1321.81    258.21   1319.78    256.18   1317.28    256.18  " style="stroke-width: 1.42 ;&st7;   " /><path d=" M  1317.28,   256.18  C  1314.78    256.18   1312.75    258.21   1312.75    260.71  " style="stroke-width: 1.42 ;&st7;   " /><path d=" M  1312.75,   260.71  C  1312.75    263.21   1314.78    265.24   1317.28    265.24  " style="stroke-width: 1.42 ;&st7;   " /><path d=" M  1317.28,   265.24  C  1319.78    265.24   1321.81    263.21   1321.81    260.71  " style="stroke-width: 1.42 ;&st7;   " /><path d=" M  1321.81,   251.64  C  1321.81    249.14   1319.78    247.11   1317.28    247.11  " style="stroke-width: 1.42 ;&st7;   " /><path d=" M  1317.28,   247.11  C  1314.78    247.11   1312.75    249.14   1312.75    251.64  " style="stroke-width: 1.42 ;&st7;   " /><path d=" M  1312.75,   251.64  C  1312.75    254.15   1314.78    256.18   1317.28    256.18  " style="stroke-width: 1.42 ;&st7;   " /><path d=" M  1317.28,   256.18  C  1319.78    256.18   1321.81    254.15   1321.81    251.64  " style="stroke-width: 1.42 ;&st7;   " /><text style="&st18;" transform="matrix(&st16;  1357.51  331.23 )">B</text><text style="&st18;" transform="matrix(&st16;  1343.65  331.23 )">114</text><text style="&st18;" transform="matrix(&st16;  1400.0  331.23 )">B</text><text style="&st18;" transform="matrix(&st16;  1386.14  331.23 )">113</text><text style="&st18;" transform="matrix(&st17;  1432.56  360.65 )">R</text><text style="&st18;" transform="matrix(&st17;  1466.56  361.42 )">W</text><text style="&st18;" transform="matrix(&st17;  1356.08  360.8 )">G</text><text style="&st18;" transform="matrix(&st17;  1398.57  360.1 )">L</text><text style="&st18;" transform="matrix(&st16;  1432.37  321.03 )">S1</text><text style="&st18;" transform="matrix(&st16;  1466.36  321.03 )">S2</text><text style="&st18;" transform="matrix(&st16;  1351.5  321.03 )">THO1</text><text style="&st18;" transform="matrix(&st16;  1393.99  321.03 )">THO2</text><text style="&st18;" transform="matrix(&st16;  1432.85  519.31 )">C34(A),C96(B)</text><text style="&st18;" transform="matrix(&st17;  1432.56  416.66 )">W</text><text style="&st18;" transform="matrix(&st17;  1466.56  415.73 )">B</text><text style="&st18;" transform="matrix(&st17;  1356.08  416.04 )">O</text><text style="&st18;" transform="matrix(&st17;  1398.57  415.34 )">L</text><text style="&st18;" transform="matrix(&st17;  1356.08  492.53 )">O</text><text style="&st18;" transform="matrix(&st17;  1398.57  491.83 )">L</text><text ewd:textID="17" style="&st18;" transform="matrix(&st16;  1432.85  526.42 )">Electronically Controlled <tspan dy="6.0" x="0 ">Transmission Solenoid</tspan></text><text style="&st18;" transform="matrix(&st16;  1433.99  390.16 )">A</text><text style="&st18;" transform="matrix(&st16;  1404.85  508.01 )">OT2-</text><text style="&st18;" transform="matrix(&st16;  1362.36  508.01 )">OT-</text><text style="&st18;" transform="matrix(&st16;  1404.85  400.91 )">OT2+</text><text style="&st18;" transform="matrix(&st16;  1362.36  400.91 )">OT+</text><text style="&st18;" transform="matrix(&st16;  1472.84  400.91 )">S2</text><text style="&st18;" transform="matrix(&st16;  1438.84  400.91 )">S1</text><text style="&st18;" transform="matrix(&st17;  1356.08  566.63 )">BR</text><text style="&st18;" transform="matrix(&st17;  1398.57  566.63 )">BR</text><text style="&st18;" transform="matrix(&st16;  1251.54  292.68 )">A38(A),A52(D),C45(B),C46(C)</text><text style="&st18;" transform="matrix(&st16;  1251.55  299.79 )">ECM</text><text style="&st18;" transform="matrix(&st16;  1296.39  321.03 )">E2</text><text style="&st18;" transform="matrix(&st16;  1287.5  331.23 )">92</text><text style="&st18;" transform="matrix(&st16;  1298.02  331.23 )">B</text><text style="&st18;" transform="matrix(&st16;  1308.97  185.06 )">VTAR</text><text style="&st18;" transform="matrix(&st16;  1310.67  162.39 )">VCR</text><text style="&st18;" transform="matrix(&st16;  1304.49  262.68 )">57</text><text style="&st18;" transform="matrix(&st16;  1314.86  262.68 )">C</text><text style="&st18;" transform="matrix(&st16;  1315.01  253.61 )">B</text><text style="&st18;" transform="matrix(&st16;  1304.49  253.61 )">57</text><text style="&st18;" transform="matrix(&st16;  1309.55  272.88 )">LUSL</text><text style="&st18;" transform="matrix(&st16;  1315.01  152.2 )">B</text><text style="&st18;" transform="matrix(&st16;  1277.22  185.06 )">E2R</text><text style="&st18;" transform="matrix(&st16;  1273.83  195.26 )">3</text><text style="&st18;" transform="matrix(&st16;  1145.04  331.23 )">A</text><text style="&st18;" transform="matrix(&st16;  1134.52  331.23 )">32</text><text style="&st18;" transform="matrix(&st16;  1142.87  321.03 )">EC</text><text style="&st18;" transform="matrix(&st16;  1297.86  340.3 )">C</text><text style="&st18;" transform="matrix(&st16;  1287.5  340.3 )">92</text><text style="&st18;" transform="matrix(&st16;  1433.84  340.3 )">C</text><text style="&st18;" transform="matrix(&st16;  1426.81  340.3 )">9</text><text style="&st18;" transform="matrix(&st16;  1467.83  340.3 )">C</text><text style="&st18;" transform="matrix(&st16;  1460.8  340.3 )">8</text><text style="&st18;" transform="matrix(&st16;  1357.35  340.3 )">C</text><text style="&st18;" transform="matrix(&st16;  1343.65  340.3 )">114</text><text style="&st18;" transform="matrix(&st16;  1399.84  340.3 )">C</text><text style="&st18;" transform="matrix(&st16;  1386.14  340.3 )">113</text><text style="&st18;" transform="matrix(&st16;  1426.81  390.16 )">8</text><text style="&st18;" transform="matrix(&st16;  1400.0  390.16 )">A</text><text style="&st18;" transform="matrix(&st16;  1494.8  331.23 )">7</text><text style="&st18;" transform="matrix(&st16;  1494.8  340.3 )">7</text><text style="&st18;" transform="matrix(&st16;  1467.99  390.16 )">A</text><text style="&st18;" transform="matrix(&st16;  1457.47  390.16 )">15</text><text style="&st18;" transform="matrix(&st16;  1494.8  390.16 )">7</text><text style="&st18;" transform="matrix(&st16;  1357.51  518.2 )">A</text><text style="&st18;" transform="matrix(&st16;  1350.32  518.2 )">1</text><text style="&st18;" transform="matrix(&st16;  1400.0  518.2 )">A</text><text style="&st18;" transform="matrix(&st16;  1392.81  518.2 )">2</text><text style="&st18;" transform="matrix(&st17;  1120.95  664.42 )">(RHD)</text><text style="&st18;" transform="matrix(&st17;  1120.95  383.96 )">(RHD)</text><text style="&st18;" transform="matrix(&st17;  1109.62  381.44 )">W-B</text><text style="&st18;" transform="matrix(&st17;  1109.62  661.9 )">W-B</text><text style="&st18;" transform="matrix(&st16;  1357.51  390.16 )">A</text><text style="&st18;" transform="matrix(&st16;  1350.32  390.16 )">9</text><text style="&st18;" transform="matrix(&st16;  1389.48  390.16 )">10</text><text style="&st18;" transform="matrix(&st16;  1433.99  331.23 )">B</text><text style="&st18;" transform="matrix(&st16;  1426.81  331.23 )">9</text><text style="&st18;" transform="matrix(&st16;  1467.99  331.23 )">B</text><text style="&st18;" transform="matrix(&st16;  1460.8  331.23 )">8</text><text style="&st18;" transform="matrix(&st17;  1313.58  130.64 )">L</text><text style="&st18;" transform="matrix(&st17;  1313.58  218.5 )">GR</text><text style="&st18;" transform="matrix(&st17;  1143.61  661.9 )">W-B</text><text style="&st18;" transform="matrix(&st17;  1143.61  381.44 )">W-B</text><text style="&st18;" transform="matrix(&st17;  1154.94  383.46 )">(LHD)</text><text style="&st18;" transform="matrix(&st17;  1154.94  663.91 )">(LHD)</text><text style="&st18;" transform="matrix(&st16;  1152.4  340.3 )">(RHD)</text><text style="&st18;" transform="matrix(&st16;  1152.4  331.23 )">(LHD)</text><text style="&st18;" transform="matrix(&st16;  1322.34  253.61 )">(LHD)</text><text style="&st18;" transform="matrix(&st16;  1322.34  262.68 )">(RHD)</text><text style="&st18;" transform="matrix(&st16;  1056.1  227.55 )">W-B</text><text style="&st18;" transform="matrix(&st16;  1005.11  227.55 )">W-B</text><text style="&st18;" transform="matrix(&st16;  1006.89  134.07 )">BR</text><text style="&st18;" transform="matrix(&st16;  1009.45  117.07 )">L</text><text style="&st18;" transform="matrix(&st16;  1009.45  66.08 )">L</text><text style="&st18;" transform="matrix(&st16;  1060.44  66.08 )">L</text><text style="&st18;" transform="matrix(&st16;  1278.85  162.39 )">VC</text><text style="&st18;" transform="matrix(&st17;  1245.6  216.02 )">P</text><text style="&st18;" transform="matrix(&st16;  1057.89  134.07 )">BR</text><text style="&st18;" transform="matrix(&st16;  1154.63  159.57 )">19</text><text style="&st18;" transform="matrix(&st16;  1281.02  195.26 )">B</text><text style="&st18;" transform="matrix(&st16;  1105.23  272.88 )">EVLU</text><text style="&st18;" transform="matrix(&st16;  1100.53  253.61 )">87</text><text style="&st18;" transform="matrix(&st16;  1111.05  253.61 )">B</text><text style="&st18;" transform="matrix(&st16;  1110.89  262.68 )">C</text><text style="&st18;" transform="matrix(&st16;  1100.53  262.68 )">87</text><text style="&st18;" transform="matrix(&st16;  1130.73  272.88 )">VCVL</text><text style="&st18;" transform="matrix(&st16;  1122.69  253.61 )">110</text><text style="&st18;" transform="matrix(&st16;  1136.54  253.61 )">B</text><text style="&st18;" transform="matrix(&st16;  1136.39  262.68 )">C</text><text style="&st18;" transform="matrix(&st16;  1122.69  262.68 )">110</text><text style="&st18;" transform="matrix(&st16;  1103.64  159.57 )">10</text><text style="&st18;" transform="matrix(&st16;  1243.23  272.88 )">VLU</text><text style="&st18;" transform="matrix(&st16;  1236.5  253.61 )">64</text><text style="&st18;" transform="matrix(&st16;  1247.03  253.61 )">B</text><text style="&st18;" transform="matrix(&st16;  1246.87  262.68 )">C</text><text style="&st18;" transform="matrix(&st16;  1236.5  262.68 )">64</text><text style="&st18;" transform="matrix(&st16;  1060.44  117.07 )">L</text><text style="&st18;" transform="matrix(&st17;  1109.62  218.19 )">BR</text><text style="&st18;" transform="matrix(&st17;  1135.11  215.63 )">L</text><text style="&st18;" transform="matrix(&st16;  1183.46  159.57 )">8</text><text style="&st18;" transform="matrix(&st16;  1245.4  162.39 )">E2</text><text style="&st18;" transform="matrix(&st16;  1129.14  196.95 )">20</text><text style="&st18;" transform="matrix(&st16;  1106.97  196.95 )">9</text><text style="&st18;" transform="matrix(&st16;  1129.14  159.57 )">21</text><text style="&st18;" transform="matrix(&st16;  1243.19  185.06 )">VTA</text><text style="&st18;" transform="matrix(&st16;  1307.83  152.2 )">2</text><text ewd:textID="11" style="&st18;" transform="matrix(&st16;  1336.54  172.31 )">Diesel Throttle <tspan dy="6.0" x="0 ">Body Assembly RH</tspan></text><text style="&st18;" transform="matrix(&st16;  1336.53  165.2 )">C83(A),C85(B)</text><text style="&st18;" transform="matrix(&st16;  1315.01  195.26 )">B</text><text style="&st18;" transform="matrix(&st16;  1307.83  195.26 )">1</text><text style="&st18;" transform="matrix(&st17;  1279.59  219.97 )">W-B</text><text style="&st18;" transform="matrix(&st16;  1210.86  134.07 )">BR</text><text style="&st18;" transform="matrix(&st16;  1247.03  195.26 )">A</text><text style="&st18;" transform="matrix(&st16;  1239.84  195.26 )">3</text><text style="&st18;" transform="matrix(&st16;  1281.02  152.2 )">A</text><text style="&st18;" transform="matrix(&st16;  1273.83  152.2 )">1</text><text style="&st18;" transform="matrix(&st16;  1247.03  152.2 )">A</text><text style="&st18;" transform="matrix(&st16;  1239.84  152.2 )">2</text><text style="&st18;" transform="matrix(&st16;  1213.42  117.07 )">L</text><text style="&st18;" transform="matrix(&st16;  1144.89  340.3 )">D</text><text style="&st18;" transform="matrix(&st16;  1134.52  340.3 )">32</text><text ewd:textID="20" style="&st18;" transform="matrix(&st17;  1213.02  191.66 )">Junction <tspan dy="6.0" x="0 ">Connector</tspan></text><text style="&st18;" transform="matrix(&st17;  1205.91  191.65 )">C95</text><text style="&st18;" transform="matrix(&st16;  1321.34  618.48 )">BR</text><text style="&st18;" transform="matrix(&st17;  1296.59  362.66 )">BR</text></svg>