﻿<?xml version="1.0" encoding="utf-8"?>
<!DOCTYPE svg PUBLIC "-//W3C//DTD SVG 1.0//EN" "http://www.w3.org/TR/2001/REC-SVG-20010904/DTD/svg10.dtd"[
	<!ENTITY ns_flows "http://ns.adobe.com/Flows/1.0/">
	<!ENTITY ns_svg "http://www.w3.org/2000/svg">
	<!ENTITY ns_xlink "http://www.w3.org/1999/xlink">
	<!ENTITY st0 "font-size:7px;font-family:'MS-PGothic';adobe-font-script:japanese;">
	<!ENTITY st1 "font-size:6px;font-family:'ArialMT';">
	<!-- White fill  -->
	<!ENTITY st2 "fill:#FFFFFF;stroke:#000000; stroke-width:1.41;stroke-linecap:round;stroke-linejoin:round;">
	<!-- Yellow fill  -->
	<!ENTITY st3 "fill:#FFFFCC;stroke:#FFFFCC; stroke-width:0.1;stroke-linecap:round;stroke-linejoin:round;">
	<!-- Gray fill  -->
	<!ENTITY st4 "fill:#CCCCCC;stroke:#CCCCCC; stroke-width:0.1;stroke-linecap:round;stroke-linejoin:round;">
	<!-- Light-blue fill -->
	<!ENTITY st5 "fill:#CCECF4;stroke:#000000; stroke-width:1.133;stroke-linecap:round;stroke-linejoin:round;">
	<!ENTITY st6 "fill:none;stroke-linecap:butt; stroke-linejoin:round;">
	<!ENTITY st7 "fill:none;stroke:#000000;stroke-linecap:round;stroke-linejoin:round;">
	<!ENTITY st8 "enable-background:new    ;">
	<!-- Black fill -->
	<!ENTITY st9 "fill:#000000;stroke:#000000; stroke-linecap:round;stroke-linejoin:round;">
	<!-- SRS note   -->
	<!ENTITY st10 "font-size:9px;font-family:'ArialMT';">
	<!ENTITY st11 "font-size:9px;font-family:'Svg Symbol';">
	<!ENTITY st12 "font-size:6px;font-family:'Svg Symbol';">
	<!ENTITY st13 "fill:none;stroke:#ff0000;stroke-linecap:round;stroke-linejoin:round;">
	<!-- Yellow fill  -->
	<!ENTITY st14 "fill:#FFFF00;stroke:#FFFF00; stroke-width:0.1;stroke-linecap:round;stroke-linejoin:round;">
	<!ENTITY st15 "font-size:6px;font-family:'MS-PGothic';adobe-font-script:japanese;">
	<!ENTITY st16 "1.00 0.00 0.00 1.00">
	<!ENTITY st17 "0.00 -1.00 1.00 0.00">
	<!ENTITY st18 "font-size:6px;font-family:'Arial';">
	<!ENTITY st19 "font-size:9px;font-family:'Arial';">
	<!ENTITY st20 "font-size:6px;font-family:'MS-PGothic','MS PGothic';adobe-font-script:japanese;">
	<!ENTITY st21 "font-size:7px;font-family:'MS-PGothic','MS PGothic';adobe-font-script:japanese;">
	<!ATTLIST svg
		xmlns:ewd CDATA #FIXED "http://shcl.co.jp/ewd"
		xmlns:a CDATA #FIXED "http://ns.adobe.com/AdobeSVGViewerExtensions/3.0/"
		ewd:ver CDATA #IMPLIED
	>
	<!ATTLIST a
		ewd:lineID CDATA #IMPLIED
		ewd:groupID CDATA #IMPLIED
		ewd:figtype CDATA #IMPLIED
		ewd:code CDATA #IMPLIED
		ewd:figID CDATA #IMPLIED
		ewd:pinNo CDATA #IMPLIED
		ewd:comment CDATA #IMPLIED >
	<!ATTLIST g
		ewd:lineID CDATA #IMPLIED
		ewd:groupID CDATA #IMPLIED
		ewd:figtype CDATA #IMPLIED
		ewd:code CDATA #IMPLIED
		ewd:figID CDATA #IMPLIED
		ewd:pinNo CDATA #IMPLIED
		ewd:comment CDATA #IMPLIED >
	<!ATTLIST text
		ewd:textID CDATA #IMPLIED >
	<!ATTLIST title
		ewd:textID CDATA #IMPLIED >
]>
<!-- Generator: Shintec Hozumi YS   -->
<svg onload="call_execInitLoadProc_svg('system')" style="overflow:visible;  enable-background:new 0 0 6577.901 710.000" viewBox="0 0 6577.901 710.000" height="710.000" width="6577.901" xml:space="preserve" ewd:ver="L2.3.0.14" xmlns="&ns_svg;" xmlns:a="http://ns.adobe.com/AdobeSVGViewerExtensions/3.0/" xmlns:ewd="http://shcl.co.jp/ewd" xmlns:xlink="&ns_xlink;">
<path d=" M  4512.75,   435.21  L  4517.81,   446.58  " style="stroke-width: 1.42 ;&st7;  " /><path d=" M  4563.74,   435.21  L  4568.80,   446.58  " style="stroke-width: 1.42 ;&st7;  " /><path d=" M  4512.75,   435.21  L  4507.69,   446.58  " style="stroke-width: 1.42 ;&st7;  " /><path d=" M  4563.74,   435.21  L  4558.68,   446.58  " style="stroke-width: 1.42 ;&st7;  " /><path d=" M  4538.24,   452.21  L  4543.30,   440.85  " style="stroke-width: 1.42 ;&st7;  " /><path d=" M  4538.24,   452.21  L  4533.18,   440.85  " style="stroke-width: 1.42 ;&st7;  " /><path d=" M  4546.74,   256.74  L  4555.24,   256.74  " style="stroke-width: 1.42 ;&st7;  " /><path d=" M  4580.73,   256.74  L  4589.23,   256.74  " style="stroke-width: 1.42 ;&st7;  " /><path d=" M  4742.21,   443.71  L  4733.71,   443.71  " style="stroke-width: 1.42 ;&st7;  " /><path d=" M  4776.20,   443.71  L  4767.70,   443.71  " style="stroke-width: 1.42 ;&st7;  " /><path d=" M  4563.74,   180.26  L  4555.24,   180.26  " style="stroke-width: 1.42 ;&st7;  " /><path d=" M  4597.73,   180.26  L  4589.23,   180.26  " style="stroke-width: 1.42 ;&st7;  " /><path d=" M  4793.20,   290.74  L  4801.70,   290.74  " style="stroke-width: 1.42 ;&st7;  " /><path d=" M  4835.69,   290.74  L  4844.19,   290.74  " style="stroke-width: 1.42 ;&st7;  " /><path d=" M  4725.21,   205.75  L  4725.21,   231.25  L  4954.67,   231.25  L  4954.67,   205.75  L  4725.21,   205.75  " style="stroke-width: 1.42 ;&st7;  " /><path d=" M  4733.71,   205.75  L  4733.71,   231.25  " style="stroke-width: 0.85 ;&st7;  " /><path d=" M  4767.70,   205.75  L  4767.70,   231.25  " style="stroke-width: 0.85 ;&st7;  " /><path d=" M  4725.21,    69.77  L  4725.21,    95.27  L  5150.14,    95.27  L  5150.14,    69.77  L  4725.21,    69.77  " style="stroke-width: 1.42 ;&st7;  " /><path d=" M  4733.71,    69.77  L  4733.71,    95.27  " style="stroke-width: 0.85 ;&st7;  " /><path d=" M  4767.70,    69.77  L  4767.70,    95.27  " style="stroke-width: 0.85 ;&st7;  " /><path d=" M  4559.49,   185.92  L  4555.24,   181.67  L  4550.99,   185.92  " style="stroke-width: 1.42 ;&st7;  " /><path d=" M  4732.51,    85.77  L  4732.24,    86.24  L  4732.15,    86.77  L  4732.24,    87.30  L  4732.51,    87.77  L  4732.93,    88.12  L  4733.44,    88.31  L  4733.98,    88.31  L  4734.49,    88.12  L  4734.90,    87.77  L  4735.17,    87.30  L  4735.27,    86.77  L  4735.17,    86.24  L  4734.90,    85.77  L  4734.49,    85.42  L  4733.98,    85.24  L  4733.44,    85.24  L  4732.93,    85.42  L  4732.51,    85.77  L  4732.91,    86.48  L  4732.91,    87.06  L  4733.28,    87.51  L  4733.85,    87.61  L  4734.36,    87.32  L  4734.56,    86.77  L  4734.36,    86.22  L  4733.85,    85.94  L  4733.28,    86.03  L  4733.71,    86.77  " style="stroke-width: 0.85 ;&st7;  " /><path d=" M  4766.51,    77.27  L  4766.24,    77.74  L  4766.14,    78.27  L  4766.24,    78.81  L  4766.51,    79.28  L  4766.92,    79.62  L  4767.43,    79.81  L  4767.97,    79.81  L  4768.48,    79.62  L  4768.89,    79.28  L  4769.17,    78.81  L  4769.26,    78.27  L  4769.17,    77.74  L  4768.89,    77.27  L  4768.48,    76.92  L  4767.97,    76.74  L  4767.43,    76.74  L  4766.92,    76.92  L  4766.51,    77.27  L  4766.90,    77.98  L  4766.90,    78.56  L  4767.28,    79.01  L  4767.85,    79.11  L  4768.35,    78.82  L  4768.55,    78.27  L  4768.35,    77.73  L  4767.85,    77.44  L  4767.28,    77.54  L  4767.70,    78.27  " style="stroke-width: 0.85 ;&st7;  " /><path d=" M  4550.99,   247.68  L  4555.24,   251.93  L  4559.49,   247.68  " style="stroke-width: 1.42 ;&st7;  " /><path d=" M  4559.49,   251.08  L  4555.24,   255.33  L  4550.99,   251.08  " style="stroke-width: 1.42 ;&st7;  " /><path d=" M  4584.98,   247.68  L  4589.23,   251.93  L  4593.48,   247.68  " style="stroke-width: 1.42 ;&st7;  " /><path d=" M  4593.48,   251.08  L  4589.23,   255.33  L  4584.98,   251.08  " style="stroke-width: 1.42 ;&st7;  " /><path d=" M  4733.71,    86.77  L  5107.64,    86.77  L  5107.64,    95.27  " style="stroke-width: 0.85 ;&st7;  " /><path d=" M  4732.51,   221.75  L  4732.24,   222.22  L  4732.15,   222.75  L  4732.24,   223.28  L  4732.51,   223.75  L  4732.93,   224.10  L  4733.44,   224.28  L  4733.98,   224.28  L  4734.49,   224.10  L  4734.90,   223.75  L  4735.17,   223.28  L  4735.27,   222.75  L  4735.17,   222.22  L  4734.90,   221.75  L  4734.49,   221.40  L  4733.98,   221.21  L  4733.44,   221.21  L  4732.93,   221.40  L  4732.51,   221.75  L  4732.91,   222.46  L  4732.91,   223.04  L  4733.28,   223.48  L  4733.85,   223.58  L  4734.36,   223.30  L  4734.56,   222.75  L  4734.36,   222.20  L  4733.85,   221.91  L  4733.28,   222.01  L  4733.71,   222.75  " style="stroke-width: 0.85 ;&st7;  " /><path d=" M  4766.51,   213.25  L  4766.24,   213.72  L  4766.14,   214.25  L  4766.24,   214.78  L  4766.51,   215.25  L  4766.92,   215.60  L  4767.43,   215.79  L  4767.97,   215.79  L  4768.48,   215.60  L  4768.89,   215.25  L  4769.17,   214.78  L  4769.26,   214.25  L  4769.17,   213.72  L  4768.89,   213.25  L  4768.48,   212.90  L  4767.97,   212.71  L  4767.43,   212.71  L  4766.92,   212.90  L  4766.51,   213.25  L  4766.90,   213.96  L  4766.90,   214.54  L  4767.28,   214.99  L  4767.85,   215.09  L  4768.35,   214.80  L  4768.55,   214.25  L  4768.35,   213.70  L  4767.85,   213.41  L  4767.28,   213.51  L  4767.70,   214.25  " style="stroke-width: 0.85 ;&st7;  " /><path d=" M  4767.70,    78.27  L  5141.64,    78.27  L  5141.64,    95.27  " style="stroke-width: 0.85 ;&st7;  " /><path d=" M  4784.70,   392.72  L  4784.70,   350.23  L  4861.19,   350.23  L  4861.19,   392.72  L  4784.70,   392.72  " style="stroke-width: 1.42 ;&st7;  " /><path d=" M  4997.16,   350.23  L  4997.16,   392.72  L  5073.65,   392.72  L  5073.65,   350.23  L  4997.16,   350.23  " style="stroke-width: 1.42 ;&st7;  " /><path d=" M  4886.68,   350.23  L  4886.68,   392.72  L  4963.17,   392.72  L  4963.17,   350.23  L  4886.68,   350.23  " style="stroke-width: 1.42 ;&st7;  " /><path d=" M  4801.70,   222.75  L  4801.70,   231.25  " style="stroke-width: 0.85 ;&st7;  " /><path d=" M  4844.19,   214.25  L  4844.19,   231.25  " style="stroke-width: 0.85 ;&st7;  " /><path d=" M  4733.71,   222.75  L  4903.68,   222.75  L  4903.68,   231.25  " style="stroke-width: 0.85 ;&st7;  " /><path d=" M  4800.50,   221.75  L  4800.23,   222.22  L  4800.14,   222.75  L  4800.23,   223.28  L  4800.50,   223.75  L  4800.92,   224.10  L  4801.43,   224.28  L  4801.96,   224.28  L  4802.47,   224.10  L  4802.89,   223.75  L  4803.16,   223.28  L  4803.25,   222.75  L  4803.16,   222.22  L  4802.89,   221.75  L  4802.47,   221.40  L  4801.96,   221.21  L  4801.43,   221.21  L  4800.92,   221.40  L  4800.50,   221.75  L  4800.90,   222.46  L  4800.90,   223.04  L  4801.27,   223.48  L  4801.84,   223.58  L  4802.35,   223.30  L  4802.55,   222.75  L  4802.35,   222.20  L  4801.84,   221.91  L  4801.27,   222.01  L  4801.70,   222.75  " style="stroke-width: 0.85 ;&st7;  " /><path d=" M  4843.00,   213.25  L  4842.72,   213.72  L  4842.63,   214.25  L  4842.72,   214.78  L  4843.00,   215.25  L  4843.41,   215.60  L  4843.92,   215.79  L  4844.46,   215.79  L  4844.97,   215.60  L  4845.38,   215.25  L  4845.65,   214.78  L  4845.75,   214.25  L  4845.65,   213.72  L  4845.38,   213.25  L  4844.97,   212.90  L  4844.46,   212.71  L  4843.92,   212.71  L  4843.41,   212.90  L  4843.00,   213.25  L  4843.39,   213.96  L  4843.39,   214.54  L  4843.76,   214.99  L  4844.34,   215.09  L  4844.84,   214.80  L  4845.04,   214.25  L  4844.84,   213.70  L  4844.34,   213.41  L  4843.76,   213.51  L  4844.19,   214.25  " style="stroke-width: 0.85 ;&st7;  " /><path d=" M  4771.95,   452.78  L  4767.70,   448.53  L  4763.45,   452.78  " style="stroke-width: 1.42 ;&st7;  " /><path d=" M  4771.95,   449.38  L  4767.70,   445.13  L  4763.45,   449.38  " style="stroke-width: 1.42 ;&st7;  " /><path d=" M  4593.48,   185.92  L  4589.23,   181.67  L  4584.98,   185.92  " style="stroke-width: 1.42 ;&st7;  " /><path d=" M  4559.49,   189.32  L  4555.24,   185.07  L  4550.99,   189.32  " style="stroke-width: 1.42 ;&st7;  " /><path d=" M  4737.96,   452.78  L  4733.71,   448.53  L  4729.46,   452.78  " style="stroke-width: 1.42 ;&st7;  " /><path d=" M  4737.96,   449.38  L  4733.71,   445.13  L  4729.46,   449.38  " style="stroke-width: 1.42 ;&st7;  " /><path d=" M  4593.48,   189.32  L  4589.23,   185.07  L  4584.98,   189.32  " style="stroke-width: 1.42 ;&st7;  " /><path d=" M  4767.70,   214.25  L  4946.17,   214.25  L  4946.17,   231.25  " style="stroke-width: 0.85 ;&st7;  " /><path d=" M  4797.45,   281.67  L  4801.70,   285.92  L  4805.94,   281.67  " style="stroke-width: 1.42 ;&st7;  " /><path d=" M  4805.94,   285.07  L  4801.70,   289.32  L  4797.45,   285.07  " style="stroke-width: 1.42 ;&st7;  " /><path d=" M  4848.44,   285.07  L  4844.19,   289.32  L  4839.94,   285.07  " style="stroke-width: 1.42 ;&st7;  " /><path d=" M  4839.94,   281.67  L  4844.19,   285.92  L  4848.44,   281.67  " style="stroke-width: 1.42 ;&st7;  " /><path d=" M  4517.28,   405.75  C  4517.28    403.25   4515.25    401.22   4512.75    401.22  " style="stroke-width: 1.42 ;&st7;   " /><path d=" M  4512.75,   401.22  C  4510.24    401.22   4508.21    403.25   4508.21    405.75  " style="stroke-width: 1.42 ;&st7;   " /><path d=" M  4508.21,   405.75  C  4508.21    408.25   4510.24    410.28   4512.75    410.28  " style="stroke-width: 1.42 ;&st7;   " /><path d=" M  4512.75,   410.28  C  4515.25    410.28   4517.28    408.25   4517.28    405.75  " style="stroke-width: 1.42 ;&st7;   " /><path d=" M  4542.77,   405.75  C  4542.77    403.25   4540.74    401.22   4538.24    401.22  " style="stroke-width: 1.42 ;&st7;   " /><path d=" M  4538.24,   401.22  C  4535.74    401.22   4533.71    403.25   4533.71    405.75  " style="stroke-width: 1.42 ;&st7;   " /><path d=" M  4533.71,   405.75  C  4533.71    408.25   4535.74    410.28   4538.24    410.28  " style="stroke-width: 1.42 ;&st7;   " /><path d=" M  4538.24,   410.28  C  4540.74    410.28   4542.77    408.25   4542.77    405.75  " style="stroke-width: 1.42 ;&st7;   " /><path d=" M  4568.27,   405.75  C  4568.27    403.25   4566.24    401.22   4563.74    401.22  " style="stroke-width: 1.42 ;&st7;   " /><path d=" M  4563.74,   401.22  C  4561.23    401.22   4559.20    403.25   4559.20    405.75  " style="stroke-width: 1.42 ;&st7;   " /><path d=" M  4559.20,   405.75  C  4559.20    408.25   4561.23    410.28   4563.74    410.28  " style="stroke-width: 1.42 ;&st7;   " /><path d=" M  4563.74,   410.28  C  4566.24    410.28   4568.27    408.25   4568.27    405.75  " style="stroke-width: 1.42 ;&st7;   " /><path d=" M  4593.77,   405.75  C  4593.77    403.25   4591.74    401.22   4589.23    401.22  " style="stroke-width: 1.42 ;&st7;   " /><path d=" M  4589.23,   401.22  C  4586.73    401.22   4584.70    403.25   4584.70    405.75  " style="stroke-width: 1.42 ;&st7;   " /><path d=" M  4584.70,   405.75  C  4584.70    408.25   4586.73    410.28   4589.23    410.28  " style="stroke-width: 1.42 ;&st7;   " /><path d=" M  4589.23,   410.28  C  4591.74    410.28   4593.77    408.25   4593.77    405.75  " style="stroke-width: 1.42 ;&st7;   " /><path d=" M  4593.77,   362.69  C  4593.77    360.19   4591.74    358.16   4589.23    358.16  " style="stroke-width: 1.42 ;&st7;   " /><path d=" M  4589.23,   358.16  C  4586.73    358.16   4584.70    360.19   4584.70    362.69  " style="stroke-width: 1.42 ;&st7;   " /><path d=" M  4584.70,   362.69  C  4584.70    365.19   4586.73    367.22   4589.23    367.22  " style="stroke-width: 1.42 ;&st7;   " /><path d=" M  4589.23,   367.22  C  4591.74    367.22   4593.77    365.19   4593.77    362.69  " style="stroke-width: 1.42 ;&st7;   " /><path d=" M  4559.77,   362.69  C  4559.77    360.19   4557.74    358.16   4555.24    358.16  " style="stroke-width: 1.42 ;&st7;   " /><path d=" M  4555.24,   358.16  C  4552.74    358.16   4550.71    360.19   4550.71    362.69  " style="stroke-width: 1.42 ;&st7;   " /><path d=" M  4550.71,   362.69  C  4550.71    365.19   4552.74    367.22   4555.24    367.22  " style="stroke-width: 1.42 ;&st7;   " /><path d=" M  4555.24,   367.22  C  4557.74    367.22   4559.77    365.19   4559.77    362.69  " style="stroke-width: 1.42 ;&st7;   " /><path d=" M  4848.72,   345.69  C  4848.72    343.19   4846.69    341.16   4844.19    341.16  " style="stroke-width: 1.42 ;&st7;   " /><path d=" M  4844.19,   341.16  C  4841.69    341.16   4839.66    343.19   4839.66    345.69  " style="stroke-width: 1.42 ;&st7;   " /><path d=" M  4839.66,   345.69  C  4839.66    348.20   4841.69    350.23   4844.19    350.23  " style="stroke-width: 1.42 ;&st7;   " /><path d=" M  4844.19,   350.23  C  4846.69    350.23   4848.72    348.20   4848.72    345.69  " style="stroke-width: 1.42 ;&st7;   " /><path d=" M  4806.23,   345.69  C  4806.23    343.19   4804.20    341.16   4801.70    341.16  " style="stroke-width: 1.42 ;&st7;   " /><path d=" M  4801.70,   341.16  C  4799.19    341.16   4797.17    343.19   4797.17    345.69  " style="stroke-width: 1.42 ;&st7;   " /><path d=" M  4797.17,   345.69  C  4797.17    348.20   4799.19    350.23   4801.70    350.23  " style="stroke-width: 1.42 ;&st7;   " /><path d=" M  4801.70,   350.23  C  4804.20    350.23   4806.23    348.20   4806.23    345.69  " style="stroke-width: 1.42 ;&st7;   " /><path d=" M  4502.12,    99.52  C  4502.12     97.17   4500.22     95.27   4497.87     95.27  " style="stroke-width: 1.42 ;&st7;   " /><path d=" M  4502.12,   159.01  C  4502.12    156.66   4500.22    154.76   4497.87    154.76  " style="stroke-width: 1.42 ;&st7;   " /><path d=" M  4502.12,   235.50  C  4502.12    233.15   4500.22    231.25   4497.87    231.25  " style="stroke-width: 1.42 ;&st7;   " /><path d=" M  4500.28,   362.69  C  4500.28    360.19   4498.25    358.16   4495.75    358.16  " style="stroke-width: 1.42 ;&st7;   " /><text style="&st18;" transform="matrix(&st16;  4758.03  202.06 )">11</text><text style="&st18;" transform="matrix(&st16;  4727.37  202.06 )">1</text><text style="&st18;" transform="matrix(&st16;  4727.37  239.44 )">7</text><text style="&st18;" transform="matrix(&st16;  4758.03  239.44 )">17</text><text style="&st18;" transform="matrix(&st17;  4730.01  158.54 )">SB</text><text style="&st18;" transform="matrix(&st17;  4764.01  157.46 )">W</text><text style="&st18;" transform="matrix(&st16;  4792.92  357.86 )">CANH</text><text style="&st18;" transform="matrix(&st16;  4835.91  357.86 )">CANL</text><text style="&st18;" transform="matrix(&st17;  4840.49  318.93 )">W</text><text style="&st18;" transform="matrix(&st17;  4798.0  320.48 )">GR</text><text style="&st18;" transform="matrix(&st16;  4781.29  400.33 )">E47(A)</text><text ewd:textID="21" style="&st18;" transform="matrix(&st17;  4977.89  395.63 )">Network Gateway ECU</text><text style="&st18;" transform="matrix(&st16;  4993.75  400.61 )">E121(A),E163(B)</text><text ewd:textID="36" style="&st18;" transform="matrix(&st16;  4993.76  407.44 )">Steering Sensor</text><text style="&st18;" transform="matrix(&st16;  4758.03  66.08 )">13</text><text style="&st18;" transform="matrix(&st16;  4727.37  66.08 )">3</text><text style="&st18;" transform="matrix(&st16;  4894.01  400.91 )">16</text><text style="&st18;" transform="matrix(&st16;  4638.35  40.58 )">L</text><text style="&st18;" transform="matrix(&st16;  4637.03  23.58 )">W</text><text style="&st18;" transform="matrix(&st16;  4689.34  40.58 )">L</text><text style="&st18;" transform="matrix(&st16;  4688.02  23.58 )">W</text><text style="&st18;" transform="matrix(&st16;  4936.5  346.54 )">17</text><text style="&st18;" transform="matrix(&st16;  4938.44  357.86 )">CA4L</text><text style="&st18;" transform="matrix(&st16;  4894.01  346.54 )">18</text><text style="&st18;" transform="matrix(&st16;  4895.4  357.86 )">CA4H</text><text style="&st18;" transform="matrix(&st17;  4970.78  395.62 )">E145</text><text style="&st18;" transform="matrix(&st16;  4795.36  239.44 )">4</text><text style="&st18;" transform="matrix(&st16;  4834.52  239.44 )">14</text><text style="&st18;" transform="matrix(&st16;  4688.02  618.48 )">W</text><text style="&st18;" transform="matrix(&st16;  4637.03  618.48 )">W</text><text style="&st18;" transform="matrix(&st16;  4936.5  400.91 )">15</text><text style="&st18;" transform="matrix(&st16;  4895.95  389.02 )">CA5L</text><text style="&st18;" transform="matrix(&st16;  4937.9  389.02 )">CA5H</text><text style="&st18;" transform="matrix(&st16;  4512.17  53.34 )">10A <tspan dy="6.0" x="0 ">ENG-IG </tspan><tspan dy="6.0" x="0 ">NO.1</tspan></text><text ewd:textID="26" style="&st18;" transform="matrix(&st17;  4511.89  214.57 )">STP LP OPE <tspan dy="6.0" x="0 ">Relay</tspan></text><text style="&st18;" transform="matrix(&st17;  4899.98  436.98 )">B</text><text style="&st18;" transform="matrix(&st17;  4942.48  439.0 )">SB</text><text style="&st18;" transform="matrix(&st16;  4716.96  441.43 )">10</text><text style="&st18;" transform="matrix(&st16;  4750.95  441.43 )">11</text><text style="&st18;" transform="matrix(&st16;  4538.49  177.98 )">32</text><text style="&st18;" transform="matrix(&st16;  4572.48  177.98 )">31</text><text style="&st18;" transform="matrix(&st16;  4897.34  239.44 )">9</text><text style="&st18;" transform="matrix(&st16;  4936.5  239.44 )">19</text><text style="&st18;" transform="matrix(&st17;  4899.98  317.61 )">L</text><text style="&st18;" transform="matrix(&st17;  4942.48  318.93 )">W</text><text style="&st18;" transform="matrix(&st16;  4727.37  103.46 )">1</text><text style="&st18;" transform="matrix(&st16;  4758.03  103.46 )">11</text><text style="&st18;" transform="matrix(&st17;  4730.01  318.0 )">V</text><text style="&st18;" transform="matrix(&st17;  4764.01  318.93 )">W</text><text style="&st18;" transform="matrix(&st17;  4613.84  404.12 )">A24(A)</text><text ewd:textID="28" style="&st18;" transform="matrix(&st17;  4620.95  404.12 )">Skid Control ECU with <tspan dy="6.0" x="0 ">Actuator Assembly</tspan></text><text style="&st18;" transform="matrix(&st16;  4507.69  397.52 )">RL-</text><text style="&st18;" transform="matrix(&st17;  4509.05  425.16 )">W</text><text style="&st18;" transform="matrix(&st16;  4531.9  397.52 )">RR+</text><text style="&st18;" transform="matrix(&st17;  4534.55  424.39 )">R</text><text style="&st18;" transform="matrix(&st16;  4558.18  397.52 )">RR-</text><text style="&st18;" transform="matrix(&st17;  4560.04  424.54 )">G</text><text style="&st18;" transform="matrix(&st16;  4503.27  407.72 )">6</text><text style="&st18;" transform="matrix(&st16;  4510.48  407.72 )">A</text><text style="&st18;" transform="matrix(&st16;  4528.76  407.72 )">5</text><text style="&st18;" transform="matrix(&st16;  4535.98  407.72 )">A</text><text style="&st18;" transform="matrix(&st16;  4550.92  407.72 )">19</text><text style="&st18;" transform="matrix(&st16;  4561.47  407.72 )">A</text><text style="&st18;" transform="matrix(&st16;  4583.32  397.52 )">SP1</text><text style="&st18;" transform="matrix(&st16;  4576.42  407.72 )">12</text><text style="&st18;" transform="matrix(&st16;  4586.97  407.72 )">A</text><text style="&st18;" transform="matrix(&st16;  4541.82  262.96 )">3</text><text style="&st18;" transform="matrix(&st16;  4575.82  262.96 )">4</text><text style="&st18;" transform="matrix(&st16;  4576.42  364.66 )">11</text><text style="&st18;" transform="matrix(&st16;  4586.97  364.66 )">A</text><text style="&st18;" transform="matrix(&st16;  4542.42  364.66 )">25</text><text style="&st18;" transform="matrix(&st16;  4552.97  364.66 )">A</text><text style="&st18;" transform="matrix(&st16;  4546.96  374.86 )">CANL</text><text style="&st18;" transform="matrix(&st16;  4580.45  374.86 )">CANH</text><text style="&st18;" transform="matrix(&st17;  4551.54  131.96 )">W</text><text style="&st18;" transform="matrix(&st17;  4585.54  130.64 )">L</text><text style="&st18;" transform="matrix(&st17;  4551.54  225.45 )">W</text><text style="&st18;" transform="matrix(&st17;  4585.54  224.13 )">L</text><text style="&st18;" transform="matrix(&st17;  4551.54  327.43 )">W</text><text style="&st18;" transform="matrix(&st17;  4585.54  326.11 )">L</text><text ewd:textID="18" style="&st18;" transform="matrix(&st17;  4969.39  234.15 )">Junction <tspan dy="6.0" x="0 ">Connector</tspan></text><text style="&st18;" transform="matrix(&st17;  4962.57  234.15 )">E135</text><text style="&st18;" transform="matrix(&st16;  4688.02  558.99 )">W</text><text style="&st18;" transform="matrix(&st16;  4688.95  542.0 )">V</text><text style="&st18;" transform="matrix(&st17;  4585.54  424.23 )">V</text><text style="&st18;" transform="matrix(&st16;  4637.96  542.0 )">V</text><text style="&st18;" transform="matrix(&st16;  4637.03  558.99 )">W</text><text style="&st18;" transform="matrix(&st16;  4638.35  601.49 )">L</text><text style="&st18;" transform="matrix(&st16;  4689.34  601.49 )">L</text><text style="&st18;" transform="matrix(&st16;  4637.96  508.0 )">V</text><text style="&st18;" transform="matrix(&st16;  4688.95  508.0 )">V</text><text style="&st18;" transform="matrix(&st16;  4841.92  347.66 )">A</text><text style="&st18;" transform="matrix(&st16;  4831.38  347.66 )">22</text><text style="&st18;" transform="matrix(&st16;  4799.43  347.66 )">A</text><text style="&st18;" transform="matrix(&st16;  4788.88  347.66 )">13</text><text ewd:textID="7" style="&st18;" transform="matrix(&st16;  4781.3  407.44 )">Center Airbag Sensor <tspan dy="6.0" x="0 ">Assembly</tspan></text><text style="&st18;" transform="matrix(&st17;  4798.0  260.99 )">GR</text><text style="&st18;" transform="matrix(&st17;  4840.49  259.44 )">W</text><text style="&st18;" transform="matrix(&st16;  4788.28  296.96 )">1</text><text style="&st18;" transform="matrix(&st16;  4830.77  296.96 )">2</text><text ewd:textID="42" style="&st18;" transform="matrix(&st16;  4799.55  373.44 )">Yaw Rate Sensor</text></svg>