﻿<?xml version="1.0" encoding="utf-8"?>
<!DOCTYPE svg PUBLIC "-//W3C//DTD SVG 1.0//EN" "http://www.w3.org/TR/2001/REC-SVG-20010904/DTD/svg10.dtd"[
	<!ENTITY ns_flows "http://ns.adobe.com/Flows/1.0/">
	<!ENTITY ns_svg "http://www.w3.org/2000/svg">
	<!ENTITY ns_xlink "http://www.w3.org/1999/xlink">
	<!ENTITY st0 "font-size:7px;font-family:'MS-PGothic';adobe-font-script:japanese;">
	<!ENTITY st1 "font-size:6px;font-family:'ArialMT';">
	<!-- White fill  -->
	<!ENTITY st2 "fill:#FFFFFF;stroke:#000000; stroke-width:1.41;stroke-linecap:round;stroke-linejoin:round;">
	<!-- Yellow fill  -->
	<!ENTITY st3 "fill:#FFFFCC;stroke:#FFFFCC; stroke-width:0.1;stroke-linecap:round;stroke-linejoin:round;">
	<!-- Gray fill  -->
	<!ENTITY st4 "fill:#CCCCCC;stroke:#CCCCCC; stroke-width:0.1;stroke-linecap:round;stroke-linejoin:round;">
	<!-- Light-blue fill -->
	<!ENTITY st5 "fill:#CCECF4;stroke:#000000; stroke-width:1.133;stroke-linecap:round;stroke-linejoin:round;">
	<!ENTITY st6 "fill:none;stroke-linecap:butt; stroke-linejoin:round;">
	<!ENTITY st7 "fill:none;stroke:#000000;stroke-linecap:round;stroke-linejoin:round;">
	<!ENTITY st8 "enable-background:new    ;">
	<!-- Black fill -->
	<!ENTITY st9 "fill:#000000;stroke:#000000; stroke-linecap:round;stroke-linejoin:round;">
	<!-- SRS note   -->
	<!ENTITY st10 "font-size:9px;font-family:'ArialMT';">
	<!ENTITY st11 "font-size:9px;font-family:'Svg Symbol';">
	<!ENTITY st12 "font-size:6px;font-family:'Svg Symbol';">
	<!ENTITY st13 "fill:none;stroke:#ff0000;stroke-linecap:round;stroke-linejoin:round;">
	<!-- Yellow fill  -->
	<!ENTITY st14 "fill:#FFFF00;stroke:#FFFF00; stroke-width:0.1;stroke-linecap:round;stroke-linejoin:round;">
	<!ENTITY st15 "font-size:6px;font-family:'MS-PGothic';adobe-font-script:japanese;">
	<!ENTITY st16 "1.00 0.00 0.00 1.00">
	<!ENTITY st17 "0.00 -1.00 1.00 0.00">
	<!ENTITY st18 "font-size:6px;font-family:'Arial';">
	<!ENTITY st19 "font-size:9px;font-family:'Arial';">
	<!ENTITY st20 "font-size:6px;font-family:'MS-PGothic','MS PGothic';adobe-font-script:japanese;">
	<!ENTITY st21 "font-size:7px;font-family:'MS-PGothic','MS PGothic';adobe-font-script:japanese;">
	<!ATTLIST svg
		xmlns:ewd CDATA #FIXED "http://shcl.co.jp/ewd"
		xmlns:a CDATA #FIXED "http://ns.adobe.com/AdobeSVGViewerExtensions/3.0/"
		ewd:ver CDATA #IMPLIED
	>
	<!ATTLIST a
		ewd:lineID CDATA #IMPLIED
		ewd:groupID CDATA #IMPLIED
		ewd:figtype CDATA #IMPLIED
		ewd:code CDATA #IMPLIED
		ewd:figID CDATA #IMPLIED
		ewd:pinNo CDATA #IMPLIED
		ewd:comment CDATA #IMPLIED >
	<!ATTLIST g
		ewd:lineID CDATA #IMPLIED
		ewd:groupID CDATA #IMPLIED
		ewd:figtype CDATA #IMPLIED
		ewd:code CDATA #IMPLIED
		ewd:figID CDATA #IMPLIED
		ewd:pinNo CDATA #IMPLIED
		ewd:comment CDATA #IMPLIED >
	<!ATTLIST text
		ewd:textID CDATA #IMPLIED >
	<!ATTLIST title
		ewd:textID CDATA #IMPLIED >
]>
<!-- Generator: Shintec Hozumi YS   -->
<svg onload="call_execInitLoadProc_svg('system')" style="overflow:visible;  enable-background:new 0 0 6715.836 710.000" viewBox="0 0 6715.836 710.000" height="710.000" width="6715.836" xml:space="preserve" ewd:ver="L2.3.0.14" xmlns="&ns_svg;" xmlns:a="http://ns.adobe.com/AdobeSVGViewerExtensions/3.0/" xmlns:ewd="http://shcl.co.jp/ewd" xmlns:xlink="&ns_xlink;">
<path d=" M  5532.58,   180.26  L  5541.07,   180.26  " style="stroke-width: 1.42 ;&st7;  " /><path d=" M  5543.20,   137.76  L  5538.95,   137.76  " style="stroke-width: 1.42 ;&st7;  " /><path d=" M  5543.20,   129.26  L  5538.95,   129.26  " style="stroke-width: 1.42 ;&st7;  " /><path d=" M  5541.07,   103.77  L  5541.07,   129.26  " style="stroke-width: 0.85 ;&st7;  " /><path d=" M  5613.31,   333.23  L  5604.81,   333.23  " style="stroke-width: 0.85 ;&st7;  " /><path d=" M  5570.82,   333.23  L  5562.32,   333.23  " style="stroke-width: 0.85 ;&st7;  " /><path d=" M  5579.30,   323.57  L  5571.94,   327.82  " style="stroke-width: 0.85 ;&st7;  " /><path d=" M  5573.95,   331.28  L  5581.31,   327.03  " style="stroke-width: 0.85 ;&st7;  " /><path d=" M  5621.80,   323.57  L  5614.43,   327.82  " style="stroke-width: 0.85 ;&st7;  " /><path d=" M  5616.44,   331.28  L  5623.80,   327.03  " style="stroke-width: 0.85 ;&st7;  " /><path d=" M  5515.58,   260.99  L  5515.58,   252.49  " style="stroke-width: 0.85 ;&st7;  " /><path d=" M  5545.32,   273.74  L  5536.82,   273.74  " style="stroke-width: 0.85 ;&st7;  " /><path d=" M  5949.01,   452.21  L  5943.95,   440.85  " style="stroke-width: 1.42 ;&st7;  " /><path d=" M  5881.02,   452.21  L  5886.08,   440.85  " style="stroke-width: 1.42 ;&st7;  " /><path d=" M  5881.02,   452.21  L  5875.96,   440.85  " style="stroke-width: 1.42 ;&st7;  " /><path d=" M  5983.00,   435.21  L  5977.94,   446.58  " style="stroke-width: 1.42 ;&st7;  " /><path d=" M  5983.00,   435.21  L  5988.06,   446.58  " style="stroke-width: 1.42 ;&st7;  " /><path d=" M  5915.01,   435.21  L  5909.95,   446.58  " style="stroke-width: 1.42 ;&st7;  " /><path d=" M  5915.01,   435.21  L  5920.07,   446.58  " style="stroke-width: 1.42 ;&st7;  " /><path d=" M  5949.01,   452.21  L  5954.07,   440.85  " style="stroke-width: 1.42 ;&st7;  " /><path d=" M  5889.52,    69.77  L  5889.52,    78.27  " style="stroke-width: 0.85 ;&st7;  " /><path d=" M  5891.64,    95.27  L  5887.39,    95.27  " style="stroke-width: 1.42 ;&st7;  " /><path d=" M  5891.64,   103.77  L  5887.39,   103.77  " style="stroke-width: 1.42 ;&st7;  " /><path d=" M  5889.52,   207.17  L  5883.85,   184.50  " style="stroke-width: 1.42 ;&st7;  " /><path d=" M  5889.52,   214.25  L  5889.52,   210.00  " style="stroke-width: 0.85 ;&st7;  " /><path d=" M  5889.52,   184.50  L  5889.52,   180.26  " style="stroke-width: 0.85 ;&st7;  " /><path d=" M  5898.01,   134.24  L  5893.04,   129.26  " style="stroke-width: 1.42 ;&st7;  " /><path d=" M  5881.02,   141.29  L  5885.99,   146.26  " style="stroke-width: 1.42 ;&st7;  " /><path d=" M  5893.04,   146.26  L  5898.01,   141.29  " style="stroke-width: 1.42 ;&st7;  " /><path d=" M  5885.99,   129.26  L  5881.02,   134.24  " style="stroke-width: 1.42 ;&st7;  " /><path d=" M  5898.01,   295.71  L  5893.04,   290.74  " style="stroke-width: 1.42 ;&st7;  " /><path d=" M  5881.02,   302.77  L  5885.99,   307.73  " style="stroke-width: 1.42 ;&st7;  " /><path d=" M  5893.04,   307.73  L  5898.01,   302.77  " style="stroke-width: 1.42 ;&st7;  " /><path d=" M  5885.99,   290.74  L  5881.02,   295.71  " style="stroke-width: 1.42 ;&st7;  " /><path d=" M  5991.50,   141.29  L  5996.47,   146.26  " style="stroke-width: 1.42 ;&st7;  " /><path d=" M  5996.47,   129.26  L  5991.50,   134.24  " style="stroke-width: 1.42 ;&st7;  " /><path d=" M  5583.57,   545.69  L  5592.07,   545.69  " style="stroke-width: 1.42 ;&st7;  " /><path d=" M  5823.65,   103.77  L  5819.40,   103.77  " style="stroke-width: 1.42 ;&st7;  " /><path d=" M  5823.65,    95.27  L  5819.40,    95.27  " style="stroke-width: 1.42 ;&st7;  " /><path d=" M  5821.53,    69.77  L  5821.53,    95.27  " style="stroke-width: 0.85 ;&st7;  " /><path d=" M  5855.52,   184.50  L  5855.52,   180.26  " style="stroke-width: 0.85 ;&st7;  " /><path d=" M  5855.52,   214.25  L  5855.52,   210.00  " style="stroke-width: 0.85 ;&st7;  " /><path d=" M  5855.52,   207.17  L  5857.22,   183.05  " style="stroke-width: 1.42 ;&st7;  " /><path d=" M  5658.93,   331.28  L  5666.29,   327.03  " style="stroke-width: 0.85 ;&st7;  " /><path d=" M  5664.29,   323.57  L  5656.93,   327.82  " style="stroke-width: 0.85 ;&st7;  " /><path d=" M  5655.80,   333.23  L  5647.31,   333.23  " style="stroke-width: 0.85 ;&st7;  " /><path d=" M  5541.07,   273.74  L  5535.41,   265.24  L  5546.74,   265.24  L  5541.07,   273.74  " style="stroke-width: 0.28 ;&st9;  " /><path d=" M  5541.07,   248.24  L  5541.07,   375.72  " style="stroke-width: 0.85 ;&st7;  " /><path d=" M  5515.58,   256.74  L  5524.07,   251.08  L  5524.07,   262.41  L  5515.58,   256.74  " style="stroke-width: 0.28 ;&st9;  " /><path d=" M  5539.88,   255.74  L  5539.61,   256.21  L  5539.51,   256.74  L  5539.61,   257.28  L  5539.88,   257.75  L  5540.29,   258.09  L  5540.80,   258.28  L  5541.34,   258.28  L  5541.85,   258.09  L  5542.26,   257.75  L  5542.54,   257.28  L  5542.63,   256.74  L  5542.54,   256.21  L  5542.26,   255.74  L  5541.85,   255.39  L  5541.34,   255.21  L  5540.80,   255.21  L  5540.29,   255.39  L  5539.88,   255.74  L  5540.27,   256.45  L  5540.27,   257.03  L  5540.65,   257.48  L  5541.22,   257.58  L  5541.72,   257.29  L  5541.92,   256.74  L  5541.72,   256.20  L  5541.22,   255.91  L  5540.65,   256.01  L  5541.07,   256.74  " style="stroke-width: 0.85 ;&st7;  " /><path d=" M  5539.88,   298.23  L  5539.61,   298.70  L  5539.51,   299.24  L  5539.61,   299.77  L  5539.88,   300.24  L  5540.29,   300.58  L  5540.80,   300.77  L  5541.34,   300.77  L  5541.85,   300.58  L  5542.26,   300.24  L  5542.54,   299.77  L  5542.63,   299.24  L  5542.54,   298.70  L  5542.26,   298.23  L  5541.85,   297.89  L  5541.34,   297.70  L  5540.80,   297.70  L  5540.29,   297.89  L  5539.88,   298.23  L  5540.27,   298.94  L  5540.27,   299.53  L  5540.65,   299.97  L  5541.22,   300.07  L  5541.72,   299.78  L  5541.92,   299.24  L  5541.72,   298.69  L  5541.22,   298.40  L  5540.65,   298.50  L  5541.07,   299.24  " style="stroke-width: 0.85 ;&st7;  " /><path d=" M  5600.56,   375.72  L  5600.56,   418.22  L  5617.56,   418.22  L  5617.56,   375.72  L  5600.56,   375.72  " style="stroke-width: 1.42 ;&st7;  " /><path d=" M  5623.80,   327.03  L  5621.46,   330.08  L  5620.00,   327.54  L  5623.80,   327.03  L  5622.51,   327.78  L  5621.53,   329.06  L  5620.91,   327.99  L  5622.51,   327.78  L  5621.87,   328.14  L  5621.56,   328.55  L  5621.37,   328.21  L  5621.87,   328.14  " style="stroke-width: 0.85 ;&st7;  " /><path d=" M  5621.79,   323.57  L  5619.46,   326.61  L  5617.99,   324.07  L  5621.79,   323.57  L  5620.51,   324.31  L  5619.53,   325.59  L  5618.91,   324.52  L  5620.51,   324.31  L  5619.87,   324.68  L  5619.56,   325.08  L  5619.36,   324.74  L  5619.87,   324.68  " style="stroke-width: 0.85 ;&st7;  " /><path d=" M  5609.06,   333.23  L  5603.39,   324.73  L  5614.73,   324.73  L  5609.06,   333.23  " style="stroke-width: 0.28 ;&st9;  " /><path d=" M  5609.06,   299.24  L  5609.06,   341.73  L  5611.89,   343.14  L  5606.23,   345.98  L  5611.89,   348.81  L  5606.23,   351.64  L  5611.89,   354.48  L  5606.23,   357.31  L  5609.06,   358.73  L  5609.06,   375.72  " style="stroke-width: 0.85 ;&st7;  " /><path d=" M  5581.30,   327.03  L  5578.97,   330.08  L  5577.50,   327.54  L  5581.30,   327.03  L  5580.02,   327.78  L  5579.04,   329.06  L  5578.42,   327.99  L  5580.02,   327.78  L  5579.38,   328.14  L  5579.07,   328.55  L  5578.87,   328.21  L  5579.38,   328.14  " style="stroke-width: 0.85 ;&st7;  " /><path d=" M  5579.30,   323.57  L  5576.97,   326.61  L  5575.50,   324.07  L  5579.30,   323.57  L  5578.02,   324.31  L  5577.03,   325.59  L  5576.41,   324.52  L  5578.02,   324.31  L  5577.38,   324.68  L  5577.07,   325.08  L  5576.87,   324.74  L  5577.38,   324.68  " style="stroke-width: 0.85 ;&st7;  " /><path d=" M  5566.57,   333.23  L  5560.90,   324.73  L  5572.23,   324.73  L  5566.57,   333.23  " style="stroke-width: 0.28 ;&st9;  " /><path d=" M  5541.07,   124.37  L  5538.24,   121.54  L  5538.24,   125.79  L  5541.07,   128.62  L  5543.90,   125.79  L  5543.90,   121.54  L  5541.07,   124.37  " style="stroke-width: 0.28 ;&st9;  " /><path d=" M  5528.32,    69.77  L  5528.32,   112.27  L  5553.82,   112.27  L  5553.82,    69.77  L  5528.32,    69.77  " style="stroke-width: 1.42 ;&st7;  " /><path d=" M  5545.32,   174.59  L  5541.07,   178.84  L  5536.82,   174.59  " style="stroke-width: 1.42 ;&st7;  " /><path d=" M  5536.82,   171.19  L  5541.07,   175.44  L  5545.32,   171.19  " style="stroke-width: 1.42 ;&st7;  " /><path d=" M  5856.22,   197.25  L  5887.03,   197.25  " style="stroke-width: 0.85 ;&st7; stroke-dasharray:3, 1.5;" /><path d=" M  5834.27,    78.27  L  5834.27,    35.78  L  5808.78,    35.78  L  5808.78,    78.27  L  5834.27,    78.27  " style="stroke-width: 1.42 ;&st7;  " /><path d=" M  5821.52,    90.37  L  5818.69,    87.54  L  5818.69,    91.79  L  5821.52,    94.62  L  5824.36,    91.79  L  5824.36,    87.54  L  5821.52,    90.37  " style="stroke-width: 0.28 ;&st9;  " /><path d=" M  5660.05,   460.71  L  5660.05,   452.21  L  5643.05,   452.21  " style="stroke-width: 0.85 ;&st7;  " /><path d=" M  5643.05,   426.71  L  5643.05,   486.20  " style="stroke-width: 0.85 ;&st7;  " /><path d=" M  5651.55,   460.71  L  5668.55,   460.71  " style="stroke-width: 0.85 ;&st7;  " /><path d=" M  5655.80,   463.54  L  5664.30,   463.54  " style="stroke-width: 0.85 ;&st7;  " /><path d=" M  5657.22,   466.37  L  5662.88,   466.37  " style="stroke-width: 0.85 ;&st7;  " /><path d=" M  5658.64,   469.21  L  5661.47,   469.21  " style="stroke-width: 0.85 ;&st7;  " /><path d=" M  5641.86,   451.21  L  5641.59,   451.68  L  5641.50,   452.21  L  5641.59,   452.74  L  5641.86,   453.21  L  5642.28,   453.56  L  5642.79,   453.75  L  5643.32,   453.75  L  5643.83,   453.56  L  5644.25,   453.21  L  5644.52,   452.74  L  5644.61,   452.21  L  5644.52,   451.68  L  5644.25,   451.21  L  5643.83,   450.86  L  5643.32,   450.67  L  5642.79,   450.67  L  5642.28,   450.86  L  5641.86,   451.21  L  5642.26,   451.92  L  5642.26,   452.50  L  5642.63,   452.95  L  5643.20,   453.05  L  5643.71,   452.76  L  5643.90,   452.21  L  5643.71,   451.66  L  5643.20,   451.37  L  5642.63,   451.47  L  5643.05,   452.21  " style="stroke-width: 0.85 ;&st7;  " /><path d=" M  5532.57,   697.25  L  5532.57,   701.50  " style="stroke-width: 0.85 ;&st7;  " /><path d=" M  5524.07,   701.50  L  5541.07,   701.50  " style="stroke-width: 0.85 ;&st7;  " /><path d=" M  5528.32,   704.33  L  5536.82,   704.33  " style="stroke-width: 0.85 ;&st7;  " /><path d=" M  5529.74,   707.17  L  5535.41,   707.17  " style="stroke-width: 0.85 ;&st7;  " /><path d=" M  5531.16,   710.00  L  5533.99,   710.00  " style="stroke-width: 0.85 ;&st7;  " /><path d=" M  5524.07,   537.20  L  5524.07,   562.69  L  5541.07,   562.69  L  5541.07,   537.20  L  5524.07,   537.20  " style="stroke-width: 1.42 ;&st7;  " /><path d=" M  5524.07,   545.69  L  5541.07,   545.69  " style="stroke-width: 1.13 ;&st7; stroke-dasharray:3, 3;" /><path d=" M  5524.07,   554.19  L  5541.07,   554.19  " style="stroke-width: 1.13 ;&st7; stroke-dasharray:3, 3;" /><path d=" M  5532.57,   537.20  L  5532.57,   562.69  " style="stroke-width: 0.85 ;&st7;  " /><path d=" M  5634.56,   537.20  L  5634.56,   554.19  L  5651.55,   554.19  L  5651.55,   537.20  L  5634.56,   537.20  " style="stroke-width: 1.42 ;&st7;  " /><path d=" M  5643.05,   537.20  L  5643.05,   554.19  " style="stroke-width: 0.85 ;&st7;  " /><path d=" M  6123.22,   456.46  L  6118.98,   460.71  L  6002.12,   460.71  L  5999.99,   464.96  L  5997.87,   460.71  L  5881.01,   460.71  L  5876.77,   456.46  " style="stroke-width: 0.85 ;&st7;  " /><path d=" M  5728.04,   333.23  L  5728.04,   384.22  L  6705.38,   384.22  L  6705.38,   333.23  L  5728.04,   333.23  " style="stroke-width: 1.42 ;&st7;  " /><path d=" M  5876.77,    35.78  L  5876.77,    78.27  L  5902.26,    78.27  L  5902.26,    35.78  L  5876.77,    35.78  " style="stroke-width: 1.42 ;&st7;  " /><path d=" M  5889.51,    90.37  L  5886.68,    87.54  L  5886.68,    91.79  L  5889.51,    94.62  L  5892.35,    91.79  L  5892.35,    87.54  L  5889.51,    90.37  " style="stroke-width: 0.28 ;&st9;  " /><path d=" M  5889.51,    78.27  L  5889.51,    95.27  " style="stroke-width: 0.85 ;&st7;  " /><path d=" M  5898.01,   214.25  L  5898.01,   180.26  L  5847.02,   180.26  L  5847.02,   214.25  L  5898.01,   214.25  " style="stroke-width: 1.42 ;&st7;  " /><path d=" M  5949.00,   222.75  L  5949.00,   256.74  L  6050.99,   256.74  L  6050.99,   222.75  L  5949.00,   222.75  " style="stroke-width: 1.42 ;&st7;  " /><path d=" M  5587.81,   536.63  L  5592.06,   540.88  L  5596.31,   536.63  " style="stroke-width: 1.42 ;&st7;  " /><path d=" M  5596.31,   540.03  L  5592.06,   544.28  L  5587.81,   540.03  " style="stroke-width: 1.42 ;&st7;  " /><path d=" M  5607.87,   298.23  L  5607.60,   298.70  L  5607.50,   299.24  L  5607.60,   299.77  L  5607.87,   300.24  L  5608.28,   300.58  L  5608.79,   300.77  L  5609.33,   300.77  L  5609.84,   300.58  L  5610.25,   300.24  L  5610.53,   299.77  L  5610.62,   299.24  L  5610.53,   298.70  L  5610.25,   298.23  L  5609.84,   297.89  L  5609.33,   297.70  L  5608.79,   297.70  L  5608.28,   297.89  L  5607.87,   298.23  L  5608.26,   298.94  L  5608.26,   299.53  L  5608.64,   299.97  L  5609.21,   300.07  L  5609.71,   299.78  L  5609.91,   299.24  L  5609.71,   298.69  L  5609.21,   298.40  L  5608.64,   298.50  L  5609.06,   299.24  " style="stroke-width: 0.85 ;&st7;  " /><path d=" M  5651.55,   375.72  L  5651.55,   358.73  L  5648.72,   357.31  L  5654.39,   354.48  L  5648.72,   351.64  L  5654.39,   348.81  L  5648.72,   345.98  L  5654.39,   343.14  L  5651.55,   341.73  L  5651.55,   299.24  " style="stroke-width: 0.85 ;&st7;  " /><path d=" M  5666.29,   327.03  L  5663.96,   330.08  L  5662.49,   327.54  L  5666.29,   327.03  L  5665.01,   327.78  L  5664.02,   329.06  L  5663.40,   327.99  L  5665.01,   327.78  L  5664.37,   328.14  L  5664.05,   328.55  L  5663.86,   328.21  L  5664.37,   328.14  " style="stroke-width: 0.85 ;&st7;  " /><path d=" M  5664.29,   323.57  L  5661.95,   326.61  L  5660.49,   324.07  L  5664.29,   323.57  L  5663.00,   324.31  L  5662.02,   325.59  L  5661.40,   324.52  L  5663.00,   324.31  L  5662.36,   324.68  L  5662.05,   325.08  L  5661.86,   324.74  L  5662.36,   324.68  " style="stroke-width: 0.85 ;&st7;  " /><path d=" M  5651.55,   333.23  L  5645.89,   324.73  L  5657.22,   324.73  L  5651.55,   333.23  " style="stroke-width: 0.28 ;&st9;  " /><path d=" M  5827.90,    99.52  C  5827.90     97.17   5826.00     95.27   5823.65     95.27  " style="stroke-width: 1.42 ;&st7;   " /><path d=" M  5823.65,   103.77  C  5826.00    103.77   5827.90    101.87   5827.90     99.52  " style="stroke-width: 1.42 ;&st7;   " /><path d=" M  5815.15,    99.52  C  5815.15    101.87   5817.06    103.77   5819.40    103.77  " style="stroke-width: 1.42 ;&st7;   " /><path d=" M  5819.40,    95.27  C  5817.06     95.27   5815.15     97.17   5815.15     99.52  " style="stroke-width: 1.42 ;&st7;   " /><path d=" M  5822.94,    68.36  C  5822.94     67.57   5822.31     66.94   5821.53     66.94  " style="stroke-width: 0.85 ;&st7;   " /><path d=" M  5821.53,    66.94  C  5820.75     66.94   5820.11     67.57   5820.11     68.36  " style="stroke-width: 0.85 ;&st7;   " /><path d=" M  5820.11,    68.36  C  5820.11     69.14   5820.75     69.77   5821.53     69.77  " style="stroke-width: 0.85 ;&st7;   " /><path d=" M  5821.53,    69.77  C  5822.31     69.77   5822.94     69.14   5822.94     68.36  " style="stroke-width: 0.85 ;&st7;   " /><path d=" M  5822.94,    45.69  C  5822.94     44.91   5822.31     44.28   5821.53     44.28  " style="stroke-width: 0.85 ;&st7;   " /><path d=" M  5821.53,    44.28  C  5820.75     44.28   5820.11     44.91   5820.11     45.69  " style="stroke-width: 0.85 ;&st7;   " /><path d=" M  5820.11,    45.69  C  5820.11     46.48   5820.75     47.11   5821.53     47.11  " style="stroke-width: 0.85 ;&st7;   " /><path d=" M  5821.53,    47.11  C  5822.31     47.11   5822.94     46.48   5822.94     45.69  " style="stroke-width: 0.85 ;&st7;   " /><path d=" M  5821.53,    66.94  C  5824.27     65.33   5825.18     61.80   5823.56     59.06  " style="stroke-width: 1.42 ;&st7;   " /><path d=" M  5823.56,    59.06  C  5823.04     58.18   5822.41     57.55   5821.53     57.03  " style="stroke-width: 1.42 ;&st7;   " /><path d=" M  5821.53,    47.11  C  5818.79     48.72   5817.88     52.25   5819.49     54.99  " style="stroke-width: 1.42 ;&st7;   " /><path d=" M  5819.49,    54.99  C  5820.01     55.87   5820.65     56.51   5821.53     57.03  " style="stroke-width: 1.42 ;&st7;   " /><path d=" M  5856.94,   185.92  C  5856.94    185.14   5856.30    184.50   5855.52    184.50  " style="stroke-width: 0.85 ;&st7;   " /><path d=" M  5855.52,   184.50  C  5854.74    184.50   5854.11    185.14   5854.11    185.92  " style="stroke-width: 0.85 ;&st7;   " /><path d=" M  5854.11,   185.92  C  5854.11    186.70   5854.74    187.34   5855.52    187.34  " style="stroke-width: 0.85 ;&st7;   " /><path d=" M  5855.52,   187.34  C  5856.30    187.34   5856.94    186.70   5856.94    185.92  " style="stroke-width: 0.85 ;&st7;   " /><path d=" M  5856.94,   208.58  C  5856.94    207.80   5856.30    207.17   5855.52    207.17  " style="stroke-width: 0.85 ;&st7;   " /><path d=" M  5855.52,   207.17  C  5854.74    207.17   5854.11    207.80   5854.11    208.58  " style="stroke-width: 0.85 ;&st7;   " /><path d=" M  5854.11,   208.58  C  5854.11    209.37   5854.74    210.00   5855.52    210.00  " style="stroke-width: 0.85 ;&st7;   " /><path d=" M  5855.52,   210.00  C  5856.30    210.00   5856.94    209.37   5856.94    208.58  " style="stroke-width: 0.85 ;&st7;   " /><path d=" M  5547.45,   133.51  C  5547.45    131.17   5545.55    129.26   5543.20    129.26  " style="stroke-width: 1.42 ;&st7;   " /><path d=" M  5543.20,   137.76  C  5545.55    137.76   5547.45    135.86   5547.45    133.51  " style="stroke-width: 1.42 ;&st7;   " /><path d=" M  5534.70,   133.51  C  5534.70    135.86   5536.60    137.76   5538.95    137.76  " style="stroke-width: 1.42 ;&st7;   " /><path d=" M  5538.95,   129.26  C  5536.60    129.26   5534.70    131.17   5534.70    133.51  " style="stroke-width: 1.42 ;&st7;   " /><path d=" M  5542.49,   102.35  C  5542.49    101.57   5541.86    100.94   5541.07    100.94  " style="stroke-width: 0.85 ;&st7;   " /><path d=" M  5541.07,   100.94  C  5540.29    100.94   5539.66    101.57   5539.66    102.35  " style="stroke-width: 0.85 ;&st7;   " /><path d=" M  5539.66,   102.35  C  5539.66    103.13   5540.29    103.77   5541.07    103.77  " style="stroke-width: 0.85 ;&st7;   " /><path d=" M  5541.07,   103.77  C  5541.86    103.77   5542.49    103.13   5542.49    102.35  " style="stroke-width: 0.85 ;&st7;   " /><path d=" M  5542.49,    79.69  C  5542.49     78.91   5541.86     78.27   5541.07     78.27  " style="stroke-width: 0.85 ;&st7;   " /><path d=" M  5541.07,    78.27  C  5540.29     78.27   5539.66     78.91   5539.66     79.69  " style="stroke-width: 0.85 ;&st7;   " /><path d=" M  5539.66,    79.69  C  5539.66     80.47   5540.29     81.11   5541.07     81.11  " style="stroke-width: 0.85 ;&st7;   " /><path d=" M  5541.07,    81.11  C  5541.86     81.11   5542.49     80.47   5542.49     79.69  " style="stroke-width: 0.85 ;&st7;   " /><path d=" M  5541.07,   100.94  C  5543.81     99.32   5544.72     95.79   5543.11     93.06  " style="stroke-width: 1.42 ;&st7;   " /><path d=" M  5543.11,    93.06  C  5542.59     92.17   5541.96     91.54   5541.07     91.02  " style="stroke-width: 1.42 ;&st7;   " /><path d=" M  5541.07,    81.11  C  5538.34     82.72   5537.42     86.25   5539.04     88.98  " style="stroke-width: 1.42 ;&st7;   " /><path d=" M  5539.04,    88.98  C  5539.56     89.87   5540.19     90.50   5541.07     91.02  " style="stroke-width: 1.42 ;&st7;   " /><path d=" M  5537.11,   567.22  C  5537.11    564.72   5535.08    562.69   5532.58    562.69  " style="stroke-width: 1.42 ;&st7;   " /><path d=" M  5532.58,   562.69  C  5530.07    562.69   5528.04    564.72   5528.04    567.22  " style="stroke-width: 1.42 ;&st7;   " /><path d=" M  5528.04,   567.22  C  5528.04    569.73   5530.07    571.76   5532.58    571.76  " style="stroke-width: 1.42 ;&st7;   " /><path d=" M  5532.58,   571.76  C  5535.08    571.76   5537.11    569.73   5537.11    567.22  " style="stroke-width: 1.42 ;&st7;   " /><path d=" M  5537.11,   532.66  C  5537.11    530.16   5535.08    528.13   5532.58    528.13  " style="stroke-width: 1.42 ;&st7;   " /><path d=" M  5532.58,   528.13  C  5530.07    528.13   5528.04    530.16   5528.04    532.66  " style="stroke-width: 1.42 ;&st7;   " /><path d=" M  5528.04,   532.66  C  5528.04    535.17   5530.07    537.20   5532.58    537.20  " style="stroke-width: 1.42 ;&st7;   " /><path d=" M  5532.58,   537.20  C  5535.08    537.20   5537.11    535.17   5537.11    532.66  " style="stroke-width: 1.42 ;&st7;   " /><path d=" M  5987.53,   388.75  C  5987.53    386.25   5985.50    384.22   5983.00    384.22  " style="stroke-width: 1.42 ;&st7;   " /><path d=" M  5983.00,   384.22  C  5980.50    384.22   5978.47    386.25   5978.47    388.75  " style="stroke-width: 1.42 ;&st7;   " /><path d=" M  5978.47,   388.75  C  5978.47    391.26   5980.50    393.29   5983.00    393.29  " style="stroke-width: 1.42 ;&st7;   " /><path d=" M  5983.00,   393.29  C  5985.50    393.29   5987.53    391.26   5987.53    388.75  " style="stroke-width: 1.42 ;&st7;   " /><path d=" M  5953.54,   388.75  C  5953.54    386.25   5951.51    384.22   5949.01    384.22  " style="stroke-width: 1.42 ;&st7;   " /><path d=" M  5949.01,   384.22  C  5946.50    384.22   5944.47    386.25   5944.47    388.75  " style="stroke-width: 1.42 ;&st7;   " /><path d=" M  5944.47,   388.75  C  5944.47    391.26   5946.50    393.29   5949.01    393.29  " style="stroke-width: 1.42 ;&st7;   " /><path d=" M  5949.01,   393.29  C  5951.51    393.29   5953.54    391.26   5953.54    388.75  " style="stroke-width: 1.42 ;&st7;   " /><path d=" M  5919.54,   388.75  C  5919.54    386.25   5917.51    384.22   5915.01    384.22  " style="stroke-width: 1.42 ;&st7;   " /><path d=" M  5915.01,   384.22  C  5912.51    384.22   5910.48    386.25   5910.48    388.75  " style="stroke-width: 1.42 ;&st7;   " /><path d=" M  5910.48,   388.75  C  5910.48    391.26   5912.51    393.29   5915.01    393.29  " style="stroke-width: 1.42 ;&st7;   " /><path d=" M  5915.01,   393.29  C  5917.51    393.29   5919.54    391.26   5919.54    388.75  " style="stroke-width: 1.42 ;&st7;   " /><path d=" M  5885.55,   388.75  C  5885.55    386.25   5883.52    384.22   5881.02    384.22  " style="stroke-width: 1.42 ;&st7;   " /><path d=" M  5881.02,   384.22  C  5878.51    384.22   5876.48    386.25   5876.48    388.75  " style="stroke-width: 1.42 ;&st7;   " /><path d=" M  5876.48,   388.75  C  5876.48    391.26   5878.51    393.29   5881.02    393.29  " style="stroke-width: 1.42 ;&st7;   " /><path d=" M  5881.02,   393.29  C  5883.52    393.29   5885.55    391.26   5885.55    388.75  " style="stroke-width: 1.42 ;&st7;   " /><path d=" M  5894.05,   328.70  C  5894.05    326.19   5892.02    324.16   5889.52    324.16  " style="stroke-width: 1.42 ;&st7;   " /><path d=" M  5889.52,   324.16  C  5887.01    324.16   5884.98    326.19   5884.98    328.70  " style="stroke-width: 1.42 ;&st7;   " /><path d=" M  5884.98,   328.70  C  5884.98    331.20   5887.01    333.23   5889.52    333.23  " style="stroke-width: 1.42 ;&st7;   " /><path d=" M  5889.52,   333.23  C  5892.02    333.23   5894.05    331.20   5894.05    328.70  " style="stroke-width: 1.42 ;&st7;   " /><path d=" M  5889.52,    47.11  C  5886.78     48.72   5885.87     52.25   5887.48     54.99  " style="stroke-width: 1.42 ;&st7;   " /><path d=" M  5887.48,    54.99  C  5888.00     55.87   5888.63     56.51   5889.52     57.03  " style="stroke-width: 1.42 ;&st7;   " /><path d=" M  5889.52,    66.94  C  5892.25     65.33   5893.17     61.80   5891.55     59.06  " style="stroke-width: 1.42 ;&st7;   " /><path d=" M  5891.55,    59.06  C  5891.03     58.18   5890.40     57.55   5889.52     57.03  " style="stroke-width: 1.42 ;&st7;   " /><path d=" M  5890.93,    45.69  C  5890.93     44.91   5890.30     44.28   5889.52     44.28  " style="stroke-width: 0.85 ;&st7;   " /><path d=" M  5889.52,    44.28  C  5888.73     44.28   5888.10     44.91   5888.10     45.69  " style="stroke-width: 0.85 ;&st7;   " /><path d=" M  5888.10,    45.69  C  5888.10     46.48   5888.73     47.11   5889.52     47.11  " style="stroke-width: 0.85 ;&st7;   " /><path d=" M  5889.52,    47.11  C  5890.30     47.11   5890.93     46.48   5890.93     45.69  " style="stroke-width: 0.85 ;&st7;   " /><path d=" M  5890.93,    68.36  C  5890.93     67.57   5890.30     66.94   5889.52     66.94  " style="stroke-width: 0.85 ;&st7;   " /><path d=" M  5889.52,    66.94  C  5888.73     66.94   5888.10     67.57   5888.10     68.36  " style="stroke-width: 0.85 ;&st7;   " /><path d=" M  5888.10,    68.36  C  5888.10     69.14   5888.73     69.77   5889.52     69.77  " style="stroke-width: 0.85 ;&st7;   " /><path d=" M  5889.52,    69.77  C  5890.30     69.77   5890.93     69.14   5890.93     68.36  " style="stroke-width: 0.85 ;&st7;   " /><path d=" M  5887.39,    95.27  C  5885.04     95.27   5883.14     97.17   5883.14     99.52  " style="stroke-width: 1.42 ;&st7;   " /><path d=" M  5883.14,    99.52  C  5883.14    101.87   5885.04    103.77   5887.39    103.77  " style="stroke-width: 1.42 ;&st7;   " /><path d=" M  5891.64,   103.77  C  5893.99    103.77   5895.89    101.87   5895.89     99.52  " style="stroke-width: 1.42 ;&st7;   " /><path d=" M  5895.89,    99.52  C  5895.89     97.17   5893.99     95.27   5891.64     95.27  " style="stroke-width: 1.42 ;&st7;   " /><path d=" M  5890.93,   208.58  C  5890.93    207.80   5890.30    207.17   5889.52    207.17  " style="stroke-width: 0.85 ;&st7;   " /><path d=" M  5889.52,   207.17  C  5888.73    207.17   5888.10    207.80   5888.10    208.58  " style="stroke-width: 0.85 ;&st7;   " /><path d=" M  5888.10,   208.58  C  5888.10    209.37   5888.73    210.00   5889.52    210.00  " style="stroke-width: 0.85 ;&st7;   " /><path d=" M  5889.52,   210.00  C  5890.30    210.00   5890.93    209.37   5890.93    208.58  " style="stroke-width: 0.85 ;&st7;   " /><path d=" M  5890.93,   185.92  C  5890.93    185.14   5890.30    184.50   5889.52    184.50  " style="stroke-width: 0.85 ;&st7;   " /><path d=" M  5889.52,   184.50  C  5888.73    184.50   5888.10    185.14   5888.10    185.92  " style="stroke-width: 0.85 ;&st7;   " /><path d=" M  5888.10,   185.92  C  5888.10    186.70   5888.73    187.34   5889.52    187.34  " style="stroke-width: 0.85 ;&st7;   " /><path d=" M  5889.52,   187.34  C  5890.30    187.34   5890.93    186.70   5890.93    185.92  " style="stroke-width: 0.85 ;&st7;   " /><path d=" M  5783.57,   388.75  C  5783.57    386.25   5781.54    384.22   5779.03    384.22  " style="stroke-width: 1.42 ;&st7;   " /><path d=" M  5779.03,   384.22  C  5776.53    384.22   5774.50    386.25   5774.50    388.75  " style="stroke-width: 1.42 ;&st7;   " /><path d=" M  5774.50,   388.75  C  5774.50    391.26   5776.53    393.29   5779.03    393.29  " style="stroke-width: 1.42 ;&st7;   " /><path d=" M  5779.03,   393.29  C  5781.54    393.29   5783.57    391.26   5783.57    388.75  " style="stroke-width: 1.42 ;&st7;   " /><path d=" M  5749.57,   388.75  C  5749.57    386.25   5747.54    384.22   5745.04    384.22  " style="stroke-width: 1.42 ;&st7;   " /><path d=" M  5745.04,   384.22  C  5742.54    384.22   5740.51    386.25   5740.51    388.75  " style="stroke-width: 1.42 ;&st7;   " /><path d=" M  5740.51,   388.75  C  5740.51    391.26   5742.54    393.29   5745.04    393.29  " style="stroke-width: 1.42 ;&st7;   " /><path d=" M  5745.04,   393.29  C  5747.54    393.29   5749.57    391.26   5749.57    388.75  " style="stroke-width: 1.42 ;&st7;   " /><path d=" M  5843.06,   388.75  C  5843.06    386.25   5841.03    384.22   5838.52    384.22  " style="stroke-width: 1.42 ;&st7;   " /><path d=" M  5838.52,   384.22  C  5836.02    384.22   5833.99    386.25   5833.99    388.75  " style="stroke-width: 1.42 ;&st7;   " /><path d=" M  5833.99,   388.75  C  5833.99    391.26   5836.02    393.29   5838.52    393.29  " style="stroke-width: 1.42 ;&st7;   " /><path d=" M  5838.52,   393.29  C  5841.03    393.29   5843.06    391.26   5843.06    388.75  " style="stroke-width: 1.42 ;&st7;   " /><path d=" M  5647.59,   490.74  C  5647.59    488.23   5645.56    486.20   5643.06    486.20  " style="stroke-width: 1.42 ;&st7;   " /><path d=" M  5643.06,   486.20  C  5640.55    486.20   5638.52    488.23   5638.52    490.74  " style="stroke-width: 1.42 ;&st7;   " /><path d=" M  5638.52,   490.74  C  5638.52    493.24   5640.55    495.27   5643.06    495.27  " style="stroke-width: 1.42 ;&st7;   " /><path d=" M  5643.06,   495.27  C  5645.56    495.27   5647.59    493.24   5647.59    490.74  " style="stroke-width: 1.42 ;&st7;   " /><path d=" M  5545.61,   243.71  C  5545.61    241.21   5543.58    239.18   5541.07    239.18  " style="stroke-width: 1.42 ;&st7;   " /><path d=" M  5541.07,   239.18  C  5538.57    239.18   5536.54    241.21   5536.54    243.71  " style="stroke-width: 1.42 ;&st7;   " /><path d=" M  5536.54,   243.71  C  5536.54    246.21   5538.57    248.24   5541.07    248.24  " style="stroke-width: 1.42 ;&st7;   " /><path d=" M  5541.07,   248.24  C  5543.58    248.24   5545.61    246.21   5545.61    243.71  " style="stroke-width: 1.42 ;&st7;   " /><text style="&st18;" transform="matrix(&st16;  5837.95  56.17 )">10A <tspan dy="6.0" x="0 ">IGN</tspan></text><text style="&st18;" transform="matrix(&st16;  5819.65  101.49 )">1</text><text style="&st18;" transform="matrix(&st16;  5849.18  176.57 )">4</text><text style="&st18;" transform="matrix(&st16;  5849.18  222.44 )">3</text><text style="&st18;" transform="matrix(&st16;  5815.19  86.47 )">2</text><text style="&st18;" transform="matrix(&st16;  5816.16  32.08 )">(IG)</text><text style="&st18;" transform="matrix(&st16;  5537.68  383.36 )">IG</text><text style="&st18;" transform="matrix(&st17;  5537.38  224.51 )">B</text><text style="&st18;" transform="matrix(&st17;  5537.38  159.67 )">B-R</text><text style="&st18;" transform="matrix(&st16;  5524.32  186.47 )">33</text><text style="&st18;" transform="matrix(&st16;  5535.71  66.08 )">(IG)</text><text style="&st18;" transform="matrix(&st16;  5534.73  120.46 )">2</text><text style="&st18;" transform="matrix(&st16;  5539.2  135.48 )">1</text><text style="&st18;" transform="matrix(&st16;  5557.5  90.16 )">5A <tspan dy="6.0" x="0 ">MET</tspan></text><text style="&st18;" transform="matrix(&st16;  5543.66  256.44 )">IG+</text><text ewd:textID="32" style="&st18;" transform="matrix(&st17;  5608.21  409.36 )">One Step <tspan dy="6.0" x="0 ">Dim</tspan></text><text ewd:textID="27" style="&st18;" transform="matrix(&st17;  5558.63  337.84 )">Master</text><text style="&st18;" transform="matrix(&st17;  5601.12  340.09 )">CRUISE</text><text style="&st18;" transform="matrix(&st17;  5659.17  557.09 )">E60</text><text ewd:textID="25" style="&st18;" transform="matrix(&st17;  5666.27  557.1 )">Junction <tspan dy="6.0" x="0 ">Connector</tspan></text><text ewd:textID="25" style="&st18;" transform="matrix(&st17;  5555.79  565.6 )">Junction <tspan dy="6.0" x="0 ">Connector</tspan></text><text style="&st18;" transform="matrix(&st17;  5548.69  565.59 )">A37(A),C44(B)</text><text style="&st18;" transform="matrix(&st16;  5519.76  569.19 )">14</text><text style="&st18;" transform="matrix(&st16;  5530.31  569.19 )">B</text><text style="&st18;" transform="matrix(&st16;  5519.76  534.63 )">19</text><text style="&st18;" transform="matrix(&st16;  5530.31  534.63 )">A</text><text style="&st18;" transform="matrix(&st17;  5588.37  528.39 )">BR</text><text style="&st18;" transform="matrix(&st17;  5528.88  587.88 )">BR</text><text style="&st18;" transform="matrix(&st17;  5639.36  519.89 )">BR</text><text style="&st18;" transform="matrix(&st16;  5645.64  482.51 )">ET</text><text ewd:textID="41" style="&st18;" transform="matrix(&st16;  5979.27  472.59 )">Speed Sensors</text><text style="&st18;" transform="matrix(&st16;  5980.73  390.72 )">A</text><text style="&st18;" transform="matrix(&st16;  5970.19  390.72 )">17</text><text style="&st18;" transform="matrix(&st16;  5946.74  390.72 )">A</text><text style="&st18;" transform="matrix(&st16;  5939.53  390.72 )">3</text><text style="&st18;" transform="matrix(&st16;  5912.75  390.72 )">A</text><text style="&st18;" transform="matrix(&st16;  5905.53  390.72 )">4</text><text style="&st18;" transform="matrix(&st16;  5878.75  390.72 )">A</text><text style="&st18;" transform="matrix(&st16;  5868.2  390.72 )">18</text><text style="&st18;" transform="matrix(&st17;  5979.3  419.59 )">L</text><text style="&st18;" transform="matrix(&st16;  5977.79  380.52 )">FR-</text><text style="&st18;" transform="matrix(&st17;  5945.31  419.98 )">B</text><text style="&st18;" transform="matrix(&st16;  5943.06  380.52 )">FR+</text><text style="&st18;" transform="matrix(&st17;  5911.32  421.96 )">LG</text><text style="&st18;" transform="matrix(&st16;  5910.3  380.52 )">FL-</text><text style="&st18;" transform="matrix(&st17;  5877.32  419.98 )">V</text><text style="&st18;" transform="matrix(&st16;  5875.57  380.52 )">FL+</text><text style="&st18;" transform="matrix(&st16;  5836.26  134.07 )">B</text><text style="&st18;" transform="matrix(&st16;  5861.6  295.54 )">R</text><text style="&st18;" transform="matrix(&st17;  5851.83  245.62 )">R-W</text><text style="&st18;" transform="matrix(&st17;  5885.82  241.67 )">R</text><text ewd:textID="40" style="&st18;" transform="matrix(&st16;  5928.6  359.28 )">Skid Control ECU with Actuator Assembly</text><text style="&st18;" transform="matrix(&st16;  5928.6  352.17 )">A24(A),A25(B)</text><text style="&st18;" transform="matrix(&st16;  5905.94  56.17 )">15A <tspan dy="6.0" x="0 ">STOP</tspan></text><text style="&st18;" transform="matrix(&st16;  5883.18  86.47 )">2</text><text style="&st18;" transform="matrix(&st16;  5887.64  101.49 )">1</text><text style="&st18;" transform="matrix(&st16;  5881.43  32.08 )">(BAT)</text><text style="&st18;" transform="matrix(&st16;  5883.18  222.44 )">1</text><text style="&st18;" transform="matrix(&st16;  5883.18  176.57 )">2</text><text style="&st18;" transform="matrix(&st17;  5885.82  120.92 )">L-B</text><text ewd:textID="51" style="&st18;" transform="matrix(&st17;  5912.73  217.16 )">Stop Light <tspan dy="6.0" x="0 ">Switch Assembly</tspan></text><text style="&st18;" transform="matrix(&st17;  5905.63  217.15 )">A30</text><text style="&st18;" transform="matrix(&st17;  5885.82  318.15 )">R</text><text style="&st18;" transform="matrix(&st17;  5885.82  163.41 )">L-B</text><text style="&st18;" transform="matrix(&st16;  5876.7  330.67 )">45</text><text style="&st18;" transform="matrix(&st16;  5887.25  330.67 )">A</text><text style="&st18;" transform="matrix(&st16;  5881.74  340.86 )">STP2</text><text style="&st18;" transform="matrix(&st16;  5742.77  390.72 )">A</text><text style="&st18;" transform="matrix(&st16;  5732.23  390.72 )">25</text><text style="&st18;" transform="matrix(&st16;  5776.77  390.72 )">A</text><text style="&st18;" transform="matrix(&st16;  5766.22  390.72 )">11</text><text style="&st18;" transform="matrix(&st16;  5736.76  380.52 )">CANL</text><text style="&st18;" transform="matrix(&st16;  5770.25  380.52 )">CANH</text><text style="&st18;" transform="matrix(&st17;  5775.34  415.73 )">V</text><text style="&st18;" transform="matrix(&st17;  5741.34  415.34 )">L</text><text style="&st18;" transform="matrix(&st16;  5946.59  193.56 )">R</text><text style="&st18;" transform="matrix(&st16;  5959.66  219.06 )">2</text><text style="&st18;" transform="matrix(&st16;  5959.9  230.38 )">STP</text><text style="&st18;" transform="matrix(&st16;  5996.03  230.38 )">+B</text><text style="&st18;" transform="matrix(&st16;  5993.66  219.06 )">6</text><text style="&st18;" transform="matrix(&st16;  5944.1  134.07 )">L-B</text><text style="&st18;" transform="matrix(&st17;  5996.3  184.66 )">L-B</text><text style="&st18;" transform="matrix(&st16;  5832.61  380.52 )">SP1</text><text style="&st18;" transform="matrix(&st17;  5834.83  423.94 )">V-W</text><text style="&st18;" transform="matrix(&st16;  5825.71  390.72 )">12</text><text style="&st18;" transform="matrix(&st16;  5836.26  390.72 )">A</text><text style="&st18;" transform="matrix(&st16;  5725.78  609.99 )">V</text><text style="&st18;" transform="matrix(&st16;  5726.16  592.99 )">L</text><text style="&st18;" transform="matrix(&st16;  5721.82  626.98 )">V-W</text><text style="&st18;" transform="matrix(&st16;  5670.83  626.98 )">V-W</text><text style="&st18;" transform="matrix(&st16;  5675.17  592.99 )">L</text><text style="&st18;" transform="matrix(&st16;  5674.79  609.99 )">V</text><text style="&st18;" transform="matrix(&st16;  5721.67  32.08 )">R-W</text><text style="&st18;" transform="matrix(&st16;  5725.62  15.09 )">R</text><text style="&st18;" transform="matrix(&st16;  5674.63  15.09 )">R</text><text style="&st18;" transform="matrix(&st16;  5670.68  32.08 )">R-W</text><text style="&st18;" transform="matrix(&st16;  5613.12  575.99 )">BR</text><text ewd:textID="14" style="&st18;" transform="matrix(&st16;  5588.66  238.6 )">Combination <tspan dy="6.0" x="0 ">Meter Assembly</tspan></text><text style="&st18;" transform="matrix(&st16;  5588.65  231.49 )">E7(A)</text><text ewd:textID="36" style="&st18;" transform="matrix(&st17;  5643.61  346.33 )">Radar Cruise</text><text ewd:textID="50" style="&st18;" transform="matrix(&st16;  5945.6  271.46 )">Stop Light Control Relay Assembly</text><text style="&st18;" transform="matrix(&st16;  5945.59  264.35 )">A39</text><text style="&st18;" transform="matrix(&st16;  5601.1  560.41 )">(RHD)</text><text style="&st18;" transform="matrix(&st16;  5601.1  551.91 )">(LHD)</text><text style="&st18;" transform="matrix(&st16;  5575.31  560.41 )">67</text><text style="&st18;" transform="matrix(&st16;  5575.31  551.91 )">67</text><text style="&st18;" transform="matrix(&st16;  5640.79  492.71 )">A</text><text style="&st18;" transform="matrix(&st16;  5630.24  492.71 )">15</text><text style="&st18;" transform="matrix(&st16;  5633.38  562.39 )">74</text><text style="&st18;" transform="matrix(&st16;  5633.38  533.51 )">34</text><text style="&st18;" transform="matrix(&st16;  5538.81  245.68 )">A</text><text style="&st18;" transform="matrix(&st16;  5528.26  245.68 )">18</text></svg>