﻿<?xml version="1.0" encoding="utf-8"?>
<!DOCTYPE svg PUBLIC "-//W3C//DTD SVG 1.0//EN" "http://www.w3.org/TR/2001/REC-SVG-20010904/DTD/svg10.dtd"[
	<!ENTITY ns_flows "http://ns.adobe.com/Flows/1.0/">
	<!ENTITY ns_svg "http://www.w3.org/2000/svg">
	<!ENTITY ns_xlink "http://www.w3.org/1999/xlink">
	<!ENTITY st0 "font-size:7px;font-family:'MS-PGothic';adobe-font-script:japanese;">
	<!ENTITY st1 "font-size:6px;font-family:'ArialMT';">
	<!-- White fill  -->
	<!ENTITY st2 "fill:#FFFFFF;stroke:#000000; stroke-width:1.41;stroke-linecap:round;stroke-linejoin:round;">
	<!-- Yellow fill  -->
	<!ENTITY st3 "fill:#FFFFCC;stroke:#FFFFCC; stroke-width:0.1;stroke-linecap:round;stroke-linejoin:round;">
	<!-- Gray fill  -->
	<!ENTITY st4 "fill:#CCCCCC;stroke:#CCCCCC; stroke-width:0.1;stroke-linecap:round;stroke-linejoin:round;">
	<!-- Light-blue fill -->
	<!ENTITY st5 "fill:#CCECF4;stroke:#000000; stroke-width:1.133;stroke-linecap:round;stroke-linejoin:round;">
	<!ENTITY st6 "fill:none;stroke-linecap:butt; stroke-linejoin:round;">
	<!ENTITY st7 "fill:none;stroke:#000000;stroke-linecap:round;stroke-linejoin:round;">
	<!ENTITY st8 "enable-background:new    ;">
	<!-- Black fill -->
	<!ENTITY st9 "fill:#000000;stroke:#000000; stroke-linecap:round;stroke-linejoin:round;">
	<!-- SRS note   -->
	<!ENTITY st10 "font-size:9px;font-family:'ArialMT';">
	<!ENTITY st11 "font-size:9px;font-family:'Svg Symbol';">
	<!ENTITY st12 "font-size:6px;font-family:'Svg Symbol';">
	<!ENTITY st13 "fill:none;stroke:#ff0000;stroke-linecap:round;stroke-linejoin:round;">
	<!-- Yellow fill  -->
	<!ENTITY st14 "fill:#FFFF00;stroke:#FFFF00; stroke-width:0.1;stroke-linecap:round;stroke-linejoin:round;">
	<!ENTITY st15 "font-size:6px;font-family:'MS-PGothic';adobe-font-script:japanese;">
	<!ENTITY st16 "1.00 0.00 0.00 1.00">
	<!ENTITY st17 "0.00 -1.00 1.00 0.00">
	<!ENTITY st18 "font-size:6px;font-family:'Arial';">
	<!ENTITY st19 "font-size:9px;font-family:'Arial';">
	<!ENTITY st20 "font-size:6px;font-family:'MS-PGothic','MS PGothic';adobe-font-script:japanese;">
	<!ENTITY st21 "font-size:7px;font-family:'MS-PGothic','MS PGothic';adobe-font-script:japanese;">
	<!ATTLIST svg
		xmlns:ewd CDATA #FIXED "http://shcl.co.jp/ewd"
		xmlns:a CDATA #FIXED "http://ns.adobe.com/AdobeSVGViewerExtensions/3.0/"
		ewd:ver CDATA #IMPLIED
	>
	<!ATTLIST a
		ewd:lineID CDATA #IMPLIED
		ewd:groupID CDATA #IMPLIED
		ewd:figtype CDATA #IMPLIED
		ewd:code CDATA #IMPLIED
		ewd:figID CDATA #IMPLIED
		ewd:pinNo CDATA #IMPLIED
		ewd:comment CDATA #IMPLIED >
	<!ATTLIST g
		ewd:lineID CDATA #IMPLIED
		ewd:groupID CDATA #IMPLIED
		ewd:figtype CDATA #IMPLIED
		ewd:code CDATA #IMPLIED
		ewd:figID CDATA #IMPLIED
		ewd:pinNo CDATA #IMPLIED
		ewd:comment CDATA #IMPLIED >
	<!ATTLIST text
		ewd:textID CDATA #IMPLIED >
	<!ATTLIST title
		ewd:textID CDATA #IMPLIED >
]>
<!-- Generator: Shintec Hozumi YS   -->
<svg onload="call_execInitLoadProc_svg('system')" style="overflow:visible;  enable-background:new 0 0 9326.314 710.000" viewBox="0 0 9326.314 710.000" height="710.000" width="9326.314" xml:space="preserve" ewd:ver="L2.3.0.14" xmlns="&ns_svg;" xmlns:a="http://ns.adobe.com/AdobeSVGViewerExtensions/3.0/" xmlns:ewd="http://shcl.co.jp/ewd" xmlns:xlink="&ns_xlink;">
<path d=" M  3875.35,   205.75  L  3875.35,   180.26  L  3790.37,   180.26  L  3790.37,   214.25  L  3866.85,   214.25  " style="stroke:#000000;stroke-width: 0.85;stroke-dasharray:3, 1.5;&st6;" /><path d=" M  3883.85,   210.72  L  3878.88,   205.75  " style="stroke-width: 1.42 ;&st7;  " /><path d=" M  3866.85,   217.78  L  3871.83,   222.75  " style="stroke-width: 1.42 ;&st7;  " /><path d=" M  3878.88,   222.75  L  3883.85,   217.78  " style="stroke-width: 1.42 ;&st7;  " /><path d=" M  3871.83,   205.75  L  3866.85,   210.72  " style="stroke-width: 1.42 ;&st7;  " /><path d=" M  3705.38,   567.66  L  3700.41,   562.69  " style="stroke-width: 1.42 ;&st7;  " /><path d=" M  3688.38,   574.72  L  3693.36,   579.69  " style="stroke-width: 1.42 ;&st7;  " /><path d=" M  3700.41,   579.69  L  3705.38,   574.72  " style="stroke-width: 1.42 ;&st7;  " /><path d=" M  3693.36,   562.69  L  3688.38,   567.66  " style="stroke-width: 1.42 ;&st7;  " /><path d=" M  3824.36,   567.66  L  3819.39,   562.69  " style="stroke-width: 1.42 ;&st7;  " /><path d=" M  3807.36,   574.72  L  3812.34,   579.69  " style="stroke-width: 1.42 ;&st7;  " /><path d=" M  3819.39,   579.69  L  3824.36,   574.72  " style="stroke-width: 1.42 ;&st7;  " /><path d=" M  3812.34,   562.69  L  3807.36,   567.66  " style="stroke-width: 1.42 ;&st7;  " /><path d=" M  3509.91,   205.75  L  3504.85,   194.39  " style="stroke-width: 1.42 ;&st7;  " /><path d=" M  3509.91,   205.75  L  3514.97,   194.39  " style="stroke-width: 1.42 ;&st7;  " /><path d=" M  3862.60,   329.26  L  3824.36,   329.26  " style="stroke-width: 0.85 ;&st7; stroke-dasharray:3, 1.5;" /><path d=" M  4036.82,   329.26  L  3917.84,   329.26  " style="stroke-width: 0.85 ;&st7; stroke-dasharray:3, 1.5;" /><path d=" M  3862.60,   338.33  L  3824.36,   338.33  " style="stroke-width: 0.85 ;&st7; stroke-dasharray:3, 1.5;" /><path d=" M  4036.82,   338.33  L  3917.84,   338.33  " style="stroke-width: 0.85 ;&st7; stroke-dasharray:3, 1.5;" /><path d=" M  3522.66,   329.26  L  3518.41,   329.26  " style="stroke-width: 0.85 ;&st7; stroke-dasharray:3, 1.5;" /><path d=" M  3577.90,   329.26  L  3552.40,   329.26  " style="stroke-width: 0.85 ;&st7; stroke-dasharray:3, 1.5;" /><path d=" M  3522.66,   338.33  L  3518.41,   338.33  " style="stroke-width: 0.85 ;&st7; stroke-dasharray:3, 1.5;" /><path d=" M  3577.90,   338.33  L  3552.40,   338.33  " style="stroke-width: 0.85 ;&st7; stroke-dasharray:3, 1.5;" /><path d=" M  3994.33,   260.71  L  4002.83,   260.71  " style="stroke-width: 0.85 ;&st7; stroke-dasharray:3, 1.5;" /><path d=" M  3960.34,   260.71  L  3968.84,   260.71  " style="stroke-width: 0.85 ;&st7; stroke-dasharray:3, 1.5;" /><path d=" M  3926.34,   260.71  L  3934.84,   260.71  " style="stroke-width: 0.85 ;&st7; stroke-dasharray:3, 1.5;" /><path d=" M  3994.33,   251.64  L  4002.83,   251.64  " style="stroke-width: 0.85 ;&st7; stroke-dasharray:3, 1.5;" /><path d=" M  3960.34,   251.64  L  3968.84,   251.64  " style="stroke-width: 0.85 ;&st7; stroke-dasharray:3, 1.5;" /><path d=" M  3926.34,   251.64  L  3934.84,   251.64  " style="stroke-width: 0.85 ;&st7; stroke-dasharray:3, 1.5;" /><path d=" M  3790.37,   251.64  L  3773.37,   251.64  " style="stroke-width: 0.85 ;&st7; stroke-dasharray:3, 1.5;" /><path d=" M  3824.36,   251.64  L  3815.86,   251.64  " style="stroke-width: 0.85 ;&st7; stroke-dasharray:3, 1.5;" /><path d=" M  3858.35,   251.64  L  3849.86,   251.64  " style="stroke-width: 0.85 ;&st7; stroke-dasharray:3, 1.5;" /><path d=" M  3790.37,   260.71  L  3773.37,   260.71  " style="stroke-width: 0.85 ;&st7; stroke-dasharray:3, 1.5;" /><path d=" M  3824.36,   260.71  L  3815.86,   260.71  " style="stroke-width: 0.85 ;&st7; stroke-dasharray:3, 1.5;" /><path d=" M  3858.35,   260.71  L  3849.86,   260.71  " style="stroke-width: 0.85 ;&st7; stroke-dasharray:3, 1.5;" /><path d=" M  3967.64,   612.68  L  3967.37,   613.15  L  3967.28,   613.68  L  3967.37,   614.22  L  3967.64,   614.69  L  3968.06,   615.03  L  3968.57,   615.22  L  3969.10,   615.22  L  3969.61,   615.03  L  3970.03,   614.69  L  3970.30,   614.22  L  3970.39,   613.68  L  3970.30,   613.15  L  3970.03,   612.68  L  3969.61,   612.33  L  3969.10,   612.15  L  3968.57,   612.15  L  3968.06,   612.33  L  3967.64,   612.68  L  3968.04,   613.39  L  3968.04,   613.97  L  3968.41,   614.42  L  3968.98,   614.52  L  3969.49,   614.23  L  3969.69,   613.68  L  3969.49,   613.14  L  3968.98,   612.85  L  3968.41,   612.95  L  3968.84,   613.68  " style="stroke-width: 0.85 ;&st7;  " /><path d=" M  3967.64,   595.68  L  3967.37,   596.15  L  3967.28,   596.69  L  3967.37,   597.22  L  3967.64,   597.69  L  3968.06,   598.03  L  3968.57,   598.22  L  3969.10,   598.22  L  3969.61,   598.03  L  3970.03,   597.69  L  3970.30,   597.22  L  3970.39,   596.69  L  3970.30,   596.15  L  3970.03,   595.68  L  3969.61,   595.34  L  3969.10,   595.15  L  3968.57,   595.15  L  3968.06,   595.34  L  3967.64,   595.68  L  3968.04,   596.39  L  3968.04,   596.98  L  3968.41,   597.42  L  3968.98,   597.52  L  3969.49,   597.23  L  3969.69,   596.69  L  3969.49,   596.14  L  3968.98,   595.85  L  3968.41,   595.95  L  3968.84,   596.69  " style="stroke-width: 0.85 ;&st7;  " /><path d=" M  3968.84,   545.69  L  3968.84,   622.18  " style="stroke-width: 0.85 ;&st7;  " /><path d=" M  3967.64,   553.19  L  3967.37,   553.66  L  3967.28,   554.19  L  3967.37,   554.73  L  3967.64,   555.20  L  3968.06,   555.54  L  3968.57,   555.73  L  3969.10,   555.73  L  3969.61,   555.54  L  3970.03,   555.20  L  3970.30,   554.73  L  3970.39,   554.19  L  3970.30,   553.66  L  3970.03,   553.19  L  3969.61,   552.84  L  3969.10,   552.66  L  3968.57,   552.66  L  3968.06,   552.84  L  3967.64,   553.19  L  3968.04,   553.90  L  3968.04,   554.48  L  3968.41,   554.93  L  3968.98,   555.03  L  3969.49,   554.74  L  3969.69,   554.19  L  3969.49,   553.65  L  3968.98,   553.36  L  3968.41,   553.46  L  3968.84,   554.19  " style="stroke-width: 0.85 ;&st7;  " /><path d=" M  3960.34,   613.68  L  3977.33,   613.68  " style="stroke-width: 0.85 ;&st7;  " /><path d=" M  3977.33,   545.69  L  3977.33,   622.18  L  3960.34,   622.18  L  3960.34,   545.69  L  3977.33,   545.69  " style="stroke-width: 1.42 ;&st7;  " /><path d=" M  3960.34,   596.69  L  3977.33,   596.69  " style="stroke-width: 0.85 ;&st7;  " /><path d=" M  3967.42,   710.00  L  3970.25,   710.00  " style="stroke-width: 0.85 ;&st7;  " /><path d=" M  3966.00,   707.17  L  3971.67,   707.17  " style="stroke-width: 0.85 ;&st7;  " /><path d=" M  3964.59,   704.33  L  3973.08,   704.33  " style="stroke-width: 0.85 ;&st7;  " /><path d=" M  3960.34,   701.50  L  3977.33,   701.50  " style="stroke-width: 0.85 ;&st7;  " /><path d=" M  3968.84,   697.25  L  3968.84,   701.50  " style="stroke-width: 0.85 ;&st7;  " /><path d=" M  3773.37,   426.71  L  3773.37,   469.21  L  3832.86,   469.21  L  3832.86,   426.71  L  3773.37,   426.71  " style="stroke-width: 1.42 ;&st7;  " /><path d=" M  3679.88,   426.71  L  3679.88,   469.21  L  3739.37,   469.21  L  3739.37,   426.71  L  3679.88,   426.71  " style="stroke-width: 1.42 ;&st7;  " /><path d=" M  3671.39,    95.27  L  3671.39,   154.76  L  3858.35,   154.76  L  3858.35,    95.27  L  3671.39,    95.27  " style="stroke-width: 1.42 ;&st7;  " /><path d=" M  3968.84,   554.19  L  3977.33,   554.19  " style="stroke-width: 0.85 ;&st7;  " /><path d=" M  3900.85,    95.27  L  3900.85,   154.76  L  4104.81,   154.76  L  4104.81,    95.27  L  3900.85,    95.27  " style="stroke-width: 1.42 ;&st7;  " /><path d=" M  3866.85,   426.71  L  3866.85,   469.21  L  3926.34,   469.21  L  3926.34,   426.71  L  3866.85,   426.71  " style="stroke-width: 1.42 ;&st7;  " /><path d=" M  3900.85,   251.64  L  3883.85,   251.64  " style="stroke-width: 0.85 ;&st7; stroke-dasharray:3, 1.5;" /><path d=" M  3900.85,   260.71  L  3883.85,   260.71  " style="stroke-width: 0.85 ;&st7; stroke-dasharray:3, 1.5;" /><path d=" M  3730.88,   329.26  L  3773.37,   329.26  " style="stroke-width: 0.85 ;&st7; stroke-dasharray:3, 1.5;" /><path d=" M  3773.37,   338.33  L  3730.88,   338.33  " style="stroke-width: 0.85 ;&st7; stroke-dasharray:3, 1.5;" /><path d=" M  3922.38,   260.71  C  3922.38    258.21   3920.35    256.18   3917.85    256.18  " style="stroke-width: 1.42 ;&st7;   " /><path d=" M  3917.85,   256.18  C  3915.34    256.18   3913.31    258.21   3913.31    260.71  " style="stroke-width: 1.42 ;&st7;   " /><path d=" M  3913.31,   260.71  C  3913.31    263.21   3915.34    265.24   3917.85    265.24  " style="stroke-width: 1.42 ;&st7;   " /><path d=" M  3917.85,   265.24  C  3920.35    265.24   3922.38    263.21   3922.38    260.71  " style="stroke-width: 1.42 ;&st7;   " /><path d=" M  3956.37,   260.71  C  3956.37    258.21   3954.34    256.18   3951.84    256.18  " style="stroke-width: 1.42 ;&st7;   " /><path d=" M  3951.84,   256.18  C  3949.34    256.18   3947.31    258.21   3947.31    260.71  " style="stroke-width: 1.42 ;&st7;   " /><path d=" M  3947.31,   260.71  C  3947.31    263.21   3949.34    265.24   3951.84    265.24  " style="stroke-width: 1.42 ;&st7;   " /><path d=" M  3951.84,   265.24  C  3954.34    265.24   3956.37    263.21   3956.37    260.71  " style="stroke-width: 1.42 ;&st7;   " /><path d=" M  3990.37,   260.71  C  3990.37    258.21   3988.34    256.18   3985.83    256.18  " style="stroke-width: 1.42 ;&st7;   " /><path d=" M  3985.83,   256.18  C  3983.33    256.18   3981.30    258.21   3981.30    260.71  " style="stroke-width: 1.42 ;&st7;   " /><path d=" M  3981.30,   260.71  C  3981.30    263.21   3983.33    265.24   3985.83    265.24  " style="stroke-width: 1.42 ;&st7;   " /><path d=" M  3985.83,   265.24  C  3988.34    265.24   3990.37    263.21   3990.37    260.71  " style="stroke-width: 1.42 ;&st7;   " /><path d=" M  3599.43,   329.26  C  3599.43    326.76   3597.40    324.73   3594.90    324.73  " style="stroke-width: 1.42 ;&st7;   " /><path d=" M  3594.90,   324.73  C  3592.40    324.73   3590.37    326.76   3590.37    329.26  " style="stroke-width: 1.42 ;&st7;   " /><path d=" M  3590.37,   329.26  C  3590.37    331.77   3592.40    333.80   3594.90    333.80  " style="stroke-width: 1.42 ;&st7;   " /><path d=" M  3594.90,   333.80  C  3597.40    333.80   3599.43    331.77   3599.43    329.26  " style="stroke-width: 1.42 ;&st7;   " /><path d=" M  3514.45,   329.26  C  3514.45    326.76   3512.42    324.73   3509.91    324.73  " style="stroke-width: 1.42 ;&st7;   " /><path d=" M  3509.91,   324.73  C  3507.41    324.73   3505.38    326.76   3505.38    329.26  " style="stroke-width: 1.42 ;&st7;   " /><path d=" M  3505.38,   329.26  C  3505.38    331.77   3507.41    333.80   3509.91    333.80  " style="stroke-width: 1.42 ;&st7;   " /><path d=" M  3509.91,   333.80  C  3512.42    333.80   3514.45    331.77   3514.45    329.26  " style="stroke-width: 1.42 ;&st7;   " /><path d=" M  3548.44,   329.26  C  3548.44    326.76   3546.41    324.73   3543.91    324.73  " style="stroke-width: 1.42 ;&st7;   " /><path d=" M  3543.91,   324.73  C  3541.40    324.73   3539.38    326.76   3539.38    329.26  " style="stroke-width: 1.42 ;&st7;   " /><path d=" M  3539.38,   329.26  C  3539.38    331.77   3541.40    333.80   3543.91    333.80  " style="stroke-width: 1.42 ;&st7;   " /><path d=" M  3543.91,   333.80  C  3546.41    333.80   3548.44    331.77   3548.44    329.26  " style="stroke-width: 1.42 ;&st7;   " /><path d=" M  3913.88,   329.26  C  3913.88    326.76   3911.85    324.73   3909.35    324.73  " style="stroke-width: 1.42 ;&st7;   " /><path d=" M  3909.35,   324.73  C  3906.84    324.73   3904.81    326.76   3904.81    329.26  " style="stroke-width: 1.42 ;&st7;   " /><path d=" M  3904.81,   329.26  C  3904.81    331.77   3906.84    333.80   3909.35    333.80  " style="stroke-width: 1.42 ;&st7;   " /><path d=" M  3909.35,   333.80  C  3911.85    333.80   3913.88    331.77   3913.88    329.26  " style="stroke-width: 1.42 ;&st7;   " /><path d=" M  3888.38,   329.26  C  3888.38    326.76   3886.35    324.73   3883.85    324.73  " style="stroke-width: 1.42 ;&st7;   " /><path d=" M  3883.85,   324.73  C  3881.35    324.73   3879.32    326.76   3879.32    329.26  " style="stroke-width: 1.42 ;&st7;   " /><path d=" M  3879.32,   329.26  C  3879.32    331.77   3881.35    333.80   3883.85    333.80  " style="stroke-width: 1.42 ;&st7;   " /><path d=" M  3883.85,   333.80  C  3886.35    333.80   3888.38    331.77   3888.38    329.26  " style="stroke-width: 1.42 ;&st7;   " /><path d=" M  3692.92,   260.71  C  3692.92    258.21   3690.89    256.18   3688.38    256.18  " style="stroke-width: 1.42 ;&st7;   " /><path d=" M  3688.38,   256.18  C  3685.88    256.18   3683.85    258.21   3683.85    260.71  " style="stroke-width: 1.42 ;&st7;   " /><path d=" M  3683.85,   260.71  C  3683.85    263.21   3685.88    265.24   3688.38    265.24  " style="stroke-width: 1.42 ;&st7;   " /><path d=" M  3688.38,   265.24  C  3690.89    265.24   3692.92    263.21   3692.92    260.71  " style="stroke-width: 1.42 ;&st7;   " /><path d=" M  3718.41,   260.71  C  3718.41    258.21   3716.38    256.18   3713.88    256.18  " style="stroke-width: 1.42 ;&st7;   " /><path d=" M  3713.88,   256.18  C  3711.38    256.18   3709.35    258.21   3709.35    260.71  " style="stroke-width: 1.42 ;&st7;   " /><path d=" M  3709.35,   260.71  C  3709.35    263.21   3711.38    265.24   3713.88    265.24  " style="stroke-width: 1.42 ;&st7;   " /><path d=" M  3713.88,   265.24  C  3716.38    265.24   3718.41    263.21   3718.41    260.71  " style="stroke-width: 1.42 ;&st7;   " /><path d=" M  3701.41,   329.26  C  3701.41    326.76   3699.39    324.73   3696.88    324.73  " style="stroke-width: 1.42 ;&st7;   " /><path d=" M  3696.88,   324.73  C  3694.38    324.73   3692.35    326.76   3692.35    329.26  " style="stroke-width: 1.42 ;&st7;   " /><path d=" M  3692.35,   329.26  C  3692.35    331.77   3694.38    333.80   3696.88    333.80  " style="stroke-width: 1.42 ;&st7;   " /><path d=" M  3696.88,   333.80  C  3699.39    333.80   3701.41    331.77   3701.41    329.26  " style="stroke-width: 1.42 ;&st7;   " /><path d=" M  3726.91,   329.26  C  3726.91    326.76   3724.88    324.73   3722.38    324.73  " style="stroke-width: 1.42 ;&st7;   " /><path d=" M  3722.38,   324.73  C  3719.87    324.73   3717.85    326.76   3717.85    329.26  " style="stroke-width: 1.42 ;&st7;   " /><path d=" M  3717.85,   329.26  C  3717.85    331.77   3719.87    333.80   3722.38    333.80  " style="stroke-width: 1.42 ;&st7;   " /><path d=" M  3722.38,   333.80  C  3724.88    333.80   3726.91    331.77   3726.91    329.26  " style="stroke-width: 1.42 ;&st7;   " /><path d=" M  3514.45,   260.71  C  3514.45    258.21   3512.42    256.18   3509.91    256.18  " style="stroke-width: 1.42 ;&st7;   " /><path d=" M  3509.91,   256.18  C  3507.41    256.18   3505.38    258.21   3505.38    260.71  " style="stroke-width: 1.42 ;&st7;   " /><path d=" M  3505.38,   260.71  C  3505.38    263.21   3507.41    265.24   3509.91    265.24  " style="stroke-width: 1.42 ;&st7;   " /><path d=" M  3509.91,   265.24  C  3512.42    265.24   3514.45    263.21   3514.45    260.71  " style="stroke-width: 1.42 ;&st7;   " /><path d=" M  3794.90,   329.26  C  3794.90    326.76   3792.87    324.73   3790.37    324.73  " style="stroke-width: 1.42 ;&st7;   " /><path d=" M  3790.37,   324.73  C  3787.86    324.73   3785.83    326.76   3785.83    329.26  " style="stroke-width: 1.42 ;&st7;   " /><path d=" M  3785.83,   329.26  C  3785.83    331.77   3787.86    333.80   3790.37    333.80  " style="stroke-width: 1.42 ;&st7;   " /><path d=" M  3790.37,   333.80  C  3792.87    333.80   3794.90    331.77   3794.90    329.26  " style="stroke-width: 1.42 ;&st7;   " /><path d=" M  3820.39,   329.26  C  3820.39    326.76   3818.37    324.73   3815.86    324.73  " style="stroke-width: 1.42 ;&st7;   " /><path d=" M  3815.86,   324.73  C  3813.36    324.73   3811.33    326.76   3811.33    329.26  " style="stroke-width: 1.42 ;&st7;   " /><path d=" M  3811.33,   329.26  C  3811.33    331.77   3813.36    333.80   3815.86    333.80  " style="stroke-width: 1.42 ;&st7;   " /><path d=" M  3815.86,   333.80  C  3818.37    333.80   3820.39    331.77   3820.39    329.26  " style="stroke-width: 1.42 ;&st7;   " /><path d=" M  3743.91,   260.71  C  3743.91    258.21   3741.88    256.18   3739.38    256.18  " style="stroke-width: 1.42 ;&st7;   " /><path d=" M  3739.38,   256.18  C  3736.87    256.18   3734.84    258.21   3734.84    260.71  " style="stroke-width: 1.42 ;&st7;   " /><path d=" M  3734.84,   260.71  C  3734.84    263.21   3736.87    265.24   3739.38    265.24  " style="stroke-width: 1.42 ;&st7;   " /><path d=" M  3739.38,   265.24  C  3741.88    265.24   3743.91    263.21   3743.91    260.71  " style="stroke-width: 1.42 ;&st7;   " /><path d=" M  3769.40,   260.71  C  3769.40    258.21   3767.37    256.18   3764.87    256.18  " style="stroke-width: 1.42 ;&st7;   " /><path d=" M  3764.87,   256.18  C  3762.37    256.18   3760.34    258.21   3760.34    260.71  " style="stroke-width: 1.42 ;&st7;   " /><path d=" M  3760.34,   260.71  C  3760.34    263.21   3762.37    265.24   3764.87    265.24  " style="stroke-width: 1.42 ;&st7;   " /><path d=" M  3764.87,   265.24  C  3767.37    265.24   3769.40    263.21   3769.40    260.71  " style="stroke-width: 1.42 ;&st7;   " /><path d=" M  3811.90,   260.71  C  3811.90    258.21   3809.87    256.18   3807.36    256.18  " style="stroke-width: 1.42 ;&st7;   " /><path d=" M  3807.36,   256.18  C  3804.86    256.18   3802.83    258.21   3802.83    260.71  " style="stroke-width: 1.42 ;&st7;   " /><path d=" M  3802.83,   260.71  C  3802.83    263.21   3804.86    265.24   3807.36    265.24  " style="stroke-width: 1.42 ;&st7;   " /><path d=" M  3807.36,   265.24  C  3809.87    265.24   3811.90    263.21   3811.90    260.71  " style="stroke-width: 1.42 ;&st7;   " /><path d=" M  3879.89,   260.71  C  3879.89    258.21   3877.86    256.18   3875.35    256.18  " style="stroke-width: 1.42 ;&st7;   " /><path d=" M  3875.35,   256.18  C  3872.85    256.18   3870.82    258.21   3870.82    260.71  " style="stroke-width: 1.42 ;&st7;   " /><path d=" M  3870.82,   260.71  C  3870.82    263.21   3872.85    265.24   3875.35    265.24  " style="stroke-width: 1.42 ;&st7;   " /><path d=" M  3875.35,   265.24  C  3877.86    265.24   3879.89    263.21   3879.89    260.71  " style="stroke-width: 1.42 ;&st7;   " /><path d=" M  3845.89,   260.71  C  3845.89    258.21   3843.86    256.18   3841.36    256.18  " style="stroke-width: 1.42 ;&st7;   " /><path d=" M  3841.36,   256.18  C  3838.85    256.18   3836.83    258.21   3836.83    260.71  " style="stroke-width: 1.42 ;&st7;   " /><path d=" M  3836.83,   260.71  C  3836.83    263.21   3838.85    265.24   3841.36    265.24  " style="stroke-width: 1.42 ;&st7;   " /><path d=" M  3841.36,   265.24  C  3843.86    265.24   3845.89    263.21   3845.89    260.71  " style="stroke-width: 1.42 ;&st7;   " /><path d=" M  3514.45,   251.64  C  3514.45    249.14   3512.42    247.11   3509.91    247.11  " style="stroke-width: 1.42 ;&st7;   " /><path d=" M  3509.91,   247.11  C  3507.41    247.11   3505.38    249.14   3505.38    251.64  " style="stroke-width: 1.42 ;&st7;   " /><path d=" M  3505.38,   251.64  C  3505.38    254.15   3507.41    256.18   3509.91    256.18  " style="stroke-width: 1.42 ;&st7;   " /><path d=" M  3509.91,   256.18  C  3512.42    256.18   3514.45    254.15   3514.45    251.64  " style="stroke-width: 1.42 ;&st7;   " /><path d=" M  3692.92,   251.64  C  3692.92    249.14   3690.89    247.11   3688.38    247.11  " style="stroke-width: 1.42 ;&st7;   " /><path d=" M  3688.38,   247.11  C  3685.88    247.11   3683.85    249.14   3683.85    251.64  " style="stroke-width: 1.42 ;&st7;   " /><path d=" M  3683.85,   251.64  C  3683.85    254.15   3685.88    256.18   3688.38    256.18  " style="stroke-width: 1.42 ;&st7;   " /><path d=" M  3688.38,   256.18  C  3690.89    256.18   3692.92    254.15   3692.92    251.64  " style="stroke-width: 1.42 ;&st7;   " /><path d=" M  3718.41,   251.64  C  3718.41    249.14   3716.38    247.11   3713.88    247.11  " style="stroke-width: 1.42 ;&st7;   " /><path d=" M  3713.88,   247.11  C  3711.38    247.11   3709.35    249.14   3709.35    251.64  " style="stroke-width: 1.42 ;&st7;   " /><path d=" M  3709.35,   251.64  C  3709.35    254.15   3711.38    256.18   3713.88    256.18  " style="stroke-width: 1.42 ;&st7;   " /><path d=" M  3713.88,   256.18  C  3716.38    256.18   3718.41    254.15   3718.41    251.64  " style="stroke-width: 1.42 ;&st7;   " /><path d=" M  3743.91,   251.64  C  3743.91    249.14   3741.88    247.11   3739.38    247.11  " style="stroke-width: 1.42 ;&st7;   " /><path d=" M  3739.38,   247.11  C  3736.87    247.11   3734.84    249.14   3734.84    251.64  " style="stroke-width: 1.42 ;&st7;   " /><path d=" M  3734.84,   251.64  C  3734.84    254.15   3736.87    256.18   3739.38    256.18  " style="stroke-width: 1.42 ;&st7;   " /><path d=" M  3739.38,   256.18  C  3741.88    256.18   3743.91    254.15   3743.91    251.64  " style="stroke-width: 1.42 ;&st7;   " /><path d=" M  3769.40,   251.64  C  3769.40    249.14   3767.37    247.11   3764.87    247.11  " style="stroke-width: 1.42 ;&st7;   " /><path d=" M  3764.87,   247.11  C  3762.37    247.11   3760.34    249.14   3760.34    251.64  " style="stroke-width: 1.42 ;&st7;   " /><path d=" M  3760.34,   251.64  C  3760.34    254.15   3762.37    256.18   3764.87    256.18  " style="stroke-width: 1.42 ;&st7;   " /><path d=" M  3764.87,   256.18  C  3767.37    256.18   3769.40    254.15   3769.40    251.64  " style="stroke-width: 1.42 ;&st7;   " /><path d=" M  3811.90,   251.64  C  3811.90    249.14   3809.87    247.11   3807.36    247.11  " style="stroke-width: 1.42 ;&st7;   " /><path d=" M  3807.36,   247.11  C  3804.86    247.11   3802.83    249.14   3802.83    251.64  " style="stroke-width: 1.42 ;&st7;   " /><path d=" M  3802.83,   251.64  C  3802.83    254.15   3804.86    256.18   3807.36    256.18  " style="stroke-width: 1.42 ;&st7;   " /><path d=" M  3807.36,   256.18  C  3809.87    256.18   3811.90    254.15   3811.90    251.64  " style="stroke-width: 1.42 ;&st7;   " /><path d=" M  3845.89,   251.64  C  3845.89    249.14   3843.86    247.11   3841.36    247.11  " style="stroke-width: 1.42 ;&st7;   " /><path d=" M  3841.36,   247.11  C  3838.85    247.11   3836.83    249.14   3836.83    251.64  " style="stroke-width: 1.42 ;&st7;   " /><path d=" M  3836.83,   251.64  C  3836.83    254.15   3838.85    256.18   3841.36    256.18  " style="stroke-width: 1.42 ;&st7;   " /><path d=" M  3841.36,   256.18  C  3843.86    256.18   3845.89    254.15   3845.89    251.64  " style="stroke-width: 1.42 ;&st7;   " /><path d=" M  3879.89,   251.64  C  3879.89    249.14   3877.86    247.11   3875.35    247.11  " style="stroke-width: 1.42 ;&st7;   " /><path d=" M  3875.35,   247.11  C  3872.85    247.11   3870.82    249.14   3870.82    251.64  " style="stroke-width: 1.42 ;&st7;   " /><path d=" M  3870.82,   251.64  C  3870.82    254.15   3872.85    256.18   3875.35    256.18  " style="stroke-width: 1.42 ;&st7;   " /><path d=" M  3875.35,   256.18  C  3877.86    256.18   3879.89    254.15   3879.89    251.64  " style="stroke-width: 1.42 ;&st7;   " /><path d=" M  3922.38,   251.64  C  3922.38    249.14   3920.35    247.11   3917.85    247.11  " style="stroke-width: 1.42 ;&st7;   " /><path d=" M  3917.85,   247.11  C  3915.34    247.11   3913.31    249.14   3913.31    251.64  " style="stroke-width: 1.42 ;&st7;   " /><path d=" M  3913.31,   251.64  C  3913.31    254.15   3915.34    256.18   3917.85    256.18  " style="stroke-width: 1.42 ;&st7;   " /><path d=" M  3917.85,   256.18  C  3920.35    256.18   3922.38    254.15   3922.38    251.64  " style="stroke-width: 1.42 ;&st7;   " /><path d=" M  3956.37,   251.64  C  3956.37    249.14   3954.34    247.11   3951.84    247.11  " style="stroke-width: 1.42 ;&st7;   " /><path d=" M  3951.84,   247.11  C  3949.34    247.11   3947.31    249.14   3947.31    251.64  " style="stroke-width: 1.42 ;&st7;   " /><path d=" M  3947.31,   251.64  C  3947.31    254.15   3949.34    256.18   3951.84    256.18  " style="stroke-width: 1.42 ;&st7;   " /><path d=" M  3951.84,   256.18  C  3954.34    256.18   3956.37    254.15   3956.37    251.64  " style="stroke-width: 1.42 ;&st7;   " /><path d=" M  3990.37,   251.64  C  3990.37    249.14   3988.34    247.11   3985.83    247.11  " style="stroke-width: 1.42 ;&st7;   " /><path d=" M  3985.83,   247.11  C  3983.33    247.11   3981.30    249.14   3981.30    251.64  " style="stroke-width: 1.42 ;&st7;   " /><path d=" M  3981.30,   251.64  C  3981.30    254.15   3983.33    256.18   3985.83    256.18  " style="stroke-width: 1.42 ;&st7;   " /><path d=" M  3985.83,   256.18  C  3988.34    256.18   3990.37    254.15   3990.37    251.64  " style="stroke-width: 1.42 ;&st7;   " /><path d=" M  3701.41,   338.33  C  3701.41    335.83   3699.39    333.80   3696.88    333.80  " style="stroke-width: 1.42 ;&st7;   " /><path d=" M  3696.88,   333.80  C  3694.38    333.80   3692.35    335.83   3692.35    338.33  " style="stroke-width: 1.42 ;&st7;   " /><path d=" M  3692.35,   338.33  C  3692.35    340.83   3694.38    342.86   3696.88    342.86  " style="stroke-width: 1.42 ;&st7;   " /><path d=" M  3696.88,   342.86  C  3699.39    342.86   3701.41    340.83   3701.41    338.33  " style="stroke-width: 1.42 ;&st7;   " /><path d=" M  3726.91,   338.33  C  3726.91    335.83   3724.88    333.80   3722.38    333.80  " style="stroke-width: 1.42 ;&st7;   " /><path d=" M  3722.38,   333.80  C  3719.87    333.80   3717.85    335.83   3717.85    338.33  " style="stroke-width: 1.42 ;&st7;   " /><path d=" M  3717.85,   338.33  C  3717.85    340.83   3719.87    342.86   3722.38    342.86  " style="stroke-width: 1.42 ;&st7;   " /><path d=" M  3722.38,   342.86  C  3724.88    342.86   3726.91    340.83   3726.91    338.33  " style="stroke-width: 1.42 ;&st7;   " /><path d=" M  3514.45,   338.33  C  3514.45    335.83   3512.42    333.80   3509.91    333.80  " style="stroke-width: 1.42 ;&st7;   " /><path d=" M  3509.91,   333.80  C  3507.41    333.80   3505.38    335.83   3505.38    338.33  " style="stroke-width: 1.42 ;&st7;   " /><path d=" M  3505.38,   338.33  C  3505.38    340.83   3507.41    342.86   3509.91    342.86  " style="stroke-width: 1.42 ;&st7;   " /><path d=" M  3509.91,   342.86  C  3512.42    342.86   3514.45    340.83   3514.45    338.33  " style="stroke-width: 1.42 ;&st7;   " /><path d=" M  3548.44,   338.33  C  3548.44    335.83   3546.41    333.80   3543.91    333.80  " style="stroke-width: 1.42 ;&st7;   " /><path d=" M  3543.91,   333.80  C  3541.40    333.80   3539.38    335.83   3539.38    338.33  " style="stroke-width: 1.42 ;&st7;   " /><path d=" M  3539.38,   338.33  C  3539.38    340.83   3541.40    342.86   3543.91    342.86  " style="stroke-width: 1.42 ;&st7;   " /><path d=" M  3543.91,   342.86  C  3546.41    342.86   3548.44    340.83   3548.44    338.33  " style="stroke-width: 1.42 ;&st7;   " /><path d=" M  3599.43,   338.33  C  3599.43    335.83   3597.40    333.80   3594.90    333.80  " style="stroke-width: 1.42 ;&st7;   " /><path d=" M  3594.90,   333.80  C  3592.40    333.80   3590.37    335.83   3590.37    338.33  " style="stroke-width: 1.42 ;&st7;   " /><path d=" M  3590.37,   338.33  C  3590.37    340.83   3592.40    342.86   3594.90    342.86  " style="stroke-width: 1.42 ;&st7;   " /><path d=" M  3594.90,   342.86  C  3597.40    342.86   3599.43    340.83   3599.43    338.33  " style="stroke-width: 1.42 ;&st7;   " /><path d=" M  3794.90,   338.33  C  3794.90    335.83   3792.87    333.80   3790.37    333.80  " style="stroke-width: 1.42 ;&st7;   " /><path d=" M  3790.37,   333.80  C  3787.86    333.80   3785.83    335.83   3785.83    338.33  " style="stroke-width: 1.42 ;&st7;   " /><path d=" M  3785.83,   338.33  C  3785.83    340.83   3787.86    342.86   3790.37    342.86  " style="stroke-width: 1.42 ;&st7;   " /><path d=" M  3790.37,   342.86  C  3792.87    342.86   3794.90    340.83   3794.90    338.33  " style="stroke-width: 1.42 ;&st7;   " /><path d=" M  3820.39,   338.33  C  3820.39    335.83   3818.37    333.80   3815.86    333.80  " style="stroke-width: 1.42 ;&st7;   " /><path d=" M  3815.86,   333.80  C  3813.36    333.80   3811.33    335.83   3811.33    338.33  " style="stroke-width: 1.42 ;&st7;   " /><path d=" M  3811.33,   338.33  C  3811.33    340.83   3813.36    342.86   3815.86    342.86  " style="stroke-width: 1.42 ;&st7;   " /><path d=" M  3815.86,   342.86  C  3818.37    342.86   3820.39    340.83   3820.39    338.33  " style="stroke-width: 1.42 ;&st7;   " /><path d=" M  3888.38,   338.33  C  3888.38    335.83   3886.35    333.80   3883.85    333.80  " style="stroke-width: 1.42 ;&st7;   " /><path d=" M  3883.85,   333.80  C  3881.35    333.80   3879.32    335.83   3879.32    338.33  " style="stroke-width: 1.42 ;&st7;   " /><path d=" M  3879.32,   338.33  C  3879.32    340.83   3881.35    342.86   3883.85    342.86  " style="stroke-width: 1.42 ;&st7;   " /><path d=" M  3883.85,   342.86  C  3886.35    342.86   3888.38    340.83   3888.38    338.33  " style="stroke-width: 1.42 ;&st7;   " /><path d=" M  3913.88,   338.33  C  3913.88    335.83   3911.85    333.80   3909.35    333.80  " style="stroke-width: 1.42 ;&st7;   " /><path d=" M  3909.35,   333.80  C  3906.84    333.80   3904.81    335.83   3904.81    338.33  " style="stroke-width: 1.42 ;&st7;   " /><path d=" M  3904.81,   338.33  C  3904.81    340.83   3906.84    342.86   3909.35    342.86  " style="stroke-width: 1.42 ;&st7;   " /><path d=" M  3909.35,   342.86  C  3911.85    342.86   3913.88    340.83   3913.88    338.33  " style="stroke-width: 1.42 ;&st7;   " /><text style="&st18;" transform="matrix(&st16;  3731.6  272.88 )">VTA1</text><text style="&st18;" transform="matrix(&st16;  3736.95  262.68 )">C</text><text style="&st18;" transform="matrix(&st16;  3726.59  262.68 )">78</text><text style="&st18;" transform="matrix(&st16;  3757.1  272.88 )">VTA2</text><text style="&st18;" transform="matrix(&st16;  3762.45  262.68 )">C</text><text style="&st18;" transform="matrix(&st16;  3752.08  262.68 )">77</text><text style="&st18;" transform="matrix(&st16;  3802.89  272.88 )">M+</text><text style="&st18;" transform="matrix(&st16;  3804.94  262.68 )">C</text><text style="&st18;" transform="matrix(&st16;  3794.58  262.68 )">19</text><text style="&st18;" transform="matrix(&st16;  3867.46  272.88 )">GE01</text><text style="&st18;" transform="matrix(&st16;  3872.93  262.68 )">C</text><text style="&st18;" transform="matrix(&st16;  3862.57  262.68 )">17</text><text style="&st18;" transform="matrix(&st16;  3837.66  272.88 )">M-</text><text style="&st18;" transform="matrix(&st16;  3838.94  262.68 )">C</text><text style="&st18;" transform="matrix(&st16;  3828.57  262.68 )">18</text><text style="&st18;" transform="matrix(&st17;  3803.67  199.17 )">R</text><text style="&st18;" transform="matrix(&st17;  3837.66  199.33 )">G</text><text style="&st18;" transform="matrix(&st17;  3786.67  201.81 )">(*1)</text><text style="&st18;" transform="matrix(&st17;  3761.18  201.93 )">Y-B</text><text style="&st18;" transform="matrix(&st17;  3735.68  202.08 )">R-Y</text><text style="&st18;" transform="matrix(&st16;  3977.36  151.06 )">VCPA</text><text style="&st18;" transform="matrix(&st16;  3943.91  151.06 )">VPA2</text><text style="&st18;" transform="matrix(&st16;  3911.55  151.06 )">VPA</text><text style="&st18;" transform="matrix(&st17;  3982.14  202.59 )">L-W</text><text style="&st18;" transform="matrix(&st17;  3948.14  204.8 )">GR-G</text><text style="&st18;" transform="matrix(&st17;  3914.15  199.17 )">R</text><text style="&st18;" transform="matrix(&st16;  3979.49  162.95 )">4</text><text style="&st18;" transform="matrix(&st16;  3945.5  162.95 )">3</text><text style="&st18;" transform="matrix(&st16;  3911.51  162.95 )">6</text><text style="&st18;" transform="matrix(&st16;  3897.44  84.47 )">A31</text><text style="&st18;" transform="matrix(&st16;  3911.55  272.88 )">VPA</text><text style="&st18;" transform="matrix(&st16;  3905.06  262.68 )">55</text><text style="&st18;" transform="matrix(&st16;  3915.42  262.68 )">D</text><text style="&st18;" transform="matrix(&st16;  3949.42  262.68 )">D</text><text style="&st18;" transform="matrix(&st16;  3939.05  262.68 )">56</text><text style="&st18;" transform="matrix(&st16;  3943.91  272.88 )">VPA2</text><text style="&st18;" transform="matrix(&st16;  3983.41  262.68 )">D</text><text style="&st18;" transform="matrix(&st16;  3977.36  272.88 )">VCPA</text><text style="&st18;" transform="matrix(&st16;  3973.05  262.68 )">57</text><text style="&st18;" transform="matrix(&st16;  3714.18  434.35 )">VVR+</text><text style="&st18;" transform="matrix(&st16;  3582.11  331.23 )">20</text><text style="&st18;" transform="matrix(&st16;  3592.63  331.23 )">B</text><text style="&st18;" transform="matrix(&st17;  3591.2  377.8 )">G</text><text style="&st18;" transform="matrix(&st16;  3586.82  321.03 )">HA2A</text><text style="&st18;" transform="matrix(&st16;  3502.26  321.03 )">A2A+</text><text style="&st18;" transform="matrix(&st16;  3507.65  331.23 )">B</text><text style="&st18;" transform="matrix(&st16;  3536.99  321.03 )">A2A-</text><text style="&st18;" transform="matrix(&st16;  3541.64  331.23 )">B</text><text style="&st18;" transform="matrix(&st16;  3527.79  331.23 )">102</text><text style="&st18;" transform="matrix(&st17;  3568.52  472.11 )">C23</text><text style="&st18;" transform="matrix(&st16;  3503.57  423.02 )">3</text><text style="&st18;" transform="matrix(&st16;  3537.57  423.02 )">4</text><text style="&st18;" transform="matrix(&st16;  3503.57  477.4 )">2</text><text style="&st18;" transform="matrix(&st16;  3537.57  477.4 )">1</text><text style="&st18;" transform="matrix(&st17;  3540.21  377.1 )">L</text><text style="&st18;" transform="matrix(&st17;  3933.96  472.11 )">C114</text><text ewd:textID="31" style="&st18;" transform="matrix(&st17;  3941.06  472.11 )">Crankshaft Position Sensor</text><text style="&st18;" transform="matrix(&st16;  3903.01  477.4 )">3</text><text style="&st18;" transform="matrix(&st16;  3716.04  423.02 )">1</text><text style="&st18;" transform="matrix(&st16;  3684.1  331.23 )">88</text><text style="&st18;" transform="matrix(&st16;  3694.62  331.23 )">B</text><text style="&st18;" transform="matrix(&st16;  3979.92  593.0 )">20</text><text style="&st18;" transform="matrix(&st17;  3506.22  517.42 )">B-W</text><text style="&st18;" transform="matrix(&st17;  3506.22  377.49 )">P</text><text style="&st18;" transform="matrix(&st16;  3505.94  465.51 )">+B</text><text style="&st18;" transform="matrix(&st16;  3535.83  465.51 )">HA2A</text><text style="&st18;" transform="matrix(&st16;  3536.99  434.35 )">A2A-</text><text style="&st18;" transform="matrix(&st16;  3502.26  434.35 )">A2A+</text><text ewd:textID="18" style="&st18;" transform="matrix(&st17;  3575.62  472.11 )">Air Fuel Ratio Sensor <tspan dy="6.0" x="0 ">(Bank 2 Sensor 1)</tspan></text><text style="&st18;" transform="matrix(&st16;  3878.44  321.03 )">NE-</text><text style="&st18;" transform="matrix(&st16;  3867.73  331.23 )">111</text><text style="&st18;" transform="matrix(&st16;  3881.59  331.23 )">B</text><text style="&st18;" transform="matrix(&st17;  3880.16  377.37 )">Y</text><text style="&st18;" transform="matrix(&st17;  3905.65  378.42 )">W</text><text style="&st18;" transform="matrix(&st16;  3689.96  321.03 )">VV2-</text><text style="&st18;" transform="matrix(&st16;  3714.72  321.03 )">VV2+</text><text ewd:textID="3" style="&st18;" transform="matrix(&st16;  3948.43  29.25 )">* 1 :Shielded</text><text style="&st18;" transform="matrix(&st16;  3680.07  272.88 )">VCTA</text><text style="&st18;" transform="matrix(&st16;  3685.96  262.68 )">C</text><text style="&st18;" transform="matrix(&st16;  3675.6  262.68 )">80</text><text style="&st18;" transform="matrix(&st17;  3684.69  198.9 )">Y</text><text style="&st18;" transform="matrix(&st16;  3683.95  151.06 )">VC</text><text style="&st18;" transform="matrix(&st16;  3709.99  151.06 )">E2</text><text style="&st18;" transform="matrix(&st17;  3710.18  198.63 )">L</text><text style="&st18;" transform="matrix(&st16;  3701.09  262.68 )">79</text><text style="&st18;" transform="matrix(&st16;  3711.46  262.68 )">C</text><text style="&st18;" transform="matrix(&st16;  3707.78  272.88 )">ETA</text><text style="&st18;" transform="matrix(&st17;  3871.66  239.43 )">BR</text><text style="&st18;" transform="matrix(&st16;  3837.66  151.06 )">M-</text><text style="&st18;" transform="matrix(&st16;  3802.89  151.06 )">M+</text><text style="&st18;" transform="matrix(&st16;  3757.1  151.06 )">VTA2</text><text style="&st18;" transform="matrix(&st16;  3733.27  151.06 )">VTA</text><text style="&st18;" transform="matrix(&st16;  3877.51  423.02 )">2</text><text style="&st18;" transform="matrix(&st16;  3893.23  331.23 )">110</text><text style="&st18;" transform="matrix(&st16;  3907.08  331.23 )">B</text><text style="&st18;" transform="matrix(&st16;  3903.16  321.03 )">NE+</text><text style="&st18;" transform="matrix(&st16;  3720.11  331.23 )">B</text><text style="&st18;" transform="matrix(&st16;  3709.59  331.23 )">87</text><text style="&st18;" transform="matrix(&st17;  3718.68  377.64 )">R</text><text style="&st18;" transform="matrix(&st17;  3693.19  377.37 )">Y</text><text style="&st18;" transform="matrix(&st17;  3693.19  513.08 )">L</text><text style="&st18;" transform="matrix(&st16;  3690.54  477.4 )">3</text><text style="&st18;" transform="matrix(&st17;  3746.99  472.11 )">C101</text><text style="&st18;" transform="matrix(&st16;  3950.66  593.0 )">19</text><text style="&st18;" transform="matrix(&st16;  3979.92  609.99 )">22</text><text style="&st18;" transform="matrix(&st16;  3979.92  550.5 )">16</text><text ewd:textID="79" style="&st18;" transform="matrix(&st16;  3693.48  91.57 )">Throttle Body Assembly</text><text style="&st18;" transform="matrix(&st16;  3693.47  84.47 )">C3</text><text style="&st18;" transform="matrix(&st16;  3682.04  162.95 )">5</text><text style="&st18;" transform="matrix(&st16;  3707.54  162.95 )">3</text><text style="&st18;" transform="matrix(&st16;  3733.04  162.95 )">6</text><text style="&st18;" transform="matrix(&st16;  3758.53  162.95 )">4</text><text style="&st18;" transform="matrix(&st16;  3801.02  162.95 )">2</text><text style="&st18;" transform="matrix(&st16;  3835.02  162.95 )">1</text><text style="&st18;" transform="matrix(&st16;  3998.39  389.02 )">BR</text><text style="&st18;" transform="matrix(&st16;  3692.45  465.51 )">VC</text><text ewd:textID="86" style="&st18;" transform="matrix(&st17;  3754.09  472.11 )">VVT Sensor <tspan dy="6.0" x="0 ">(Bank 2 Intake Side)</tspan></text><text style="&st18;" transform="matrix(&st16;  3503.03  272.88 )">IGF2</text><text style="&st18;" transform="matrix(&st16;  3507.49  262.68 )">C</text><text style="&st18;" transform="matrix(&st17;  3506.22  233.17 )">R</text><text style="&st18;" transform="matrix(&st17;  3990.64  524.14 )">BR</text><text style="&st18;" transform="matrix(&st16;  3786.12  321.03 )">G2</text><text style="&st18;" transform="matrix(&st16;  3788.1  331.23 )">B</text><text style="&st18;" transform="matrix(&st16;  3777.58  331.23 )">90</text><text style="&st18;" transform="matrix(&st16;  3810.65  321.03 )">G2-</text><text style="&st18;" transform="matrix(&st16;  3813.6  331.23 )">B</text><text style="&st18;" transform="matrix(&st16;  3803.08  331.23 )">89</text><text style="&st18;" transform="matrix(&st17;  3840.47  472.11 )">C99</text><text style="&st18;" transform="matrix(&st16;  3784.03  423.02 )">1</text><text style="&st18;" transform="matrix(&st16;  3809.52  423.02 )">2</text><text style="&st18;" transform="matrix(&st16;  3809.52  477.4 )">3</text><text style="&st18;" transform="matrix(&st17;  3812.17  377.37 )">Y</text><text style="&st18;" transform="matrix(&st17;  3786.67  377.8 )">G</text><text style="&st18;" transform="matrix(&st16;  3811.43  465.51 )">VC</text><text style="&st18;" transform="matrix(&st16;  3812.32  434.35 )">G-</text><text style="&st18;" transform="matrix(&st16;  3786.12  434.35 )">G2</text><text ewd:textID="24" style="&st18;" transform="matrix(&st17;  3847.58  472.11 )">Camshaft Position Sensor</text><text style="&st18;" transform="matrix(&st17;  3812.17  513.08 )">L</text><text style="&st18;" transform="matrix(&st17;  3905.65  513.08 )">L</text><text style="&st18;" transform="matrix(&st16;  3959.16  630.37 )">21</text><text style="&st18;" transform="matrix(&st16;  3959.16  542.0 )">18</text><text style="&st18;" transform="matrix(&st17;  3965.14  524.14 )">BR</text><text style="&st18;" transform="matrix(&st16;  3930.41  592.99 )">BR</text><text style="&st18;" transform="matrix(&st16;  3878.44  434.35 )">NE-</text><text style="&st18;" transform="matrix(&st16;  3904.91  465.51 )">VC</text><text ewd:textID="54" style="&st18;" transform="matrix(&st16;  3979.6  573.16 )">Junction <tspan dy="6.0" x="0 ">Connector</tspan></text><text style="&st18;" transform="matrix(&st16;  3979.59  566.05 )">C42</text><text style="&st18;" transform="matrix(&st17;  3965.14  651.61 )">BR</text><text ewd:textID="16" style="&st18;" transform="matrix(&st16;  3897.44  91.57 )">Accelerator Pedal Sensor Assembly</text><text style="&st18;" transform="matrix(&st16;  3729.0  567.49 )">L</text><text style="&st18;" transform="matrix(&st16;  3599.99  340.3 )">(RHD)</text><text style="&st18;" transform="matrix(&st16;  3599.99  331.23 )">(LHD)</text><text style="&st18;" transform="matrix(&st16;  3950.66  609.99 )">17</text><text style="&st18;" transform="matrix(&st16;  3930.41  609.99 )">BR</text><text style="&st18;" transform="matrix(&st16;  3690.54  423.02 )">2</text><text style="&st18;" transform="matrix(&st16;  3689.46  434.35 )">VVR-</text><text style="&st18;" transform="matrix(&st16;  3903.01  423.02 )">1</text><text style="&st18;" transform="matrix(&st16;  3903.16  434.35 )">NE+</text><text style="&st18;" transform="matrix(&st16;  3813.44  340.3 )">C</text><text style="&st18;" transform="matrix(&st16;  3803.05  340.3 )">89</text><text style="&st18;" transform="matrix(&st16;  3881.43  340.3 )">C</text><text style="&st18;" transform="matrix(&st16;  3867.7  340.3 )">111</text><text style="&st18;" transform="matrix(&st16;  3906.93  340.3 )">C</text><text style="&st18;" transform="matrix(&st16;  3893.2  340.3 )">110</text><text style="&st18;" transform="matrix(&st16;  3507.65  253.61 )">B</text><text style="&st18;" transform="matrix(&st16;  3686.12  253.61 )">B</text><text style="&st18;" transform="matrix(&st16;  3675.57  253.61 )">80</text><text style="&st18;" transform="matrix(&st16;  3711.61  253.61 )">B</text><text style="&st18;" transform="matrix(&st16;  3701.06  253.61 )">79</text><text style="&st18;" transform="matrix(&st16;  3737.11  253.61 )">B</text><text style="&st18;" transform="matrix(&st16;  3726.56  253.61 )">78</text><text style="&st18;" transform="matrix(&st16;  3762.61  253.61 )">B</text><text style="&st18;" transform="matrix(&st16;  3752.06  253.61 )">77</text><text style="&st18;" transform="matrix(&st16;  3805.1  253.61 )">B</text><text style="&st18;" transform="matrix(&st16;  3794.55  253.61 )">19</text><text style="&st18;" transform="matrix(&st16;  3839.09  253.61 )">B</text><text style="&st18;" transform="matrix(&st16;  3828.54  253.61 )">18</text><text style="&st18;" transform="matrix(&st16;  3873.09  253.61 )">B</text><text style="&st18;" transform="matrix(&st16;  3862.54  253.61 )">17</text><text style="&st18;" transform="matrix(&st16;  3915.58  253.61 )">A</text><text style="&st18;" transform="matrix(&st16;  3905.03  253.61 )">55</text><text style="&st18;" transform="matrix(&st16;  3949.57  253.61 )">A</text><text style="&st18;" transform="matrix(&st16;  3939.02  253.61 )">56</text><text style="&st18;" transform="matrix(&st16;  3983.57  253.61 )">A</text><text style="&st18;" transform="matrix(&st16;  3973.02  253.61 )">57</text><text style="&st18;" transform="matrix(&st16;  3694.46  340.3 )">C</text><text style="&st18;" transform="matrix(&st16;  3684.07  340.3 )">88</text><text style="&st18;" transform="matrix(&st16;  3719.96  340.3 )">C</text><text style="&st18;" transform="matrix(&st16;  3709.56  340.3 )">87</text><text style="&st18;" transform="matrix(&st16;  3507.49  340.3 )">C</text><text style="&st18;" transform="matrix(&st16;  3541.49  340.3 )">C</text><text style="&st18;" transform="matrix(&st16;  3527.76  340.3 )">102</text><text style="&st18;" transform="matrix(&st16;  3592.48  340.3 )">C</text><text style="&st18;" transform="matrix(&st16;  3582.08  340.3 )">20</text><text style="&st18;" transform="matrix(&st16;  3787.95  340.3 )">C</text><text style="&st18;" transform="matrix(&st16;  3777.55  340.3 )">90</text><text style="&st18;" transform="matrix(&st16;  3515.01  262.68 )">(RHD)</text><text style="&st18;" transform="matrix(&st16;  3515.01  253.61 )">(LHD)</text><text style="&st18;" transform="matrix(&st16;  3843.61  292.68 )">A38(A),A52(D),C45(B),C46(C)</text><text style="&st18;" transform="matrix(&st16;  3843.62  299.79 )">ECM</text><text style="&st18;" transform="matrix(&st16;  3598.96  609.99 )">BR</text><text style="&st18;" transform="matrix(&st16;  3598.96  660.98 )">BR</text><text style="&st18;" transform="matrix(&st16;  3601.52  567.49 )">L</text><text style="&st18;" transform="matrix(&st16;  3649.95  609.99 )">BR</text><text style="&st18;" transform="matrix(&st16;  3649.95  660.98 )">BR</text><text style="&st18;" transform="matrix(&st16;  3652.51  567.49 )">L</text><text style="&st18;" transform="matrix(&st16;  3598.96  592.99 )">BR</text><text style="&st18;" transform="matrix(&st16;  3649.95  592.99 )">BR</text></svg>