﻿<?xml version="1.0" encoding="utf-8"?>
<!DOCTYPE svg PUBLIC "-//W3C//DTD SVG 1.0//EN" "http://www.w3.org/TR/2001/REC-SVG-20010904/DTD/svg10.dtd"[
	<!ENTITY ns_flows "http://ns.adobe.com/Flows/1.0/">
	<!ENTITY ns_svg "http://www.w3.org/2000/svg">
	<!ENTITY ns_xlink "http://www.w3.org/1999/xlink">
	<!ENTITY st0 "font-size:7px;font-family:'MS-PGothic';adobe-font-script:japanese;">
	<!ENTITY st1 "font-size:6px;font-family:'ArialMT';">
	<!-- White fill  -->
	<!ENTITY st2 "fill:#FFFFFF;stroke:#000000; stroke-width:1.41;stroke-linecap:round;stroke-linejoin:round;">
	<!-- Yellow fill  -->
	<!ENTITY st3 "fill:#FFFFCC;stroke:#FFFFCC; stroke-width:0.1;stroke-linecap:round;stroke-linejoin:round;">
	<!-- Gray fill  -->
	<!ENTITY st4 "fill:#CCCCCC;stroke:#CCCCCC; stroke-width:0.1;stroke-linecap:round;stroke-linejoin:round;">
	<!-- Light-blue fill -->
	<!ENTITY st5 "fill:#CCECF4;stroke:#000000; stroke-width:1.133;stroke-linecap:round;stroke-linejoin:round;">
	<!ENTITY st6 "fill:none;stroke-linecap:butt; stroke-linejoin:round;">
	<!ENTITY st7 "fill:none;stroke:#000000;stroke-linecap:round;stroke-linejoin:round;">
	<!ENTITY st8 "enable-background:new    ;">
	<!-- Black fill -->
	<!ENTITY st9 "fill:#000000;stroke:#000000; stroke-linecap:round;stroke-linejoin:round;">
	<!-- SRS note   -->
	<!ENTITY st10 "font-size:9px;font-family:'ArialMT';">
	<!ENTITY st11 "font-size:9px;font-family:'Svg Symbol';">
	<!ENTITY st12 "font-size:6px;font-family:'Svg Symbol';">
	<!ENTITY st13 "fill:none;stroke:#ff0000;stroke-linecap:round;stroke-linejoin:round;">
	<!-- Yellow fill  -->
	<!ENTITY st14 "fill:#FFFF00;stroke:#FFFF00; stroke-width:0.1;stroke-linecap:round;stroke-linejoin:round;">
	<!ENTITY st15 "font-size:6px;font-family:'MS-PGothic';adobe-font-script:japanese;">
	<!ENTITY st16 "1.00 0.00 0.00 1.00">
	<!ENTITY st17 "0.00 -1.00 1.00 0.00">
	<!ENTITY st18 "font-size:6px;font-family:'Arial';">
	<!ENTITY st19 "font-size:9px;font-family:'Arial';">
	<!ENTITY st20 "font-size:6px;font-family:'MS-PGothic','MS PGothic';adobe-font-script:japanese;">
	<!ENTITY st21 "font-size:7px;font-family:'MS-PGothic','MS PGothic';adobe-font-script:japanese;">
	<!ATTLIST svg
		xmlns:ewd CDATA #FIXED "http://shcl.co.jp/ewd"
		xmlns:a CDATA #FIXED "http://ns.adobe.com/AdobeSVGViewerExtensions/3.0/"
		ewd:ver CDATA #IMPLIED
	>
	<!ATTLIST a
		ewd:lineID CDATA #IMPLIED
		ewd:groupID CDATA #IMPLIED
		ewd:figtype CDATA #IMPLIED
		ewd:code CDATA #IMPLIED
		ewd:figID CDATA #IMPLIED
		ewd:pinNo CDATA #IMPLIED
		ewd:comment CDATA #IMPLIED >
	<!ATTLIST g
		ewd:lineID CDATA #IMPLIED
		ewd:groupID CDATA #IMPLIED
		ewd:figtype CDATA #IMPLIED
		ewd:code CDATA #IMPLIED
		ewd:figID CDATA #IMPLIED
		ewd:pinNo CDATA #IMPLIED
		ewd:comment CDATA #IMPLIED >
	<!ATTLIST text
		ewd:textID CDATA #IMPLIED >
	<!ATTLIST title
		ewd:textID CDATA #IMPLIED >
]>
<!-- Generator: Shintec Hozumi YS   -->
<svg onload="call_execInitLoadProc_svg('system')" style="overflow:visible;  enable-background:new 0 0 8737.248 710.000" viewBox="0 0 8737.248 710.000" height="710.000" width="8737.248" xml:space="preserve" ewd:ver="L2.3.0.14" xmlns="&ns_svg;" xmlns:a="http://ns.adobe.com/AdobeSVGViewerExtensions/3.0/" xmlns:ewd="http://shcl.co.jp/ewd" xmlns:xlink="&ns_xlink;">
<path d=" M  8715.29,   265.24  L  8706.80,   265.24  " style="stroke-width: 0.85 ;&st7;  " /><path d=" M  8723.78,   255.58  L  8716.42,   259.83  " style="stroke-width: 0.85 ;&st7;  " /><path d=" M  8718.42,   263.29  L  8725.78,   259.05  " style="stroke-width: 0.85 ;&st7;  " /><path d=" M  8681.30,   265.24  L  8672.80,   265.24  " style="stroke-width: 0.85 ;&st7;  " /><path d=" M  8689.78,   255.58  L  8682.42,   259.83  " style="stroke-width: 0.85 ;&st7;  " /><path d=" M  8684.43,   263.29  L  8691.79,   259.05  " style="stroke-width: 0.85 ;&st7;  " /><path d=" M  8613.31,   265.24  L  8604.81,   265.24  " style="stroke-width: 0.85 ;&st7;  " /><path d=" M  8621.79,   255.58  L  8614.43,   259.83  " style="stroke-width: 0.85 ;&st7;  " /><path d=" M  8616.44,   263.29  L  8623.80,   259.05  " style="stroke-width: 0.85 ;&st7;  " /><path d=" M  8505.96,   263.29  L  8513.32,   259.05  " style="stroke-width: 0.85 ;&st7;  " /><path d=" M  8511.31,   255.58  L  8503.95,   259.83  " style="stroke-width: 0.85 ;&st7;  " /><path d=" M  8570.82,   265.24  L  8562.32,   265.24  " style="stroke-width: 0.85 ;&st7;  " /><path d=" M  8579.30,   255.58  L  8571.94,   259.83  " style="stroke-width: 0.85 ;&st7;  " /><path d=" M  8573.95,   263.29  L  8581.31,   259.05  " style="stroke-width: 0.85 ;&st7;  " /><path d=" M  8539.95,   263.29  L  8547.31,   259.05  " style="stroke-width: 0.85 ;&st7;  " /><path d=" M  8545.31,   255.58  L  8537.95,   259.83  " style="stroke-width: 0.85 ;&st7;  " /><path d=" M  8536.82,   265.24  L  8528.33,   265.24  " style="stroke-width: 0.85 ;&st7;  " /><path d=" M  8715.29,   307.73  L  8706.80,   307.73  " style="stroke-width: 0.85 ;&st7;  " /><path d=" M  8647.31,   265.24  L  8638.81,   265.24  " style="stroke-width: 0.85 ;&st7;  " /><path d=" M  8655.79,   255.58  L  8648.43,   259.83  " style="stroke-width: 0.85 ;&st7;  " /><path d=" M  8650.43,   263.29  L  8657.79,   259.05  " style="stroke-width: 0.85 ;&st7;  " /><path d=" M  8711.04,   265.24  L  8705.38,   256.74  L  8716.71,   256.74  L  8711.04,   265.24  " style="stroke-width: 0.28 ;&st9;  " /><path d=" M  8723.77,   255.58  L  8721.44,   258.62  L  8719.97,   256.08  L  8723.77,   255.58  L  8722.49,   256.32  L  8721.51,   257.60  L  8720.89,   256.53  L  8722.49,   256.32  L  8721.85,   256.69  L  8721.54,   257.09  L  8721.34,   256.75  L  8721.85,   256.69  " style="stroke-width: 0.85 ;&st7;  " /><path d=" M  8725.78,   259.05  L  8723.44,   262.09  L  8721.98,   259.55  L  8725.78,   259.05  L  8724.49,   259.79  L  8723.51,   261.07  L  8722.89,   260.00  L  8724.49,   259.79  L  8723.85,   260.16  L  8723.54,   260.56  L  8723.35,   260.22  L  8723.85,   260.16  " style="stroke-width: 0.85 ;&st7;  " /><path d=" M  8668.55,   324.73  L  8668.55,   367.22  L  8685.55,   367.22  L  8685.55,   324.73  L  8668.55,   324.73  " style="stroke-width: 1.42 ;&st7;  " /><path d=" M  8677.05,   265.24  L  8671.38,   256.74  L  8682.71,   256.74  L  8677.05,   265.24  " style="stroke-width: 0.28 ;&st9;  " /><path d=" M  8689.78,   255.58  L  8687.45,   258.62  L  8685.98,   256.08  L  8689.78,   255.58  L  8688.50,   256.32  L  8687.51,   257.60  L  8686.89,   256.53  L  8688.50,   256.32  L  8687.86,   256.69  L  8687.55,   257.09  L  8687.35,   256.75  L  8687.86,   256.69  " style="stroke-width: 0.85 ;&st7;  " /><path d=" M  8691.78,   259.05  L  8689.45,   262.09  L  8687.98,   259.55  L  8691.78,   259.05  L  8690.50,   259.79  L  8689.52,   261.07  L  8688.90,   260.00  L  8690.50,   259.79  L  8689.86,   260.16  L  8689.55,   260.56  L  8689.35,   260.22  L  8689.86,   260.16  " style="stroke-width: 0.85 ;&st7;  " /><path d=" M  8677.05,   324.73  L  8677.05,   290.74  L  8674.21,   289.32  L  8679.88,   286.49  L  8674.21,   283.65  L  8679.88,   280.82  L  8674.21,   277.99  L  8679.88,   275.16  L  8677.05,   273.74  L  8677.05,   231.25  " style="stroke-width: 0.85 ;&st7;  " /><path d=" M  8675.85,   230.24  L  8675.58,   230.71  L  8675.49,   231.25  L  8675.58,   231.78  L  8675.85,   232.25  L  8676.27,   232.60  L  8676.78,   232.78  L  8677.32,   232.78  L  8677.83,   232.60  L  8678.24,   232.25  L  8678.51,   231.78  L  8678.60,   231.25  L  8678.51,   230.71  L  8678.24,   230.24  L  8677.83,   229.90  L  8677.32,   229.71  L  8676.78,   229.71  L  8676.27,   229.90  L  8675.85,   230.24  L  8676.25,   230.96  L  8676.25,   231.54  L  8676.62,   231.98  L  8677.19,   232.08  L  8677.70,   231.79  L  8677.90,   231.25  L  8677.70,   230.70  L  8677.19,   230.41  L  8676.62,   230.51  L  8677.05,   231.25  " style="stroke-width: 0.85 ;&st7;  " /><path d=" M  8609.06,   231.25  L  8609.06,   273.74  L  8611.89,   275.16  L  8606.23,   277.99  L  8611.89,   280.82  L  8606.23,   283.65  L  8611.89,   286.49  L  8606.23,   289.32  L  8609.06,   290.74  L  8609.06,   324.73  " style="stroke-width: 0.85 ;&st7;  " /><path d=" M  8609.06,   265.24  L  8603.39,   256.74  L  8614.72,   256.74  L  8609.06,   265.24  " style="stroke-width: 0.28 ;&st9;  " /><path d=" M  8621.79,   255.58  L  8619.46,   258.62  L  8617.99,   256.08  L  8621.79,   255.58  L  8620.51,   256.32  L  8619.52,   257.60  L  8618.90,   256.53  L  8620.51,   256.32  L  8619.87,   256.69  L  8619.56,   257.09  L  8619.36,   256.75  L  8619.87,   256.69  " style="stroke-width: 0.85 ;&st7;  " /><path d=" M  8623.79,   259.05  L  8621.46,   262.09  L  8619.99,   259.55  L  8623.79,   259.05  L  8622.51,   259.79  L  8621.53,   261.07  L  8620.91,   260.00  L  8622.51,   259.79  L  8621.87,   260.16  L  8621.56,   260.56  L  8621.36,   260.22  L  8621.87,   260.16  " style="stroke-width: 0.85 ;&st7;  " /><path d=" M  8607.87,   230.24  L  8607.59,   230.71  L  8607.50,   231.25  L  8607.59,   231.78  L  8607.87,   232.25  L  8608.28,   232.60  L  8608.79,   232.78  L  8609.33,   232.78  L  8609.84,   232.60  L  8610.25,   232.25  L  8610.52,   231.78  L  8610.62,   231.25  L  8610.52,   230.71  L  8610.25,   230.24  L  8609.84,   229.90  L  8609.33,   229.71  L  8608.79,   229.71  L  8608.28,   229.90  L  8607.87,   230.24  L  8608.26,   230.96  L  8608.26,   231.54  L  8608.63,   231.98  L  8609.21,   232.08  L  8609.71,   231.79  L  8609.91,   231.25  L  8609.71,   230.70  L  8609.21,   230.41  L  8608.63,   230.51  L  8609.06,   231.25  " style="stroke-width: 0.85 ;&st7;  " /><path d=" M  8600.56,   324.73  L  8600.56,   367.22  L  8617.56,   367.22  L  8617.56,   324.73  L  8600.56,   324.73  " style="stroke-width: 1.42 ;&st7;  " /><path d=" M  8513.31,   259.05  L  8510.98,   262.09  L  8509.51,   259.55  L  8513.31,   259.05  L  8512.03,   259.79  L  8511.05,   261.07  L  8510.43,   260.00  L  8512.03,   259.79  L  8511.39,   260.16  L  8511.08,   260.56  L  8510.88,   260.22  L  8511.39,   260.16  " style="stroke-width: 0.85 ;&st7;  " /><path d=" M  8511.31,   255.58  L  8508.98,   258.62  L  8507.51,   256.08  L  8511.31,   255.58  L  8510.03,   256.32  L  8509.04,   257.60  L  8508.42,   256.53  L  8510.03,   256.32  L  8509.39,   256.69  L  8509.08,   257.09  L  8508.88,   256.75  L  8509.39,   256.69  " style="stroke-width: 0.85 ;&st7;  " /><path d=" M  8566.57,   231.25  L  8566.57,   273.74  L  8569.40,   275.16  L  8563.73,   277.99  L  8569.40,   280.82  L  8563.73,   283.65  L  8569.40,   286.49  L  8563.73,   289.32  L  8566.57,   290.74  L  8566.57,   324.73  " style="stroke-width: 0.85 ;&st7;  " /><path d=" M  8566.57,   265.24  L  8560.90,   256.74  L  8572.23,   256.74  L  8566.57,   265.24  " style="stroke-width: 0.28 ;&st9;  " /><path d=" M  8579.30,   255.58  L  8576.96,   258.62  L  8575.50,   256.08  L  8579.30,   255.58  L  8578.02,   256.32  L  8577.03,   257.60  L  8576.41,   256.53  L  8578.02,   256.32  L  8577.38,   256.69  L  8577.06,   257.09  L  8576.87,   256.75  L  8577.38,   256.69  " style="stroke-width: 0.85 ;&st7;  " /><path d=" M  8581.30,   259.05  L  8578.97,   262.09  L  8577.50,   259.55  L  8581.30,   259.05  L  8580.02,   259.79  L  8579.04,   261.07  L  8578.41,   260.00  L  8580.02,   259.79  L  8579.38,   260.16  L  8579.07,   260.56  L  8578.87,   260.22  L  8579.38,   260.16  " style="stroke-width: 0.85 ;&st7;  " /><path d=" M  8565.37,   230.24  L  8565.10,   230.71  L  8565.01,   231.25  L  8565.10,   231.78  L  8565.37,   232.25  L  8565.79,   232.60  L  8566.30,   232.78  L  8566.83,   232.78  L  8567.34,   232.60  L  8567.76,   232.25  L  8568.03,   231.78  L  8568.12,   231.25  L  8568.03,   230.71  L  8567.76,   230.24  L  8567.34,   229.90  L  8566.83,   229.71  L  8566.30,   229.71  L  8565.79,   229.90  L  8565.37,   230.24  L  8565.77,   230.96  L  8565.77,   231.54  L  8566.14,   231.98  L  8566.71,   232.08  L  8567.22,   231.79  L  8567.41,   231.25  L  8567.22,   230.70  L  8566.71,   230.41  L  8566.14,   230.51  L  8566.57,   231.25  " style="stroke-width: 0.85 ;&st7;  " /><path d=" M  8531.38,   230.24  L  8531.11,   230.71  L  8531.01,   231.25  L  8531.11,   231.78  L  8531.38,   232.25  L  8531.79,   232.60  L  8532.30,   232.78  L  8532.84,   232.78  L  8533.35,   232.60  L  8533.76,   232.25  L  8534.04,   231.78  L  8534.13,   231.25  L  8534.04,   230.71  L  8533.76,   230.24  L  8533.35,   229.90  L  8532.84,   229.71  L  8532.30,   229.71  L  8531.79,   229.90  L  8531.38,   230.24  L  8531.77,   230.96  L  8531.77,   231.54  L  8532.15,   231.98  L  8532.72,   232.08  L  8533.22,   231.79  L  8533.42,   231.25  L  8533.22,   230.70  L  8532.72,   230.41  L  8532.15,   230.51  L  8532.57,   231.25  " style="stroke-width: 0.85 ;&st7;  " /><path d=" M  8547.31,   259.05  L  8544.97,   262.09  L  8543.51,   259.55  L  8547.31,   259.05  L  8546.02,   259.79  L  8545.04,   261.07  L  8544.42,   260.00  L  8546.02,   259.79  L  8545.38,   260.16  L  8545.07,   260.56  L  8544.88,   260.22  L  8545.38,   260.16  " style="stroke-width: 0.85 ;&st7;  " /><path d=" M  8545.30,   255.58  L  8542.97,   258.62  L  8541.50,   256.08  L  8545.30,   255.58  L  8544.02,   256.32  L  8543.04,   257.60  L  8542.42,   256.53  L  8544.02,   256.32  L  8543.38,   256.69  L  8543.07,   257.09  L  8542.87,   256.75  L  8543.38,   256.69  " style="stroke-width: 0.85 ;&st7;  " /><path d=" M  8532.57,   265.24  L  8526.91,   256.74  L  8538.24,   256.74  L  8532.57,   265.24  " style="stroke-width: 0.28 ;&st9;  " /><path d=" M  8532.57,   231.25  L  8532.57,   273.74  L  8535.40,   275.16  L  8529.74,   277.99  L  8535.40,   280.82  L  8529.74,   283.65  L  8535.40,   286.49  L  8529.74,   289.32  L  8532.57,   290.74  L  8532.57,   324.73  " style="stroke-width: 0.85 ;&st7;  " /><path d=" M  8711.04,   307.73  L  8705.38,   299.24  L  8716.71,   299.24  L  8711.04,   307.73  " style="stroke-width: 0.28 ;&st9;  " /><path d=" M  8643.05,   231.25  L  8643.05,   273.74  L  8645.89,   275.16  L  8640.22,   277.99  L  8645.89,   280.82  L  8640.22,   283.65  L  8645.89,   286.49  L  8640.22,   289.32  L  8643.05,   290.74  L  8643.05,   324.73  " style="stroke-width: 0.85 ;&st7;  " /><path d=" M  8643.05,   265.24  L  8637.39,   256.74  L  8648.72,   256.74  L  8643.05,   265.24  " style="stroke-width: 0.28 ;&st9;  " /><path d=" M  8655.79,   255.58  L  8653.45,   258.62  L  8651.98,   256.08  L  8655.79,   255.58  L  8654.50,   256.32  L  8653.52,   257.60  L  8652.90,   256.53  L  8654.50,   256.32  L  8653.86,   256.69  L  8653.55,   257.09  L  8653.36,   256.75  L  8653.86,   256.69  " style="stroke-width: 0.85 ;&st7;  " /><path d=" M  8657.79,   259.05  L  8655.45,   262.09  L  8653.99,   259.55  L  8657.79,   259.05  L  8656.51,   259.79  L  8655.52,   261.07  L  8654.90,   260.00  L  8656.51,   259.79  L  8655.87,   260.16  L  8655.55,   260.56  L  8655.36,   260.22  L  8655.87,   260.16  " style="stroke-width: 0.85 ;&st7;  " /><path d=" M  8641.86,   230.24  L  8641.59,   230.71  L  8641.49,   231.25  L  8641.59,   231.78  L  8641.86,   232.25  L  8642.27,   232.60  L  8642.78,   232.78  L  8643.32,   232.78  L  8643.83,   232.60  L  8644.24,   232.25  L  8644.52,   231.78  L  8644.61,   231.25  L  8644.52,   230.71  L  8644.24,   230.24  L  8643.83,   229.90  L  8643.32,   229.71  L  8642.78,   229.71  L  8642.27,   229.90  L  8641.86,   230.24  L  8642.25,   230.96  L  8642.25,   231.54  L  8642.63,   231.98  L  8643.20,   232.08  L  8643.70,   231.79  L  8643.90,   231.25  L  8643.70,   230.70  L  8643.20,   230.41  L  8642.63,   230.51  L  8643.05,   231.25  " style="stroke-width: 0.85 ;&st7;  " /><path d=" M  8634.55,   324.73  L  8634.55,   367.22  L  8651.55,   367.22  L  8651.55,   324.73  L  8634.55,   324.73  " style="stroke-width: 1.42 ;&st7;  " /><text ewd:textID="33" style="&st18;" transform="matrix(&st16;  8563.16  176.56 )">Combination Meter Assembly</text><text ewd:textID="64" style="&st18;" transform="matrix(&st17;  8608.21  358.37 )">One Step <tspan dy="6.0" x="0 ">Dim</tspan></text><text ewd:textID="32" style="&st18;" transform="matrix(&st17;  8703.39  279.43 )">Check Engine</text><text ewd:textID="64" style="&st18;" transform="matrix(&st17;  8676.2  358.37 )">One Step <tspan dy="6.0" x="0 ">Dim</tspan></text><text style="&st18;" transform="matrix(&st17;  8669.11  274.78 )">ECT PWR</text><text style="&st18;" transform="matrix(&st17;  8601.12  272.1 )">CRUISE</text><text style="&st18;" transform="matrix(&st16;  8563.16  169.45 )">E119(A)</text><text style="&st18;" transform="matrix(&st17;  8558.62  268.38 )">S (*8)</text><text ewd:textID="64" style="&st18;" transform="matrix(&st17;  8531.72  358.37 )">One Step <tspan dy="6.0" x="0 ">Dim</tspan></text><text style="&st18;" transform="matrix(&st17;  8524.63  268.54 )">D (*8)</text><text ewd:textID="8" style="&st18;" transform="matrix(&st16;  8631.15  63.24 )">* 8 :Except Option Meter</text><text ewd:textID="7" style="&st18;" transform="matrix(&st16;  8631.15  54.75 )">* 7 :Option Meter</text><text ewd:textID="64" style="&st18;" transform="matrix(&st17;  8642.2  358.37 )">One Step <tspan dy="6.0" x="0 ">Dim</tspan></text><text style="&st18;" transform="matrix(&st17;  8635.11  266.6 )">SET</text></svg>