﻿<?xml version="1.0" encoding="utf-8"?>
<!DOCTYPE svg PUBLIC "-//W3C//DTD SVG 1.0//EN" "http://www.w3.org/TR/2001/REC-SVG-20010904/DTD/svg10.dtd"[
	<!ENTITY ns_flows "http://ns.adobe.com/Flows/1.0/">
	<!ENTITY ns_svg "http://www.w3.org/2000/svg">
	<!ENTITY ns_xlink "http://www.w3.org/1999/xlink">
	<!ENTITY st0 "font-size:7px;font-family:'MS-PGothic';adobe-font-script:japanese;">
	<!ENTITY st1 "font-size:6px;font-family:'ArialMT';">
	<!-- White fill  -->
	<!ENTITY st2 "fill:#FFFFFF;stroke:#000000; stroke-width:1.41;stroke-linecap:round;stroke-linejoin:round;">
	<!-- Yellow fill  -->
	<!ENTITY st3 "fill:#FFFFCC;stroke:#FFFFCC; stroke-width:0.1;stroke-linecap:round;stroke-linejoin:round;">
	<!-- Gray fill  -->
	<!ENTITY st4 "fill:#CCCCCC;stroke:#CCCCCC; stroke-width:0.1;stroke-linecap:round;stroke-linejoin:round;">
	<!-- Light-blue fill -->
	<!ENTITY st5 "fill:#CCECF4;stroke:#000000; stroke-width:1.133;stroke-linecap:round;stroke-linejoin:round;">
	<!ENTITY st6 "fill:none;stroke-linecap:butt; stroke-linejoin:round;">
	<!ENTITY st7 "fill:none;stroke:#000000;stroke-linecap:round;stroke-linejoin:round;">
	<!ENTITY st8 "enable-background:new    ;">
	<!-- Black fill -->
	<!ENTITY st9 "fill:#000000;stroke:#000000; stroke-linecap:round;stroke-linejoin:round;">
	<!-- SRS note   -->
	<!ENTITY st10 "font-size:9px;font-family:'ArialMT';">
	<!ENTITY st11 "font-size:9px;font-family:'Svg Symbol';">
	<!ENTITY st12 "font-size:6px;font-family:'Svg Symbol';">
	<!ENTITY st13 "fill:none;stroke:#ff0000;stroke-linecap:round;stroke-linejoin:round;">
	<!-- Yellow fill  -->
	<!ENTITY st14 "fill:#FFFF00;stroke:#FFFF00; stroke-width:0.1;stroke-linecap:round;stroke-linejoin:round;">
	<!ENTITY st15 "font-size:6px;font-family:'MS-PGothic';adobe-font-script:japanese;">
	<!ENTITY st16 "1.00 0.00 0.00 1.00">
	<!ENTITY st17 "0.00 -1.00 1.00 0.00">
	<!ENTITY st18 "font-size:6px;font-family:'Arial';">
	<!ENTITY st19 "font-size:9px;font-family:'Arial';">
	<!ENTITY st20 "font-size:6px;font-family:'MS-PGothic','MS PGothic';adobe-font-script:japanese;">
	<!ENTITY st21 "font-size:7px;font-family:'MS-PGothic','MS PGothic';adobe-font-script:japanese;">
	<!ATTLIST svg
		xmlns:ewd CDATA #FIXED "http://shcl.co.jp/ewd"
		xmlns:a CDATA #FIXED "http://ns.adobe.com/AdobeSVGViewerExtensions/3.0/"
		ewd:ver CDATA #IMPLIED
	>
	<!ATTLIST a
		ewd:lineID CDATA #IMPLIED
		ewd:groupID CDATA #IMPLIED
		ewd:figtype CDATA #IMPLIED
		ewd:code CDATA #IMPLIED
		ewd:figID CDATA #IMPLIED
		ewd:pinNo CDATA #IMPLIED
		ewd:comment CDATA #IMPLIED >
	<!ATTLIST g
		ewd:lineID CDATA #IMPLIED
		ewd:groupID CDATA #IMPLIED
		ewd:figtype CDATA #IMPLIED
		ewd:code CDATA #IMPLIED
		ewd:figID CDATA #IMPLIED
		ewd:pinNo CDATA #IMPLIED
		ewd:comment CDATA #IMPLIED >
	<!ATTLIST text
		ewd:textID CDATA #IMPLIED >
	<!ATTLIST title
		ewd:textID CDATA #IMPLIED >
]>
<!-- Generator: Shintec Hozumi YS   -->
<svg onload="call_execInitLoadProc_svg('system')" style="overflow:visible;  enable-background:new 0 0 10342.050 710.000" viewBox="0 0 10342.050 710.000" height="710.000" width="10342.050" xml:space="preserve" ewd:ver="L2.3.0.14" xmlns="&ns_svg;" xmlns:a="http://ns.adobe.com/AdobeSVGViewerExtensions/3.0/" xmlns:ewd="http://shcl.co.jp/ewd" xmlns:xlink="&ns_xlink;">
<path d=" M  9671.38,   137.76  L  9679.88,   137.76  " style="stroke-width: 1.42 ;&st7;  " /><path d=" M  9896.60,   273.74  L  9888.10,   273.74  " style="stroke-width: 0.85 ;&st7;  " /><path d=" M  9905.08,   264.08  L  9897.72,   268.33  " style="stroke-width: 0.85 ;&st7;  " /><path d=" M  9899.72,   271.79  L  9907.08,   267.54  " style="stroke-width: 0.85 ;&st7;  " /><path d=" M 10007.08,   273.74  L  9998.58,   273.74  " style="stroke-width: 0.85 ;&st7;  " /><path d=" M  9976.21,   271.79  L  9983.57,   267.54  " style="stroke-width: 0.85 ;&st7;  " /><path d=" M  9981.57,   264.08  L  9974.21,   268.33  " style="stroke-width: 0.85 ;&st7;  " /><path d=" M  9973.08,   273.74  L  9964.59,   273.74  " style="stroke-width: 0.85 ;&st7;  " /><path d=" M  9939.09,   273.74  L  9930.59,   273.74  " style="stroke-width: 0.85 ;&st7;  " /><path d=" M  9947.57,   264.08  L  9940.21,   268.33  " style="stroke-width: 0.85 ;&st7;  " /><path d=" M  9942.22,   271.79  L  9949.58,   267.54  " style="stroke-width: 0.85 ;&st7;  " /><path d=" M  9684.13,   205.75  L  9675.63,   205.75  " style="stroke-width: 0.85 ;&st7;  " /><path d=" M  9760.62,   205.75  L  9752.12,   205.75  " style="stroke-width: 0.85 ;&st7;  " /><path d=" M  9730.87,   193.00  L  9730.87,   184.50  " style="stroke-width: 0.85 ;&st7;  " /><path d=" M  9756.37,    69.77  L  9756.37,    95.27  " style="stroke-width: 0.85 ;&st7;  " /><path d=" M  9758.49,    95.27  L  9754.25,    95.27  " style="stroke-width: 1.42 ;&st7;  " /><path d=" M  9758.49,   103.77  L  9754.25,   103.77  " style="stroke-width: 1.42 ;&st7;  " /><path d=" M  9679.88,    69.77  L  9679.88,    95.27  " style="stroke-width: 0.85 ;&st7;  " /><path d=" M  9682.01,    95.27  L  9677.76,    95.27  " style="stroke-width: 1.42 ;&st7;  " /><path d=" M  9682.01,   103.77  L  9677.76,   103.77  " style="stroke-width: 1.42 ;&st7;  " /><path d=" M  9824.36,   409.72  L  9807.36,   409.72  " style="stroke-width: 1.42 ;&st7;  " /><path d=" M  9807.36,   418.22  L  9813.03,   409.72  " style="stroke-width: 0.85 ;&st7;  " /><path d=" M  9773.37,   562.69  L  9764.87,   562.69  " style="stroke-width: 1.42 ;&st7;  " /><path d=" M  9695.68,   400.22  L  9695.41,   400.69  L  9695.32,   401.22  L  9695.41,   401.75  L  9695.68,   402.22  L  9696.10,   402.57  L  9696.61,   402.75  L  9697.14,   402.75  L  9697.65,   402.57  L  9698.07,   402.22  L  9698.34,   401.75  L  9698.43,   401.22  L  9698.34,   400.69  L  9698.07,   400.22  L  9697.65,   399.87  L  9697.14,   399.68  L  9696.61,   399.68  L  9696.10,   399.87  L  9695.68,   400.22  L  9696.08,   400.93  L  9696.08,   401.51  L  9696.45,   401.95  L  9697.02,   402.05  L  9697.53,   401.77  L  9697.73,   401.22  L  9697.53,   400.67  L  9697.02,   400.38  L  9696.45,   400.48  L  9696.88,   401.22  " style="stroke-width: 0.85 ;&st7;  " /><path d=" M  9569.40,   180.26  L  9569.40,   452.21  L 10308.77,   452.21  L 10308.77,   180.26  L  9569.40,   180.26  " style="stroke-width: 1.42 ;&st7;  " /><path d=" M  9586.39,   324.73  L 10283.28,   324.73  L 10283.28,   375.72  L  9586.39,   375.72  L  9586.39,   324.73  " style="stroke-width: 1.42 ;&st7;  " /><path d=" M  9611.89,   307.73  L  9611.89,   324.73  " style="stroke-width: 0.85 ;&st7;  " /><path d=" M  9586.39,   290.74  L  9586.39,   307.73  L  9637.39,   307.73  L  9637.39,   282.24  L  9586.39,   282.24  L  9586.39,   290.74  " style="stroke-width: 1.42 ;&st7;  " /><path d=" M  9713.87,   214.25  L  9713.87,   188.75  L  9756.37,   188.75  " style="stroke-width: 0.85 ;&st7;  " /><path d=" M  9679.88,   205.75  L  9674.21,   197.25  L  9685.54,   197.25  L  9679.88,   205.75  " style="stroke-width: 0.28 ;&st9;  " /><path d=" M  9679.88,   180.26  L  9679.88,   214.25  " style="stroke-width: 0.85 ;&st7;  " /><path d=" M  9756.37,   205.75  L  9750.70,   197.25  L  9762.03,   197.25  L  9756.37,   205.75  " style="stroke-width: 0.28 ;&st9;  " /><path d=" M  9756.37,   180.26  L  9756.37,   324.73  " style="stroke-width: 0.85 ;&st7;  " /><path d=" M  9730.87,   188.75  L  9739.37,   183.09  L  9739.37,   194.42  L  9730.87,   188.75  " style="stroke-width: 0.28 ;&st9;  " /><path d=" M  9586.39,   205.75  L  9645.88,   205.75  L  9645.88,   239.75  L  9586.39,   239.75  L  9586.39,   205.75  " style="stroke-width: 1.42 ;&st7;  " /><path d=" M  9678.69,   213.25  L  9678.41,   213.72  L  9678.32,   214.25  L  9678.41,   214.78  L  9678.69,   215.25  L  9679.10,   215.60  L  9679.61,   215.79  L  9680.15,   215.79  L  9680.66,   215.60  L  9681.07,   215.25  L  9681.34,   214.78  L  9681.44,   214.25  L  9681.34,   213.72  L  9681.07,   213.25  L  9680.66,   212.90  L  9680.15,   212.71  L  9679.61,   212.71  L  9679.10,   212.90  L  9678.69,   213.25  L  9679.08,   213.96  L  9679.08,   214.54  L  9679.45,   214.99  L  9680.03,   215.09  L  9680.53,   214.80  L  9680.73,   214.25  L  9680.53,   213.70  L  9680.03,   213.41  L  9679.45,   213.51  L  9679.88,   214.25  " style="stroke-width: 0.85 ;&st7;  " /><path d=" M  9712.68,   213.25  L  9712.41,   213.72  L  9712.31,   214.25  L  9712.41,   214.78  L  9712.68,   215.25  L  9713.09,   215.60  L  9713.60,   215.79  L  9714.14,   215.79  L  9714.65,   215.60  L  9715.07,   215.25  L  9715.34,   214.78  L  9715.43,   214.25  L  9715.34,   213.72  L  9715.07,   213.25  L  9714.65,   212.90  L  9714.14,   212.71  L  9713.60,   212.71  L  9713.09,   212.90  L  9712.68,   213.25  L  9713.07,   213.96  L  9713.07,   214.54  L  9713.45,   214.99  L  9714.02,   215.09  L  9714.52,   214.80  L  9714.72,   214.25  L  9714.52,   213.70  L  9714.02,   213.41  L  9713.45,   213.51  L  9713.87,   214.25  " style="stroke-width: 0.85 ;&st7;  " /><path d=" M  9755.17,   187.75  L  9754.90,   188.22  L  9754.81,   188.75  L  9754.90,   189.29  L  9755.17,   189.76  L  9755.59,   190.10  L  9756.10,   190.29  L  9756.63,   190.29  L  9757.14,   190.10  L  9757.56,   189.76  L  9757.83,   189.29  L  9757.92,   188.75  L  9757.83,   188.22  L  9757.56,   187.75  L  9757.14,   187.41  L  9756.63,   187.22  L  9756.10,   187.22  L  9755.59,   187.41  L  9755.17,   187.75  L  9755.57,   188.46  L  9755.57,   189.05  L  9755.94,   189.49  L  9756.51,   189.59  L  9757.02,   189.30  L  9757.22,   188.75  L  9757.02,   188.21  L  9756.51,   187.92  L  9755.94,   188.02  L  9756.37,   188.75  " style="stroke-width: 0.85 ;&st7;  " /><path d=" M  9755.17,   230.24  L  9754.90,   230.71  L  9754.81,   231.25  L  9754.90,   231.78  L  9755.17,   232.25  L  9755.59,   232.60  L  9756.10,   232.78  L  9756.63,   232.78  L  9757.14,   232.60  L  9757.56,   232.25  L  9757.83,   231.78  L  9757.92,   231.25  L  9757.83,   230.71  L  9757.56,   230.24  L  9757.14,   229.90  L  9756.63,   229.71  L  9756.10,   229.71  L  9755.59,   229.90  L  9755.17,   230.24  L  9755.57,   230.96  L  9755.57,   231.54  L  9755.94,   231.98  L  9756.51,   232.08  L  9757.02,   231.79  L  9757.22,   231.25  L  9757.02,   230.70  L  9756.51,   230.41  L  9755.94,   230.51  L  9756.37,   231.25  " style="stroke-width: 0.85 ;&st7;  " /><path d=" M  9586.39,   375.72  L  9586.39,   409.72  L  9637.39,   409.72  L  9637.39,   375.72  " style="stroke-width: 1.42 ;&st7;  " /><path d=" M  9637.39,   384.22  L  9696.88,   384.22  L  9696.88,   452.21  " style="stroke-width: 0.85 ;&st7;  " /><path d=" M  9637.39,   401.22  L  9662.88,   401.22  L  9662.88,   452.21  " style="stroke-width: 0.85 ;&st7;  " /><path d=" M 10138.80,   324.73  L 10138.80,   299.24  L 10135.97,   297.82  L 10141.63,   294.99  L 10135.97,   292.15  L 10141.63,   289.32  L 10135.97,   286.49  L 10141.63,   283.65  L 10138.80,   282.24  L 10138.80,   214.25  L  9645.88,   214.25  " style="stroke-width: 0.85 ;&st7;  " /><path d=" M  9756.37,    90.37  L  9753.53,    87.54  L  9753.53,    91.79  L  9756.37,    94.62  L  9759.20,    91.79  L  9759.20,    87.54  L  9756.37,    90.37  " style="stroke-width: 0.28 ;&st9;  " /><path d=" M  9743.62,    35.78  L  9743.62,    78.27  L  9769.11,    78.27  L  9769.11,    35.78  L  9743.62,    35.78  " style="stroke-width: 1.42 ;&st7;  " /><path d=" M  9679.88,    90.37  L  9677.05,    87.54  L  9677.05,    91.79  L  9679.88,    94.62  L  9682.71,    91.79  L  9682.71,    87.54  L  9679.88,    90.37  " style="stroke-width: 0.28 ;&st9;  " /><path d=" M  9667.13,    35.78  L  9667.13,    78.27  L  9692.63,    78.27  L  9692.63,    35.78  L  9667.13,    35.78  " style="stroke-width: 1.42 ;&st7;  " /><path d=" M  9679.88,   324.73  L  9679.88,   307.73  " style="stroke-width: 0.85 ;&st7;  " /><path d=" M  9654.38,   290.74  L  9654.38,   307.73  L  9705.37,   307.73  L  9705.37,   282.24  L  9654.38,   282.24  L  9654.38,   290.74  " style="stroke-width: 1.42 ;&st7;  " /><path d=" M  9696.88,   401.22  L  9688.38,   401.22  L  9686.96,   404.05  L  9684.13,   398.39  L  9681.29,   404.05  L  9678.46,   398.39  L  9675.63,   404.05  L  9672.80,   398.39  L  9671.38,   401.22  L  9662.88,   401.22  " style="stroke-width: 0.85 ;&st7;  " /><path d=" M  9684.13,   132.10  L  9679.88,   136.35  L  9675.63,   132.10  " style="stroke-width: 1.42 ;&st7;  " /><path d=" M  9675.63,   128.70  L  9679.88,   132.95  L  9684.13,   128.70  " style="stroke-width: 1.42 ;&st7;  " /><path d=" M  9661.69,   400.22  L  9661.42,   400.69  L  9661.32,   401.22  L  9661.42,   401.75  L  9661.69,   402.22  L  9662.10,   402.57  L  9662.61,   402.75  L  9663.15,   402.75  L  9663.66,   402.57  L  9664.07,   402.22  L  9664.35,   401.75  L  9664.44,   401.22  L  9664.35,   400.69  L  9664.07,   400.22  L  9663.66,   399.87  L  9663.15,   399.68  L  9662.61,   399.68  L  9662.10,   399.87  L  9661.69,   400.22  L  9662.08,   400.93  L  9662.08,   401.51  L  9662.46,   401.95  L  9663.03,   402.05  L  9663.53,   401.77  L  9663.73,   401.22  L  9663.53,   400.67  L  9663.03,   400.38  L  9662.46,   400.48  L  9662.88,   401.22  " style="stroke-width: 0.85 ;&st7;  " /><path d=" M  9645.88,   231.25  L 10274.78,   231.25  L 10274.78,   273.74  " style="stroke-width: 0.85 ;&st7;  " /><path d=" M  9892.34,   231.25  L  9892.34,   282.24  L  9895.18,   283.65  L  9889.51,   286.49  L  9895.18,   289.32  L  9889.51,   292.15  L  9895.18,   294.99  L  9889.51,   297.82  L  9892.34,   299.24  L  9892.34,   324.73  " style="stroke-width: 0.85 ;&st7;  " /><path d=" M  9892.34,   273.74  L  9886.68,   265.24  L  9898.01,   265.24  L  9892.34,   273.74  " style="stroke-width: 0.28 ;&st9;  " /><path d=" M  9905.08,   264.08  L  9902.74,   267.12  L  9901.27,   264.58  L  9905.08,   264.08  L  9903.79,   264.82  L  9902.81,   266.10  L  9902.19,   265.03  L  9903.79,   264.82  L  9903.15,   265.19  L  9902.84,   265.59  L  9902.65,   265.25  L  9903.15,   265.19  " style="stroke-width: 0.85 ;&st7;  " /><path d=" M  9907.08,   267.54  L  9904.75,   270.59  L  9903.28,   268.05  L  9907.08,   267.54  L  9905.80,   268.29  L  9904.81,   269.57  L  9904.19,   268.50  L  9905.80,   268.29  L  9905.16,   268.65  L  9904.84,   269.06  L  9904.65,   268.72  L  9905.16,   268.65  " style="stroke-width: 0.85 ;&st7;  " /><path d=" M  9891.15,   230.24  L  9890.88,   230.71  L  9890.78,   231.25  L  9890.88,   231.78  L  9891.15,   232.25  L  9891.56,   232.60  L  9892.07,   232.78  L  9892.61,   232.78  L  9893.12,   232.60  L  9893.54,   232.25  L  9893.81,   231.78  L  9893.90,   231.25  L  9893.81,   230.71  L  9893.54,   230.24  L  9893.12,   229.90  L  9892.61,   229.71  L  9892.07,   229.71  L  9891.56,   229.90  L  9891.15,   230.24  L  9891.54,   230.96  L  9891.54,   231.54  L  9891.92,   231.98  L  9892.49,   232.08  L  9892.99,   231.79  L  9893.19,   231.25  L  9892.99,   230.70  L  9892.49,   230.41  L  9891.92,   230.51  L  9892.34,   231.25  " style="stroke-width: 0.85 ;&st7;  " /><path d=" M 10002.82,   231.25  L 10002.82,   282.24  L 10005.66,   283.65  L  9999.99,   286.49  L 10005.66,   289.32  L  9999.99,   292.15  L 10005.66,   294.99  L  9999.99,   297.82  L 10002.82,   299.24  L 10002.82,   324.73  " style="stroke-width: 0.85 ;&st7;  " /><path d=" M 10002.82,   273.74  L  9997.16,   265.24  L 10008.49,   265.24  L 10002.82,   273.74  " style="stroke-width: 0.28 ;&st9;  " /><path d=" M  9960.33,   324.73  L  9960.33,   367.22  L  9977.33,   367.22  L  9977.33,   324.73  L  9960.33,   324.73  " style="stroke-width: 1.42 ;&st7;  " /><path d=" M  9967.64,   230.24  L  9967.37,   230.71  L  9967.27,   231.25  L  9967.37,   231.78  L  9967.64,   232.25  L  9968.05,   232.60  L  9968.56,   232.78  L  9969.10,   232.78  L  9969.61,   232.60  L  9970.02,   232.25  L  9970.29,   231.78  L  9970.39,   231.25  L  9970.29,   230.71  L  9970.02,   230.24  L  9969.61,   229.90  L  9969.10,   229.71  L  9968.56,   229.71  L  9968.05,   229.90  L  9967.64,   230.24  L  9968.03,   230.96  L  9968.03,   231.54  L  9968.41,   231.98  L  9968.98,   232.08  L  9969.48,   231.79  L  9969.68,   231.25  L  9969.48,   230.70  L  9968.98,   230.41  L  9968.41,   230.51  L  9968.83,   231.25  " style="stroke-width: 0.85 ;&st7;  " /><path d=" M  9983.57,   267.54  L  9981.23,   270.59  L  9979.76,   268.05  L  9983.57,   267.54  L  9982.28,   268.29  L  9981.30,   269.57  L  9980.68,   268.50  L  9982.28,   268.29  L  9981.64,   268.65  L  9981.33,   269.06  L  9981.14,   268.72  L  9981.64,   268.65  " style="stroke-width: 0.85 ;&st7;  " /><path d=" M  9981.56,   264.08  L  9979.23,   267.12  L  9977.76,   264.58  L  9981.56,   264.08  L  9980.28,   264.82  L  9979.29,   266.10  L  9978.68,   265.03  L  9980.28,   264.82  L  9979.64,   265.19  L  9979.33,   265.59  L  9979.13,   265.25  L  9979.64,   265.19  " style="stroke-width: 0.85 ;&st7;  " /><path d=" M  9968.83,   273.74  L  9963.16,   265.24  L  9974.50,   265.24  L  9968.83,   273.74  " style="stroke-width: 0.28 ;&st9;  " /><path d=" M  9968.83,   231.25  L  9968.83,   282.24  L  9971.66,   283.65  L  9966.00,   286.49  L  9971.66,   289.32  L  9966.00,   292.15  L  9971.66,   294.99  L  9966.00,   297.82  L  9968.83,   299.24  L  9968.83,   324.73  " style="stroke-width: 0.85 ;&st7;  " /><path d=" M  9934.84,   231.25  L  9934.84,   282.24  L  9937.67,   283.65  L  9932.00,   286.49  L  9937.67,   289.32  L  9932.00,   292.15  L  9937.67,   294.99  L  9932.00,   297.82  L  9934.84,   299.24  L  9934.84,   324.73  " style="stroke-width: 0.85 ;&st7;  " /><path d=" M  9934.84,   273.74  L  9929.17,   265.24  L  9940.50,   265.24  L  9934.84,   273.74  " style="stroke-width: 0.28 ;&st9;  " /><path d=" M  9947.57,   264.08  L  9945.24,   267.12  L  9943.77,   264.58  L  9947.57,   264.08  L  9946.29,   264.82  L  9945.30,   266.10  L  9944.68,   265.03  L  9946.29,   264.82  L  9945.65,   265.19  L  9945.33,   265.59  L  9945.14,   265.25  L  9945.65,   265.19  " style="stroke-width: 0.85 ;&st7;  " /><path d=" M  9949.57,   267.54  L  9947.24,   270.59  L  9945.77,   268.05  L  9949.57,   267.54  L  9948.29,   268.29  L  9947.31,   269.57  L  9946.69,   268.50  L  9948.29,   268.29  L  9947.65,   268.65  L  9947.34,   269.06  L  9947.14,   268.72  L  9947.65,   268.65  " style="stroke-width: 0.85 ;&st7;  " /><path d=" M  9933.64,   230.24  L  9933.37,   230.71  L  9933.28,   231.25  L  9933.37,   231.78  L  9933.64,   232.25  L  9934.06,   232.60  L  9934.57,   232.78  L  9935.10,   232.78  L  9935.61,   232.60  L  9936.03,   232.25  L  9936.30,   231.78  L  9936.39,   231.25  L  9936.30,   230.71  L  9936.03,   230.24  L  9935.61,   229.90  L  9935.10,   229.71  L  9934.57,   229.71  L  9934.06,   229.90  L  9933.64,   230.24  L  9934.04,   230.96  L  9934.04,   231.54  L  9934.41,   231.98  L  9934.98,   232.08  L  9935.49,   231.79  L  9935.69,   231.25  L  9935.49,   230.70  L  9934.98,   230.41  L  9934.41,   230.51  L  9934.84,   231.25  " style="stroke-width: 0.85 ;&st7;  " /><path d=" M  9822.94,   435.21  L  9825.77,   435.21  " style="stroke-width: 0.85 ;&st7;  " /><path d=" M  9821.52,   432.38  L  9827.19,   432.38  " style="stroke-width: 0.85 ;&st7;  " /><path d=" M  9820.11,   429.55  L  9828.60,   429.55  " style="stroke-width: 0.85 ;&st7;  " /><path d=" M  9815.86,   426.71  L  9832.85,   426.71  " style="stroke-width: 0.85 ;&st7;  " /><path d=" M  9824.35,   418.22  L  9824.35,   426.71  " style="stroke-width: 0.85 ;&st7;  " /><path d=" M  9764.86,   452.21  L  9764.86,   401.22  L  9815.86,   401.22  L  9815.86,   409.72  " style="stroke-width: 0.85 ;&st7;  " /><path d=" M  9807.36,   452.21  L  9807.36,   443.71  L  9804.52,   442.29  L  9810.19,   439.46  L  9804.52,   436.63  L  9810.19,   433.80  L  9804.52,   430.96  L  9810.19,   428.13  L  9807.36,   426.71  L  9807.36,   418.22  " style="stroke-width: 0.85 ;&st7;  " /><path d=" M  9824.35,   418.22  L  9821.17,   416.08  L  9823.61,   414.46  L  9824.35,   418.22  L  9823.53,   416.98  L  9822.19,   416.08  L  9823.22,   415.40  L  9823.53,   416.98  L  9823.12,   416.37  L  9822.70,   416.09  L  9823.02,   415.87  L  9823.12,   416.37  " style="stroke-width: 0.85 ;&st7;  " /><path d=" M  9824.35,   418.22  L  9818.69,   409.72  " style="stroke-width: 0.85 ;&st7;  " /><path d=" M  9769.11,   571.76  L  9764.86,   567.51  L  9760.62,   571.76  " style="stroke-width: 1.42 ;&st7;  " /><path d=" M  9769.11,   568.36  L  9764.86,   564.11  L  9760.62,   568.36  " style="stroke-width: 1.42 ;&st7;  " /><path d=" M  9684.42,   175.72  C  9684.42    173.22   9682.39    171.19   9679.88    171.19  " style="stroke-width: 1.42 ;&st7;   " /><path d=" M  9679.88,   171.19  C  9677.38    171.19   9675.35    173.22   9675.35    175.72  " style="stroke-width: 1.42 ;&st7;   " /><path d=" M  9675.35,   175.72  C  9675.35    178.23   9677.38    180.26   9679.88    180.26  " style="stroke-width: 1.42 ;&st7;   " /><path d=" M  9679.88,   180.26  C  9682.39    180.26   9684.42    178.23   9684.42    175.72  " style="stroke-width: 1.42 ;&st7;   " /><path d=" M  9760.90,   175.72  C  9760.90    173.22   9758.87    171.19   9756.37    171.19  " style="stroke-width: 1.42 ;&st7;   " /><path d=" M  9756.37,   171.19  C  9753.87    171.19   9751.84    173.22   9751.84    175.72  " style="stroke-width: 1.42 ;&st7;   " /><path d=" M  9751.84,   175.72  C  9751.84    178.23   9753.87    180.26   9756.37    180.26  " style="stroke-width: 1.42 ;&st7;   " /><path d=" M  9756.37,   180.26  C  9758.87    180.26   9760.90    178.23   9760.90    175.72  " style="stroke-width: 1.42 ;&st7;   " /><path d=" M  9667.42,   456.74  C  9667.42    454.24   9665.39    452.21   9662.89    452.21  " style="stroke-width: 1.42 ;&st7;   " /><path d=" M  9662.89,   452.21  C  9660.38    452.21   9658.35    454.24   9658.35    456.74  " style="stroke-width: 1.42 ;&st7;   " /><path d=" M  9658.35,   456.74  C  9658.35    459.25   9660.38    461.27   9662.89    461.27  " style="stroke-width: 1.42 ;&st7;   " /><path d=" M  9662.89,   461.27  C  9665.39    461.27   9667.42    459.25   9667.42    456.74  " style="stroke-width: 1.42 ;&st7;   " /><path d=" M  9701.41,   456.74  C  9701.41    454.24   9699.38    452.21   9696.88    452.21  " style="stroke-width: 1.42 ;&st7;   " /><path d=" M  9696.88,   452.21  C  9694.38    452.21   9692.35    454.24   9692.35    456.74  " style="stroke-width: 1.42 ;&st7;   " /><path d=" M  9692.35,   456.74  C  9692.35    459.25   9694.38    461.27   9696.88    461.27  " style="stroke-width: 1.42 ;&st7;   " /><path d=" M  9696.88,   461.27  C  9699.38    461.27   9701.41    459.25   9701.41    456.74  " style="stroke-width: 1.42 ;&st7;   " /><path d=" M  9756.37,    47.11  C  9753.63     48.72   9752.72     52.25   9754.33     54.99  " style="stroke-width: 1.42 ;&st7;   " /><path d=" M  9754.33,    54.99  C  9754.85     55.87   9755.49     56.51   9756.37     57.03  " style="stroke-width: 1.42 ;&st7;   " /><path d=" M  9756.37,    66.94  C  9759.11     65.33   9760.02     61.80   9758.41     59.06  " style="stroke-width: 1.42 ;&st7;   " /><path d=" M  9758.41,    59.06  C  9757.89     58.18   9757.25     57.55   9756.37     57.03  " style="stroke-width: 1.42 ;&st7;   " /><path d=" M  9757.79,    45.69  C  9757.79     44.91   9757.15     44.28   9756.37     44.28  " style="stroke-width: 0.85 ;&st7;   " /><path d=" M  9756.37,    44.28  C  9755.59     44.28   9754.95     44.91   9754.95     45.69  " style="stroke-width: 0.85 ;&st7;   " /><path d=" M  9754.95,    45.69  C  9754.95     46.48   9755.59     47.11   9756.37     47.11  " style="stroke-width: 0.85 ;&st7;   " /><path d=" M  9756.37,    47.11  C  9757.15     47.11   9757.79     46.48   9757.79     45.69  " style="stroke-width: 0.85 ;&st7;   " /><path d=" M  9757.79,    68.36  C  9757.79     67.57   9757.15     66.94   9756.37     66.94  " style="stroke-width: 0.85 ;&st7;   " /><path d=" M  9756.37,    66.94  C  9755.59     66.94   9754.95     67.57   9754.95     68.36  " style="stroke-width: 0.85 ;&st7;   " /><path d=" M  9754.95,    68.36  C  9754.95     69.14   9755.59     69.77   9756.37     69.77  " style="stroke-width: 0.85 ;&st7;   " /><path d=" M  9756.37,    69.77  C  9757.15     69.77   9757.79     69.14   9757.79     68.36  " style="stroke-width: 0.85 ;&st7;   " /><path d=" M  9754.25,    95.27  C  9751.90     95.27   9750.00     97.17   9750.00     99.52  " style="stroke-width: 1.42 ;&st7;   " /><path d=" M  9750.00,    99.52  C  9750.00    101.87   9751.90    103.77   9754.25    103.77  " style="stroke-width: 1.42 ;&st7;   " /><path d=" M  9758.49,   103.77  C  9760.84    103.77   9762.74    101.87   9762.74     99.52  " style="stroke-width: 1.42 ;&st7;   " /><path d=" M  9762.74,    99.52  C  9762.74     97.17   9760.84     95.27   9758.49     95.27  " style="stroke-width: 1.42 ;&st7;   " /><path d=" M  9679.88,    47.11  C  9677.14     48.72   9676.23     52.25   9677.85     54.99  " style="stroke-width: 1.42 ;&st7;   " /><path d=" M  9677.85,    54.99  C  9678.37     55.87   9679.00     56.51   9679.88     57.03  " style="stroke-width: 1.42 ;&st7;   " /><path d=" M  9679.88,    66.94  C  9682.62     65.33   9683.53     61.80   9681.92     59.06  " style="stroke-width: 1.42 ;&st7;   " /><path d=" M  9681.92,    59.06  C  9681.40     58.18   9680.76     57.55   9679.88     57.03  " style="stroke-width: 1.42 ;&st7;   " /><path d=" M  9681.30,    45.69  C  9681.30     44.91   9680.66     44.28   9679.88     44.28  " style="stroke-width: 0.85 ;&st7;   " /><path d=" M  9679.88,    44.28  C  9679.10     44.28   9678.47     44.91   9678.47     45.69  " style="stroke-width: 0.85 ;&st7;   " /><path d=" M  9678.47,    45.69  C  9678.47     46.48   9679.10     47.11   9679.88     47.11  " style="stroke-width: 0.85 ;&st7;   " /><path d=" M  9679.88,    47.11  C  9680.66     47.11   9681.30     46.48   9681.30     45.69  " style="stroke-width: 0.85 ;&st7;   " /><path d=" M  9681.30,    68.36  C  9681.30     67.57   9680.66     66.94   9679.88     66.94  " style="stroke-width: 0.85 ;&st7;   " /><path d=" M  9679.88,    66.94  C  9679.10     66.94   9678.47     67.57   9678.47     68.36  " style="stroke-width: 0.85 ;&st7;   " /><path d=" M  9678.47,    68.36  C  9678.47     69.14   9679.10     69.77   9679.88     69.77  " style="stroke-width: 0.85 ;&st7;   " /><path d=" M  9679.88,    69.77  C  9680.66     69.77   9681.30     69.14   9681.30     68.36  " style="stroke-width: 0.85 ;&st7;   " /><path d=" M  9677.76,    95.27  C  9675.41     95.27   9673.51     97.17   9673.51     99.52  " style="stroke-width: 1.42 ;&st7;   " /><path d=" M  9673.51,    99.52  C  9673.51    101.87   9675.41    103.77   9677.76    103.77  " style="stroke-width: 1.42 ;&st7;   " /><path d=" M  9682.01,   103.77  C  9684.35    103.77   9686.26    101.87   9686.26     99.52  " style="stroke-width: 1.42 ;&st7;   " /><path d=" M  9686.26,    99.52  C  9686.26     97.17   9684.35     95.27   9682.01     95.27  " style="stroke-width: 1.42 ;&st7;   " /><path d=" M  9811.89,   456.74  C  9811.89    454.24   9809.86    452.21   9807.36    452.21  " style="stroke-width: 1.42 ;&st7;   " /><path d=" M  9807.36,   452.21  C  9804.86    452.21   9802.83    454.24   9802.83    456.74  " style="stroke-width: 1.42 ;&st7;   " /><path d=" M  9802.83,   456.74  C  9802.83    459.25   9804.86    461.27   9807.36    461.27  " style="stroke-width: 1.42 ;&st7;   " /><path d=" M  9807.36,   461.27  C  9809.86    461.27   9811.89    459.25   9811.89    456.74  " style="stroke-width: 1.42 ;&st7;   " /><path d=" M  9769.40,   456.74  C  9769.40    454.24   9767.37    452.21   9764.87    452.21  " style="stroke-width: 1.42 ;&st7;   " /><path d=" M  9764.87,   452.21  C  9762.37    452.21   9760.34    454.24   9760.34    456.74  " style="stroke-width: 1.42 ;&st7;   " /><path d=" M  9760.34,   456.74  C  9760.34    459.25   9762.37    461.27   9764.87    461.27  " style="stroke-width: 1.42 ;&st7;   " /><path d=" M  9764.87,   461.27  C  9767.37    461.27   9769.40    459.25   9769.40    456.74  " style="stroke-width: 1.42 ;&st7;   " /><text style="&st18;" transform="matrix(&st16;  9741.74  101.49 )">49</text><text style="&st18;" transform="matrix(&st17;  9676.19  160.78 )">V</text><text style="&st18;" transform="matrix(&st16;  9632.73  233.22 )">IG+</text><text style="&st18;" transform="matrix(&st16;  9635.05  216.22 )">+B</text><text style="&st18;" transform="matrix(&st16;  9752.98  332.37 )">IG</text><text ewd:textID="20" style="&st18;" transform="matrix(&st16;  9670.4  296.96 )">Buzzer</text><text style="&st18;" transform="matrix(&st16;  9663.13  143.98 )">46</text><text style="&st18;" transform="matrix(&st17;  9676.19  118.28 )">V</text><text style="&st18;" transform="matrix(&st16;  9671.8  32.08 )">(BAT)</text><text style="&st18;" transform="matrix(&st16;  9673.54  86.47 )">2</text><text style="&st18;" transform="matrix(&st16;  9678.0  101.49 )">1</text><text style="&st18;" transform="matrix(&st16;  9696.31  53.34 )">10A <tspan dy="6.0" x="0 ">MPX-B </tspan><tspan dy="6.0" x="0 ">NO.2</tspan></text><text style="&st18;" transform="matrix(&st17;  9752.67  120.3 )">BE</text><text style="&st18;" transform="matrix(&st16;  9751.0  32.08 )">(IG)</text><text style="&st18;" transform="matrix(&st16;  9753.64  101.49 )">2I</text><text style="&st18;" transform="matrix(&st16;  9772.79  56.17 )">5A <tspan dy="6.0" x="0 ">METER</tspan></text><text style="&st18;" transform="matrix(&st16;  9758.95  188.45 )">IG+</text><text style="&st18;" transform="matrix(&st16;  9682.47  188.45 )">B</text><text style="&st18;" transform="matrix(&st16;  9699.46  448.52 )">CANH</text><text style="&st18;" transform="matrix(&st16;  9665.47  448.52 )">CANL</text><text style="&st18;" transform="matrix(&st16;  9694.61  458.71 )">A</text><text style="&st18;" transform="matrix(&st16;  9684.06  458.71 )">39</text><text style="&st18;" transform="matrix(&st16;  9660.62  458.71 )">A</text><text style="&st18;" transform="matrix(&st16;  9650.07  458.71 )">40</text><text style="&st18;" transform="matrix(&st16;  9602.61  391.86 )">CAN <tspan dy="6.0" x="0 ">INPUT</tspan></text><text style="&st18;" transform="matrix(&st16;  9754.1  177.69 )">A</text><text style="&st18;" transform="matrix(&st16;  9743.55  177.69 )">22</text><text style="&st18;" transform="matrix(&st16;  9677.62  177.69 )">A</text><text style="&st18;" transform="matrix(&st16;  9667.07  177.69 )">21</text><text ewd:textID="83" style="&st18;" transform="matrix(&st16;  9606.78  219.07 )">Power <tspan dy="6.0" x="0 ">Supply </tspan><tspan dy="6.0" x="0 ">Circuit</tspan></text><text style="&st18;" transform="matrix(&st16;  9606.14  296.96 )">TFT</text><text ewd:textID="64" style="&st18;" transform="matrix(&st17;  9884.4  275.99 )">Glow</text><text ewd:textID="71" style="&st18;" transform="matrix(&st17;  9558.62  166.16 )">Junction <tspan dy="6.0" x="0 ">Connector</tspan></text><text style="&st18;" transform="matrix(&st17;  9551.8  166.16 )">E133</text><text style="&st18;" transform="matrix(&st17;  9509.05  255.98 )">(LHD)</text><text style="&st18;" transform="matrix(&st17;  9531.71  250.94 )">W</text><text style="&st18;" transform="matrix(&st17;  9543.04  255.98 )">(LHD)</text><text style="&st18;" transform="matrix(&st16;  9525.73  171.45 )">17</text><text style="&st18;" transform="matrix(&st16;  9755.39  458.71 )">5</text><text style="&st18;" transform="matrix(&st16;  9767.45  448.52 )">SI</text><text style="&st18;" transform="matrix(&st16;  9809.94  448.52 )">+S</text><text style="&st18;" transform="matrix(&st16;  9762.6  458.71 )">A</text><text style="&st18;" transform="matrix(&st16;  9805.1  458.71 )">A</text><text style="&st18;" transform="matrix(&st16;  9797.88  458.71 )">6</text><text style="&st18;" transform="matrix(&st17;  9761.17  505.9 )">W</text><text style="&st18;" transform="matrix(&st16;  9748.12  560.41 )">23</text><text style="&st18;" transform="matrix(&st16;  9751.45  551.91 )">3</text><text style="&st18;" transform="matrix(&st16;  9773.9  551.91 )">(LHD)</text><text style="&st18;" transform="matrix(&st16;  9773.9  560.41 )">(RHD)</text><text style="&st18;" transform="matrix(&st17;  9994.88  277.03 )">R (*5)</text><text ewd:textID="80" style="&st18;" transform="matrix(&st17;  9967.98  358.37 )">One Step <tspan dy="6.0" x="0 ">Dim</tspan></text><text style="&st18;" transform="matrix(&st17;  9960.89  276.88 )">P (*5)</text><text style="&st18;" transform="matrix(&st17;  9926.9  280.87 )">DPF (*4)</text><text ewd:textID="2" style="&st18;" transform="matrix(&st16;  9931.43  71.74 )">* 4 :Option Meter</text><text style="&st18;" transform="matrix(&st17;  9803.67  504.58 )">L</text><text ewd:textID="25" style="&st18;" transform="matrix(&st17;  9565.71  455.12 )">Combination Meter Assembly</text><text style="&st18;" transform="matrix(&st17;  9558.88  455.11 )">E119(A)</text><text style="&st18;" transform="matrix(&st16;  9605.44  332.37 )">SUB</text><text ewd:textID="8" style="&st18;" transform="matrix(&st16;  9931.43  88.74 )">*11 :w/ Entry &amp; Start System</text><text ewd:textID="3" style="&st18;" transform="matrix(&st16;  9931.43  80.24 )">* 5 :Except 1VD-FTV w/ DPF</text></svg>