﻿<?xml version="1.0" encoding="utf-8"?>
<!DOCTYPE svg PUBLIC "-//W3C//DTD SVG 1.0//EN" "http://www.w3.org/TR/2001/REC-SVG-20010904/DTD/svg10.dtd"[
	<!ENTITY ns_flows "http://ns.adobe.com/Flows/1.0/">
	<!ENTITY ns_svg "http://www.w3.org/2000/svg">
	<!ENTITY ns_xlink "http://www.w3.org/1999/xlink">
	<!ENTITY st0 "font-size:7px;font-family:'MS-PGothic';adobe-font-script:japanese;">
	<!ENTITY st1 "font-size:6px;font-family:'ArialMT';">
	<!-- White fill  -->
	<!ENTITY st2 "fill:#FFFFFF;stroke:#000000; stroke-width:1.41;stroke-linecap:round;stroke-linejoin:round;">
	<!-- Yellow fill  -->
	<!ENTITY st3 "fill:#FFFFCC;stroke:#FFFFCC; stroke-width:0.1;stroke-linecap:round;stroke-linejoin:round;">
	<!-- Gray fill  -->
	<!ENTITY st4 "fill:#CCCCCC;stroke:#CCCCCC; stroke-width:0.1;stroke-linecap:round;stroke-linejoin:round;">
	<!-- Light-blue fill -->
	<!ENTITY st5 "fill:#CCECF4;stroke:#000000; stroke-width:1.133;stroke-linecap:round;stroke-linejoin:round;">
	<!ENTITY st6 "fill:none;stroke-linecap:butt; stroke-linejoin:round;">
	<!ENTITY st7 "fill:none;stroke:#000000;stroke-linecap:round;stroke-linejoin:round;">
	<!ENTITY st8 "enable-background:new    ;">
	<!-- Black fill -->
	<!ENTITY st9 "fill:#000000;stroke:#000000; stroke-linecap:round;stroke-linejoin:round;">
	<!-- SRS note   -->
	<!ENTITY st10 "font-size:9px;font-family:'ArialMT';">
	<!ENTITY st11 "font-size:9px;font-family:'Svg Symbol';">
	<!ENTITY st12 "font-size:6px;font-family:'Svg Symbol';">
	<!ENTITY st13 "fill:none;stroke:#ff0000;stroke-linecap:round;stroke-linejoin:round;">
	<!-- Yellow fill  -->
	<!ENTITY st14 "fill:#FFFF00;stroke:#FFFF00; stroke-width:0.1;stroke-linecap:round;stroke-linejoin:round;">
	<!ENTITY st15 "font-size:6px;font-family:'MS-PGothic';adobe-font-script:japanese;">
	<!ENTITY st16 "1.00 0.00 0.00 1.00">
	<!ENTITY st17 "0.00 -1.00 1.00 0.00">
	<!ENTITY st18 "font-size:6px;font-family:'Arial';">
	<!ENTITY st19 "font-size:9px;font-family:'Arial';">
	<!ENTITY st20 "font-size:6px;font-family:'MS-PGothic','MS PGothic';adobe-font-script:japanese;">
	<!ENTITY st21 "font-size:7px;font-family:'MS-PGothic','MS PGothic';adobe-font-script:japanese;">
	<!ATTLIST svg
		xmlns:ewd CDATA #FIXED "http://shcl.co.jp/ewd"
		xmlns:a CDATA #FIXED "http://ns.adobe.com/AdobeSVGViewerExtensions/3.0/"
		ewd:ver CDATA #IMPLIED
	>
	<!ATTLIST a
		ewd:lineID CDATA #IMPLIED
		ewd:groupID CDATA #IMPLIED
		ewd:figtype CDATA #IMPLIED
		ewd:code CDATA #IMPLIED
		ewd:figID CDATA #IMPLIED
		ewd:pinNo CDATA #IMPLIED
		ewd:comment CDATA #IMPLIED >
	<!ATTLIST g
		ewd:lineID CDATA #IMPLIED
		ewd:groupID CDATA #IMPLIED
		ewd:figtype CDATA #IMPLIED
		ewd:code CDATA #IMPLIED
		ewd:figID CDATA #IMPLIED
		ewd:pinNo CDATA #IMPLIED
		ewd:comment CDATA #IMPLIED >
	<!ATTLIST text
		ewd:textID CDATA #IMPLIED >
	<!ATTLIST title
		ewd:textID CDATA #IMPLIED >
]>
<!-- Generator: Shintec Hozumi YS   -->
<svg onload="call_execInitLoadProc_svg('system')" style="overflow:visible;  enable-background:new 0 0 10342.050 710.000" viewBox="0 0 10342.050 710.000" height="710.000" width="10342.050" xml:space="preserve" ewd:ver="L2.3.0.14" xmlns="&ns_svg;" xmlns:a="http://ns.adobe.com/AdobeSVGViewerExtensions/3.0/" xmlns:ewd="http://shcl.co.jp/ewd" xmlns:xlink="&ns_xlink;">
<path d=" M  9033.99,   435.21  L  9028.93,   446.58  " style="stroke-width: 1.42 ;&st7;  " /><path d=" M  9084.98,   435.21  L  9090.04,   446.58  " style="stroke-width: 1.42 ;&st7;  " /><path d=" M  9084.98,   435.21  L  9079.92,   446.58  " style="stroke-width: 1.42 ;&st7;  " /><path d=" M  9135.97,   435.21  L  9141.03,   446.58  " style="stroke-width: 1.42 ;&st7;  " /><path d=" M  9135.97,   435.21  L  9130.91,   446.58  " style="stroke-width: 1.42 ;&st7;  " /><path d=" M  9033.99,   435.21  L  9039.05,   446.58  " style="stroke-width: 1.42 ;&st7;  " /><path d=" M  9110.48,   452.21  L  9115.54,   440.85  " style="stroke-width: 1.42 ;&st7;  " /><path d=" M  9110.48,   452.21  L  9105.42,   440.85  " style="stroke-width: 1.42 ;&st7;  " /><path d=" M  9254.95,   443.71  L  9246.46,   443.71  " style="stroke-width: 1.42 ;&st7;  " /><path d=" M  9059.49,   452.21  L  9064.55,   440.85  " style="stroke-width: 1.42 ;&st7;  " /><path d=" M  9059.49,   452.21  L  9054.43,   440.85  " style="stroke-width: 1.42 ;&st7;  " /><path d=" M  9008.49,   452.21  L  9013.55,   440.85  " style="stroke-width: 1.42 ;&st7;  " /><path d=" M  9008.49,   452.21  L  9003.44,   440.85  " style="stroke-width: 1.42 ;&st7;  " /><path d=" M  9220.96,   443.71  L  9212.46,   443.71  " style="stroke-width: 1.42 ;&st7;  " /><path d=" M  9127.47,   316.23  L  9135.97,   316.23  " style="stroke-width: 1.42 ;&st7;  " /><path d=" M  9161.47,   316.23  L  9169.97,   316.23  " style="stroke-width: 1.42 ;&st7;  " /><path d=" M  9178.47,   273.74  L  9169.97,   273.74  " style="stroke-width: 1.42 ;&st7;  " /><path d=" M  9144.47,   273.74  L  9135.97,   273.74  " style="stroke-width: 1.42 ;&st7;  " /><path d=" M  9135.97,   112.27  L  9135.97,   129.26  " style="stroke-width: 0.85 ;&st7;  " /><path d=" M  9169.96,   146.26  L  9169.96,   112.27  " style="stroke-width: 0.85 ;&st7;  " /><path d=" M  9134.78,   128.26  L  9134.51,   128.73  L  9134.41,   129.26  L  9134.51,   129.80  L  9134.78,   130.27  L  9135.19,   130.61  L  9135.70,   130.80  L  9136.24,   130.80  L  9136.75,   130.61  L  9137.16,   130.27  L  9137.43,   129.80  L  9137.53,   129.26  L  9137.43,   128.73  L  9137.16,   128.26  L  9136.75,   127.92  L  9136.24,   127.73  L  9135.70,   127.73  L  9135.19,   127.92  L  9134.78,   128.26  L  9135.17,   128.97  L  9135.17,   129.56  L  9135.54,   130.00  L  9136.12,   130.10  L  9136.62,   129.81  L  9136.82,   129.26  L  9136.62,   128.72  L  9136.12,   128.43  L  9135.54,   128.53  L  9135.97,   129.26  " style="stroke-width: 0.85 ;&st7;  " /><path d=" M  9365.43,   299.24  L  9365.43,   324.73  L  9475.91,   324.73  L  9475.91,   299.24  L  9365.43,   299.24  " style="stroke-width: 1.42 ;&st7;  " /><path d=" M  9433.42,   299.24  L  9433.42,   324.73  " style="stroke-width: 0.85 ;&st7;  " /><path d=" M  9467.41,   299.24  L  9467.41,   324.73  " style="stroke-width: 0.85 ;&st7;  " /><path d=" M  9127.47,   112.27  L  9127.47,   163.26  L  9543.90,   163.26  L  9543.90,   112.27  L  9127.47,   112.27  " style="stroke-width: 1.42 ;&st7;  " /><path d=" M  9433.42,   146.26  L  9433.42,   163.26  " style="stroke-width: 0.85 ;&st7;  " /><path d=" M  9467.41,   129.26  L  9467.41,   163.26  " style="stroke-width: 0.85 ;&st7;  " /><path d=" M  9433.42,   146.26  L  9501.41,   146.26  L  9501.41,   163.26  " style="stroke-width: 0.85 ;&st7;  " /><path d=" M  9467.41,   129.26  L  9535.40,   129.26  L  9535.40,   163.26  " style="stroke-width: 0.85 ;&st7;  " /><path d=" M  9169.96,   163.26  L  9169.96,   146.26  L  9433.42,   146.26  " style="stroke-width: 0.85 ;&st7;  " /><path d=" M  9432.23,   145.26  L  9431.96,   145.73  L  9431.86,   146.26  L  9431.96,   146.79  L  9432.23,   147.26  L  9432.64,   147.61  L  9433.15,   147.80  L  9433.69,   147.80  L  9434.20,   147.61  L  9434.61,   147.26  L  9434.88,   146.79  L  9434.98,   146.26  L  9434.88,   145.73  L  9434.61,   145.26  L  9434.20,   144.91  L  9433.69,   144.73  L  9433.15,   144.73  L  9432.64,   144.91  L  9432.23,   145.26  L  9432.62,   145.97  L  9432.62,   146.55  L  9432.99,   147.00  L  9433.57,   147.10  L  9434.07,   146.81  L  9434.27,   146.26  L  9434.07,   145.71  L  9433.57,   145.43  L  9432.99,   145.52  L  9433.42,   146.26  " style="stroke-width: 0.85 ;&st7;  " /><path d=" M  9466.22,   128.26  L  9465.95,   128.73  L  9465.86,   129.26  L  9465.95,   129.80  L  9466.22,   130.27  L  9466.64,   130.61  L  9467.15,   130.80  L  9467.68,   130.80  L  9468.19,   130.61  L  9468.61,   130.27  L  9468.88,   129.80  L  9468.97,   129.26  L  9468.88,   128.73  L  9468.61,   128.26  L  9468.19,   127.92  L  9467.68,   127.73  L  9467.15,   127.73  L  9466.64,   127.92  L  9466.22,   128.26  L  9466.62,   128.97  L  9466.62,   129.56  L  9466.99,   130.00  L  9467.56,   130.10  L  9468.07,   129.81  L  9468.26,   129.26  L  9468.07,   128.72  L  9467.56,   128.43  L  9466.99,   128.53  L  9467.41,   129.26  " style="stroke-width: 0.85 ;&st7;  " /><path d=" M  9250.70,   449.38  L  9246.45,   445.13  L  9242.20,   449.38  " style="stroke-width: 1.42 ;&st7;  " /><path d=" M  9250.70,   452.78  L  9246.45,   448.53  L  9242.20,   452.78  " style="stroke-width: 1.42 ;&st7;  " /><path d=" M  9216.71,   449.38  L  9212.46,   445.13  L  9208.21,   449.38  " style="stroke-width: 1.42 ;&st7;  " /><path d=" M  9216.71,   452.78  L  9212.46,   448.53  L  9208.21,   452.78  " style="stroke-width: 1.42 ;&st7;  " /><path d=" M  9135.97,   163.26  L  9135.97,   129.26  L  9467.41,   129.26  " style="stroke-width: 0.85 ;&st7;  " /><path d=" M  9131.72,   307.17  L  9135.97,   311.42  L  9140.22,   307.17  " style="stroke-width: 1.42 ;&st7;  " /><path d=" M  9140.22,   310.57  L  9135.97,   314.82  L  9131.72,   310.57  " style="stroke-width: 1.42 ;&st7;  " /><path d=" M  9165.71,   307.17  L  9169.96,   311.42  L  9174.21,   307.17  " style="stroke-width: 1.42 ;&st7;  " /><path d=" M  9174.21,   310.57  L  9169.96,   314.82  L  9165.71,   310.57  " style="stroke-width: 1.42 ;&st7;  " /><path d=" M  9174.21,   279.41  L  9169.96,   275.16  L  9165.71,   279.41  " style="stroke-width: 1.42 ;&st7;  " /><path d=" M  9174.21,   282.80  L  9169.96,   278.56  L  9165.71,   282.80  " style="stroke-width: 1.42 ;&st7;  " /><path d=" M  9140.22,   279.41  L  9135.97,   275.16  L  9131.72,   279.41  " style="stroke-width: 1.42 ;&st7;  " /><path d=" M  9140.22,   282.80  L  9135.97,   278.56  L  9131.72,   282.80  " style="stroke-width: 1.42 ;&st7;  " /><path d=" M  9168.77,   145.26  L  9168.50,   145.73  L  9168.41,   146.26  L  9168.50,   146.79  L  9168.77,   147.26  L  9169.18,   147.61  L  9169.69,   147.80  L  9170.23,   147.80  L  9170.74,   147.61  L  9171.16,   147.26  L  9171.43,   146.79  L  9171.52,   146.26  L  9171.43,   145.73  L  9171.16,   145.26  L  9170.74,   144.91  L  9170.23,   144.73  L  9169.69,   144.73  L  9169.18,   144.91  L  9168.77,   145.26  L  9169.17,   145.97  L  9169.17,   146.55  L  9169.54,   147.00  L  9170.11,   147.10  L  9170.62,   146.81  L  9170.81,   146.26  L  9170.62,   145.71  L  9170.11,   145.43  L  9169.54,   145.52  L  9169.96,   146.26  " style="stroke-width: 0.85 ;&st7;  " /><path d=" M  9399.43,   299.24  L  9399.43,   307.73  L  9433.42,   307.73  " style="stroke-width: 0.85 ;&st7;  " /><path d=" M  9373.93,   299.24  L  9373.93,   316.23  L  9467.41,   316.23  " style="stroke-width: 0.85 ;&st7;  " /><path d=" M  9432.23,   306.73  L  9431.96,   307.20  L  9431.86,   307.73  L  9431.96,   308.27  L  9432.23,   308.74  L  9432.64,   309.08  L  9433.15,   309.27  L  9433.69,   309.27  L  9434.20,   309.08  L  9434.61,   308.74  L  9434.88,   308.27  L  9434.98,   307.73  L  9434.88,   307.20  L  9434.61,   306.73  L  9434.20,   306.39  L  9433.69,   306.20  L  9433.15,   306.20  L  9432.64,   306.39  L  9432.23,   306.73  L  9432.62,   307.44  L  9432.62,   308.03  L  9432.99,   308.47  L  9433.57,   308.57  L  9434.07,   308.28  L  9434.27,   307.73  L  9434.07,   307.19  L  9433.57,   306.90  L  9432.99,   307.00  L  9433.42,   307.73  " style="stroke-width: 0.85 ;&st7;  " /><path d=" M  9466.22,   315.23  L  9465.95,   315.70  L  9465.86,   316.23  L  9465.95,   316.77  L  9466.22,   317.24  L  9466.64,   317.58  L  9467.15,   317.77  L  9467.68,   317.77  L  9468.19,   317.58  L  9468.61,   317.24  L  9468.88,   316.77  L  9468.97,   316.23  L  9468.88,   315.70  L  9468.61,   315.23  L  9468.19,   314.88  L  9467.68,   314.70  L  9467.15,   314.70  L  9466.64,   314.88  L  9466.22,   315.23  L  9466.62,   315.94  L  9466.62,   316.52  L  9466.99,   316.97  L  9467.56,   317.07  L  9468.07,   316.78  L  9468.26,   316.23  L  9468.07,   315.69  L  9467.56,   315.40  L  9466.99,   315.50  L  9467.41,   316.23  " style="stroke-width: 0.85 ;&st7;  " /><path d=" M  9013.03,   405.75  C  9013.03    403.25   9011.00    401.22   9008.49    401.22  " style="stroke-width: 1.42 ;&st7;   " /><path d=" M  9008.49,   401.22  C  9005.99    401.22   9003.96    403.25   9003.96    405.75  " style="stroke-width: 1.42 ;&st7;   " /><path d=" M  9003.96,   405.75  C  9003.96    408.25   9005.99    410.28   9008.49    410.28  " style="stroke-width: 1.42 ;&st7;   " /><path d=" M  9008.49,   410.28  C  9011.00    410.28   9013.03    408.25   9013.03    405.75  " style="stroke-width: 1.42 ;&st7;   " /><path d=" M  9038.52,   405.75  C  9038.52    403.25   9036.49    401.22   9033.99    401.22  " style="stroke-width: 1.42 ;&st7;   " /><path d=" M  9033.99,   401.22  C  9031.49    401.22   9029.46    403.25   9029.46    405.75  " style="stroke-width: 1.42 ;&st7;   " /><path d=" M  9029.46,   405.75  C  9029.46    408.25   9031.49    410.28   9033.99    410.28  " style="stroke-width: 1.42 ;&st7;   " /><path d=" M  9033.99,   410.28  C  9036.49    410.28   9038.52    408.25   9038.52    405.75  " style="stroke-width: 1.42 ;&st7;   " /><path d=" M  9064.02,   405.75  C  9064.02    403.25   9061.99    401.22   9059.49    401.22  " style="stroke-width: 1.42 ;&st7;   " /><path d=" M  9059.49,   401.22  C  9056.98    401.22   9054.95    403.25   9054.95    405.75  " style="stroke-width: 1.42 ;&st7;   " /><path d=" M  9054.95,   405.75  C  9054.95    408.25   9056.98    410.28   9059.49    410.28  " style="stroke-width: 1.42 ;&st7;   " /><path d=" M  9059.49,   410.28  C  9061.99    410.28   9064.02    408.25   9064.02    405.75  " style="stroke-width: 1.42 ;&st7;   " /><path d=" M  9089.51,   405.75  C  9089.51    403.25   9087.49    401.22   9084.98    401.22  " style="stroke-width: 1.42 ;&st7;   " /><path d=" M  9084.98,   401.22  C  9082.48    401.22   9080.45    403.25   9080.45    405.75  " style="stroke-width: 1.42 ;&st7;   " /><path d=" M  9080.45,   405.75  C  9080.45    408.25   9082.48    410.28   9084.98    410.28  " style="stroke-width: 1.42 ;&st7;   " /><path d=" M  9084.98,   410.28  C  9087.49    410.28   9089.51    408.25   9089.51    405.75  " style="stroke-width: 1.42 ;&st7;   " /><path d=" M  9115.01,   405.75  C  9115.01    403.25   9112.98    401.22   9110.48    401.22  " style="stroke-width: 1.42 ;&st7;   " /><path d=" M  9110.48,   401.22  C  9107.97    401.22   9105.95    403.25   9105.95    405.75  " style="stroke-width: 1.42 ;&st7;   " /><path d=" M  9105.95,   405.75  C  9105.95    408.25   9107.97    410.28   9110.48    410.28  " style="stroke-width: 1.42 ;&st7;   " /><path d=" M  9110.48,   410.28  C  9112.98    410.28   9115.01    408.25   9115.01    405.75  " style="stroke-width: 1.42 ;&st7;   " /><path d=" M  9140.51,   405.75  C  9140.51    403.25   9138.48    401.22   9135.97    401.22  " style="stroke-width: 1.42 ;&st7;   " /><path d=" M  9135.97,   401.22  C  9133.47    401.22   9131.44    403.25   9131.44    405.75  " style="stroke-width: 1.42 ;&st7;   " /><path d=" M  9131.44,   405.75  C  9131.44    408.25   9133.47    410.28   9135.97    410.28  " style="stroke-width: 1.42 ;&st7;   " /><path d=" M  9135.97,   410.28  C  9138.48    410.28   9140.51    408.25   9140.51    405.75  " style="stroke-width: 1.42 ;&st7;   " /><path d=" M  9174.50,   405.75  C  9174.50    403.25   9172.47    401.22   9169.97    401.22  " style="stroke-width: 1.42 ;&st7;   " /><path d=" M  9169.97,   401.22  C  9167.46    401.22   9165.44    403.25   9165.44    405.75  " style="stroke-width: 1.42 ;&st7;   " /><path d=" M  9165.44,   405.75  C  9165.44    408.25   9167.46    410.28   9169.97    410.28  " style="stroke-width: 1.42 ;&st7;   " /><path d=" M  9169.97,   410.28  C  9172.47    410.28   9174.50    408.25   9174.50    405.75  " style="stroke-width: 1.42 ;&st7;   " /><path d=" M  9174.50,   362.69  C  9174.50    360.19   9172.47    358.16   9169.97    358.16  " style="stroke-width: 1.42 ;&st7;   " /><path d=" M  9169.97,   358.16  C  9167.46    358.16   9165.44    360.19   9165.44    362.69  " style="stroke-width: 1.42 ;&st7;   " /><path d=" M  9165.44,   362.69  C  9165.44    365.19   9167.46    367.22   9169.97    367.22  " style="stroke-width: 1.42 ;&st7;   " /><path d=" M  9169.97,   367.22  C  9172.47    367.22   9174.50    365.19   9174.50    362.69  " style="stroke-width: 1.42 ;&st7;   " /><path d=" M  9140.51,   362.69  C  9140.51    360.19   9138.48    358.16   9135.97    358.16  " style="stroke-width: 1.42 ;&st7;   " /><path d=" M  9135.97,   358.16  C  9133.47    358.16   9131.44    360.19   9131.44    362.69  " style="stroke-width: 1.42 ;&st7;   " /><path d=" M  9131.44,   362.69  C  9131.44    365.19   9133.47    367.22   9135.97    367.22  " style="stroke-width: 1.42 ;&st7;   " /><path d=" M  9135.97,   367.22  C  9138.48    367.22   9140.51    365.19   9140.51    362.69  " style="stroke-width: 1.42 ;&st7;   " /><text ewd:textID="71" style="&st18;" transform="matrix(&st17;  9490.63  327.64 )">Junction Connector</text><text style="&st18;" transform="matrix(&st17;  9483.81  327.63 )">E135</text><text style="&st18;" transform="matrix(&st16;  9457.74  295.55 )">11</text><text style="&st18;" transform="matrix(&st16;  9427.08  295.55 )">1</text><text style="&st18;" transform="matrix(&st16;  9427.08  332.92 )">7</text><text style="&st18;" transform="matrix(&st16;  9457.74  332.92 )">17</text><text style="&st18;" transform="matrix(&st17;  9429.73  277.52 )">SB</text><text style="&st18;" transform="matrix(&st17;  9463.72  276.44 )">W</text><text style="&st18;" transform="matrix(&st17;  9497.72  252.03 )">BE</text><text style="&st18;" transform="matrix(&st16;  9427.08  171.45 )">1</text><text style="&st18;" transform="matrix(&st16;  9457.74  171.45 )">11</text><text style="&st18;" transform="matrix(&st16;  9495.07  171.45 )">7</text><text style="&st18;" transform="matrix(&st16;  9255.49  441.43 )">(RHD)</text><text style="&st18;" transform="matrix(&st16;  9255.49  432.93 )">(LHD)</text><text style="&st18;" transform="matrix(&st16;  9229.7  432.93 )">11</text><text style="&st18;" transform="matrix(&st16;  9229.7  441.43 )">11</text><text style="&st18;" transform="matrix(&st16;  9195.71  432.93 )">10</text><text style="&st18;" transform="matrix(&st16;  9195.71  441.43 )">10</text><text style="&st18;" transform="matrix(&st17;  9208.76  470.97 )">V</text><text style="&st18;" transform="matrix(&st17;  9242.76  471.9 )">W</text><text style="&st18;" transform="matrix(&st17;  9208.77  394.48 )">V(RHD)</text><text style="&st18;" transform="matrix(&st17;  9242.76  395.41 )">W(RHD)</text><text style="&st18;" transform="matrix(&st16;  9002.55  397.52 )">FR+</text><text style="&st18;" transform="matrix(&st17;  9004.8  424.23 )">B</text><text style="&st18;" transform="matrix(&st16;  9028.78  397.52 )">FR-</text><text style="&st18;" transform="matrix(&st17;  9030.29  423.84 )">L</text><text style="&st18;" transform="matrix(&st16;  9053.69  397.52 )">RL+</text><text style="&st18;" transform="matrix(&st17;  9055.79  424.23 )">B</text><text style="&st18;" transform="matrix(&st16;  9079.92  397.52 )">RL-</text><text style="&st18;" transform="matrix(&st17;  9081.29  425.16 )">W</text><text style="&st18;" transform="matrix(&st16;  9104.14  397.52 )">RR+</text><text style="&st18;" transform="matrix(&st17;  9106.78  424.39 )">R</text><text style="&st18;" transform="matrix(&st16;  9130.41  397.52 )">RR-</text><text style="&st18;" transform="matrix(&st17;  9132.28  424.54 )">G</text><text style="&st18;" transform="matrix(&st16;  9006.23  407.72 )">A</text><text style="&st18;" transform="matrix(&st16;  9021.18  407.72 )">17</text><text style="&st18;" transform="matrix(&st16;  9031.72  407.72 )">A</text><text style="&st18;" transform="matrix(&st16;  9046.67  407.72 )">20</text><text style="&st18;" transform="matrix(&st16;  9057.22  407.72 )">A</text><text style="&st18;" transform="matrix(&st16;  9075.5  407.72 )">6</text><text style="&st18;" transform="matrix(&st16;  9082.72  407.72 )">A</text><text style="&st18;" transform="matrix(&st16;  9101.0  407.72 )">5</text><text style="&st18;" transform="matrix(&st16;  9108.21  407.72 )">A</text><text style="&st18;" transform="matrix(&st16;  9123.16  407.72 )">19</text><text style="&st18;" transform="matrix(&st16;  9133.71  407.72 )">A</text><text style="&st18;" transform="matrix(&st16;  9164.06  397.52 )">SP1</text><text style="&st18;" transform="matrix(&st16;  9157.15  407.72 )">12</text><text style="&st18;" transform="matrix(&st16;  9167.7  407.72 )">A</text><text style="&st18;" transform="matrix(&st16;  9163.63  171.45 )">3</text><text style="&st18;" transform="matrix(&st16;  9126.3  171.45 )">13</text><text style="&st18;" transform="matrix(&st16;  9122.56  322.45 )">3</text><text style="&st18;" transform="matrix(&st16;  9156.55  322.45 )">4</text><text style="&st18;" transform="matrix(&st16;  9157.15  364.66 )">11</text><text style="&st18;" transform="matrix(&st16;  9167.7  364.66 )">A</text><text style="&st18;" transform="matrix(&st16;  9346.18  185.06 )">V(RHD)</text><text style="&st18;" transform="matrix(&st16;  9295.19  185.06 )">V(RHD)</text><text style="&st18;" transform="matrix(&st16;  9345.25  202.05 )">W(RHD)</text><text style="&st18;" transform="matrix(&st16;  9294.26  202.05 )">W(RHD)</text><text style="&st18;" transform="matrix(&st16;  9340.83  219.05 )">B(RHD *11)</text><text style="&st18;" transform="matrix(&st16;  9289.84  219.05 )">B(RHD *11)</text><text style="&st18;" transform="matrix(&st16;  9339.9  236.05 )">W(RHD *11)</text><text style="&st18;" transform="matrix(&st16;  9288.91  236.05 )">W(RHD *11)</text><text style="&st18;" transform="matrix(&st16;  9346.68  346.53 )">V(LHD)</text><text style="&st18;" transform="matrix(&st16;  9295.69  346.53 )">V(LHD)</text><text style="&st18;" transform="matrix(&st16;  9345.75  363.53 )">W(LHD)</text><text style="&st18;" transform="matrix(&st16;  9294.76  363.53 )">W(LHD)</text><text style="&st18;" transform="matrix(&st16;  9354.67  592.99 )">V</text><text style="&st18;" transform="matrix(&st16;  9303.68  592.99 )">V</text><text style="&st18;" transform="matrix(&st16;  9355.06  609.99 )">L</text><text style="&st18;" transform="matrix(&st16;  9304.07  609.99 )">L</text><text style="&st18;" transform="matrix(&st17;  9166.27  428.48 )">V</text><text ewd:textID="71" style="&st18;" transform="matrix(&st16;  9217.55  108.57 )">Junction Connector</text><text style="&st18;" transform="matrix(&st16;  9217.55  101.75 )">E133</text><text style="&st18;" transform="matrix(&st16;  9123.16  364.66 )">25</text><text style="&st18;" transform="matrix(&st16;  9133.71  364.66 )">A</text><text style="&st18;" transform="matrix(&st16;  9127.7  374.86 )">CANL</text><text style="&st18;" transform="matrix(&st16;  9161.19  374.86 )">CANH</text><text style="&st18;" transform="matrix(&st17;  9132.28  199.95 )">W</text><text style="&st18;" transform="matrix(&st17;  9166.27  198.63 )">L</text><text style="&st18;" transform="matrix(&st17;  9132.28  297.68 )">W</text><text style="&st18;" transform="matrix(&st17;  9166.27  296.36 )">L</text><text style="&st18;" transform="matrix(&st17;  9132.28  344.43 )">W</text><text style="&st18;" transform="matrix(&st17;  9166.27  343.11 )">L</text><text ewd:textID="87" style="&st18;" transform="matrix(&st16;  9026.02  472.59 )">Speed Sensors</text><text style="&st18;" transform="matrix(&st16;  9179.0  271.46 )">(RHD)</text><text style="&st18;" transform="matrix(&st16;  9179.0  262.96 )">(LHD)</text><text style="&st18;" transform="matrix(&st16;  9153.22  262.96 )">31</text><text style="&st18;" transform="matrix(&st16;  9153.22  271.46 )">15</text><text style="&st18;" transform="matrix(&st16;  9119.22  262.96 )">32</text><text style="&st18;" transform="matrix(&st16;  9119.22  271.46 )">24</text><text style="&st18;" transform="matrix(&st16;  9364.26  295.55 )">18</text><text style="&st18;" transform="matrix(&st16;  9393.09  295.55 )">8</text><text style="&st18;" transform="matrix(&st16;  9126.3  108.58 )">16</text><text style="&st18;" transform="matrix(&st16;  9163.63  108.58 )">6</text><text style="&st18;" transform="matrix(&st17;  9132.28  80.97 )">W</text><text style="&st18;" transform="matrix(&st17;  9143.61  91.32 )">(LHD *11)</text><text style="&st18;" transform="matrix(&st17;  9166.27  80.04 )">B</text><text style="&st18;" transform="matrix(&st17;  9177.61  91.32 )">(LHD *11)</text><text style="&st18;" transform="matrix(&st17;  9463.72  395.42 )">W</text><text style="&st18;" transform="matrix(&st17;  9475.05  400.96 )">(RHD)</text><text style="&st18;" transform="matrix(&st17;  9429.73  396.5 )">BE</text><text style="&st18;" transform="matrix(&st17;  9441.06  400.96 )">(RHD)</text></svg>