﻿<?xml version="1.0" encoding="utf-8"?>
<!DOCTYPE svg PUBLIC "-//W3C//DTD SVG 1.0//EN" "http://www.w3.org/TR/2001/REC-SVG-20010904/DTD/svg10.dtd"[
	<!ENTITY ns_flows "http://ns.adobe.com/Flows/1.0/">
	<!ENTITY ns_svg "http://www.w3.org/2000/svg">
	<!ENTITY ns_xlink "http://www.w3.org/1999/xlink">
	<!ENTITY st0 "font-size:7px;font-family:'MS-PGothic';adobe-font-script:japanese;">
	<!ENTITY st1 "font-size:6px;font-family:'ArialMT';">
	<!-- White fill  -->
	<!ENTITY st2 "fill:#FFFFFF;stroke:#000000; stroke-width:1.41;stroke-linecap:round;stroke-linejoin:round;">
	<!-- Yellow fill  -->
	<!ENTITY st3 "fill:#FFFFCC;stroke:#FFFFCC; stroke-width:0.1;stroke-linecap:round;stroke-linejoin:round;">
	<!-- Gray fill  -->
	<!ENTITY st4 "fill:#CCCCCC;stroke:#CCCCCC; stroke-width:0.1;stroke-linecap:round;stroke-linejoin:round;">
	<!-- Light-blue fill -->
	<!ENTITY st5 "fill:#CCECF4;stroke:#000000; stroke-width:1.133;stroke-linecap:round;stroke-linejoin:round;">
	<!ENTITY st6 "fill:none;stroke-linecap:butt; stroke-linejoin:round;">
	<!ENTITY st7 "fill:none;stroke:#000000;stroke-linecap:round;stroke-linejoin:round;">
	<!ENTITY st8 "enable-background:new    ;">
	<!-- Black fill -->
	<!ENTITY st9 "fill:#000000;stroke:#000000; stroke-linecap:round;stroke-linejoin:round;">
	<!-- SRS note   -->
	<!ENTITY st10 "font-size:9px;font-family:'ArialMT';">
	<!ENTITY st11 "font-size:9px;font-family:'Svg Symbol';">
	<!ENTITY st12 "font-size:6px;font-family:'Svg Symbol';">
	<!ENTITY st13 "fill:none;stroke:#ff0000;stroke-linecap:round;stroke-linejoin:round;">
	<!-- Yellow fill  -->
	<!ENTITY st14 "fill:#FFFF00;stroke:#FFFF00; stroke-width:0.1;stroke-linecap:round;stroke-linejoin:round;">
	<!ENTITY st15 "font-size:6px;font-family:'MS-PGothic';adobe-font-script:japanese;">
	<!ENTITY st16 "1.00 0.00 0.00 1.00">
	<!ENTITY st17 "0.00 -1.00 1.00 0.00">
	<!ENTITY st18 "font-size:6px;font-family:'Arial';">
	<!ENTITY st19 "font-size:9px;font-family:'Arial';">
	<!ENTITY st20 "font-size:6px;font-family:'MS-PGothic','MS PGothic';adobe-font-script:japanese;">
	<!ENTITY st21 "font-size:7px;font-family:'MS-PGothic','MS PGothic';adobe-font-script:japanese;">
	<!ATTLIST svg
		xmlns:ewd CDATA #FIXED "http://shcl.co.jp/ewd"
		xmlns:a CDATA #FIXED "http://ns.adobe.com/AdobeSVGViewerExtensions/3.0/"
		ewd:ver CDATA #IMPLIED
	>
	<!ATTLIST a
		ewd:lineID CDATA #IMPLIED
		ewd:groupID CDATA #IMPLIED
		ewd:figtype CDATA #IMPLIED
		ewd:code CDATA #IMPLIED
		ewd:figID CDATA #IMPLIED
		ewd:pinNo CDATA #IMPLIED
		ewd:comment CDATA #IMPLIED >
	<!ATTLIST g
		ewd:lineID CDATA #IMPLIED
		ewd:groupID CDATA #IMPLIED
		ewd:figtype CDATA #IMPLIED
		ewd:code CDATA #IMPLIED
		ewd:figID CDATA #IMPLIED
		ewd:pinNo CDATA #IMPLIED
		ewd:comment CDATA #IMPLIED >
	<!ATTLIST text
		ewd:textID CDATA #IMPLIED >
	<!ATTLIST title
		ewd:textID CDATA #IMPLIED >
]>
<!-- Generator: Shintec Hozumi YS   -->
<svg onload="call_execInitLoadProc_svg('system')" style="overflow:visible;  enable-background:new 0 0 8677.758 710.000" viewBox="0 0 8677.758 710.000" height="710.000" width="8677.758" xml:space="preserve" ewd:ver="L2.3.0.14" xmlns="&ns_svg;" xmlns:a="http://ns.adobe.com/AdobeSVGViewerExtensions/3.0/" xmlns:ewd="http://shcl.co.jp/ewd" xmlns:xlink="&ns_xlink;">
<path d=" M  1912.18,   375.72  L  1997.17,   375.72  L  1997.17,   350.23  L  1912.18,   350.23  L  1912.18,   375.72  " style="stroke:#000000;stroke-width: 0.85;stroke-dasharray:3, 1.5;&st6;" /><path d=" M  1733.71,   375.72  L  1733.71,   350.23  L  1818.70,   350.23  L  1818.70,   375.72  L  1733.71,   375.72  " style="stroke:#000000;stroke-width: 0.85;stroke-dasharray:3, 1.5;&st6;" /><path d=" M  1971.67,   154.76  L  1971.67,   163.26  " style="stroke-width: 0.85 ;&st7;  " /><path d=" M  1971.67,   180.26  L  1971.67,   188.75  " style="stroke-width: 0.85 ;&st7;  " /><path d=" M  1963.17,   222.75  L  1971.67,   222.75  " style="stroke-width: 1.42 ;&st7;  " /><path d=" M  1912.18,   222.75  L  1920.68,   222.75  " style="stroke-width: 1.42 ;&st7;  " /><path d=" M  1861.19,   222.75  L  1869.69,   222.75  " style="stroke-width: 1.42 ;&st7;  " /><path d=" M  1801.70,   222.75  L  1810.20,   222.75  " style="stroke-width: 1.42 ;&st7;  " /><path d=" M  1742.21,   222.75  L  1750.71,   222.75  " style="stroke-width: 1.42 ;&st7;  " /><path d=" M  1682.72,   222.75  L  1691.22,   222.75  " style="stroke-width: 1.42 ;&st7;  " /><path d=" M  1623.23,   222.75  L  1631.73,   222.75  " style="stroke-width: 1.42 ;&st7;  " /><path d=" M  1980.17,   112.27  L  1971.67,   112.27  " style="stroke-width: 1.42 ;&st7;  " /><path d=" M  1929.18,   112.27  L  1920.68,   112.27  " style="stroke-width: 1.42 ;&st7;  " /><path d=" M  1878.19,   112.27  L  1869.69,   112.27  " style="stroke-width: 1.42 ;&st7;  " /><path d=" M  1818.70,   112.27  L  1810.20,   112.27  " style="stroke-width: 1.42 ;&st7;  " /><path d=" M  1759.21,   112.27  L  1750.71,   112.27  " style="stroke-width: 1.42 ;&st7;  " /><path d=" M  1699.72,   112.27  L  1691.22,   112.27  " style="stroke-width: 1.42 ;&st7;  " /><path d=" M  1640.23,   112.27  L  1631.73,   112.27  " style="stroke-width: 1.42 ;&st7;  " /><path d=" M  1648.72,   418.22  L  1648.72,   426.71  " style="stroke-width: 0.85 ;&st7;  " /><path d=" M  1648.72,   443.71  L  1648.72,   452.21  " style="stroke-width: 0.85 ;&st7;  " /><path d=" M  1852.69,   372.20  L  1847.72,   367.22  " style="stroke-width: 1.42 ;&st7;  " /><path d=" M  1835.69,   379.25  L  1840.66,   384.22  " style="stroke-width: 1.42 ;&st7;  " /><path d=" M  1847.72,   384.22  L  1852.69,   379.25  " style="stroke-width: 1.42 ;&st7;  " /><path d=" M  1840.66,   367.22  L  1835.69,   372.20  " style="stroke-width: 1.42 ;&st7;  " /><path d=" M  1640.23,    57.75  L  1635.25,    52.78  " style="stroke-width: 1.42 ;&st7;  " /><path d=" M  1623.23,    64.80  L  1628.20,    69.77  " style="stroke-width: 1.42 ;&st7;  " /><path d=" M  1635.25,    69.77  L  1640.23,    64.80  " style="stroke-width: 1.42 ;&st7;  " /><path d=" M  1628.20,    52.78  L  1623.23,    57.75  " style="stroke-width: 1.42 ;&st7;  " /><path d=" M  1699.72,    57.75  L  1694.74,    52.78  " style="stroke-width: 1.42 ;&st7;  " /><path d=" M  1682.72,    64.80  L  1687.69,    69.77  " style="stroke-width: 1.42 ;&st7;  " /><path d=" M  1694.74,    69.77  L  1699.72,    64.80  " style="stroke-width: 1.42 ;&st7;  " /><path d=" M  1687.69,    52.78  L  1682.72,    57.75  " style="stroke-width: 1.42 ;&st7;  " /><path d=" M  1759.21,    57.75  L  1754.23,    52.78  " style="stroke-width: 1.42 ;&st7;  " /><path d=" M  1742.21,    64.80  L  1747.18,    69.77  " style="stroke-width: 1.42 ;&st7;  " /><path d=" M  1754.23,    69.77  L  1759.21,    64.80  " style="stroke-width: 1.42 ;&st7;  " /><path d=" M  1920.68,   154.76  L  1920.68,   163.26  " style="stroke-width: 0.85 ;&st7;  " /><path d=" M  1920.68,   180.26  L  1920.68,   188.75  " style="stroke-width: 0.85 ;&st7;  " /><path d=" M  1631.73,   154.76  L  1631.73,   163.26  " style="stroke-width: 0.85 ;&st7;  " /><path d=" M  1631.73,   180.26  L  1631.73,   188.75  " style="stroke-width: 0.85 ;&st7;  " /><path d=" M  1869.69,   154.76  L  1869.69,   163.26  " style="stroke-width: 0.85 ;&st7;  " /><path d=" M  1691.22,   154.76  L  1691.22,   163.26  " style="stroke-width: 0.85 ;&st7;  " /><path d=" M  1691.22,   180.26  L  1691.22,   188.75  " style="stroke-width: 0.85 ;&st7;  " /><path d=" M  1869.69,   180.26  L  1869.69,   188.75  " style="stroke-width: 0.85 ;&st7;  " /><path d=" M  1750.71,   154.76  L  1750.71,   163.26  " style="stroke-width: 0.85 ;&st7;  " /><path d=" M  1750.71,   180.26  L  1750.71,   188.75  " style="stroke-width: 0.85 ;&st7;  " /><path d=" M  1810.20,   154.76  L  1810.20,   163.26  " style="stroke-width: 0.85 ;&st7;  " /><path d=" M  1810.20,   180.26  L  1810.20,   188.75  " style="stroke-width: 0.85 ;&st7;  " /><path d=" M  1747.18,    52.78  L  1742.21,    57.75  " style="stroke-width: 1.42 ;&st7;  " /><path d=" M  1818.70,    57.75  L  1813.72,    52.78  " style="stroke-width: 1.42 ;&st7;  " /><path d=" M  1801.70,    64.80  L  1806.67,    69.77  " style="stroke-width: 1.42 ;&st7;  " /><path d=" M  1813.72,    69.77  L  1818.70,    64.80  " style="stroke-width: 1.42 ;&st7;  " /><path d=" M  1806.67,    52.78  L  1801.70,    57.75  " style="stroke-width: 1.42 ;&st7;  " /><path d=" M  1878.19,    57.75  L  1873.21,    52.78  " style="stroke-width: 1.42 ;&st7;  " /><path d=" M  1861.19,    64.80  L  1866.16,    69.77  " style="stroke-width: 1.42 ;&st7;  " /><path d=" M  1873.21,    69.77  L  1878.19,    64.80  " style="stroke-width: 1.42 ;&st7;  " /><path d=" M  1866.16,    52.78  L  1861.19,    57.75  " style="stroke-width: 1.42 ;&st7;  " /><path d=" M  1929.18,    57.75  L  1924.21,    52.78  " style="stroke-width: 1.42 ;&st7;  " /><path d=" M  1912.18,    64.80  L  1917.15,    69.77  " style="stroke-width: 1.42 ;&st7;  " /><path d=" M  1924.21,    69.77  L  1929.18,    64.80  " style="stroke-width: 1.42 ;&st7;  " /><path d=" M  1917.15,    52.78  L  1912.18,    57.75  " style="stroke-width: 1.42 ;&st7;  " /><path d=" M  1980.17,    57.75  L  1975.20,    52.78  " style="stroke-width: 1.42 ;&st7;  " /><path d=" M  1963.17,    64.80  L  1968.14,    69.77  " style="stroke-width: 1.42 ;&st7;  " /><path d=" M  1975.20,    69.77  L  1980.17,    64.80  " style="stroke-width: 1.42 ;&st7;  " /><path d=" M  1968.14,    52.78  L  1963.17,    57.75  " style="stroke-width: 1.42 ;&st7;  " /><path d=" M  1647.53,   561.69  L  1647.26,   562.16  L  1647.17,   562.69  L  1647.26,   563.22  L  1647.53,   563.69  L  1647.94,   564.04  L  1648.45,   564.23  L  1649.00,   564.23  L  1649.50,   564.04  L  1649.92,   563.69  L  1650.19,   563.22  L  1650.28,   562.69  L  1650.19,   562.16  L  1649.92,   561.69  L  1649.50,   561.34  L  1649.00,   561.16  L  1648.45,   561.16  L  1647.94,   561.34  L  1647.53,   561.69  L  1647.92,   562.40  L  1647.92,   562.98  L  1648.30,   563.43  L  1648.87,   563.53  L  1649.38,   563.24  L  1649.57,   562.69  L  1649.38,   562.14  L  1648.87,   561.86  L  1648.30,   561.95  L  1648.72,   562.69  " style="stroke-width: 0.85 ;&st7;  " /><path d=" M  1648.72,   571.19  L  1648.72,   554.19  " style="stroke-width: 0.85 ;&st7;  " /><path d=" M  1657.22,   452.21  L  1657.22,   418.22  L  1640.23,   418.22  L  1640.23,   452.21  L  1657.22,   452.21  " style="stroke-width: 1.42 ;&st7;  " /><path d=" M  1817.50,   374.72  L  1817.23,   375.19  L  1817.14,   375.72  L  1817.23,   376.26  L  1817.50,   376.73  L  1817.92,   377.07  L  1818.42,   377.26  L  1818.97,   377.26  L  1819.47,   377.07  L  1819.89,   376.73  L  1820.16,   376.26  L  1820.25,   375.72  L  1820.16,   375.19  L  1819.89,   374.72  L  1819.47,   374.37  L  1818.97,   374.19  L  1818.42,   374.19  L  1817.92,   374.37  L  1817.50,   374.72  L  1817.90,   375.43  L  1817.90,   376.01  L  1818.27,   376.46  L  1818.84,   376.56  L  1819.35,   376.27  L  1819.55,   375.72  L  1819.35,   375.18  L  1818.84,   374.89  L  1818.27,   374.99  L  1818.70,   375.72  " style="stroke-width: 0.85 ;&st7;  " /><path d=" M  1910.99,   374.72  L  1910.72,   375.19  L  1910.62,   375.72  L  1910.72,   376.26  L  1910.99,   376.73  L  1911.40,   377.07  L  1911.91,   377.26  L  1912.45,   377.26  L  1912.96,   377.07  L  1913.37,   376.73  L  1913.64,   376.26  L  1913.74,   375.72  L  1913.64,   375.19  L  1913.37,   374.72  L  1912.96,   374.37  L  1912.45,   374.19  L  1911.91,   374.19  L  1911.40,   374.37  L  1910.99,   374.72  L  1911.38,   375.43  L  1911.38,   376.01  L  1911.75,   376.46  L  1912.33,   376.56  L  1912.83,   376.27  L  1913.03,   375.72  L  1912.83,   375.18  L  1912.33,   374.89  L  1911.75,   374.99  L  1912.18,   375.72  " style="stroke-width: 0.85 ;&st7;  " /><path d=" M  1635.98,   117.93  L  1631.73,   113.68  L  1627.48,   117.93  " style="stroke-width: 1.42 ;&st7;  " /><path d=" M  1635.98,   121.33  L  1631.73,   117.08  L  1627.48,   121.33  " style="stroke-width: 1.42 ;&st7;  " /><path d=" M  1695.47,   117.93  L  1691.22,   113.68  L  1686.97,   117.93  " style="stroke-width: 1.42 ;&st7;  " /><path d=" M  1695.47,   121.33  L  1691.22,   117.08  L  1686.97,   121.33  " style="stroke-width: 1.42 ;&st7;  " /><path d=" M  1754.96,   117.93  L  1750.71,   113.68  L  1746.46,   117.93  " style="stroke-width: 1.42 ;&st7;  " /><path d=" M  1754.96,   121.33  L  1750.71,   117.08  L  1746.46,   121.33  " style="stroke-width: 1.42 ;&st7;  " /><path d=" M  1814.45,   117.93  L  1810.20,   113.68  L  1805.95,   117.93  " style="stroke-width: 1.42 ;&st7;  " /><path d=" M  1814.45,   121.33  L  1810.20,   117.08  L  1805.95,   121.33  " style="stroke-width: 1.42 ;&st7;  " /><path d=" M  1873.94,   121.33  L  1869.69,   117.08  L  1865.44,   121.33  " style="stroke-width: 1.42 ;&st7;  " /><path d=" M  1873.94,   117.93  L  1869.69,   113.68  L  1865.44,   117.93  " style="stroke-width: 1.42 ;&st7;  " /><path d=" M  1924.93,   121.33  L  1920.68,   117.08  L  1916.43,   121.33  " style="stroke-width: 1.42 ;&st7;  " /><path d=" M  1924.93,   117.93  L  1920.68,   113.68  L  1916.43,   117.93  " style="stroke-width: 1.42 ;&st7;  " /><path d=" M  1975.92,   117.93  L  1971.67,   113.68  L  1967.42,   117.93  " style="stroke-width: 1.42 ;&st7;  " /><path d=" M  1975.92,   121.33  L  1971.67,   117.08  L  1967.42,   121.33  " style="stroke-width: 1.42 ;&st7;  " /><path d=" M  1627.48,   213.68  L  1631.73,   217.93  L  1635.98,   213.68  " style="stroke-width: 1.42 ;&st7;  " /><path d=" M  1635.98,   217.08  L  1631.73,   221.33  L  1627.48,   217.08  " style="stroke-width: 1.42 ;&st7;  " /><path d=" M  1695.47,   217.08  L  1691.22,   221.33  L  1686.97,   217.08  " style="stroke-width: 1.42 ;&st7;  " /><path d=" M  1686.97,   213.68  L  1691.22,   217.93  L  1695.47,   213.68  " style="stroke-width: 1.42 ;&st7;  " /><path d=" M  1754.96,   217.08  L  1750.71,   221.33  L  1746.46,   217.08  " style="stroke-width: 1.42 ;&st7;  " /><path d=" M  1746.46,   213.68  L  1750.71,   217.93  L  1754.96,   213.68  " style="stroke-width: 1.42 ;&st7;  " /><path d=" M  1814.45,   217.08  L  1810.20,   221.33  L  1805.95,   217.08  " style="stroke-width: 1.42 ;&st7;  " /><path d=" M  1805.95,   213.68  L  1810.20,   217.93  L  1814.45,   213.68  " style="stroke-width: 1.42 ;&st7;  " /><path d=" M  1873.94,   217.08  L  1869.69,   221.33  L  1865.44,   217.08  " style="stroke-width: 1.42 ;&st7;  " /><path d=" M  1865.44,   213.68  L  1869.69,   217.93  L  1873.94,   213.68  " style="stroke-width: 1.42 ;&st7;  " /><path d=" M  1924.93,   217.08  L  1920.68,   221.33  L  1916.43,   217.08  " style="stroke-width: 1.42 ;&st7;  " /><path d=" M  1916.43,   213.68  L  1920.68,   217.93  L  1924.93,   213.68  " style="stroke-width: 1.42 ;&st7;  " /><path d=" M  1975.92,   217.08  L  1971.67,   221.33  L  1967.42,   217.08  " style="stroke-width: 1.42 ;&st7;  " /><path d=" M  1967.42,   213.68  L  1971.67,   217.93  L  1975.92,   213.68  " style="stroke-width: 1.42 ;&st7;  " /><path d=" M  1980.17,   188.75  L  1980.17,   154.76  L  1963.17,   154.76  L  1963.17,   188.75  L  1980.17,   188.75  " style="stroke-width: 1.42 ;&st7;  " /><path d=" M  1640.23,   554.19  L  1640.23,   571.19  L  1725.21,   571.19  L  1725.21,   554.19  L  1640.23,   554.19  " style="stroke-width: 1.42 ;&st7;  " /><path d=" M  1716.71,   554.19  L  1716.71,   562.69  " style="stroke-width: 0.85 ;&st7;  " /><path d=" M  1699.72,   409.72  L  1699.72,   452.21  L  1767.70,   452.21  L  1767.70,   409.72  L  1699.72,   409.72  " style="stroke-width: 1.42 ;&st7;  " /><path d=" M  1878.19,   409.72  L  1878.19,   452.21  L  1946.17,   452.21  L  1946.17,   409.72  L  1878.19,   409.72  " style="stroke-width: 1.42 ;&st7;  " /><path d=" M  1929.18,   188.75  L  1929.18,   154.76  L  1912.18,   154.76  L  1912.18,   188.75  L  1929.18,   188.75  " style="stroke-width: 1.42 ;&st7;  " /><path d=" M  1640.23,   188.75  L  1640.23,   154.76  L  1623.23,   154.76  L  1623.23,   188.75  L  1640.23,   188.75  " style="stroke-width: 1.42 ;&st7;  " /><path d=" M  1699.72,   188.75  L  1699.72,   154.76  L  1682.72,   154.76  L  1682.72,   188.75  L  1699.72,   188.75  " style="stroke-width: 1.42 ;&st7;  " /><path d=" M  1878.19,   188.75  L  1878.19,   154.76  L  1861.19,   154.76  L  1861.19,   188.75  L  1878.19,   188.75  " style="stroke-width: 1.42 ;&st7;  " /><path d=" M  1759.21,   188.75  L  1759.21,   154.76  L  1742.21,   154.76  L  1742.21,   188.75  L  1759.21,   188.75  " style="stroke-width: 1.42 ;&st7;  " /><path d=" M  1818.70,   188.75  L  1818.70,   154.76  L  1801.70,   154.76  L  1801.70,   188.75  L  1818.70,   188.75  " style="stroke-width: 1.42 ;&st7;  " /><path d=" M  1715.52,   561.69  L  1715.25,   562.16  L  1715.15,   562.69  L  1715.25,   563.22  L  1715.52,   563.69  L  1715.93,   564.04  L  1716.44,   564.23  L  1716.98,   564.23  L  1717.49,   564.04  L  1717.91,   563.69  L  1718.18,   563.22  L  1718.27,   562.69  L  1718.18,   562.16  L  1717.91,   561.69  L  1717.49,   561.34  L  1716.98,   561.16  L  1716.44,   561.16  L  1715.93,   561.34  L  1715.52,   561.69  L  1715.91,   562.40  L  1715.91,   562.98  L  1716.29,   563.43  L  1716.86,   563.53  L  1717.36,   563.24  L  1717.56,   562.69  L  1717.36,   562.14  L  1716.86,   561.86  L  1716.29,   561.95  L  1716.71,   562.69  " style="stroke-width: 0.85 ;&st7;  " /><path d=" M  1725.21,   562.69  L  1640.23,   562.69  " style="stroke-width: 0.85 ;&st7;  " /><path d=" M  1818.70,   375.72  L  1835.69,   375.72  " style="stroke-width: 0.85 ;&st7; stroke-dasharray:3, 1.5;" /><path d=" M  1852.69,   375.72  L  1912.18,   375.72  " style="stroke-width: 0.85 ;&st7; stroke-dasharray:3, 1.5;" /><path d=" M  1899.72,   329.26  C  1899.72    326.76   1897.69    324.73   1895.18    324.73  " style="stroke-width: 1.42 ;&st7;   " /><path d=" M  1895.18,   324.73  C  1892.68    324.73   1890.65    326.76   1890.65    329.26  " style="stroke-width: 1.42 ;&st7;   " /><path d=" M  1890.65,   329.26  C  1890.65    331.77   1892.68    333.80   1895.18    333.80  " style="stroke-width: 1.42 ;&st7;   " /><path d=" M  1895.18,   333.80  C  1897.69    333.80   1899.72    331.77   1899.72    329.26  " style="stroke-width: 1.42 ;&st7;   " /><path d=" M  1933.71,   329.26  C  1933.71    326.76   1931.68    324.73   1929.18    324.73  " style="stroke-width: 1.42 ;&st7;   " /><path d=" M  1929.18,   324.73  C  1926.67    324.73   1924.65    326.76   1924.65    329.26  " style="stroke-width: 1.42 ;&st7;   " /><path d=" M  1924.65,   329.26  C  1924.65    331.77   1926.67    333.80   1929.18    333.80  " style="stroke-width: 1.42 ;&st7;   " /><path d=" M  1929.18,   333.80  C  1931.68    333.80   1933.71    331.77   1933.71    329.26  " style="stroke-width: 1.42 ;&st7;   " /><path d=" M  1755.24,   329.26  C  1755.24    326.76   1753.21    324.73   1750.71    324.73  " style="stroke-width: 1.42 ;&st7;   " /><path d=" M  1750.71,   324.73  C  1748.20    324.73   1746.17    326.76   1746.17    329.26  " style="stroke-width: 1.42 ;&st7;   " /><path d=" M  1746.17,   329.26  C  1746.17    331.77   1748.20    333.80   1750.71    333.80  " style="stroke-width: 1.42 ;&st7;   " /><path d=" M  1750.71,   333.80  C  1753.21    333.80   1755.24    331.77   1755.24    329.26  " style="stroke-width: 1.42 ;&st7;   " /><path d=" M  1721.25,   329.26  C  1721.25    326.76   1719.22    324.73   1716.71    324.73  " style="stroke-width: 1.42 ;&st7;   " /><path d=" M  1716.71,   324.73  C  1714.21    324.73   1712.18    326.76   1712.18    329.26  " style="stroke-width: 1.42 ;&st7;   " /><path d=" M  1712.18,   329.26  C  1712.18    331.77   1714.21    333.80   1716.71    333.80  " style="stroke-width: 1.42 ;&st7;   " /><path d=" M  1716.71,   333.80  C  1719.22    333.80   1721.25    331.77   1721.25    329.26  " style="stroke-width: 1.42 ;&st7;   " /><path d=" M  1984.70,   329.26  C  1984.70    326.76   1982.67    324.73   1980.17    324.73  " style="stroke-width: 1.42 ;&st7;   " /><path d=" M  1980.17,   324.73  C  1977.67    324.73   1975.64    326.76   1975.64    329.26  " style="stroke-width: 1.42 ;&st7;   " /><path d=" M  1975.64,   329.26  C  1975.64    331.77   1977.67    333.80   1980.17    333.80  " style="stroke-width: 1.42 ;&st7;   " /><path d=" M  1980.17,   333.80  C  1982.67    333.80   1984.70    331.77   1984.70    329.26  " style="stroke-width: 1.42 ;&st7;   " /><path d=" M  1806.23,   329.26  C  1806.23    326.76   1804.20    324.73   1801.70    324.73  " style="stroke-width: 1.42 ;&st7;   " /><path d=" M  1801.70,   324.73  C  1799.20    324.73   1797.17    326.76   1797.17    329.26  " style="stroke-width: 1.42 ;&st7;   " /><path d=" M  1797.17,   329.26  C  1797.17    331.77   1799.20    333.80   1801.70    333.80  " style="stroke-width: 1.42 ;&st7;   " /><path d=" M  1801.70,   333.80  C  1804.20    333.80   1806.23    331.77   1806.23    329.26  " style="stroke-width: 1.42 ;&st7;   " /><path d=" M  1971.67,   180.26  C  1973.63    180.26   1975.21    178.67   1975.21    176.71  " style="stroke-width: 0.85 ;&st7;   " /><path d=" M  1975.21,   176.71  C  1975.21    174.76   1973.63    173.17   1971.67    173.17  " style="stroke-width: 0.85 ;&st7;   " /><path d=" M  1971.67,   173.17  C  1970.68    173.17   1969.83    173.53   1969.14    174.24  " style="stroke-width: 0.85 ;&st7;   " /><path d=" M  1969.14,   174.24  C  1970.51    175.63   1972.75    175.66   1974.15    174.29  " style="stroke-width: 0.85 ;&st7;   " /><path d=" M  1974.15,   174.29  C  1975.55    172.92   1975.57    170.67   1974.20    169.28  " style="stroke-width: 0.85 ;&st7;   " /><path d=" M  1974.20,   169.28  C  1972.83    167.88   1970.59    167.86   1969.19    169.23  " style="stroke-width: 0.85 ;&st7;   " /><path d=" M  1969.19,   169.23  C  1969.17    169.24   1969.16    169.26   1969.14    169.28  " style="stroke-width: 0.85 ;&st7;   " /><path d=" M  1969.14,   169.28  C  1970.51    170.67   1972.75    170.70   1974.15    169.33  " style="stroke-width: 0.85 ;&st7;   " /><path d=" M  1974.15,   169.33  C  1975.55    167.96   1975.57    165.72   1974.20    164.32  " style="stroke-width: 0.85 ;&st7;   " /><path d=" M  1974.20,   164.32  C  1973.51    163.61   1972.66    163.26   1971.67    163.26  " style="stroke-width: 0.85 ;&st7;   " /><path d=" M  1976.20,   260.71  C  1976.20    258.21   1974.17    256.18   1971.67    256.18  " style="stroke-width: 1.42 ;&st7;   " /><path d=" M  1971.67,   256.18  C  1969.17    256.18   1967.14    258.21   1967.14    260.71  " style="stroke-width: 1.42 ;&st7;   " /><path d=" M  1967.14,   260.71  C  1967.14    263.21   1969.17    265.24   1971.67    265.24  " style="stroke-width: 1.42 ;&st7;   " /><path d=" M  1971.67,   265.24  C  1974.17    265.24   1976.20    263.21   1976.20    260.71  " style="stroke-width: 1.42 ;&st7;   " /><path d=" M  1810.20,   180.26  C  1812.15    180.26   1813.74    178.67   1813.74    176.71  " style="stroke-width: 0.85 ;&st7;   " /><path d=" M  1813.74,   176.71  C  1813.74    174.76   1812.15    173.17   1810.20    173.17  " style="stroke-width: 0.85 ;&st7;   " /><path d=" M  1810.20,   173.17  C  1809.21    173.17   1808.36    173.53   1807.67    174.24  " style="stroke-width: 0.85 ;&st7;   " /><path d=" M  1807.67,   174.24  C  1809.04    175.63   1811.28    175.66   1812.68    174.29  " style="stroke-width: 0.85 ;&st7;   " /><path d=" M  1812.68,   174.29  C  1814.07    172.92   1814.10    170.67   1812.73    169.28  " style="stroke-width: 0.85 ;&st7;   " /><path d=" M  1812.73,   169.28  C  1811.36    167.88   1809.12    167.86   1807.72    169.23  " style="stroke-width: 0.85 ;&st7;   " /><path d=" M  1807.72,   169.23  C  1807.70    169.24   1807.69    169.26   1807.67    169.28  " style="stroke-width: 0.85 ;&st7;   " /><path d=" M  1807.67,   169.28  C  1809.04    170.67   1811.28    170.70   1812.68    169.33  " style="stroke-width: 0.85 ;&st7;   " /><path d=" M  1812.68,   169.33  C  1814.07    167.96   1814.10    165.72   1812.73    164.32  " style="stroke-width: 0.85 ;&st7;   " /><path d=" M  1812.73,   164.32  C  1812.03    163.61   1811.19    163.26   1810.20    163.26  " style="stroke-width: 0.85 ;&st7;   " /><path d=" M  1750.71,   180.26  C  1752.66    180.26   1754.25    178.67   1754.25    176.71  " style="stroke-width: 0.85 ;&st7;   " /><path d=" M  1754.25,   176.71  C  1754.25    174.76   1752.66    173.17   1750.71    173.17  " style="stroke-width: 0.85 ;&st7;   " /><path d=" M  1750.71,   173.17  C  1749.72    173.17   1748.87    173.53   1748.18    174.24  " style="stroke-width: 0.85 ;&st7;   " /><path d=" M  1748.18,   174.24  C  1749.55    175.63   1751.79    175.66   1753.19    174.29  " style="stroke-width: 0.85 ;&st7;   " /><path d=" M  1753.19,   174.29  C  1754.58    172.92   1754.61    170.67   1753.24    169.28  " style="stroke-width: 0.85 ;&st7;   " /><path d=" M  1753.24,   169.28  C  1751.87    167.88   1749.63    167.86   1748.23    169.23  " style="stroke-width: 0.85 ;&st7;   " /><path d=" M  1748.23,   169.23  C  1748.21    169.24   1748.20    169.26   1748.18    169.28  " style="stroke-width: 0.85 ;&st7;   " /><path d=" M  1748.18,   169.28  C  1749.55    170.67   1751.79    170.70   1753.19    169.33  " style="stroke-width: 0.85 ;&st7;   " /><path d=" M  1753.19,   169.33  C  1754.58    167.96   1754.61    165.72   1753.24    164.32  " style="stroke-width: 0.85 ;&st7;   " /><path d=" M  1753.24,   164.32  C  1752.54    163.61   1751.70    163.26   1750.71    163.26  " style="stroke-width: 0.85 ;&st7;   " /><path d=" M  1869.69,   180.26  C  1871.64    180.26   1873.23    178.67   1873.23    176.71  " style="stroke-width: 0.85 ;&st7;   " /><path d=" M  1873.23,   176.71  C  1873.23    174.76   1871.64    173.17   1869.69    173.17  " style="stroke-width: 0.85 ;&st7;   " /><path d=" M  1869.69,   173.17  C  1868.70    173.17   1867.85    173.53   1867.16    174.24  " style="stroke-width: 0.85 ;&st7;   " /><path d=" M  1867.16,   174.24  C  1868.53    175.63   1870.77    175.66   1872.17    174.29  " style="stroke-width: 0.85 ;&st7;   " /><path d=" M  1872.17,   174.29  C  1873.56    172.92   1873.59    170.67   1872.22    169.28  " style="stroke-width: 0.85 ;&st7;   " /><path d=" M  1872.22,   169.28  C  1870.85    167.88   1868.61    167.86   1867.21    169.23  " style="stroke-width: 0.85 ;&st7;   " /><path d=" M  1867.21,   169.23  C  1867.19    169.24   1867.18    169.26   1867.16    169.28  " style="stroke-width: 0.85 ;&st7;   " /><path d=" M  1867.16,   169.28  C  1868.53    170.67   1870.77    170.70   1872.17    169.33  " style="stroke-width: 0.85 ;&st7;   " /><path d=" M  1872.17,   169.33  C  1873.56    167.96   1873.59    165.72   1872.22    164.32  " style="stroke-width: 0.85 ;&st7;   " /><path d=" M  1872.22,   164.32  C  1871.52    163.61   1870.68    163.26   1869.69    163.26  " style="stroke-width: 0.85 ;&st7;   " /><path d=" M  1691.22,   180.26  C  1693.17    180.26   1694.76    178.67   1694.76    176.71  " style="stroke-width: 0.85 ;&st7;   " /><path d=" M  1694.76,   176.71  C  1694.76    174.76   1693.17    173.17   1691.22    173.17  " style="stroke-width: 0.85 ;&st7;   " /><path d=" M  1691.22,   173.17  C  1690.23    173.17   1689.38    173.53   1688.69    174.24  " style="stroke-width: 0.85 ;&st7;   " /><path d=" M  1688.69,   174.24  C  1690.06    175.63   1692.30    175.66   1693.70    174.29  " style="stroke-width: 0.85 ;&st7;   " /><path d=" M  1693.70,   174.29  C  1695.09    172.92   1695.12    170.67   1693.75    169.28  " style="stroke-width: 0.85 ;&st7;   " /><path d=" M  1693.75,   169.28  C  1692.38    167.88   1690.14    167.86   1688.74    169.23  " style="stroke-width: 0.85 ;&st7;   " /><path d=" M  1688.74,   169.23  C  1688.72    169.24   1688.71    169.26   1688.69    169.28  " style="stroke-width: 0.85 ;&st7;   " /><path d=" M  1688.69,   169.28  C  1690.06    170.67   1692.30    170.70   1693.70    169.33  " style="stroke-width: 0.85 ;&st7;   " /><path d=" M  1693.70,   169.33  C  1695.09    167.96   1695.12    165.72   1693.75    164.32  " style="stroke-width: 0.85 ;&st7;   " /><path d=" M  1693.75,   164.32  C  1693.05    163.61   1692.21    163.26   1691.22    163.26  " style="stroke-width: 0.85 ;&st7;   " /><path d=" M  1631.73,   180.26  C  1633.68    180.26   1635.27    178.67   1635.27    176.71  " style="stroke-width: 0.85 ;&st7;   " /><path d=" M  1635.27,   176.71  C  1635.27    174.76   1633.68    173.17   1631.73    173.17  " style="stroke-width: 0.85 ;&st7;   " /><path d=" M  1631.73,   173.17  C  1630.74    173.17   1629.89    173.53   1629.20    174.24  " style="stroke-width: 0.85 ;&st7;   " /><path d=" M  1629.20,   174.24  C  1630.57    175.63   1632.81    175.66   1634.21    174.29  " style="stroke-width: 0.85 ;&st7;   " /><path d=" M  1634.21,   174.29  C  1635.60    172.92   1635.63    170.67   1634.26    169.28  " style="stroke-width: 0.85 ;&st7;   " /><path d=" M  1634.26,   169.28  C  1632.89    167.88   1630.65    167.86   1629.25    169.23  " style="stroke-width: 0.85 ;&st7;   " /><path d=" M  1629.25,   169.23  C  1629.23    169.24   1629.22    169.26   1629.20    169.28  " style="stroke-width: 0.85 ;&st7;   " /><path d=" M  1629.20,   169.28  C  1630.57    170.67   1632.81    170.70   1634.21    169.33  " style="stroke-width: 0.85 ;&st7;   " /><path d=" M  1634.21,   169.33  C  1635.60    167.96   1635.63    165.72   1634.26    164.32  " style="stroke-width: 0.85 ;&st7;   " /><path d=" M  1634.26,   164.32  C  1633.56    163.61   1632.72    163.26   1631.73    163.26  " style="stroke-width: 0.85 ;&st7;   " /><path d=" M  1636.26,   260.71  C  1636.26    258.21   1634.23    256.18   1631.73    256.18  " style="stroke-width: 1.42 ;&st7;   " /><path d=" M  1631.73,   256.18  C  1629.22    256.18   1627.19    258.21   1627.19    260.71  " style="stroke-width: 1.42 ;&st7;   " /><path d=" M  1627.19,   260.71  C  1627.19    263.21   1629.22    265.24   1631.73    265.24  " style="stroke-width: 1.42 ;&st7;   " /><path d=" M  1631.73,   265.24  C  1634.23    265.24   1636.26    263.21   1636.26    260.71  " style="stroke-width: 1.42 ;&st7;   " /><path d=" M  1695.75,   260.71  C  1695.75    258.21   1693.72    256.18   1691.22    256.18  " style="stroke-width: 1.42 ;&st7;   " /><path d=" M  1691.22,   256.18  C  1688.71    256.18   1686.68    258.21   1686.68    260.71  " style="stroke-width: 1.42 ;&st7;   " /><path d=" M  1686.68,   260.71  C  1686.68    263.21   1688.71    265.24   1691.22    265.24  " style="stroke-width: 1.42 ;&st7;   " /><path d=" M  1691.22,   265.24  C  1693.72    265.24   1695.75    263.21   1695.75    260.71  " style="stroke-width: 1.42 ;&st7;   " /><path d=" M  1755.24,   260.71  C  1755.24    258.21   1753.21    256.18   1750.71    256.18  " style="stroke-width: 1.42 ;&st7;   " /><path d=" M  1750.71,   256.18  C  1748.20    256.18   1746.17    258.21   1746.17    260.71  " style="stroke-width: 1.42 ;&st7;   " /><path d=" M  1746.17,   260.71  C  1746.17    263.21   1748.20    265.24   1750.71    265.24  " style="stroke-width: 1.42 ;&st7;   " /><path d=" M  1750.71,   265.24  C  1753.21    265.24   1755.24    263.21   1755.24    260.71  " style="stroke-width: 1.42 ;&st7;   " /><path d=" M  1814.73,   260.71  C  1814.73    258.21   1812.70    256.18   1810.20    256.18  " style="stroke-width: 1.42 ;&st7;   " /><path d=" M  1810.20,   256.18  C  1807.69    256.18   1805.66    258.21   1805.66    260.71  " style="stroke-width: 1.42 ;&st7;   " /><path d=" M  1805.66,   260.71  C  1805.66    263.21   1807.69    265.24   1810.20    265.24  " style="stroke-width: 1.42 ;&st7;   " /><path d=" M  1810.20,   265.24  C  1812.70    265.24   1814.73    263.21   1814.73    260.71  " style="stroke-width: 1.42 ;&st7;   " /><path d=" M  1874.22,   260.71  C  1874.22    258.21   1872.19    256.18   1869.69    256.18  " style="stroke-width: 1.42 ;&st7;   " /><path d=" M  1869.69,   256.18  C  1867.18    256.18   1865.16    258.21   1865.16    260.71  " style="stroke-width: 1.42 ;&st7;   " /><path d=" M  1865.16,   260.71  C  1865.16    263.21   1867.18    265.24   1869.69    265.24  " style="stroke-width: 1.42 ;&st7;   " /><path d=" M  1869.69,   265.24  C  1872.19    265.24   1874.22    263.21   1874.22    260.71  " style="stroke-width: 1.42 ;&st7;   " /><path d=" M  1920.68,   180.26  C  1922.63    180.26   1924.22    178.67   1924.22    176.71  " style="stroke-width: 0.85 ;&st7;   " /><path d=" M  1924.22,   176.71  C  1924.22    174.76   1922.63    173.17   1920.68    173.17  " style="stroke-width: 0.85 ;&st7;   " /><path d=" M  1920.68,   173.17  C  1919.69    173.17   1918.84    173.53   1918.15    174.24  " style="stroke-width: 0.85 ;&st7;   " /><path d=" M  1918.15,   174.24  C  1919.52    175.63   1921.76    175.66   1923.16    174.29  " style="stroke-width: 0.85 ;&st7;   " /><path d=" M  1923.16,   174.29  C  1924.55    172.92   1924.58    170.67   1923.21    169.28  " style="stroke-width: 0.85 ;&st7;   " /><path d=" M  1923.21,   169.28  C  1921.84    167.88   1919.60    167.86   1918.20    169.23  " style="stroke-width: 0.85 ;&st7;   " /><path d=" M  1918.20,   169.23  C  1918.18    169.24   1918.17    169.26   1918.15    169.28  " style="stroke-width: 0.85 ;&st7;   " /><path d=" M  1918.15,   169.28  C  1919.52    170.67   1921.76    170.70   1923.16    169.33  " style="stroke-width: 0.85 ;&st7;   " /><path d=" M  1923.16,   169.33  C  1924.55    167.96   1924.58    165.72   1923.21    164.32  " style="stroke-width: 0.85 ;&st7;   " /><path d=" M  1923.21,   164.32  C  1922.52    163.61   1921.67    163.26   1920.68    163.26  " style="stroke-width: 0.85 ;&st7;   " /><path d=" M  1925.21,   260.71  C  1925.21    258.21   1923.18    256.18   1920.68    256.18  " style="stroke-width: 1.42 ;&st7;   " /><path d=" M  1920.68,   256.18  C  1918.18    256.18   1916.15    258.21   1916.15    260.71  " style="stroke-width: 1.42 ;&st7;   " /><path d=" M  1916.15,   260.71  C  1916.15    263.21   1918.18    265.24   1920.68    265.24  " style="stroke-width: 1.42 ;&st7;   " /><path d=" M  1920.68,   265.24  C  1923.18    265.24   1925.21    263.21   1925.21    260.71  " style="stroke-width: 1.42 ;&st7;   " /><path d=" M  1653.26,   329.26  C  1653.26    326.76   1651.23    324.73   1648.72    324.73  " style="stroke-width: 1.42 ;&st7;   " /><path d=" M  1648.72,   324.73  C  1646.22    324.73   1644.19    326.76   1644.19    329.26  " style="stroke-width: 1.42 ;&st7;   " /><path d=" M  1644.19,   329.26  C  1644.19    331.77   1646.22    333.80   1648.72    333.80  " style="stroke-width: 1.42 ;&st7;   " /><path d=" M  1648.72,   333.80  C  1651.23    333.80   1653.26    331.77   1653.26    329.26  " style="stroke-width: 1.42 ;&st7;   " /><path d=" M  1646.19,   432.73  C  1647.56    434.13   1649.81    434.15   1651.20    432.78  " style="stroke-width: 0.85 ;&st7;   " /><path d=" M  1651.20,   432.78  C  1652.60    431.42   1652.62    429.17   1651.25    427.78  " style="stroke-width: 0.85 ;&st7;   " /><path d=" M  1651.25,   427.78  C  1650.56    427.07   1649.72    426.71   1648.72    426.71  " style="stroke-width: 0.85 ;&st7;   " /><path d=" M  1646.19,   437.69  C  1647.56    439.09   1649.81    439.11   1651.20    437.74  " style="stroke-width: 0.85 ;&st7;   " /><path d=" M  1651.20,   437.74  C  1652.60    436.37   1652.62    434.13   1651.25    432.73  " style="stroke-width: 0.85 ;&st7;   " /><path d=" M  1651.25,   432.73  C  1649.89    431.34   1647.64    431.31   1646.25    432.68  " style="stroke-width: 0.85 ;&st7;   " /><path d=" M  1646.25,   432.68  C  1646.23    432.70   1646.21    432.72   1646.19    432.73  " style="stroke-width: 0.85 ;&st7;   " /><path d=" M  1648.72,   443.71  C  1650.68    443.71   1652.27    442.13   1652.27    440.17  " style="stroke-width: 0.85 ;&st7;   " /><path d=" M  1652.27,   440.17  C  1652.27    438.21   1650.68    436.63   1648.72    436.63  " style="stroke-width: 0.85 ;&st7;   " /><path d=" M  1648.72,   436.63  C  1647.73    436.63   1646.89    436.98   1646.20    437.69  " style="stroke-width: 0.85 ;&st7;   " /><text style="&st18;" transform="matrix(&st16;  1803.86  196.95 )">1</text><text style="&st18;" transform="matrix(&st16;  1744.37  151.07 )">2</text><text style="&st18;" transform="matrix(&st16;  1744.37  196.95 )">1</text><text style="&st18;" transform="matrix(&st16;  1863.35  151.07 )">2</text><text style="&st18;" transform="matrix(&st16;  1863.35  196.95 )">1</text><text style="&st18;" transform="matrix(&st16;  1684.88  151.07 )">2</text><text style="&st18;" transform="matrix(&st16;  1684.88  196.95 )">1</text><text style="&st18;" transform="matrix(&st16;  1803.86  151.07 )">2</text><text style="&st18;" transform="matrix(&st16;  1625.39  151.07 )">2</text><text style="&st18;" transform="matrix(&st16;  1625.39  196.95 )">1</text><text style="&st18;" transform="matrix(&st16;  1914.34  196.95 )">1</text><text style="&st18;" transform="matrix(&st16;  1914.34  151.07 )">2</text><text style="&st18;" transform="matrix(&st16;  1626.51  272.88 )">#10</text><text style="&st18;" transform="matrix(&st16;  1618.94  262.68 )">86</text><text style="&st18;" transform="matrix(&st16;  1629.46  262.68 )">B</text><text style="&st18;" transform="matrix(&st16;  1675.1  262.68 )">109</text><text style="&st18;" transform="matrix(&st16;  1686.0  272.88 )">#20</text><text style="&st18;" transform="matrix(&st16;  1688.95  262.68 )">B</text><text style="&st18;" transform="matrix(&st16;  1737.92  262.68 )">85</text><text style="&st18;" transform="matrix(&st16;  1745.49  272.88 )">#30</text><text style="&st18;" transform="matrix(&st16;  1748.44  262.68 )">B</text><text style="&st18;" transform="matrix(&st16;  1794.08  262.68 )">108</text><text style="&st18;" transform="matrix(&st16;  1804.98  272.88 )">#40</text><text style="&st18;" transform="matrix(&st16;  1807.93  262.68 )">B</text><text style="&st18;" transform="matrix(&st16;  1856.9  262.68 )">84</text><text style="&st18;" transform="matrix(&st16;  1864.47  272.88 )">#50</text><text style="&st18;" transform="matrix(&st16;  1867.42  262.68 )">B</text><text style="&st18;" transform="matrix(&st16;  1904.56  262.68 )">107</text><text style="&st18;" transform="matrix(&st16;  1915.47  272.88 )">#60</text><text style="&st18;" transform="matrix(&st16;  1918.41  262.68 )">B</text><text style="&st18;" transform="matrix(&st16;  1656.07  57.58 )">B-R</text><text style="&st18;" transform="matrix(&st16;  1715.56  57.58 )">B-R</text><text style="&st18;" transform="matrix(&st16;  1775.05  57.58 )">B-R</text><text style="&st18;" transform="matrix(&st16;  1834.54  57.58 )">B-R</text><text style="&st18;" transform="matrix(&st17;  1628.03  136.21 )">W</text><text style="&st18;" transform="matrix(&st17;  1687.52  136.21 )">W</text><text style="&st18;" transform="matrix(&st17;  1747.01  135.59 )">G</text><text style="&st18;" transform="matrix(&st17;  1806.5  135.59 )">G</text><text style="&st18;" transform="matrix(&st17;  1865.99  137.45 )">BR</text><text style="&st18;" transform="matrix(&st17;  1916.98  245.92 )">R</text><text style="&st18;" transform="matrix(&st17;  1865.99  246.07 )">G</text><text style="&st18;" transform="matrix(&st17;  1806.5  245.64 )">Y</text><text style="&st18;" transform="matrix(&st17;  1747.01  248.9 )">R-B</text><text style="&st18;" transform="matrix(&st17;  1687.52  245.37 )">L</text><text style="&st18;" transform="matrix(&st17;  1628.03  248.55 )">R-L</text><text style="&st18;" transform="matrix(&st16;  1887.26  321.03 )">HT2B</text><text style="&st18;" transform="matrix(&st16;  1892.92  331.23 )">B</text><text style="&st18;" transform="matrix(&st16;  1882.4  331.23 )">44</text><text style="&st18;" transform="matrix(&st16;  1920.98  321.03 )">OX2B</text><text style="&st18;" transform="matrix(&st16;  1926.91  331.23 )">B</text><text style="&st18;" transform="matrix(&st16;  1913.06  331.23 )">112</text><text style="&st18;" transform="matrix(&st17;  1953.79  455.11 )">C56</text><text style="&st18;" transform="matrix(&st16;  1888.84  460.4 )">2</text><text style="&st18;" transform="matrix(&st16;  1922.84  460.4 )">4</text><text style="&st18;" transform="matrix(&st16;  1888.84  406.03 )">1</text><text style="&st18;" transform="matrix(&st16;  1922.84  406.03 )">3</text><text style="&st18;" transform="matrix(&st17;  1891.49  364.74 )">B</text><text style="&st18;" transform="matrix(&st17;  1925.48  364.9 )">R</text><text style="&st18;" transform="matrix(&st17;  1713.02  483.04 )">L-W</text><text style="&st18;" transform="matrix(&st16;  1727.79  559.0 )">10</text><text style="&st18;" transform="matrix(&st17;  1647.84  191.65 )">a5</text><text style="&st18;" transform="matrix(&st16;  1799.43  331.23 )">B</text><text style="&st18;" transform="matrix(&st16;  1977.9  331.23 )">B</text><text style="&st18;" transform="matrix(&st16;  1707.04  550.5 )">11</text><text style="&st18;" transform="matrix(&st16;  1964.05  331.23 )">113</text><text style="&st18;" transform="matrix(&st17;  1976.47  365.67 )">W</text><text style="&st18;" transform="matrix(&st16;  1891.21  448.51 )">+B</text><text style="&st18;" transform="matrix(&st16;  1925.28  448.51 )">E1</text><text style="&st18;" transform="matrix(&st16;  1887.26  417.35 )">HT2B</text><text style="&st18;" transform="matrix(&st16;  1920.98  417.35 )">OX2B</text><text style="&st18;" transform="matrix(&st17;  1798.0  364.35 )">L</text><text style="&st18;" transform="matrix(&st16;  1742.51  417.35 )">OX1B</text><text style="&st18;" transform="matrix(&st16;  1708.79  417.35 )">HT1B</text><text style="&st18;" transform="matrix(&st16;  1712.74  448.51 )">+B</text><text style="&st18;" transform="matrix(&st16;  1746.81  448.51 )">E1</text><text style="&st18;" transform="matrix(&st17;  1891.49  483.04 )">L-W</text><text style="&st18;" transform="matrix(&st17;  1747.01  365.05 )">G</text><text style="&st18;" transform="matrix(&st17;  1713.02  368.04 )">G-B</text><text style="&st18;" transform="matrix(&st17;  1908.49  367.53 )">(*1)</text><text style="&st18;" transform="matrix(&st16;  1972.32  321.03 )">EX2B</text><text style="&st18;" transform="matrix(&st16;  1744.37  406.03 )">3</text><text style="&st18;" transform="matrix(&st16;  1710.37  406.03 )">1</text><text style="&st18;" transform="matrix(&st16;  1710.37  460.4 )">2</text><text style="&st18;" transform="matrix(&st16;  1744.37  460.4 )">4</text><text style="&st18;" transform="matrix(&st16;  1734.59  331.23 )">114</text><text style="&st18;" transform="matrix(&st16;  1748.44  331.23 )">B</text><text style="&st18;" transform="matrix(&st16;  1742.51  321.03 )">OX1B</text><text style="&st18;" transform="matrix(&st16;  1703.93  331.23 )">45</text><text style="&st18;" transform="matrix(&st16;  1714.45  331.23 )">B</text><text style="&st18;" transform="matrix(&st16;  1708.79  321.03 )">HT1B</text><text style="&st18;" transform="matrix(&st16;  1785.58  331.23 )">115</text><text style="&st18;" transform="matrix(&st17;  1775.32  455.11 )">C20</text><text style="&st18;" transform="matrix(&st17;  1707.33  191.65 )">a1</text><text style="&st18;" transform="matrix(&st17;  1766.82  191.65 )">a6</text><text style="&st18;" transform="matrix(&st17;  1826.31  191.65 )">a2</text><text style="&st18;" transform="matrix(&st17;  1885.8  191.65 )">a7</text><text style="&st18;" transform="matrix(&st17;  1936.79  191.65 )">a3</text><text style="&st18;" transform="matrix(&st17;  1916.98  137.45 )">BR</text><text style="&st18;" transform="matrix(&st16;  1793.85  321.03 )">EX1B</text><text style="&st18;" transform="matrix(&st17;  1730.01  367.53 )">(*1)</text><text style="&st18;" transform="matrix(&st16;  1744.87  558.99 )">L-W</text><text style="&st18;" transform="matrix(&st16;  1737.29  109.99 )">3</text><text style="&st18;" transform="matrix(&st16;  1677.8  109.99 )">4</text><text style="&st18;" transform="matrix(&st16;  1618.31  109.99 )">4</text><text style="&st18;" transform="matrix(&st17;  1967.98  91.68 )">B-R</text><text style="&st18;" transform="matrix(&st17;  1916.98  91.68 )">B-R</text><text style="&st18;" transform="matrix(&st17;  1865.99  91.68 )">B-R</text><text style="&st18;" transform="matrix(&st17;  1806.5  91.68 )">B-R</text><text style="&st18;" transform="matrix(&st17;  1747.01  91.68 )">B-R</text><text style="&st18;" transform="matrix(&st17;  1687.52  91.68 )">B-R</text><text style="&st18;" transform="matrix(&st17;  1628.03  91.68 )">B-R</text><text style="&st18;" transform="matrix(&st17;  1840.5  422.15 )">BR</text><text style="&st18;" transform="matrix(&st16;  1965.33  151.07 )">2</text><text style="&st18;" transform="matrix(&st16;  1965.33  196.95 )">1</text><text style="&st18;" transform="matrix(&st16;  1958.88  262.68 )">83</text><text style="&st18;" transform="matrix(&st16;  1966.46  272.88 )">#70</text><text style="&st18;" transform="matrix(&st16;  1969.4  262.68 )">B</text><text style="&st18;" transform="matrix(&st17;  1967.98  138.07 )">L-R</text><text style="&st18;" transform="matrix(&st17;  1967.97  246.69 )">W</text><text style="&st18;" transform="matrix(&st17;  1987.78  191.65 )">a8</text><text style="&st18;" transform="matrix(&st16;  1889.78  57.58 )">B-R</text><text style="&st18;" transform="matrix(&st16;  1940.77  57.58 )">B-R</text><text style="&st18;" transform="matrix(&st16;  1958.25  228.97 )">5</text><text style="&st18;" transform="matrix(&st16;  1907.26  228.97 )">6</text><text style="&st18;" transform="matrix(&st16;  1856.27  228.97 )">6</text><text style="&st18;" transform="matrix(&st16;  1796.78  228.97 )">7</text><text style="&st18;" transform="matrix(&st16;  1737.29  228.97 )">7</text><text style="&st18;" transform="matrix(&st16;  1677.8  228.97 )">8</text><text style="&st18;" transform="matrix(&st16;  1618.31  228.97 )">8</text><text style="&st18;" transform="matrix(&st17;  1967.98  210.74 )">G-Y</text><text style="&st18;" transform="matrix(&st17;  1916.98  207.13 )">L</text><text style="&st18;" transform="matrix(&st17;  1865.99  207.13 )">L</text><text style="&st18;" transform="matrix(&st17;  1806.5  207.67 )">R</text><text style="&st18;" transform="matrix(&st17;  1747.01  207.67 )">R</text><text style="&st18;" transform="matrix(&st17;  1687.52  207.52 )">B</text><text style="&st18;" transform="matrix(&st17;  1628.03  207.52 )">B</text><text style="&st18;" transform="matrix(&st16;  1958.25  109.99 )">1</text><text style="&st18;" transform="matrix(&st16;  1907.26  109.99 )">2</text><text style="&st18;" transform="matrix(&st16;  1856.27  109.99 )">2</text><text style="&st18;" transform="matrix(&st16;  1796.78  109.99 )">3</text><text style="&st18;" transform="matrix(&st16;  1635.91  331.23 )">62</text><text style="&st18;" transform="matrix(&st16;  1646.46  331.23 )">B</text><text style="&st18;" transform="matrix(&st16;  1641.46  321.03 )">ACIS</text><text style="&st18;" transform="matrix(&st16;  1642.39  460.4 )">1</text><text style="&st18;" transform="matrix(&st16;  1642.39  414.53 )">2</text><text style="&st18;" transform="matrix(&st17;  1664.83  455.11 )">C129</text><text style="&st18;" transform="matrix(&st17;  1645.03  367.3 )">L-Y</text><text style="&st18;" transform="matrix(&st17;  1645.03  483.04 )">L-W</text><text style="&st18;" transform="matrix(&st16;  1642.39  550.5 )">8</text><text style="&st18;" transform="matrix(&st16;  1642.39  579.38 )">7</text><text style="&st18;" transform="matrix(&st16;  1633.89  559.0 )">9</text><text ewd:textID="41" style="&st18;" transform="matrix(&st16;  1687.81  585.91 )">Junction <tspan dy="6.0" x="0 ">Connector</tspan></text><text style="&st18;" transform="matrix(&st16;  1687.8  578.8 )">C42</text><text style="&st18;" transform="matrix(&st16;  1575.33  57.58 )">B-R</text><text style="&st18;" transform="matrix(&st16;  1524.34  57.58 )">B-R</text><text style="&st18;" transform="matrix(&st16;  1574.52  660.98 )">B-W</text><text style="&st18;" transform="matrix(&st16;  1523.52  660.98 )">B-W</text><text style="&st18;" transform="matrix(&st16;  1574.9  635.48 )">L-W</text><text style="&st18;" transform="matrix(&st16;  1523.91  635.48 )">L-W</text><text style="&st18;" transform="matrix(&st16;  1523.91  558.99 )">L-W</text><text style="&st18;" transform="matrix(&st16;  1574.9  558.99 )">L-W</text><text style="&st18;" transform="matrix(&st16;  1578.86  525.0 )">L</text><text style="&st18;" transform="matrix(&st16;  1527.87  525.0 )">L</text><text style="&st18;" transform="matrix(&st16;  1525.31  609.99 )">BR</text><text style="&st18;" transform="matrix(&st16;  1576.3  609.99 )">BR</text><text style="&st18;" transform="matrix(&st16;  1803.96  299.79 )">ECM</text><text style="&st18;" transform="matrix(&st16;  1803.95  292.68 )">A38(A),C45(B)</text><text style="&st18;" transform="matrix(&st17;  1671.94  455.12 )">VSV (ACIS)</text><text ewd:textID="34" style="&st18;" transform="matrix(&st17;  1994.89  191.66 )">Fuel Injector Assembly No.7</text><text ewd:textID="33" style="&st18;" transform="matrix(&st17;  1943.9  191.66 )">Fuel Injector Assembly No.6</text><text ewd:textID="32" style="&st18;" transform="matrix(&st17;  1892.9  191.66 )">Fuel Injector Assembly No.5</text><text ewd:textID="31" style="&st18;" transform="matrix(&st17;  1833.41  191.66 )">Fuel Injector Assembly No.4</text><text ewd:textID="30" style="&st18;" transform="matrix(&st17;  1773.92  191.66 )">Fuel Injector Assembly No.3</text><text ewd:textID="29" style="&st18;" transform="matrix(&st17;  1714.43  191.66 )">Fuel Injector Assembly No.2</text><text ewd:textID="51" style="&st18;" transform="matrix(&st17;  1782.42  455.12 )">Oxygen Sensor <tspan dy="6.0" x="0 ">(Bank 1 Sensor 2)</tspan></text><text ewd:textID="52" style="&st18;" transform="matrix(&st17;  1960.89  455.12 )">Oxygen Sensor <tspan dy="6.0" x="0 ">(Bank 2 Sensor 2)</tspan></text><text ewd:textID="28" style="&st18;" transform="matrix(&st17;  1654.94  191.66 )">Fuel Injector Assembly No.1</text></svg>