﻿<?xml version="1.0" encoding="utf-8"?>
<!DOCTYPE svg PUBLIC "-//W3C//DTD SVG 1.0//EN" "http://www.w3.org/TR/2001/REC-SVG-20010904/DTD/svg10.dtd"[
	<!ENTITY ns_flows "http://ns.adobe.com/Flows/1.0/">
	<!ENTITY ns_svg "http://www.w3.org/2000/svg">
	<!ENTITY ns_xlink "http://www.w3.org/1999/xlink">
	<!ENTITY st0 "font-size:7px;font-family:'MS-PGothic';adobe-font-script:japanese;">
	<!ENTITY st1 "font-size:6px;font-family:'ArialMT';">
	<!-- White fill  -->
	<!ENTITY st2 "fill:#FFFFFF;stroke:#000000; stroke-width:1.41;stroke-linecap:round;stroke-linejoin:round;">
	<!-- Yellow fill  -->
	<!ENTITY st3 "fill:#FFFFCC;stroke:#FFFFCC; stroke-width:0.1;stroke-linecap:round;stroke-linejoin:round;">
	<!-- Gray fill  -->
	<!ENTITY st4 "fill:#CCCCCC;stroke:#CCCCCC; stroke-width:0.1;stroke-linecap:round;stroke-linejoin:round;">
	<!-- Light-blue fill -->
	<!ENTITY st5 "fill:#CCECF4;stroke:#000000; stroke-width:1.133;stroke-linecap:round;stroke-linejoin:round;">
	<!ENTITY st6 "fill:none;stroke-linecap:butt; stroke-linejoin:round;">
	<!ENTITY st7 "fill:none;stroke:#000000;stroke-linecap:round;stroke-linejoin:round;">
	<!ENTITY st8 "enable-background:new    ;">
	<!-- Black fill -->
	<!ENTITY st9 "fill:#000000;stroke:#000000; stroke-linecap:round;stroke-linejoin:round;">
	<!-- SRS note   -->
	<!ENTITY st10 "font-size:9px;font-family:'ArialMT';">
	<!ENTITY st11 "font-size:9px;font-family:'Svg Symbol';">
	<!ENTITY st12 "font-size:6px;font-family:'Svg Symbol';">
	<!ENTITY st13 "fill:none;stroke:#ff0000;stroke-linecap:round;stroke-linejoin:round;">
	<!-- Yellow fill  -->
	<!ENTITY st14 "fill:#FFFF00;stroke:#FFFF00; stroke-width:0.1;stroke-linecap:round;stroke-linejoin:round;">
	<!ENTITY st15 "font-size:6px;font-family:'MS-PGothic';adobe-font-script:japanese;">
	<!ENTITY st16 "1.00 0.00 0.00 1.00">
	<!ENTITY st17 "0.00 -1.00 1.00 0.00">
	<!ENTITY st18 "font-size:6px;font-family:'Arial';">
	<!ENTITY st19 "font-size:9px;font-family:'Arial';">
	<!ENTITY st20 "font-size:6px;font-family:'MS-PGothic','MS PGothic';adobe-font-script:japanese;">
	<!ENTITY st21 "font-size:7px;font-family:'MS-PGothic','MS PGothic';adobe-font-script:japanese;">
	<!ATTLIST svg
		xmlns:ewd CDATA #FIXED "http://shcl.co.jp/ewd"
		xmlns:a CDATA #FIXED "http://ns.adobe.com/AdobeSVGViewerExtensions/3.0/"
		ewd:ver CDATA #IMPLIED
	>
	<!ATTLIST a
		ewd:lineID CDATA #IMPLIED
		ewd:groupID CDATA #IMPLIED
		ewd:figtype CDATA #IMPLIED
		ewd:code CDATA #IMPLIED
		ewd:figID CDATA #IMPLIED
		ewd:pinNo CDATA #IMPLIED
		ewd:comment CDATA #IMPLIED >
	<!ATTLIST g
		ewd:lineID CDATA #IMPLIED
		ewd:groupID CDATA #IMPLIED
		ewd:figtype CDATA #IMPLIED
		ewd:code CDATA #IMPLIED
		ewd:figID CDATA #IMPLIED
		ewd:pinNo CDATA #IMPLIED
		ewd:comment CDATA #IMPLIED >
	<!ATTLIST text
		ewd:textID CDATA #IMPLIED >
	<!ATTLIST title
		ewd:textID CDATA #IMPLIED >
]>
<!-- Generator: Shintec Hozumi YS   -->
<svg onload="call_execInitLoadProc_svg('system')" style="overflow:visible;  enable-background:new 0 0 10819.401 710.000" viewBox="0 0 10819.401 710.000" height="710.000" width="10819.401" xml:space="preserve" ewd:ver="L2.3.0.14" xmlns="&ns_svg;" xmlns:a="http://ns.adobe.com/AdobeSVGViewerExtensions/3.0/" xmlns:ewd="http://shcl.co.jp/ewd" xmlns:xlink="&ns_xlink;">
<path d=" M  1642.35,   171.76  L  1638.10,   171.76  " style="stroke-width: 1.42 ;&st7;  " /><path d=" M  1642.35,   163.26  L  1638.10,   163.26  " style="stroke-width: 1.42 ;&st7;  " /><path d=" M  1640.23,   129.26  L  1640.23,   163.26  " style="stroke-width: 0.85 ;&st7;  " /><path d=" M  1631.73,   231.25  L  1640.23,   231.25  " style="stroke-width: 1.42 ;&st7;  " /><path d=" M  1903.68,   265.24  L  7419.26,   265.24  L  7419.26,   307.73  L  1903.68,   307.73  L  1903.68,   265.24  " style="stroke-width: 1.42 ;&st7;  " /><path d=" M  1627.48,    95.27  L  1627.48,   137.76  L  1652.97,   137.76  L  1652.97,    95.27  L  1627.48,    95.27  " style="stroke-width: 1.42 ;&st7;  " /><path d=" M  1640.23,   158.36  L  1637.39,   155.53  L  1637.39,   159.78  L  1640.23,   162.61  L  1643.06,   159.78  L  1643.06,   155.53  L  1640.23,   158.36  " style="stroke-width: 0.28 ;&st9;  " /><path d=" M  1644.47,   225.58  L  1640.23,   229.83  L  1635.98,   225.58  " style="stroke-width: 1.42 ;&st7;  " /><path d=" M  1635.98,   222.18  L  1640.23,   226.43  L  1644.47,   222.18  " style="stroke-width: 1.42 ;&st7;  " /><path d=" M  1644.76,   303.20  C  1644.76    300.70   1642.73    298.67   1640.23    298.67  " style="stroke-width: 1.42 ;&st7;   " /><path d=" M  1640.23,   298.67  C  1637.72    298.67   1635.69    300.70   1635.69    303.20  " style="stroke-width: 1.42 ;&st7;   " /><path d=" M  1635.69,   303.20  C  1635.69    305.70   1637.72    307.73   1640.23    307.73  " style="stroke-width: 1.42 ;&st7;   " /><path d=" M  1640.23,   307.73  C  1642.73    307.73   1644.76    305.70   1644.76    303.20  " style="stroke-width: 1.42 ;&st7;   " /><path d=" M  1721.25,   303.20  C  1721.25    300.70   1719.22    298.67   1716.71    298.67  " style="stroke-width: 1.42 ;&st7;   " /><path d=" M  1716.71,   298.67  C  1714.21    298.67   1712.18    300.70   1712.18    303.20  " style="stroke-width: 1.42 ;&st7;   " /><path d=" M  1712.18,   303.20  C  1712.18    305.70   1714.21    307.73   1716.71    307.73  " style="stroke-width: 1.42 ;&st7;   " /><path d=" M  1716.71,   307.73  C  1719.22    307.73   1721.25    305.70   1721.25    303.20  " style="stroke-width: 1.42 ;&st7;   " /><path d=" M  1721.25,   354.76  C  1721.25    352.26   1719.22    350.23   1716.71    350.23  " style="stroke-width: 1.42 ;&st7;   " /><path d=" M  1716.71,   350.23  C  1714.21    350.23   1712.18    352.26   1712.18    354.76  " style="stroke-width: 1.42 ;&st7;   " /><path d=" M  1712.18,   354.76  C  1712.18    357.26   1714.21    359.29   1716.71    359.29  " style="stroke-width: 1.42 ;&st7;   " /><path d=" M  1716.71,   359.29  C  1719.22    359.29   1721.25    357.26   1721.25    354.76  " style="stroke-width: 1.42 ;&st7;   " /><path d=" M  1763.74,   303.20  C  1763.74    300.70   1761.71    298.67   1759.21    298.67  " style="stroke-width: 1.42 ;&st7;   " /><path d=" M  1759.21,   298.67  C  1756.70    298.67   1754.67    300.70   1754.67    303.20  " style="stroke-width: 1.42 ;&st7;   " /><path d=" M  1754.67,   303.20  C  1754.67    305.70   1756.70    307.73   1759.21    307.73  " style="stroke-width: 1.42 ;&st7;   " /><path d=" M  1759.21,   307.73  C  1761.71    307.73   1763.74    305.70   1763.74    303.20  " style="stroke-width: 1.42 ;&st7;   " /><path d=" M  1763.74,   354.76  C  1763.74    352.26   1761.71    350.23   1759.21    350.23  " style="stroke-width: 1.42 ;&st7;   " /><path d=" M  1759.21,   350.23  C  1756.70    350.23   1754.67    352.26   1754.67    354.76  " style="stroke-width: 1.42 ;&st7;   " /><path d=" M  1754.67,   354.76  C  1754.67    357.26   1756.70    359.29   1759.21    359.29  " style="stroke-width: 1.42 ;&st7;   " /><path d=" M  1759.21,   359.29  C  1761.71    359.29   1763.74    357.26   1763.74    354.76  " style="stroke-width: 1.42 ;&st7;   " /><path d=" M  1806.23,   303.20  C  1806.23    300.70   1804.20    298.67   1801.70    298.67  " style="stroke-width: 1.42 ;&st7;   " /><path d=" M  1801.70,   298.67  C  1799.20    298.67   1797.17    300.70   1797.17    303.20  " style="stroke-width: 1.42 ;&st7;   " /><path d=" M  1797.17,   303.20  C  1797.17    305.70   1799.20    307.73   1801.70    307.73  " style="stroke-width: 1.42 ;&st7;   " /><path d=" M  1801.70,   307.73  C  1804.20    307.73   1806.23    305.70   1806.23    303.20  " style="stroke-width: 1.42 ;&st7;   " /><path d=" M  1806.23,   354.76  C  1806.23    352.26   1804.20    350.23   1801.70    350.23  " style="stroke-width: 1.42 ;&st7;   " /><path d=" M  1801.70,   350.23  C  1799.20    350.23   1797.17    352.26   1797.17    354.76  " style="stroke-width: 1.42 ;&st7;   " /><path d=" M  1797.17,   354.76  C  1797.17    357.26   1799.20    359.29   1801.70    359.29  " style="stroke-width: 1.42 ;&st7;   " /><path d=" M  1801.70,   359.29  C  1804.20    359.29   1806.23    357.26   1806.23    354.76  " style="stroke-width: 1.42 ;&st7;   " /><path d=" M  1925.21,   260.71  C  1925.21    258.21   1923.18    256.18   1920.68    256.18  " style="stroke-width: 1.42 ;&st7;   " /><path d=" M  1920.68,   256.18  C  1918.18    256.18   1916.15    258.21   1916.15    260.71  " style="stroke-width: 1.42 ;&st7;   " /><path d=" M  1916.15,   260.71  C  1916.15    263.21   1918.18    265.24   1920.68    265.24  " style="stroke-width: 1.42 ;&st7;   " /><path d=" M  1920.68,   265.24  C  1923.18    265.24   1925.21    263.21   1925.21    260.71  " style="stroke-width: 1.42 ;&st7;   " /><path d=" M  1967.70,   260.71  C  1967.70    258.21   1965.68    256.18   1963.17    256.18  " style="stroke-width: 1.42 ;&st7;   " /><path d=" M  1963.17,   256.18  C  1960.67    256.18   1958.64    258.21   1958.64    260.71  " style="stroke-width: 1.42 ;&st7;   " /><path d=" M  1958.64,   260.71  C  1958.64    263.21   1960.67    265.24   1963.17    265.24  " style="stroke-width: 1.42 ;&st7;   " /><path d=" M  1963.17,   265.24  C  1965.68    265.24   1967.70    263.21   1967.70    260.71  " style="stroke-width: 1.42 ;&st7;   " /><path d=" M  1925.21,   312.27  C  1925.21    309.76   1923.18    307.73   1920.68    307.73  " style="stroke-width: 1.42 ;&st7;   " /><path d=" M  1920.68,   307.73  C  1918.18    307.73   1916.15    309.76   1916.15    312.27  " style="stroke-width: 1.42 ;&st7;   " /><path d=" M  1916.15,   312.27  C  1916.15    314.77   1918.18    316.80   1920.68    316.80  " style="stroke-width: 1.42 ;&st7;   " /><path d=" M  1920.68,   316.80  C  1923.18    316.80   1925.21    314.77   1925.21    312.27  " style="stroke-width: 1.42 ;&st7;   " /><path d=" M  1967.70,   312.27  C  1967.70    309.76   1965.68    307.73   1963.17    307.73  " style="stroke-width: 1.42 ;&st7;   " /><path d=" M  1963.17,   307.73  C  1960.67    307.73   1958.64    309.76   1958.64    312.27  " style="stroke-width: 1.42 ;&st7;   " /><path d=" M  1958.64,   312.27  C  1958.64    314.77   1960.67    316.80   1963.17    316.80  " style="stroke-width: 1.42 ;&st7;   " /><path d=" M  1963.17,   316.80  C  1965.68    316.80   1967.70    314.77   1967.70    312.27  " style="stroke-width: 1.42 ;&st7;   " /><path d=" M  1640.23,   106.60  C  1639.37    109.52   1640.03    112.41   1642.07    114.67  " style="stroke-width: 1.42 ;&st7;   " /><path d=" M  1640.23,   106.60  C  1638.05    109.62   1638.05    113.49   1640.23    116.52  " style="stroke-width: 1.42 ;&st7;   " /><path d=" M  1640.23,   106.60  C  1636.51    109.37   1635.69    114.59   1638.39    118.36  " style="stroke-width: 1.42 ;&st7;   " /><path d=" M  1640.23,   126.43  C  1643.94    123.66   1644.76    118.45   1642.07    114.68  " style="stroke-width: 1.42 ;&st7;   " /><path d=" M  1640.23,   126.43  C  1642.40    123.41   1642.40    119.54   1640.23    116.52  " style="stroke-width: 1.42 ;&st7;   " /><path d=" M  1640.23,   126.43  C  1641.08    123.51   1640.42    120.62   1638.38    118.36  " style="stroke-width: 1.42 ;&st7;   " /><path d=" M  1641.64,   105.18  C  1641.64    104.40   1641.01    103.77   1640.23    103.77  " style="stroke-width: 0.85 ;&st7;   " /><path d=" M  1640.23,   103.77  C  1639.44    103.77   1638.81    104.40   1638.81    105.18  " style="stroke-width: 0.85 ;&st7;   " /><path d=" M  1638.81,   105.18  C  1638.81    105.97   1639.44    106.60   1640.23    106.60  " style="stroke-width: 0.85 ;&st7;   " /><path d=" M  1640.23,   106.60  C  1641.01    106.60   1641.64    105.97   1641.64    105.18  " style="stroke-width: 0.85 ;&st7;   " /><path d=" M  1641.64,   127.85  C  1641.64    127.07   1641.01    126.43   1640.23    126.43  " style="stroke-width: 0.85 ;&st7;   " /><path d=" M  1640.23,   126.43  C  1639.44    126.43   1638.81    127.07   1638.81    127.85  " style="stroke-width: 0.85 ;&st7;   " /><path d=" M  1638.81,   127.85  C  1638.81    128.63   1639.44    129.26   1640.23    129.26  " style="stroke-width: 0.85 ;&st7;   " /><path d=" M  1640.23,   129.26  C  1641.01    129.26   1641.64    128.63   1641.64    127.85  " style="stroke-width: 0.85 ;&st7;   " /><path d=" M  1646.60,   167.51  C  1646.60    165.16   1644.70    163.26   1642.35    163.26  " style="stroke-width: 1.42 ;&st7;   " /><path d=" M  1642.35,   171.76  C  1644.70    171.76   1646.60    169.85   1646.60    167.51  " style="stroke-width: 1.42 ;&st7;   " /><path d=" M  1633.85,   167.51  C  1633.85    169.85   1635.75    171.76   1638.10    171.76  " style="stroke-width: 1.42 ;&st7;   " /><path d=" M  1638.10,   163.26  C  1635.75    163.26   1633.85    165.16   1633.85    167.51  " style="stroke-width: 1.42 ;&st7;   " /><text style="&st18;" transform="matrix(&st16;  1630.75  305.17 )">1</text><text style="&st18;" transform="matrix(&st16;  1637.96  305.17 )">A</text><text style="&st18;" transform="matrix(&st16;  1632.45  315.37 )">BAT2</text><text style="&st18;" transform="matrix(&st16;  1712.82  346.53 )">E2</text><text style="&st18;" transform="matrix(&st16;  1714.45  356.73 )">B</text><text style="&st18;" transform="matrix(&st16;  1707.26  356.73 )">1</text><text style="&st18;" transform="matrix(&st16;  1707.23  305.17 )">3</text><text style="&st18;" transform="matrix(&st16;  1714.45  305.17 )">B</text><text style="&st18;" transform="matrix(&st16;  1709.95  315.37 )">SIV2</text><text style="&st18;" transform="matrix(&st16;  1753.57  346.53 )">+B2</text><text style="&st18;" transform="matrix(&st16;  1756.94  356.73 )">B</text><text style="&st18;" transform="matrix(&st16;  1749.75  356.73 )">5</text><text style="&st18;" transform="matrix(&st16;  1749.73  305.17 )">4</text><text style="&st18;" transform="matrix(&st16;  1756.94  305.17 )">B</text><text style="&st18;" transform="matrix(&st16;  1752.44  315.37 )">SIP2</text><text style="&st18;" transform="matrix(&st16;  1796.84  346.53 )">W2</text><text style="&st18;" transform="matrix(&st16;  1799.43  356.73 )">B</text><text style="&st18;" transform="matrix(&st16;  1792.25  356.73 )">6</text><text style="&st18;" transform="matrix(&st16;  1792.22  305.17 )">2</text><text style="&st18;" transform="matrix(&st16;  1799.43  305.17 )">B</text><text style="&st18;" transform="matrix(&st16;  1796.8  315.37 )">DI2</text><text style="&st18;" transform="matrix(&st16;  1956.93  284.18 )">A38(A),C45(B)</text><text style="&st18;" transform="matrix(&st16;  1956.93  291.29 )">ECM</text><text style="&st18;" transform="matrix(&st16;  1907.86  262.68 )">51</text><text style="&st18;" transform="matrix(&st16;  1918.41  262.68 )">B</text><text style="&st18;" transform="matrix(&st16;  1913.76  272.88 )">AID2</text><text style="&st18;" transform="matrix(&st16;  1950.36  262.68 )">62</text><text style="&st18;" transform="matrix(&st16;  1960.91  262.68 )">B</text><text style="&st18;" transform="matrix(&st16;  1955.09  272.88 )">ARP2</text><text style="&st18;" transform="matrix(&st16;  1992.85  262.68 )">60</text><text style="&st18;" transform="matrix(&st16;  1997.58  272.88 )">ARV2</text><text style="&st18;" transform="matrix(&st16;  1914.61  304.04 )">AIDI</text><text style="&st18;" transform="matrix(&st16;  1918.41  314.24 )">B</text><text style="&st18;" transform="matrix(&st16;  1907.89  314.24 )">52</text><text style="&st18;" transform="matrix(&st16;  1955.9  304.04 )">AIRP</text><text style="&st18;" transform="matrix(&st16;  1960.91  314.24 )">B</text><text style="&st18;" transform="matrix(&st16;  1950.39  314.24 )">63</text><text style="&st18;" transform="matrix(&st16;  1998.4  304.04 )">AIRV</text><text style="&st18;" transform="matrix(&st16;  1992.88  314.24 )">61</text><text style="&st18;" transform="matrix(&st16;  1632.14  91.57 )">(BAT)</text><text style="&st18;" transform="matrix(&st16;  1638.35  169.48 )">1</text><text style="&st18;" transform="matrix(&st16;  1656.65  112.83 )">50A <tspan dy="6.0" x="0 ">AIR PMP </tspan><tspan dy="6.0" x="0 ">NO.2</tspan></text><text style="&st18;" transform="matrix(&st16;  1633.89  145.96 )">2</text><text style="&st18;" transform="matrix(&st16;  1626.81  237.47 )">1</text><text style="&st18;" transform="matrix(&st17;  1636.53  275.12 )">L</text><text style="&st18;" transform="matrix(&st17;  1647.86  278.3 )">(*4)</text><text style="&st18;" transform="matrix(&st17;  1636.53  198.63 )">L</text><text style="&st18;" transform="matrix(&st17;  1647.86  201.81 )">(*4)</text><text style="&st18;" transform="matrix(&st17;  1928.32  363.28 )">(*4)</text><text style="&st18;" transform="matrix(&st17;  1916.98  360.8 )">G</text><text style="&st18;" transform="matrix(&st17;  1970.81  363.28 )">(*4)</text><text style="&st18;" transform="matrix(&st17;  1959.48  360.49 )">P</text><text style="&st18;" transform="matrix(&st17;  1928.32  235.8 )">(*4)</text><text style="&st18;" transform="matrix(&st17;  1959.48  233.01 )">P</text><text style="&st18;" transform="matrix(&st17;  1970.81  235.8 )">(*4)</text><text style="&st18;" transform="matrix(&st17;  1916.98  232.63 )">L</text><text ewd:textID="15" style="&st18;" transform="matrix(&st16;  1585.83  364.94 )">Air Injection Control <tspan dy="6.0" x="0 ">Driver (Bank 2)</tspan></text><text style="&st18;" transform="matrix(&st16;  1585.82  358.12 )">C175(A),C176(B)</text><text style="&st18;" transform="matrix(&st17;  1798.0  275.12 )">L</text><text style="&st18;" transform="matrix(&st17;  1766.84  278.3 )">(*4)</text><text style="&st18;" transform="matrix(&st17;  1755.51  275.51 )">P</text><text style="&st18;" transform="matrix(&st17;  1713.02  275.66 )">R</text><text style="&st18;" transform="matrix(&st17;  1809.33  278.3 )">(*4)</text><text style="&st18;" transform="matrix(&st17;  1724.35  278.3 )">(*4)</text><text style="&st18;" transform="matrix(&st17;  1809.33  405.78 )">(*4)</text><text style="&st18;" transform="matrix(&st17;  1798.0  402.98 )">B</text><text style="&st18;" transform="matrix(&st17;  1713.02  406.94 )">W-B</text><text style="&st18;" transform="matrix(&st17;  1724.35  405.78 )">(*4)</text><text style="&st18;" transform="matrix(&st17;  1766.84  405.78 )">(*4)</text><text style="&st18;" transform="matrix(&st17;  1755.51  402.6 )">L</text><text style="&st18;" transform="matrix(&st16;  1527.87  584.49 )">L</text><text style="&st18;" transform="matrix(&st16;  1578.86  584.49 )">L</text><text style="&st18;" transform="matrix(&st16;  1578.47  643.98 )">B</text><text style="&st18;" transform="matrix(&st16;  1578.47  609.99 )">B</text><text style="&st18;" transform="matrix(&st16;  1527.48  643.98 )">B</text><text style="&st18;" transform="matrix(&st16;  1527.48  609.99 )">B</text><text style="&st18;" transform="matrix(&st16;  1569.71  660.98 )">W-B(*4)</text><text style="&st18;" transform="matrix(&st16;  1518.72  660.98 )">W-B(*4)</text><text style="&st18;" transform="matrix(&st16;  1527.87  32.08 )">L</text><text style="&st18;" transform="matrix(&st16;  1578.47  49.08 )">V</text><text style="&st18;" transform="matrix(&st16;  1578.86  32.08 )">L</text><text style="&st18;" transform="matrix(&st16;  1527.48  49.08 )">V</text><text style="&st18;" transform="matrix(&st16;  1577.54  66.08 )">W</text><text style="&st18;" transform="matrix(&st16;  1526.55  66.08 )">W</text><text style="&st18;" transform="matrix(&st16;  1522.67  533.5 )">B(*4)</text><text style="&st18;" transform="matrix(&st16;  1573.66  533.5 )">B(*4)</text><text style="&st18;" transform="matrix(&st16;  1520.5  516.5 )">BR(*4)</text><text style="&st18;" transform="matrix(&st16;  1571.49  516.5 )">BR(*4)</text><text style="&st18;" transform="matrix(&st16;  1522.67  499.5 )">P(*4)</text><text style="&st18;" transform="matrix(&st16;  1573.66  499.5 )">P(*4)</text><text style="&st18;" transform="matrix(&st16;  1522.36  482.51 )">G(*4)</text><text style="&st18;" transform="matrix(&st16;  1573.35  482.51 )">G(*4)</text><text style="&st18;" transform="matrix(&st16;  1523.02  465.51 )">L(*4)</text><text style="&st18;" transform="matrix(&st16;  1574.01  465.51 )">L(*4)</text><text style="&st18;" transform="matrix(&st16;  1518.72  440.01 )">W-B(*4)</text><text style="&st18;" transform="matrix(&st16;  1569.71  440.01 )">W-B(*4)</text></svg>