﻿<?xml version="1.0" encoding="utf-8"?>
<!DOCTYPE svg PUBLIC "-//W3C//DTD SVG 1.0//EN" "http://www.w3.org/TR/2001/REC-SVG-20010904/DTD/svg10.dtd"[
	<!ENTITY ns_flows "http://ns.adobe.com/Flows/1.0/">
	<!ENTITY ns_svg "http://www.w3.org/2000/svg">
	<!ENTITY ns_xlink "http://www.w3.org/1999/xlink">
	<!ENTITY st0 "font-size:7px;font-family:'MS-PGothic';adobe-font-script:japanese;">
	<!ENTITY st1 "font-size:6px;font-family:'ArialMT';">
	<!-- White fill  -->
	<!ENTITY st2 "fill:#FFFFFF;stroke:#000000; stroke-width:1.41;stroke-linecap:round;stroke-linejoin:round;">
	<!-- Yellow fill  -->
	<!ENTITY st3 "fill:#FFFFCC;stroke:#FFFFCC; stroke-width:0.1;stroke-linecap:round;stroke-linejoin:round;">
	<!-- Gray fill  -->
	<!ENTITY st4 "fill:#CCCCCC;stroke:#CCCCCC; stroke-width:0.1;stroke-linecap:round;stroke-linejoin:round;">
	<!-- Light-blue fill -->
	<!ENTITY st5 "fill:#CCECF4;stroke:#000000; stroke-width:1.133;stroke-linecap:round;stroke-linejoin:round;">
	<!ENTITY st6 "fill:none;stroke-linecap:butt; stroke-linejoin:round;">
	<!ENTITY st7 "fill:none;stroke:#000000;stroke-linecap:round;stroke-linejoin:round;">
	<!ENTITY st8 "enable-background:new    ;">
	<!-- Black fill -->
	<!ENTITY st9 "fill:#000000;stroke:#000000; stroke-linecap:round;stroke-linejoin:round;">
	<!-- SRS note   -->
	<!ENTITY st10 "font-size:9px;font-family:'ArialMT';">
	<!ENTITY st11 "font-size:9px;font-family:'Svg Symbol';">
	<!ENTITY st12 "font-size:6px;font-family:'Svg Symbol';">
	<!ENTITY st13 "fill:none;stroke:#ff0000;stroke-linecap:round;stroke-linejoin:round;">
	<!-- Yellow fill  -->
	<!ENTITY st14 "fill:#FFFF00;stroke:#FFFF00; stroke-width:0.1;stroke-linecap:round;stroke-linejoin:round;">
	<!ENTITY st15 "font-size:6px;font-family:'MS-PGothic';adobe-font-script:japanese;">
	<!ENTITY st16 "1.00 0.00 0.00 1.00">
	<!ENTITY st17 "0.00 -1.00 1.00 0.00">
	<!ENTITY st18 "font-size:6px;font-family:'Arial';">
	<!ENTITY st19 "font-size:9px;font-family:'Arial';">
	<!ENTITY st20 "font-size:6px;font-family:'MS-PGothic','MS PGothic';adobe-font-script:japanese;">
	<!ENTITY st21 "font-size:7px;font-family:'MS-PGothic','MS PGothic';adobe-font-script:japanese;">
	<!ATTLIST svg
		xmlns:ewd CDATA #FIXED "http://shcl.co.jp/ewd"
		xmlns:a CDATA #FIXED "http://ns.adobe.com/AdobeSVGViewerExtensions/3.0/"
		ewd:ver CDATA #IMPLIED
	>
	<!ATTLIST a
		ewd:lineID CDATA #IMPLIED
		ewd:groupID CDATA #IMPLIED
		ewd:figtype CDATA #IMPLIED
		ewd:code CDATA #IMPLIED
		ewd:figID CDATA #IMPLIED
		ewd:pinNo CDATA #IMPLIED
		ewd:comment CDATA #IMPLIED >
	<!ATTLIST g
		ewd:lineID CDATA #IMPLIED
		ewd:groupID CDATA #IMPLIED
		ewd:figtype CDATA #IMPLIED
		ewd:code CDATA #IMPLIED
		ewd:figID CDATA #IMPLIED
		ewd:pinNo CDATA #IMPLIED
		ewd:comment CDATA #IMPLIED >
	<!ATTLIST text
		ewd:textID CDATA #IMPLIED >
	<!ATTLIST title
		ewd:textID CDATA #IMPLIED >
]>
<!-- Generator: Shintec Hozumi YS   -->
<svg onload="call_execInitLoadProc_svg('system')" style="overflow:visible;  enable-background:new 0 0 8799.402 710.000" viewBox="0 0 8799.402 710.000" height="710.000" width="8799.402" xml:space="preserve" ewd:ver="L2.3.0.14" xmlns="&ns_svg;" xmlns:a="http://ns.adobe.com/AdobeSVGViewerExtensions/3.0/" xmlns:ewd="http://shcl.co.jp/ewd" xmlns:xlink="&ns_xlink;">
<path d=" M  7440.51,   222.75  L  7432.01,   222.75  " style="stroke-width: 0.85 ;&st7;  " /><path d=" M  7500.00,   222.75  L  7491.50,   222.75  " style="stroke-width: 0.85 ;&st7;  " /><path d=" M  7470.25,   210.00  L  7470.25,   201.50  " style="stroke-width: 0.85 ;&st7;  " /><path d=" M  7495.75,    86.77  L  7495.75,   112.27  " style="stroke-width: 0.85 ;&st7;  " /><path d=" M  7497.87,   112.27  L  7493.62,   112.27  " style="stroke-width: 1.42 ;&st7;  " /><path d=" M  7497.87,   120.77  L  7493.62,   120.77  " style="stroke-width: 1.42 ;&st7;  " /><path d=" M  7487.25,   154.76  L  7495.75,   154.76  " style="stroke-width: 1.42 ;&st7;  " /><path d=" M  7359.77,    86.77  L  7359.77,   112.27  " style="stroke-width: 0.85 ;&st7;  " /><path d=" M  7361.89,   112.27  L  7357.65,   112.27  " style="stroke-width: 1.42 ;&st7;  " /><path d=" M  7361.89,   120.77  L  7357.65,   120.77  " style="stroke-width: 1.42 ;&st7;  " /><path d=" M  7361.89,   163.26  L  7357.65,   163.26  " style="stroke-width: 1.42 ;&st7;  " /><path d=" M  7361.89,   154.76  L  7357.65,   154.76  " style="stroke-width: 1.42 ;&st7;  " /><path d=" M  7404.39,   154.76  L  7400.14,   154.76  " style="stroke-width: 1.42 ;&st7;  " /><path d=" M  7404.39,   163.26  L  7400.14,   163.26  " style="stroke-width: 1.42 ;&st7;  " /><path d=" M  7368.27,   545.69  L  7359.77,   545.69  " style="stroke-width: 1.42 ;&st7;  " /><path d=" M  7028.33,   214.25  L  7036.82,   214.25  " style="stroke-width: 1.42 ;&st7;  " /><path d=" M  7038.95,   171.76  L  7034.70,   171.76  " style="stroke-width: 1.42 ;&st7;  " /><path d=" M  7038.95,   163.26  L  7034.70,   163.26  " style="stroke-width: 1.42 ;&st7;  " /><path d=" M  7036.82,   129.26  L  7036.82,   137.76  " style="stroke-width: 0.85 ;&st7;  " /><path d=" M  7081.44,   171.76  L  7077.19,   171.76  " style="stroke-width: 1.42 ;&st7;  " /><path d=" M  7081.44,   163.26  L  7077.19,   163.26  " style="stroke-width: 1.42 ;&st7;  " /><path d=" M  7079.32,   129.26  L  7079.32,   137.76  " style="stroke-width: 0.85 ;&st7;  " /><path d=" M  7208.92,   163.26  L  7204.67,   163.26  " style="stroke-width: 1.42 ;&st7;  " /><path d=" M  7208.92,   171.76  L  7204.67,   171.76  " style="stroke-width: 1.42 ;&st7;  " /><path d=" M  7147.31,   494.70  L  7138.81,   494.70  " style="stroke-width: 1.42 ;&st7;  " /><path d=" M  7198.30,   234.78  L  7203.27,   239.75  " style="stroke-width: 1.42 ;&st7;  " /><path d=" M  7215.29,   227.72  L  7210.32,   222.75  " style="stroke-width: 1.42 ;&st7;  " /><path d=" M  7130.31,   307.73  L  7138.81,   307.73  " style="stroke-width: 1.42 ;&st7;  " /><path d=" M  7206.80,   426.71  L  7206.80,   422.46  " style="stroke-width: 0.85 ;&st7;  " /><path d=" M  7206.80,   419.63  L  7212.46,   396.97  " style="stroke-width: 1.42 ;&st7;  " /><path d=" M  7210.32,   239.75  L  7215.29,   234.78  " style="stroke-width: 1.42 ;&st7;  " /><path d=" M  7203.27,   222.75  L  7198.30,   227.72  " style="stroke-width: 1.42 ;&st7;  " /><path d=" M  7206.80,   396.97  L  7206.80,   392.72  " style="stroke-width: 0.85 ;&st7;  " /><path d=" M  7138.81,   419.63  L  7144.47,   396.97  " style="stroke-width: 1.42 ;&st7;  " /><path d=" M  7138.81,   426.71  L  7138.81,   422.46  " style="stroke-width: 0.85 ;&st7;  " /><path d=" M  7138.81,   396.97  L  7138.81,   392.72  " style="stroke-width: 0.85 ;&st7;  " /><path d=" M  7079.31,   146.26  L  7206.79,   146.26  L  7206.79,   163.26  " style="stroke-width: 0.85 ;&st7;  " /><path d=" M  7317.27,   197.25  L  7317.27,   435.21  L  7929.17,   435.21  L  7929.17,   197.25  L  7317.27,   197.25  " style="stroke-width: 1.42 ;&st7;  " /><path d=" M  7342.77,   324.73  L  7878.18,   324.73  L  7878.18,   375.72  L  7342.77,   375.72  L  7342.77,   324.73  " style="stroke-width: 1.42 ;&st7;  " /><path d=" M  7359.77,   307.73  L  7359.77,   324.73  " style="stroke-width: 0.85 ;&st7;  " /><path d=" M  7368.27,   307.73  L  7368.27,   324.73  " style="stroke-width: 0.85 ;&st7;  " /><path d=" M  7342.77,   290.74  L  7342.77,   307.73  L  7393.76,   307.73  L  7393.76,   282.24  L  7342.77,   282.24  L  7342.77,   290.74  " style="stroke-width: 1.42 ;&st7;  " /><path d=" M  7376.76,   307.73  L  7376.76,   324.73  " style="stroke-width: 0.85 ;&st7;  " /><path d=" M  7376.76,   401.22  L  7376.76,   392.72  L  7359.77,   392.72  " style="stroke-width: 0.85 ;&st7;  " /><path d=" M  7359.77,   375.72  L  7359.77,   435.21  " style="stroke-width: 0.85 ;&st7;  " /><path d=" M  7368.27,   401.22  L  7385.26,   401.22  " style="stroke-width: 0.85 ;&st7;  " /><path d=" M  7372.52,   404.05  L  7381.01,   404.05  " style="stroke-width: 0.85 ;&st7;  " /><path d=" M  7373.93,   406.88  L  7379.60,   406.88  " style="stroke-width: 0.85 ;&st7;  " /><path d=" M  7375.35,   409.72  L  7378.18,   409.72  " style="stroke-width: 0.85 ;&st7;  " /><path d=" M  7358.57,   391.72  L  7358.30,   392.19  L  7358.21,   392.72  L  7358.30,   393.25  L  7358.57,   393.72  L  7358.99,   394.07  L  7359.50,   394.26  L  7360.04,   394.26  L  7360.55,   394.07  L  7360.96,   393.72  L  7361.23,   393.25  L  7361.33,   392.72  L  7361.23,   392.19  L  7360.96,   391.72  L  7360.55,   391.37  L  7360.04,   391.18  L  7359.50,   391.18  L  7358.99,   391.37  L  7358.57,   391.72  L  7358.97,   392.43  L  7358.97,   393.01  L  7359.34,   393.46  L  7359.91,   393.56  L  7360.42,   393.27  L  7360.62,   392.72  L  7360.42,   392.17  L  7359.91,   391.88  L  7359.34,   391.98  L  7359.77,   392.72  " style="stroke-width: 0.85 ;&st7;  " /><path d=" M  7453.25,   231.25  L  7453.25,   205.75  L  7495.74,   205.75  " style="stroke-width: 0.85 ;&st7;  " /><path d=" M  7436.25,   222.75  L  7430.59,   214.25  L  7441.92,   214.25  L  7436.25,   222.75  " style="stroke-width: 0.28 ;&st9;  " /><path d=" M  7436.25,   197.25  L  7436.25,   231.25  " style="stroke-width: 0.85 ;&st7;  " /><path d=" M  7495.74,   222.75  L  7490.08,   214.25  L  7501.41,   214.25  L  7495.74,   222.75  " style="stroke-width: 0.28 ;&st9;  " /><path d=" M  7495.74,   197.25  L  7495.74,   324.73  " style="stroke-width: 0.85 ;&st7;  " /><path d=" M  7470.25,   205.75  L  7478.75,   200.09  L  7478.75,   211.42  L  7470.25,   205.75  " style="stroke-width: 0.28 ;&st9;  " /><path d=" M  7334.27,   222.75  L  7402.26,   222.75  L  7402.26,   256.74  L  7334.27,   256.74  L  7334.27,   222.75  " style="stroke-width: 1.42 ;&st7;  " /><path d=" M  7435.06,   230.24  L  7434.79,   230.71  L  7434.70,   231.25  L  7434.79,   231.78  L  7435.06,   232.25  L  7435.48,   232.60  L  7435.99,   232.78  L  7436.52,   232.78  L  7437.03,   232.60  L  7437.45,   232.25  L  7437.72,   231.78  L  7437.81,   231.25  L  7437.72,   230.71  L  7437.45,   230.24  L  7437.03,   229.90  L  7436.52,   229.71  L  7435.99,   229.71  L  7435.48,   229.90  L  7435.06,   230.24  L  7435.46,   230.96  L  7435.46,   231.54  L  7435.83,   231.98  L  7436.40,   232.08  L  7436.91,   231.79  L  7437.10,   231.25  L  7436.91,   230.70  L  7436.40,   230.41  L  7435.83,   230.51  L  7436.25,   231.25  " style="stroke-width: 0.85 ;&st7;  " /><path d=" M  7452.06,   230.24  L  7451.79,   230.71  L  7451.69,   231.25  L  7451.79,   231.78  L  7452.06,   232.25  L  7452.47,   232.60  L  7452.98,   232.78  L  7453.52,   232.78  L  7454.03,   232.60  L  7454.44,   232.25  L  7454.72,   231.78  L  7454.81,   231.25  L  7454.72,   230.71  L  7454.44,   230.24  L  7454.03,   229.90  L  7453.52,   229.71  L  7452.98,   229.71  L  7452.47,   229.90  L  7452.06,   230.24  L  7452.45,   230.96  L  7452.45,   231.54  L  7452.83,   231.98  L  7453.40,   232.08  L  7453.90,   231.79  L  7454.10,   231.25  L  7453.90,   230.70  L  7453.40,   230.41  L  7452.83,   230.51  L  7453.25,   231.25  " style="stroke-width: 0.85 ;&st7;  " /><path d=" M  7494.55,   204.75  L  7494.28,   205.22  L  7494.19,   205.75  L  7494.28,   206.28  L  7494.55,   206.75  L  7494.97,   207.10  L  7495.48,   207.29  L  7496.01,   207.29  L  7496.52,   207.10  L  7496.94,   206.75  L  7497.21,   206.28  L  7497.30,   205.75  L  7497.21,   205.22  L  7496.94,   204.75  L  7496.52,   204.40  L  7496.01,   204.22  L  7495.48,   204.22  L  7494.97,   204.40  L  7494.55,   204.75  L  7494.95,   205.46  L  7494.95,   206.04  L  7495.32,   206.49  L  7495.89,   206.59  L  7496.40,   206.30  L  7496.59,   205.75  L  7496.40,   205.20  L  7495.89,   204.92  L  7495.32,   205.01  L  7495.74,   205.75  " style="stroke-width: 0.85 ;&st7;  " /><path d=" M  7494.55,   247.24  L  7494.28,   247.71  L  7494.19,   248.24  L  7494.28,   248.78  L  7494.55,   249.25  L  7494.97,   249.59  L  7495.48,   249.78  L  7496.01,   249.78  L  7496.52,   249.59  L  7496.94,   249.25  L  7497.21,   248.78  L  7497.30,   248.24  L  7497.21,   247.71  L  7496.94,   247.24  L  7496.52,   246.90  L  7496.01,   246.71  L  7495.48,   246.71  L  7494.97,   246.90  L  7494.55,   247.24  L  7494.95,   247.95  L  7494.95,   248.54  L  7495.32,   248.98  L  7495.89,   249.08  L  7496.40,   248.79  L  7496.59,   248.24  L  7496.40,   247.70  L  7495.89,   247.41  L  7495.32,   247.51  L  7495.74,   248.24  " style="stroke-width: 0.85 ;&st7;  " /><path d=" M  7699.71,   324.73  L  7699.71,   307.73  L  7696.88,   306.32  L  7702.54,   303.48  L  7696.88,   300.65  L  7702.54,   297.82  L  7696.88,   294.99  L  7702.54,   292.15  L  7699.71,   290.74  L  7699.71,   231.25  L  7402.26,   231.25  " style="stroke-width: 0.85 ;&st7;  " /><path d=" M  7359.77,   697.25  L  7359.77,   701.50  " style="stroke-width: 0.85 ;&st7;  " /><path d=" M  7351.27,   701.50  L  7368.27,   701.50  " style="stroke-width: 0.85 ;&st7;  " /><path d=" M  7355.52,   704.33  L  7364.02,   704.33  " style="stroke-width: 0.85 ;&st7;  " /><path d=" M  7356.93,   707.17  L  7362.60,   707.17  " style="stroke-width: 0.85 ;&st7;  " /><path d=" M  7358.35,   710.00  L  7361.18,   710.00  " style="stroke-width: 0.85 ;&st7;  " /><path d=" M  7351.27,   588.19  L  7351.27,   613.68  L  7368.27,   613.68  L  7368.27,   588.19  L  7351.27,   588.19  " style="stroke-width: 1.42 ;&st7;  " /><path d=" M  7351.27,   596.69  L  7368.27,   596.69  " style="stroke-width: 1.13 ;&st7; stroke-dasharray:3, 3;" /><path d=" M  7351.27,   605.18  L  7368.27,   605.18  " style="stroke-width: 1.13 ;&st7; stroke-dasharray:3, 3;" /><path d=" M  7359.77,   588.19  L  7359.77,   613.68  " style="stroke-width: 0.85 ;&st7;  " /><path d=" M  7351.27,   477.71  L  7351.27,   494.70  L  7368.27,   494.70  L  7368.27,   477.71  L  7351.27,   477.71  " style="stroke-width: 1.42 ;&st7;  " /><path d=" M  7359.77,   477.71  L  7359.77,   494.70  " style="stroke-width: 0.85 ;&st7;  " /><path d=" M  7495.74,   107.37  L  7492.91,   104.54  L  7492.91,   108.79  L  7495.74,   111.62  L  7498.58,   108.79  L  7498.58,   104.54  L  7495.74,   107.37  " style="stroke-width: 0.28 ;&st9;  " /><path d=" M  7483.00,    52.78  L  7483.00,    95.27  L  7508.49,    95.27  L  7508.49,    52.78  L  7483.00,    52.78  " style="stroke-width: 1.42 ;&st7;  " /><path d=" M  7499.99,   149.09  L  7495.74,   153.34  L  7491.50,   149.09  " style="stroke-width: 1.42 ;&st7;  " /><path d=" M  7491.50,   145.69  L  7495.74,   149.94  L  7499.99,   145.69  " style="stroke-width: 1.42 ;&st7;  " /><path d=" M  7359.77,   107.37  L  7356.93,   104.54  L  7356.93,   108.79  L  7359.77,   111.62  L  7362.60,   108.79  L  7362.60,   104.54  L  7359.77,   107.37  " style="stroke-width: 0.28 ;&st9;  " /><path d=" M  7347.02,    52.78  L  7347.02,    95.27  L  7372.52,    95.27  L  7372.52,    52.78  L  7347.02,    52.78  " style="stroke-width: 1.42 ;&st7;  " /><path d=" M  7402.26,   112.27  L  7402.26,   103.77  L  7436.25,   103.77  L  7436.25,   112.27  " style="stroke-width: 0.85 ;&st7;  " /><path d=" M  7393.76,    95.27  L  7393.76,   112.27  L  7444.75,   112.27  L  7444.75,    95.27  L  7393.76,    95.27  " style="stroke-width: 1.42 ;&st7;  " /><path d=" M  7359.77,   168.15  L  7362.60,   170.99  L  7362.60,   166.74  L  7359.77,   163.90  L  7356.93,   166.74  L  7356.93,   170.99  L  7359.77,   168.15  " style="stroke-width: 0.28 ;&st9;  " /><path d=" M  7402.26,   168.15  L  7405.09,   170.99  L  7405.09,   166.74  L  7402.26,   163.90  L  7399.43,   166.74  L  7399.43,   170.99  L  7402.26,   168.15  " style="stroke-width: 0.28 ;&st9;  " /><path d=" M  7359.77,   163.26  L  7359.77,   180.26  L  7402.26,   180.26  L  7402.26,   163.26  " style="stroke-width: 0.85 ;&st7;  " /><path d=" M  7436.25,   324.73  L  7436.25,   307.73  " style="stroke-width: 0.85 ;&st7;  " /><path d=" M  7410.76,   290.74  L  7410.76,   307.73  L  7461.75,   307.73  L  7461.75,   282.24  L  7410.76,   282.24  L  7410.76,   290.74  " style="stroke-width: 1.42 ;&st7;  " /><path d=" M  7364.02,   551.36  L  7359.77,   547.11  L  7355.52,   551.36  " style="stroke-width: 1.42 ;&st7;  " /><path d=" M  7364.02,   554.76  L  7359.77,   550.51  L  7355.52,   554.76  " style="stroke-width: 1.42 ;&st7;  " /><path d=" M  7143.05,   500.37  L  7138.80,   496.12  L  7134.55,   500.37  " style="stroke-width: 1.42 ;&st7;  " /><path d=" M  7143.05,   503.77  L  7138.80,   499.52  L  7134.55,   503.77  " style="stroke-width: 1.42 ;&st7;  " /><path d=" M  7130.31,   392.72  L  7130.31,   426.71  L  7147.30,   426.71  L  7147.30,   392.72  L  7130.31,   392.72  " style="stroke-width: 1.42 ;&st7;  " /><path d=" M  7198.29,   392.72  L  7198.29,   426.71  L  7215.29,   426.71  L  7215.29,   392.72  L  7198.29,   392.72  " style="stroke-width: 1.42 ;&st7;  " /><path d=" M  7206.79,   158.36  L  7203.96,   155.53  L  7203.96,   159.78  L  7206.79,   162.61  L  7209.63,   159.78  L  7209.63,   155.53  L  7206.79,   158.36  " style="stroke-width: 0.28 ;&st9;  " /><path d=" M  7004.24,   299.24  L  7035.40,   299.24  " style="stroke-width: 0.85 ;&st7;  " /><path d=" M  7028.32,   256.74  L  7028.32,   358.73  " style="stroke-width: 0.85 ;&st7;  " /><path d=" M  7011.33,   256.74  L  7011.33,   358.73  " style="stroke-width: 0.85 ;&st7;  " /><path d=" M  7021.24,   282.24  L  7035.40,   282.24  " style="stroke-width: 0.85 ;&st7;  " /><path d=" M  7066.57,    95.27  L  7066.57,   137.76  L  7092.06,   137.76  L  7092.06,    95.27  L  7066.57,    95.27  " style="stroke-width: 1.42 ;&st7;  " /><path d=" M  7079.31,   158.36  L  7076.48,   155.53  L  7076.48,   159.78  L  7079.31,   162.61  L  7082.15,   159.78  L  7082.15,   155.53  L  7079.31,   158.36  " style="stroke-width: 0.28 ;&st9;  " /><path d=" M  7070.82,   222.75  L  7087.81,   222.75  L  7087.81,   239.75  L  7070.82,   239.75  L  7070.82,   222.75  " style="stroke-width: 1.42 ;&st7;  " /><path d=" M  7079.31,   222.75  L  7079.31,   239.75  " style="stroke-width: 0.85 ;&st7;  " /><path d=" M  7079.31,   307.73  L  7079.31,   324.73  " style="stroke-width: 0.85 ;&st7;  " /><path d=" M  7079.31,   137.76  L  7079.31,   163.26  " style="stroke-width: 0.85 ;&st7;  " /><path d=" M  7024.07,    95.27  L  7024.07,   137.76  L  7049.57,   137.76  L  7049.57,    95.27  L  7024.07,    95.27  " style="stroke-width: 1.42 ;&st7;  " /><path d=" M  7036.82,   158.36  L  7033.99,   155.53  L  7033.99,   159.78  L  7036.82,   162.61  L  7039.65,   159.78  L  7039.65,   155.53  L  7036.82,   158.36  " style="stroke-width: 0.28 ;&st9;  " /><path d=" M  7036.82,   137.76  L  7036.82,   163.26  " style="stroke-width: 0.85 ;&st7;  " /><path d=" M  7070.82,   307.73  L  7087.81,   307.73  L  7087.81,   324.73  L  7070.82,   324.73  L  7070.82,   307.73  " style="stroke-width: 1.42 ;&st7;  " /><path d=" M  7041.07,   208.58  L  7036.82,   212.83  L  7032.57,   208.58  " style="stroke-width: 1.42 ;&st7;  " /><path d=" M  7032.57,   205.18  L  7036.82,   209.43  L  7041.07,   205.18  " style="stroke-width: 1.42 ;&st7;  " /><path d=" M  7143.05,   302.07  L  7138.80,   306.32  L  7134.55,   302.07  " style="stroke-width: 1.42 ;&st7;  " /><path d=" M  7134.55,   298.67  L  7138.80,   302.92  L  7143.05,   298.67  " style="stroke-width: 1.42 ;&st7;  " /><path d=" M  7078.12,   145.26  L  7077.85,   145.73  L  7077.76,   146.26  L  7077.85,   146.79  L  7078.12,   147.26  L  7078.54,   147.61  L  7079.05,   147.80  L  7079.58,   147.80  L  7080.09,   147.61  L  7080.51,   147.26  L  7080.78,   146.79  L  7080.87,   146.26  L  7080.78,   145.73  L  7080.51,   145.26  L  7080.09,   144.91  L  7079.58,   144.73  L  7079.05,   144.73  L  7078.54,   144.91  L  7078.12,   145.26  L  7078.52,   145.97  L  7078.52,   146.55  L  7078.89,   147.00  L  7079.46,   147.10  L  7079.97,   146.81  L  7080.16,   146.26  L  7079.97,   145.71  L  7079.46,   145.43  L  7078.89,   145.52  L  7079.31,   146.26  " style="stroke-width: 0.85 ;&st7;  " /><path d=" M  7495.74,   477.71  L  7495.74,   494.70  L  7512.74,   494.70  L  7512.74,   477.71  L  7495.74,   477.71  " style="stroke-width: 1.42 ;&st7;  " /><path d=" M  7495.74,   248.24  L  7903.68,   248.24  L  7903.68,   290.74  L  7906.51,   292.15  L  7900.84,   294.99  L  7906.51,   297.82  L  7900.84,   300.65  L  7906.51,   303.48  L  7900.84,   306.32  L  7903.68,   307.73  L  7903.68,   418.22  L  7631.72,   418.22  L  7631.72,   435.21  " style="stroke-width: 0.85 ;&st7;  " /><path d=" M  7499.71,   439.75  C  7499.71    442.25   7501.74    444.28   7504.25    444.28  " style="stroke-width: 1.42 ;&st7;   " /><path d=" M  7364.30,   439.75  C  7364.30    437.24   7362.27    435.21   7359.77    435.21  " style="stroke-width: 1.42 ;&st7;   " /><path d=" M  7359.77,   435.21  C  7357.27    435.21   7355.24    437.24   7355.24    439.75  " style="stroke-width: 1.42 ;&st7;   " /><path d=" M  7355.24,   439.75  C  7355.24    442.25   7357.27    444.28   7359.77    444.28  " style="stroke-width: 1.42 ;&st7;   " /><path d=" M  7359.77,   444.28  C  7362.27    444.28   7364.30    442.25   7364.30    439.75  " style="stroke-width: 1.42 ;&st7;   " /><path d=" M  7440.79,   192.72  C  7440.79    190.22   7438.76    188.19   7436.26    188.19  " style="stroke-width: 1.42 ;&st7;   " /><path d=" M  7436.26,   188.19  C  7433.75    188.19   7431.72    190.22   7431.72    192.72  " style="stroke-width: 1.42 ;&st7;   " /><path d=" M  7431.72,   192.72  C  7431.72    195.22   7433.75    197.25   7436.26    197.25  " style="stroke-width: 1.42 ;&st7;   " /><path d=" M  7436.26,   197.25  C  7438.76    197.25   7440.79    195.22   7440.79    192.72  " style="stroke-width: 1.42 ;&st7;   " /><path d=" M  7495.75,   188.19  C  7493.24    188.19   7491.21    190.22   7491.21    192.72  " style="stroke-width: 1.42 ;&st7;   " /><path d=" M  7491.21,   192.72  C  7491.21    195.22   7493.24    197.25   7495.75    197.25  " style="stroke-width: 1.42 ;&st7;   " /><path d=" M  7495.75,   197.25  C  7498.25    197.25   7500.28    195.22   7500.28    192.72  " style="stroke-width: 1.42 ;&st7;   " /><path d=" M  7364.30,   583.65  C  7364.30    581.15   7362.27    579.12   7359.77    579.12  " style="stroke-width: 1.42 ;&st7;   " /><path d=" M  7359.77,   579.12  C  7357.27    579.12   7355.24    581.15   7355.24    583.65  " style="stroke-width: 1.42 ;&st7;   " /><path d=" M  7355.24,   583.65  C  7355.24    586.16   7357.27    588.19   7359.77    588.19  " style="stroke-width: 1.42 ;&st7;   " /><path d=" M  7359.77,   588.19  C  7362.27    588.19   7364.30    586.16   7364.30    583.65  " style="stroke-width: 1.42 ;&st7;   " /><path d=" M  7364.30,   618.22  C  7364.30    615.71   7362.27    613.68   7359.77    613.68  " style="stroke-width: 1.42 ;&st7;   " /><path d=" M  7359.77,   613.68  C  7357.27    613.68   7355.24    615.71   7355.24    618.22  " style="stroke-width: 1.42 ;&st7;   " /><path d=" M  7355.24,   618.22  C  7355.24    620.72   7357.27    622.75   7359.77    622.75  " style="stroke-width: 1.42 ;&st7;   " /><path d=" M  7359.77,   622.75  C  7362.27    622.75   7364.30    620.72   7364.30    618.22  " style="stroke-width: 1.42 ;&st7;   " /><path d=" M  7495.75,    64.11  C  7493.01     65.72   7492.10     69.25   7493.71     71.99  " style="stroke-width: 1.42 ;&st7;   " /><path d=" M  7493.71,    71.99  C  7494.23     72.87   7494.87     73.50   7495.75     74.02  " style="stroke-width: 1.42 ;&st7;   " /><path d=" M  7495.75,    83.94  C  7498.49     82.32   7499.40     78.80   7497.78     76.06  " style="stroke-width: 1.42 ;&st7;   " /><path d=" M  7497.78,    76.06  C  7497.26     75.18   7496.63     74.54   7495.75     74.02  " style="stroke-width: 1.42 ;&st7;   " /><path d=" M  7497.16,    62.69  C  7497.16     61.91   7496.53     61.28   7495.75     61.28  " style="stroke-width: 0.85 ;&st7;   " /><path d=" M  7495.75,    61.28  C  7494.97     61.28   7494.33     61.91   7494.33     62.69  " style="stroke-width: 0.85 ;&st7;   " /><path d=" M  7494.33,    62.69  C  7494.33     63.47   7494.97     64.11   7495.75     64.11  " style="stroke-width: 0.85 ;&st7;   " /><path d=" M  7495.75,    64.11  C  7496.53     64.11   7497.16     63.47   7497.16     62.69  " style="stroke-width: 0.85 ;&st7;   " /><path d=" M  7497.16,    85.35  C  7497.16     84.57   7496.53     83.94   7495.75     83.94  " style="stroke-width: 0.85 ;&st7;   " /><path d=" M  7495.75,    83.94  C  7494.97     83.94   7494.33     84.57   7494.33     85.35  " style="stroke-width: 0.85 ;&st7;   " /><path d=" M  7494.33,    85.35  C  7494.33     86.14   7494.97     86.77   7495.75     86.77  " style="stroke-width: 0.85 ;&st7;   " /><path d=" M  7495.75,    86.77  C  7496.53     86.77   7497.16     86.14   7497.16     85.35  " style="stroke-width: 0.85 ;&st7;   " /><path d=" M  7493.62,   112.27  C  7491.28    112.27   7489.37    114.17   7489.37    116.52  " style="stroke-width: 1.42 ;&st7;   " /><path d=" M  7489.37,   116.52  C  7489.37    118.86   7491.28    120.77   7493.62    120.77  " style="stroke-width: 1.42 ;&st7;   " /><path d=" M  7497.87,   120.77  C  7500.22    120.77   7502.12    118.86   7502.12    116.52  " style="stroke-width: 1.42 ;&st7;   " /><path d=" M  7359.77,    64.11  C  7357.03     65.72   7356.12     69.25   7357.73     71.99  " style="stroke-width: 1.42 ;&st7;   " /><path d=" M  7357.73,    71.99  C  7358.25     72.87   7358.89     73.50   7359.77     74.02  " style="stroke-width: 1.42 ;&st7;   " /><path d=" M  7359.77,    83.94  C  7362.51     82.32   7363.42     78.80   7361.81     76.06  " style="stroke-width: 1.42 ;&st7;   " /><path d=" M  7361.81,    76.06  C  7361.29     75.18   7360.65     74.54   7359.77     74.02  " style="stroke-width: 1.42 ;&st7;   " /><path d=" M  7361.19,    62.69  C  7361.19     61.91   7360.55     61.28   7359.77     61.28  " style="stroke-width: 0.85 ;&st7;   " /><path d=" M  7359.77,    61.28  C  7358.99     61.28   7358.35     61.91   7358.35     62.69  " style="stroke-width: 0.85 ;&st7;   " /><path d=" M  7358.35,    62.69  C  7358.35     63.47   7358.99     64.11   7359.77     64.11  " style="stroke-width: 0.85 ;&st7;   " /><path d=" M  7359.77,    64.11  C  7360.55     64.11   7361.19     63.47   7361.19     62.69  " style="stroke-width: 0.85 ;&st7;   " /><path d=" M  7361.19,    85.35  C  7361.19     84.57   7360.55     83.94   7359.77     83.94  " style="stroke-width: 0.85 ;&st7;   " /><path d=" M  7359.77,    83.94  C  7358.99     83.94   7358.35     84.57   7358.35     85.35  " style="stroke-width: 0.85 ;&st7;   " /><path d=" M  7358.35,    85.35  C  7358.35     86.14   7358.99     86.77   7359.77     86.77  " style="stroke-width: 0.85 ;&st7;   " /><path d=" M  7359.77,    86.77  C  7360.55     86.77   7361.19     86.14   7361.19     85.35  " style="stroke-width: 0.85 ;&st7;   " /><path d=" M  7357.65,   112.27  C  7355.30    112.27   7353.40    114.17   7353.40    116.52  " style="stroke-width: 1.42 ;&st7;   " /><path d=" M  7353.40,   116.52  C  7353.40    118.86   7355.30    120.77   7357.65    120.77  " style="stroke-width: 1.42 ;&st7;   " /><path d=" M  7361.89,   120.77  C  7364.24    120.77   7366.14    118.86   7366.14    116.52  " style="stroke-width: 1.42 ;&st7;   " /><path d=" M  7366.14,   116.52  C  7366.14    114.17   7364.24    112.27   7361.89    112.27  " style="stroke-width: 1.42 ;&st7;   " /><path d=" M  7366.14,   159.01  C  7366.14    156.66   7364.24    154.76   7361.89    154.76  " style="stroke-width: 1.42 ;&st7;   " /><path d=" M  7361.89,   163.26  C  7364.24    163.26   7366.14    161.36   7366.14    159.01  " style="stroke-width: 1.42 ;&st7;   " /><path d=" M  7353.40,   159.01  C  7353.40    161.36   7355.30    163.26   7357.65    163.26  " style="stroke-width: 1.42 ;&st7;   " /><path d=" M  7357.65,   154.76  C  7355.30    154.76   7353.40    156.66   7353.40    159.01  " style="stroke-width: 1.42 ;&st7;   " /><path d=" M  7400.14,   154.76  C  7397.79    154.76   7395.89    156.66   7395.89    159.01  " style="stroke-width: 1.42 ;&st7;   " /><path d=" M  7395.89,   159.01  C  7395.89    161.36   7397.79    163.26   7400.14    163.26  " style="stroke-width: 1.42 ;&st7;   " /><path d=" M  7404.39,   163.26  C  7406.73    163.26   7408.64    161.36   7408.64    159.01  " style="stroke-width: 1.42 ;&st7;   " /><path d=" M  7408.64,   159.01  C  7408.64    156.66   7406.73    154.76   7404.39    154.76  " style="stroke-width: 1.42 ;&st7;   " /><path d=" M  7038.24,   333.23  C  7038.24    332.45   7037.61    331.81   7036.82    331.81  " style="stroke-width: 0.85 ;&st7;   " /><path d=" M  7036.82,   331.81  C  7036.04    331.81   7035.41    332.45   7035.41    333.23  " style="stroke-width: 0.85 ;&st7;   " /><path d=" M  7035.41,   333.23  C  7035.41    334.01   7036.04    334.65   7036.82    334.65  " style="stroke-width: 0.85 ;&st7;   " /><path d=" M  7036.82,   334.65  C  7037.61    334.65   7038.24    334.01   7038.24    333.23  " style="stroke-width: 0.85 ;&st7;   " /><path d=" M  7043.20,   167.51  C  7043.20    165.16   7041.30    163.26   7038.95    163.26  " style="stroke-width: 1.42 ;&st7;   " /><path d=" M  7038.95,   171.76  C  7041.30    171.76   7043.20    169.85   7043.20    167.51  " style="stroke-width: 1.42 ;&st7;   " /><path d=" M  7030.45,   167.51  C  7030.45    169.85   7032.35    171.76   7034.70    171.76  " style="stroke-width: 1.42 ;&st7;   " /><path d=" M  7034.70,   163.26  C  7032.35    163.26   7030.45    165.16   7030.45    167.51  " style="stroke-width: 1.42 ;&st7;   " /><path d=" M  7038.24,   127.85  C  7038.24    127.07   7037.61    126.43   7036.82    126.43  " style="stroke-width: 0.85 ;&st7;   " /><path d=" M  7036.82,   126.43  C  7036.04    126.43   7035.41    127.07   7035.41    127.85  " style="stroke-width: 0.85 ;&st7;   " /><path d=" M  7035.41,   127.85  C  7035.41    128.63   7036.04    129.26   7036.82    129.26  " style="stroke-width: 0.85 ;&st7;   " /><path d=" M  7036.82,   129.26  C  7037.61    129.26   7038.24    128.63   7038.24    127.85  " style="stroke-width: 0.85 ;&st7;   " /><path d=" M  7038.24,   105.18  C  7038.24    104.40   7037.61    103.77   7036.82    103.77  " style="stroke-width: 0.85 ;&st7;   " /><path d=" M  7036.82,   103.77  C  7036.04    103.77   7035.41    104.40   7035.41    105.18  " style="stroke-width: 0.85 ;&st7;   " /><path d=" M  7035.41,   105.18  C  7035.41    105.97   7036.04    106.60   7036.82    106.60  " style="stroke-width: 0.85 ;&st7;   " /><path d=" M  7036.82,   106.60  C  7037.61    106.60   7038.24    105.97   7038.24    105.18  " style="stroke-width: 0.85 ;&st7;   " /><path d=" M  7036.82,   126.43  C  7039.56    124.82   7040.47    121.29   7038.86    118.55  " style="stroke-width: 1.42 ;&st7;   " /><path d=" M  7038.86,   118.55  C  7038.34    117.67   7037.71    117.04   7036.82    116.52  " style="stroke-width: 1.42 ;&st7;   " /><path d=" M  7036.82,   106.60  C  7034.09    108.21   7033.17    111.74   7034.79    114.48  " style="stroke-width: 1.42 ;&st7;   " /><path d=" M  7034.79,   114.48  C  7035.31    115.36   7035.94    116.00   7036.82    116.52  " style="stroke-width: 1.42 ;&st7;   " /><path d=" M  7085.69,   167.51  C  7085.69    165.16   7083.79    163.26   7081.44    163.26  " style="stroke-width: 1.42 ;&st7;   " /><path d=" M  7081.44,   171.76  C  7083.79    171.76   7085.69    169.85   7085.69    167.51  " style="stroke-width: 1.42 ;&st7;   " /><path d=" M  7072.94,   167.51  C  7072.94    169.85   7074.85    171.76   7077.19    171.76  " style="stroke-width: 1.42 ;&st7;   " /><path d=" M  7077.19,   163.26  C  7074.85    163.26   7072.94    165.16   7072.94    167.51  " style="stroke-width: 1.42 ;&st7;   " /><path d=" M  7080.73,   127.85  C  7080.73    127.07   7080.10    126.43   7079.32    126.43  " style="stroke-width: 0.85 ;&st7;   " /><path d=" M  7079.32,   126.43  C  7078.53    126.43   7077.90    127.07   7077.90    127.85  " style="stroke-width: 0.85 ;&st7;   " /><path d=" M  7077.90,   127.85  C  7077.90    128.63   7078.53    129.26   7079.32    129.26  " style="stroke-width: 0.85 ;&st7;   " /><path d=" M  7079.32,   129.26  C  7080.10    129.26   7080.73    128.63   7080.73    127.85  " style="stroke-width: 0.85 ;&st7;   " /><path d=" M  7080.73,   105.18  C  7080.73    104.40   7080.10    103.77   7079.32    103.77  " style="stroke-width: 0.85 ;&st7;   " /><path d=" M  7079.32,   103.77  C  7078.53    103.77   7077.90    104.40   7077.90    105.18  " style="stroke-width: 0.85 ;&st7;   " /><path d=" M  7077.90,   105.18  C  7077.90    105.97   7078.53    106.60   7079.32    106.60  " style="stroke-width: 0.85 ;&st7;   " /><path d=" M  7079.32,   106.60  C  7080.10    106.60   7080.73    105.97   7080.73    105.18  " style="stroke-width: 0.85 ;&st7;   " /><path d=" M  7079.32,   126.43  C  7082.06    124.82   7082.97    121.29   7081.35    118.55  " style="stroke-width: 1.42 ;&st7;   " /><path d=" M  7081.35,   118.55  C  7080.83    117.67   7080.20    117.04   7079.32    116.52  " style="stroke-width: 1.42 ;&st7;   " /><path d=" M  7079.32,   106.60  C  7076.58    108.21   7075.67    111.74   7077.28    114.48  " style="stroke-width: 1.42 ;&st7;   " /><path d=" M  7077.28,   114.48  C  7077.80    115.36   7078.44    116.00   7079.32    116.52  " style="stroke-width: 1.42 ;&st7;   " /><path d=" M  7038.24,   350.23  C  7038.24    349.44   7037.61    348.81   7036.82    348.81  " style="stroke-width: 0.85 ;&st7;   " /><path d=" M  7036.82,   348.81  C  7036.04    348.81   7035.41    349.44   7035.41    350.23  " style="stroke-width: 0.85 ;&st7;   " /><path d=" M  7035.41,   350.23  C  7035.41    351.01   7036.04    351.64   7036.82    351.64  " style="stroke-width: 0.85 ;&st7;   " /><path d=" M  7036.82,   351.64  C  7037.61    351.64   7038.24    351.01   7038.24    350.23  " style="stroke-width: 0.85 ;&st7;   " /><path d=" M  7038.24,   316.23  C  7038.24    315.45   7037.61    314.82   7036.82    314.82  " style="stroke-width: 0.85 ;&st7;   " /><path d=" M  7036.82,   314.82  C  7036.04    314.82   7035.41    315.45   7035.41    316.23  " style="stroke-width: 0.85 ;&st7;   " /><path d=" M  7035.41,   316.23  C  7035.41    317.01   7036.04    317.65   7036.82    317.65  " style="stroke-width: 0.85 ;&st7;   " /><path d=" M  7036.82,   317.65  C  7037.61    317.65   7038.24    317.01   7038.24    316.23  " style="stroke-width: 0.85 ;&st7;   " /><path d=" M  7038.24,   282.24  C  7038.24    281.46   7037.61    280.82   7036.82    280.82  " style="stroke-width: 0.85 ;&st7;   " /><path d=" M  7036.82,   280.82  C  7036.04    280.82   7035.41    281.46   7035.41    282.24  " style="stroke-width: 0.85 ;&st7;   " /><path d=" M  7035.41,   282.24  C  7035.41    283.02   7036.04    283.65   7036.82    283.65  " style="stroke-width: 0.85 ;&st7;   " /><path d=" M  7036.82,   283.65  C  7037.61    283.65   7038.24    283.02   7038.24    282.24  " style="stroke-width: 0.85 ;&st7;   " /><path d=" M  7021.24,   282.24  C  7021.24    281.46   7020.61    280.82   7019.83    280.82  " style="stroke-width: 0.85 ;&st7;   " /><path d=" M  7019.83,   280.82  C  7019.04    280.82   7018.41    281.46   7018.41    282.24  " style="stroke-width: 0.85 ;&st7;   " /><path d=" M  7018.41,   282.24  C  7018.41    283.02   7019.04    283.65   7019.83    283.65  " style="stroke-width: 0.85 ;&st7;   " /><path d=" M  7019.83,   283.65  C  7020.61    283.65   7021.24    283.02   7021.24    282.24  " style="stroke-width: 0.85 ;&st7;   " /><path d=" M  7004.25,   299.24  C  7004.25    298.45   7003.61    297.82   7002.83    297.82  " style="stroke-width: 0.85 ;&st7;   " /><path d=" M  7002.83,   297.82  C  7002.05    297.82   7001.41    298.45   7001.41    299.24  " style="stroke-width: 0.85 ;&st7;   " /><path d=" M  7001.41,   299.24  C  7001.41    300.02   7002.05    300.65   7002.83    300.65  " style="stroke-width: 0.85 ;&st7;   " /><path d=" M  7002.83,   300.65  C  7003.61    300.65   7004.25    300.02   7004.25    299.24  " style="stroke-width: 0.85 ;&st7;   " /><path d=" M  7038.24,   299.24  C  7038.24    298.45   7037.61    297.82   7036.82    297.82  " style="stroke-width: 0.85 ;&st7;   " /><path d=" M  7036.82,   297.82  C  7036.04    297.82   7035.41    298.45   7035.41    299.24  " style="stroke-width: 0.85 ;&st7;   " /><path d=" M  7035.41,   299.24  C  7035.41    300.02   7036.04    300.65   7036.82    300.65  " style="stroke-width: 0.85 ;&st7;   " /><path d=" M  7036.82,   300.65  C  7037.61    300.65   7038.24    300.02   7038.24    299.24  " style="stroke-width: 0.85 ;&st7;   " /><path d=" M  7204.67,   163.26  C  7202.32    163.26   7200.42    165.16   7200.42    167.51  " style="stroke-width: 1.42 ;&st7;   " /><path d=" M  7200.42,   167.51  C  7200.42    169.85   7202.32    171.76   7204.67    171.76  " style="stroke-width: 1.42 ;&st7;   " /><path d=" M  7208.92,   171.76  C  7211.27    171.76   7213.17    169.85   7213.17    167.51  " style="stroke-width: 1.42 ;&st7;   " /><path d=" M  7213.17,   167.51  C  7213.17    165.16   7211.27    163.26   7208.92    163.26  " style="stroke-width: 1.42 ;&st7;   " /><path d=" M  7208.21,   421.05  C  7208.21    420.27   7207.58    419.63   7206.80    419.63  " style="stroke-width: 0.85 ;&st7;   " /><path d=" M  7206.80,   419.63  C  7206.01    419.63   7205.38    420.27   7205.38    421.05  " style="stroke-width: 0.85 ;&st7;   " /><path d=" M  7205.38,   421.05  C  7205.38    421.83   7206.01    422.46   7206.80    422.46  " style="stroke-width: 0.85 ;&st7;   " /><path d=" M  7206.80,   422.46  C  7207.58    422.46   7208.21    421.83   7208.21    421.05  " style="stroke-width: 0.85 ;&st7;   " /><path d=" M  7208.21,   398.39  C  7208.21    397.60   7207.58    396.97   7206.80    396.97  " style="stroke-width: 0.85 ;&st7;   " /><path d=" M  7206.80,   396.97  C  7206.01    396.97   7205.38    397.60   7205.38    398.39  " style="stroke-width: 0.85 ;&st7;   " /><path d=" M  7205.38,   398.39  C  7205.38    399.17   7206.01    399.80   7206.80    399.80  " style="stroke-width: 0.85 ;&st7;   " /><path d=" M  7206.80,   399.80  C  7207.58    399.80   7208.21    399.17   7208.21    398.39  " style="stroke-width: 0.85 ;&st7;   " /><path d=" M  7140.22,   421.05  C  7140.22    420.27   7139.59    419.63   7138.81    419.63  " style="stroke-width: 0.85 ;&st7;   " /><path d=" M  7138.81,   419.63  C  7138.02    419.63   7137.39    420.27   7137.39    421.05  " style="stroke-width: 0.85 ;&st7;   " /><path d=" M  7137.39,   421.05  C  7137.39    421.83   7138.02    422.46   7138.81    422.46  " style="stroke-width: 0.85 ;&st7;   " /><path d=" M  7138.81,   422.46  C  7139.59    422.46   7140.22    421.83   7140.22    421.05  " style="stroke-width: 0.85 ;&st7;   " /><path d=" M  7140.22,   398.39  C  7140.22    397.60   7139.59    396.97   7138.81    396.97  " style="stroke-width: 0.85 ;&st7;   " /><path d=" M  7138.81,   396.97  C  7138.02    396.97   7137.39    397.60   7137.39    398.39  " style="stroke-width: 0.85 ;&st7;   " /><path d=" M  7137.39,   398.39  C  7137.39    399.17   7138.02    399.80   7138.81    399.80  " style="stroke-width: 0.85 ;&st7;   " /><path d=" M  7138.81,   399.80  C  7139.59    399.80   7140.22    399.17   7140.22    398.39  " style="stroke-width: 0.85 ;&st7;   " /><text ewd:textID="38" style="&st18;" transform="matrix(&st16;  7358.25  296.96 )">Display</text><text style="&st18;" transform="matrix(&st16;  7494.77  441.71 )">4</text><text style="&st18;" transform="matrix(&st16;  7357.5  441.71 )">A</text><text style="&st18;" transform="matrix(&st16;  7346.96  441.71 )">15</text><text ewd:textID="68" style="&st18;" transform="matrix(&st16;  7354.66  236.06 )">Power <tspan dy="6.0" x="0 ">Supply </tspan><tspan dy="6.0" x="0 ">Circuit</tspan></text><text style="&st18;" transform="matrix(&st16;  7423.44  194.69 )">17</text><text style="&st18;" transform="matrix(&st16;  7433.99  194.69 )">A</text><text style="&st18;" transform="matrix(&st16;  7482.93  194.69 )">18</text><text style="&st18;" transform="matrix(&st16;  7493.48  194.69 )">A</text><text style="&st18;" transform="matrix(&st16;  7362.35  431.52 )">ET</text><text style="&st18;" transform="matrix(&st16;  7438.84  205.45 )">B</text><text style="&st18;" transform="matrix(&st16;  7498.33  205.45 )">IG+</text><text style="&st18;" transform="matrix(&st17;  7356.07  464.65 )">BR</text><text style="&st18;" transform="matrix(&st17;  7356.07  638.87 )">BR</text><text style="&st18;" transform="matrix(&st17;  7356.07  570.88 )">BR</text><text style="&st18;" transform="matrix(&st16;  7357.5  585.62 )">A</text><text style="&st18;" transform="matrix(&st16;  7346.96  585.62 )">19</text><text style="&st18;" transform="matrix(&st16;  7357.5  620.18 )">B</text><text style="&st18;" transform="matrix(&st16;  7346.96  620.18 )">14</text><text style="&st18;" transform="matrix(&st17;  7356.07  519.89 )">BR</text><text ewd:textID="56" style="&st18;" transform="matrix(&st16;  7370.53  597.24 )">Junction <tspan dy="6.0" x="0 ">Connector</tspan></text><text style="&st18;" transform="matrix(&st16;  7370.52  590.13 )">A37(A),C44(B)</text><text style="&st18;" transform="matrix(&st16;  7493.87  118.49 )">1</text><text style="&st18;" transform="matrix(&st16;  7489.41  103.46 )">2</text><text style="&st18;" transform="matrix(&st16;  7490.38  49.08 )">(IG)</text><text style="&st18;" transform="matrix(&st16;  7479.0  160.98 )">33</text><text style="&st18;" transform="matrix(&st17;  7492.05  135.28 )">B</text><text style="&st18;" transform="matrix(&st17;  7492.05  177.77 )">B</text><text style="&st18;" transform="matrix(&st16;  7376.19  73.17 )">5A <tspan dy="6.0" x="0 ">ECU-B1</tspan></text><text style="&st18;" transform="matrix(&st16;  7357.89  118.49 )">1</text><text style="&st18;" transform="matrix(&st16;  7353.43  103.46 )">2</text><text style="&st18;" transform="matrix(&st16;  7351.69  49.08 )">(BAT)</text><text style="&st18;" transform="matrix(&st16;  7345.14  160.98 )">13</text><text style="&st18;" transform="matrix(&st16;  7355.88  160.98 )">2B</text><text style="&st18;" transform="matrix(&st16;  7398.21  160.98 )">2D</text><text style="&st18;" transform="matrix(&st16;  7387.64  160.98 )">14</text><text style="&st18;" transform="matrix(&st16;  7392.59  120.46 )">86</text><text style="&st18;" transform="matrix(&st16;  7426.58  120.46 )">26</text><text style="&st18;" transform="matrix(&st17;  7356.07  139.68 )">R</text><text style="&st18;" transform="matrix(&st17;  7398.57  139.68 )">R</text><text style="&st18;" transform="matrix(&st17;  7432.56  139.68 )">R</text><text ewd:textID="56" style="&st18;" transform="matrix(&st17;  7459.47  115.17 )">Junction <tspan dy="6.0" x="0 ">Connector</tspan></text><text style="&st18;" transform="matrix(&st17;  7452.37  115.17 )">E59</text><text ewd:textID="27" style="&st18;" transform="matrix(&st16;  7426.78  296.96 )">Buzzer</text><text style="&st18;" transform="matrix(&st16;  7492.36  332.37 )">IG</text><text style="&st18;" transform="matrix(&st16;  7391.43  233.22 )">+B</text><text style="&st18;" transform="matrix(&st16;  7389.1  250.21 )">IG+</text><text style="&st18;" transform="matrix(&st16;  7494.57  502.9 )">51</text><text style="&st18;" transform="matrix(&st16;  7494.57  474.02 )">61</text><text style="&st18;" transform="matrix(&st16;  7281.02  32.08 )">P</text><text style="&st18;" transform="matrix(&st16;  7281.02  15.09 )">B</text><text style="&st18;" transform="matrix(&st16;  7230.03  32.08 )">P</text><text style="&st18;" transform="matrix(&st16;  7230.03  15.09 )">B</text><text style="&st18;" transform="matrix(&st16;  7368.8  543.41 )">(RHD)</text><text style="&st18;" transform="matrix(&st16;  7368.8  534.92 )">(LHD)</text><text style="&st18;" transform="matrix(&st16;  7343.02  534.92 )">67</text><text style="&st18;" transform="matrix(&st16;  7343.02  543.41 )">67</text><text style="&st18;" transform="matrix(&st16;  7125.39  313.95 )">2</text><text style="&st18;" transform="matrix(&st17;  7135.11  275.82 )">G</text><text style="&st18;" transform="matrix(&st17;  7146.45  287.99 )">(RHD M/T)</text><text style="&st18;" transform="matrix(&st17;  7016.13  400.24 )">G-B(A/T)</text><text style="&st18;" transform="matrix(&st17;  7075.62  360.8 )">G</text><text style="&st18;" transform="matrix(&st16;  7069.64  304.04 )">65</text><text style="&st18;" transform="matrix(&st16;  7020.07  220.47 )">25</text><text style="&st18;" transform="matrix(&st17;  7033.13  241.82 )">G</text><text style="&st18;" transform="matrix(&st17;  7033.13  190.83 )">G</text><text style="&st18;" transform="matrix(&st16;  7031.46  91.57 )">(IG)</text><text style="&st18;" transform="matrix(&st16;  7022.2  169.48 )">23</text><text style="&st18;" transform="matrix(&st16;  7032.93  169.48 )">2B</text><text style="&st18;" transform="matrix(&st16;  7001.83  112.83 )">10A <tspan dy="6.0" x="0 ">BK/UP </tspan><tspan dy="6.0" x="0 ">LP</tspan></text><text style="&st18;" transform="matrix(&st17;  7075.62  275.82 )">G</text><text style="&st18;" transform="matrix(&st17;  7075.62  190.83 )">G</text><text style="&st18;" transform="matrix(&st17;  7095.43  242.64 )">E58</text><text ewd:textID="56" style="&st18;" transform="matrix(&st17;  7102.53  242.65 )">Junction <tspan dy="6.0" x="0 ">Connector</tspan></text><text style="&st18;" transform="matrix(&st17;  7095.43  327.63 )">E59</text><text ewd:textID="56" style="&st18;" transform="matrix(&st17;  7102.53  327.64 )">Junction <tspan dy="6.0" x="0 ">Connector</tspan></text><text style="&st18;" transform="matrix(&st16;  7069.64  219.06 )">99</text><text style="&st18;" transform="matrix(&st16;  7069.64  332.92 )">25</text><text style="&st18;" transform="matrix(&st16;  7073.95  91.57 )">(IG)</text><text style="&st18;" transform="matrix(&st16;  7064.69  169.48 )">55</text><text style="&st18;" transform="matrix(&st16;  7075.27  169.48 )">2D</text><text style="&st18;" transform="matrix(&st16;  7095.74  115.66 )">5A <tspan dy="6.0" x="0 ">LH-IG</tspan></text><text style="&st18;" transform="matrix(&st16;  7069.64  247.94 )">39</text><text style="&st18;" transform="matrix(&st16;  7013.49  366.92 )">6</text><text style="&st18;" transform="matrix(&st16;  7015.93  267.21 )">PL</text><text style="&st18;" transform="matrix(&st16;  7230.03  643.98 )">V</text><text style="&st18;" transform="matrix(&st16;  7229.87  660.98 )">R</text><text style="&st18;" transform="matrix(&st16;  7281.02  643.98 )">V</text><text style="&st18;" transform="matrix(&st16;  7280.86  660.98 )">R</text><text style="&st18;" transform="matrix(&st16;  7030.48  253.05 )">2</text><text style="&st18;" transform="matrix(&st16;  7032.39  267.21 )">RB</text><text style="&st18;" transform="matrix(&st16;  7202.9  169.48 )">2B</text><text style="&st18;" transform="matrix(&st16;  7192.17  169.48 )">10</text><text style="&st18;" transform="matrix(&st17;  7146.45  474.96 )">(RHD M/T)</text><text style="&st18;" transform="matrix(&st17;  7135.11  462.47 )">B</text><text style="&st18;" transform="matrix(&st17;  7135.11  538.96 )">B</text><text style="&st18;" transform="matrix(&st16;  7132.47  434.91 )">2</text><text style="&st18;" transform="matrix(&st17;  7146.45  372.98 )">(RHD M/T)</text><text style="&st18;" transform="matrix(&st16;  7200.46  434.91 )">2</text><text style="&st18;" transform="matrix(&st17;  7135.11  360.8 )">G</text><text style="&st18;" transform="matrix(&st17;  7146.45  551.45 )">(RHD M/T)</text><text style="&st18;" transform="matrix(&st17;  7214.43  372.47 )">(LHD M/T)</text><text style="&st18;" transform="matrix(&st17;  7203.1  360.8 )">G</text><text style="&st18;" transform="matrix(&st16;  7200.46  389.03 )">1</text><text style="&st18;" transform="matrix(&st17;  7203.1  190.83 )">G</text><text style="&st18;" transform="matrix(&st16;  7132.47  389.03 )">1</text><text style="&st18;" transform="matrix(&st17;  7214.43  474.46 )">(LHD M/T)</text><text style="&st18;" transform="matrix(&st17;  7203.1  462.47 )">B</text><text style="&st18;" transform="matrix(&st16;  7125.39  492.42 )">1</text><text ewd:textID="34" style="&st18;" transform="matrix(&st17;  7162.02  429.62 )">Clutch Switch Assembly</text><text style="&st18;" transform="matrix(&st17;  7154.92  429.61 )">e2</text><text ewd:textID="34" style="&st18;" transform="matrix(&st17;  7230.01  429.62 )">Clutch Switch Assembly</text><text style="&st18;" transform="matrix(&st17;  7222.91  429.61 )">A50</text><text style="&st18;" transform="matrix(&st17;  7086.95  195.17 )">(A/T)</text><text style="&st18;" transform="matrix(&st17;  7086.95  280.16 )">(A/T)</text><text style="&st18;" transform="matrix(&st17;  7086.95  365.14 )">(A/T)</text><text style="&st18;" transform="matrix(&st17;  7214.43  195.64 )">(M/T)</text><text style="&st18;" transform="matrix(&st17;  7044.46  195.17 )">(A/T)</text><text style="&st18;" transform="matrix(&st17;  7044.46  246.16 )">(A/T)</text><text ewd:textID="12" style="&st18;" transform="matrix(&st16;  7050.42  54.75 )">*17 :w/o Entry &amp; Start System</text><text ewd:textID="11" style="&st18;" transform="matrix(&st16;  7050.42  46.25 )">*16 :w/ Entry &amp; Start System</text><text style="&st18;" transform="matrix(&st16;  7350.1  502.9 )">74</text><text style="&st18;" transform="matrix(&st16;  7350.1  474.02 )">34</text><text ewd:textID="13" style="&st18;" transform="matrix(&st16;  7050.42  63.24 )">*18 :LHD Before Aug. 2013 Production, RHD</text><text ewd:textID="14" style="&st18;" transform="matrix(&st16;  7050.42  71.74 )">*19 :LHD From Aug. 2013 Production</text><text ewd:textID="56" style="&st18;" transform="matrix(&st16;  7370.53  486.76 )">Junction <tspan dy="6.0" x="0 ">Connector</tspan></text><text style="&st18;" transform="matrix(&st16;  7370.52  479.65 )">E60</text></svg>