﻿<?xml version="1.0" encoding="utf-8"?>
<!DOCTYPE svg PUBLIC "-//W3C//DTD SVG 1.0//EN" "http://www.w3.org/TR/2001/REC-SVG-20010904/DTD/svg10.dtd"[
	<!ENTITY ns_flows "http://ns.adobe.com/Flows/1.0/">
	<!ENTITY ns_svg "http://www.w3.org/2000/svg">
	<!ENTITY ns_xlink "http://www.w3.org/1999/xlink">
	<!ENTITY st0 "font-size:7px;font-family:'MS-PGothic';adobe-font-script:japanese;">
	<!ENTITY st1 "font-size:6px;font-family:'ArialMT';">
	<!-- White fill  -->
	<!ENTITY st2 "fill:#FFFFFF;stroke:#000000; stroke-width:1.41;stroke-linecap:round;stroke-linejoin:round;">
	<!-- Yellow fill  -->
	<!ENTITY st3 "fill:#FFFFCC;stroke:#FFFFCC; stroke-width:0.1;stroke-linecap:round;stroke-linejoin:round;">
	<!-- Gray fill  -->
	<!ENTITY st4 "fill:#CCCCCC;stroke:#CCCCCC; stroke-width:0.1;stroke-linecap:round;stroke-linejoin:round;">
	<!-- Light-blue fill -->
	<!ENTITY st5 "fill:#CCECF4;stroke:#000000; stroke-width:1.133;stroke-linecap:round;stroke-linejoin:round;">
	<!ENTITY st6 "fill:none;stroke-linecap:butt; stroke-linejoin:round;">
	<!ENTITY st7 "fill:none;stroke:#000000;stroke-linecap:round;stroke-linejoin:round;">
	<!ENTITY st8 "enable-background:new    ;">
	<!-- Black fill -->
	<!ENTITY st9 "fill:#000000;stroke:#000000; stroke-linecap:round;stroke-linejoin:round;">
	<!-- SRS note   -->
	<!ENTITY st10 "font-size:9px;font-family:'ArialMT';">
	<!ENTITY st11 "font-size:9px;font-family:'Svg Symbol';">
	<!ENTITY st12 "font-size:6px;font-family:'Svg Symbol';">
	<!ENTITY st13 "fill:none;stroke:#ff0000;stroke-linecap:round;stroke-linejoin:round;">
	<!-- Yellow fill  -->
	<!ENTITY st14 "fill:#FFFF00;stroke:#FFFF00; stroke-width:0.1;stroke-linecap:round;stroke-linejoin:round;">
	<!ENTITY st15 "font-size:6px;font-family:'MS-PGothic';adobe-font-script:japanese;">
	<!ENTITY st16 "1.00 0.00 0.00 1.00">
	<!ENTITY st17 "0.00 -1.00 1.00 0.00">
	<!ENTITY st18 "font-size:6px;font-family:'Arial';">
	<!ENTITY st19 "font-size:9px;font-family:'Arial';">
	<!ENTITY st20 "font-size:6px;font-family:'MS-PGothic','MS PGothic';adobe-font-script:japanese;">
	<!ENTITY st21 "font-size:7px;font-family:'MS-PGothic','MS PGothic';adobe-font-script:japanese;">
	<!ATTLIST svg
		xmlns:ewd CDATA #FIXED "http://shcl.co.jp/ewd"
		xmlns:a CDATA #FIXED "http://ns.adobe.com/AdobeSVGViewerExtensions/3.0/"
		ewd:ver CDATA #IMPLIED
	>
	<!ATTLIST a
		ewd:lineID CDATA #IMPLIED
		ewd:groupID CDATA #IMPLIED
		ewd:figtype CDATA #IMPLIED
		ewd:code CDATA #IMPLIED
		ewd:figID CDATA #IMPLIED
		ewd:pinNo CDATA #IMPLIED
		ewd:comment CDATA #IMPLIED >
	<!ATTLIST g
		ewd:lineID CDATA #IMPLIED
		ewd:groupID CDATA #IMPLIED
		ewd:figtype CDATA #IMPLIED
		ewd:code CDATA #IMPLIED
		ewd:figID CDATA #IMPLIED
		ewd:pinNo CDATA #IMPLIED
		ewd:comment CDATA #IMPLIED >
	<!ATTLIST text
		ewd:textID CDATA #IMPLIED >
	<!ATTLIST title
		ewd:textID CDATA #IMPLIED >
]>
<!-- Generator: Shintec Hozumi YS   -->
<svg onload="call_execInitLoadProc_svg('system')" style="overflow:visible;  enable-background:new 0 0 8677.758 710.000" viewBox="0 0 8677.758 710.000" height="710.000" width="8677.758" xml:space="preserve" ewd:ver="L2.3.0.14" xmlns="&ns_svg;" xmlns:a="http://ns.adobe.com/AdobeSVGViewerExtensions/3.0/" xmlns:ewd="http://shcl.co.jp/ewd" xmlns:xlink="&ns_xlink;">
<path d=" M  4529.74,   469.21  L  4529.74,   494.70  L  4563.74,   494.70  L  4563.74,   392.72  " style="stroke:#56077D;stroke-width: 5.10 ;&st6;" /><path d=" M  4529.74,   435.21  L  4529.74,   392.72  " style="stroke:#FFE600;stroke-width: 5.10 ;&st6;" /><path d=" M  4759.20,   188.75  L  4759.20,   197.25  " style="stroke-width: 0.85 ;&st7;  " /><path d=" M  4759.20,   163.26  L  4759.20,   171.76  " style="stroke-width: 0.85 ;&st7;  " /><path d=" M  4886.68,   163.26  L  4886.68,   171.76  " style="stroke-width: 0.85 ;&st7;  " /><path d=" M  4886.68,   188.75  L  4886.68,   197.25  " style="stroke-width: 0.85 ;&st7;  " /><path d=" M  4529.74,   435.21  L  4529.74,   443.71  " style="stroke-width: 0.85 ;&st7;  " /><path d=" M  4529.74,   460.71  L  4529.74,   469.21  " style="stroke-width: 0.85 ;&st7;  " /><path d=" M  4711.05,   486.20  L  4733.71,   480.54  " style="stroke-width: 1.42 ;&st7;  " /><path d=" M  4711.05,   554.19  L  4733.71,   548.53  " style="stroke-width: 1.42 ;&st7;  " /><path d=" M  4711.05,   588.19  L  4733.71,   582.52  " style="stroke-width: 1.42 ;&st7;  " /><path d=" M  4711.05,   520.20  L  4733.71,   514.53  " style="stroke-width: 1.42 ;&st7;  " /><path d=" M  4691.22,   375.72  L  4699.71,   375.72  " style="stroke-width: 1.42 ;&st7;  " /><path d=" M  4835.69,   494.70  L  4827.19,   494.70  " style="stroke-width: 1.42 ;&st7;  " /><path d=" M  4995.75,   710.00  L  4998.58,   710.00  " style="stroke-width: 0.85 ;&st7;  " /><path d=" M  4994.33,   707.17  L  5000.00,   707.17  " style="stroke-width: 0.85 ;&st7;  " /><path d=" M  4992.91,   704.33  L  5001.41,   704.33  " style="stroke-width: 0.85 ;&st7;  " /><path d=" M  4988.66,   701.50  L  5005.66,   701.50  " style="stroke-width: 0.85 ;&st7;  " /><path d=" M  4997.16,   697.25  L  4997.16,   701.50  " style="stroke-width: 0.85 ;&st7;  " /><path d=" M  4919.26,   710.00  L  4922.09,   710.00  " style="stroke-width: 0.85 ;&st7;  " /><path d=" M  4917.84,   707.17  L  4923.51,   707.17  " style="stroke-width: 0.85 ;&st7;  " /><path d=" M  4916.43,   704.33  L  4924.93,   704.33  " style="stroke-width: 0.85 ;&st7;  " /><path d=" M  4912.18,   701.50  L  4929.17,   701.50  " style="stroke-width: 0.85 ;&st7;  " /><path d=" M  4920.68,   697.25  L  4920.68,   701.50  " style="stroke-width: 0.85 ;&st7;  " /><path d=" M  4538.24,   469.21  L  4538.24,   435.21  L  4521.24,   435.21  L  4521.24,   469.21  L  4538.24,   469.21  " style="stroke-width: 1.42 ;&st7;  " /><path d=" M  4767.70,   188.75  L  4767.70,   171.76  " style="stroke-width: 1.42 ;&st7;  " /><path d=" M  4750.70,   188.75  L  4750.70,   171.76  " style="stroke-width: 1.42 ;&st7;  " /><path d=" M  4895.18,   188.75  L  4895.18,   171.76  " style="stroke-width: 1.42 ;&st7;  " /><path d=" M  4878.18,   188.75  L  4878.18,   171.76  " style="stroke-width: 1.42 ;&st7;  " /><path d=" M  4572.23,   180.26  L  4572.23,   197.25  " style="stroke-width: 0.85 ;&st7;  " /><path d=" M  4563.74,   197.25  L  4563.74,   180.26  L  4580.73,   180.26  L  4580.73,   197.25  L  4563.74,   197.25  " style="stroke-width: 1.42 ;&st7;  " /><path d=" M  4742.21,   452.78  L  4742.21,   588.19  " style="stroke-width: 0.85 ;&st7;  " /><path d=" M  4699.71,   486.20  L  4708.21,   486.20  " style="stroke-width: 0.85 ;&st7;  " /><path d=" M  4742.21,   486.20  L  4733.71,   486.20  " style="stroke-width: 0.85 ;&st7;  " /><path d=" M  4741.01,   485.20  L  4740.74,   485.67  L  4740.65,   486.20  L  4740.74,   486.74  L  4741.01,   487.21  L  4741.43,   487.55  L  4741.94,   487.74  L  4742.47,   487.74  L  4742.98,   487.55  L  4743.40,   487.21  L  4743.67,   486.74  L  4743.76,   486.20  L  4743.67,   485.67  L  4743.40,   485.20  L  4742.98,   484.86  L  4742.47,   484.67  L  4741.94,   484.67  L  4741.43,   484.86  L  4741.01,   485.20  L  4741.41,   485.91  L  4741.41,   486.50  L  4741.78,   486.94  L  4742.35,   487.04  L  4742.86,   486.75  L  4743.06,   486.20  L  4742.86,   485.66  L  4742.35,   485.37  L  4741.78,   485.47  L  4742.21,   486.20  " style="stroke-width: 0.85 ;&st7;  " /><path d=" M  4699.71,   520.20  L  4699.71,   511.70  L  4696.88,   510.28  L  4702.55,   507.45  L  4696.88,   504.62  L  4702.55,   501.78  L  4696.88,   498.95  L  4702.55,   496.12  L  4699.71,   494.70  L  4699.71,   452.78  " style="stroke-width: 0.85 ;&st7;  " /><path d=" M  4699.71,   443.71  L  4699.71,   426.71  " style="stroke-width: 0.85 ;&st7;  " /><path d=" M  4767.70,   452.78  L  4767.70,   605.18  L  4682.72,   605.18  L  4682.72,   452.78  L  4767.70,   452.78  " style="stroke-width: 1.42 ;&st7;  " /><path d=" M  4818.69,   401.22  L  4818.69,   418.22  L  4835.69,   418.22  L  4835.69,   401.22  L  4818.69,   401.22  " style="stroke-width: 1.42 ;&st7;  " /><path d=" M  4827.19,   401.22  L  4827.19,   418.22  " style="stroke-width: 0.85 ;&st7;  " /><path d=" M  4818.69,   562.69  L  4818.69,   588.19  L  4835.69,   588.19  L  4835.69,   562.69  L  4818.69,   562.69  " style="stroke-width: 1.42 ;&st7;  " /><path d=" M  4818.69,   571.19  L  4835.69,   571.19  " style="stroke-width: 1.13 ;&st7; stroke-dasharray:3, 3;" /><path d=" M  4818.69,   579.69  L  4835.69,   579.69  " style="stroke-width: 1.13 ;&st7; stroke-dasharray:3, 3;" /><path d=" M  4827.19,   562.69  L  4827.19,   588.19  " style="stroke-width: 0.85 ;&st7;  " /><path d=" M  4698.52,   485.20  L  4698.25,   485.67  L  4698.15,   486.20  L  4698.25,   486.74  L  4698.52,   487.21  L  4698.93,   487.55  L  4699.44,   487.74  L  4699.98,   487.74  L  4700.49,   487.55  L  4700.91,   487.21  L  4701.18,   486.74  L  4701.27,   486.20  L  4701.18,   485.67  L  4700.91,   485.20  L  4700.49,   484.86  L  4699.98,   484.67  L  4699.44,   484.67  L  4698.93,   484.86  L  4698.52,   485.20  L  4698.91,   485.91  L  4698.91,   486.50  L  4699.29,   486.94  L  4699.86,   487.04  L  4700.36,   486.75  L  4700.56,   486.20  L  4700.36,   485.66  L  4699.86,   485.37  L  4699.29,   485.47  L  4699.71,   486.20  " style="stroke-width: 0.85 ;&st7;  " /><path d=" M  4698.52,   553.19  L  4698.25,   553.66  L  4698.15,   554.19  L  4698.25,   554.73  L  4698.52,   555.20  L  4698.93,   555.54  L  4699.44,   555.73  L  4699.98,   555.73  L  4700.49,   555.54  L  4700.91,   555.20  L  4701.18,   554.73  L  4701.27,   554.19  L  4701.18,   553.66  L  4700.91,   553.19  L  4700.49,   552.84  L  4699.98,   552.66  L  4699.44,   552.66  L  4698.93,   552.84  L  4698.52,   553.19  L  4698.91,   553.90  L  4698.91,   554.48  L  4699.29,   554.93  L  4699.86,   555.03  L  4700.36,   554.74  L  4700.56,   554.19  L  4700.36,   553.65  L  4699.86,   553.36  L  4699.29,   553.46  L  4699.71,   554.19  " style="stroke-width: 0.85 ;&st7;  " /><path d=" M  4699.71,   588.19  L  4708.21,   588.19  " style="stroke-width: 0.85 ;&st7;  " /><path d=" M  4733.71,   588.19  L  4742.21,   588.19  " style="stroke-width: 0.85 ;&st7;  " /><path d=" M  4733.71,   554.19  L  4742.21,   554.19  " style="stroke-width: 0.85 ;&st7;  " /><path d=" M  4699.71,   554.19  L  4708.21,   554.19  " style="stroke-width: 0.85 ;&st7;  " /><path d=" M  4699.71,   520.20  L  4708.21,   520.20  " style="stroke-width: 0.85 ;&st7;  " /><path d=" M  4742.21,   520.20  L  4733.71,   520.20  " style="stroke-width: 0.85 ;&st7;  " /><path d=" M  4699.71,   554.19  L  4699.71,   562.69  L  4702.55,   564.11  L  4696.88,   566.94  L  4702.55,   569.77  L  4696.88,   572.61  L  4702.55,   575.44  L  4696.88,   578.27  L  4699.71,   579.69  L  4699.71,   588.19  " style="stroke-width: 0.85 ;&st7;  " /><path d=" M  4699.71,   520.20  L  4699.71,   528.70  L  4702.55,   530.11  L  4696.88,   532.95  L  4702.55,   535.78  L  4696.88,   538.61  L  4702.55,   541.44  L  4696.88,   544.28  L  4699.71,   545.69  L  4699.71,   554.19  " style="stroke-width: 0.85 ;&st7;  " /><path d=" M  4742.21,   426.71  L  4742.21,   443.71  " style="stroke-width: 0.85 ;&st7;  " /><path d=" M  4767.70,   443.71  L  4682.72,   443.71  L  4682.72,   426.71  L  4767.70,   426.71  L  4767.70,   443.71  " style="stroke-width: 1.42 ;&st7;  " /><path d=" M  4741.01,   519.20  L  4740.74,   519.67  L  4740.65,   520.20  L  4740.74,   520.73  L  4741.01,   521.20  L  4741.43,   521.55  L  4741.94,   521.73  L  4742.47,   521.73  L  4742.98,   521.55  L  4743.40,   521.20  L  4743.67,   520.73  L  4743.76,   520.20  L  4743.67,   519.67  L  4743.40,   519.20  L  4742.98,   518.85  L  4742.47,   518.66  L  4741.94,   518.66  L  4741.43,   518.85  L  4741.01,   519.20  L  4741.41,   519.91  L  4741.41,   520.49  L  4741.78,   520.94  L  4742.35,   521.03  L  4742.86,   520.75  L  4743.06,   520.20  L  4742.86,   519.65  L  4742.35,   519.36  L  4741.78,   519.46  L  4742.21,   520.20  " style="stroke-width: 0.85 ;&st7;  " /><path d=" M  4698.52,   519.20  L  4698.25,   519.67  L  4698.15,   520.20  L  4698.25,   520.73  L  4698.52,   521.20  L  4698.93,   521.55  L  4699.44,   521.73  L  4699.98,   521.73  L  4700.49,   521.55  L  4700.91,   521.20  L  4701.18,   520.73  L  4701.27,   520.20  L  4701.18,   519.67  L  4700.91,   519.20  L  4700.49,   518.85  L  4699.98,   518.66  L  4699.44,   518.66  L  4698.93,   518.85  L  4698.52,   519.20  L  4698.91,   519.91  L  4698.91,   520.49  L  4699.29,   520.94  L  4699.86,   521.03  L  4700.36,   520.75  L  4700.56,   520.20  L  4700.36,   519.65  L  4699.86,   519.36  L  4699.29,   519.46  L  4699.71,   520.20  " style="stroke-width: 0.85 ;&st7;  " /><path d=" M  4741.01,   553.19  L  4740.74,   553.66  L  4740.65,   554.19  L  4740.74,   554.73  L  4741.01,   555.20  L  4741.43,   555.54  L  4741.94,   555.73  L  4742.47,   555.73  L  4742.98,   555.54  L  4743.40,   555.20  L  4743.67,   554.73  L  4743.76,   554.19  L  4743.67,   553.66  L  4743.40,   553.19  L  4742.98,   552.84  L  4742.47,   552.66  L  4741.94,   552.66  L  4741.43,   552.84  L  4741.01,   553.19  L  4741.41,   553.90  L  4741.41,   554.48  L  4741.78,   554.93  L  4742.35,   555.03  L  4742.86,   554.74  L  4743.06,   554.19  L  4742.86,   553.65  L  4742.35,   553.36  L  4741.78,   553.46  L  4742.21,   554.19  " style="stroke-width: 0.85 ;&st7;  " /><path d=" M  4695.46,   366.66  L  4699.71,   370.91  L  4703.96,   366.66  " style="stroke-width: 1.42 ;&st7;  " /><path d=" M  4703.96,   370.06  L  4699.71,   374.31  L  4695.46,   370.06  " style="stroke-width: 1.42 ;&st7;  " /><path d=" M  4831.44,   503.77  L  4827.19,   499.52  L  4822.94,   503.77  " style="stroke-width: 1.42 ;&st7;  " /><path d=" M  4831.44,   500.37  L  4827.19,   496.12  L  4822.94,   500.37  " style="stroke-width: 1.42 ;&st7;  " /><path d=" M  4891.22,   329.26  C  4891.22    326.76   4889.19    324.73   4886.68    324.73  " style="stroke-width: 1.42 ;&st7;   " /><path d=" M  4886.68,   324.73  C  4884.18    324.73   4882.15    326.76   4882.15    329.26  " style="stroke-width: 1.42 ;&st7;   " /><path d=" M  4882.15,   329.26  C  4882.15    331.77   4884.18    333.80   4886.68    333.80  " style="stroke-width: 1.42 ;&st7;   " /><path d=" M  4886.68,   333.80  C  4889.19    333.80   4891.22    331.77   4891.22    329.26  " style="stroke-width: 1.42 ;&st7;   " /><path d=" M  4925.21,   329.26  C  4925.21    326.76   4923.18    324.73   4920.68    324.73  " style="stroke-width: 1.42 ;&st7;   " /><path d=" M  4920.68,   324.73  C  4918.17    324.73   4916.15    326.76   4916.15    329.26  " style="stroke-width: 1.42 ;&st7;   " /><path d=" M  4916.15,   329.26  C  4916.15    331.77   4918.17    333.80   4920.68    333.80  " style="stroke-width: 1.42 ;&st7;   " /><path d=" M  4920.68,   333.80  C  4923.18    333.80   4925.21    331.77   4925.21    329.26  " style="stroke-width: 1.42 ;&st7;   " /><path d=" M  4959.20,   329.26  C  4959.20    326.76   4957.18    324.73   4954.67    324.73  " style="stroke-width: 1.42 ;&st7;   " /><path d=" M  4954.67,   324.73  C  4952.17    324.73   4950.14    326.76   4950.14    329.26  " style="stroke-width: 1.42 ;&st7;   " /><path d=" M  4950.14,   329.26  C  4950.14    331.77   4952.17    333.80   4954.67    333.80  " style="stroke-width: 1.42 ;&st7;   " /><path d=" M  4954.67,   333.80  C  4957.18    333.80   4959.20    331.77   4959.20    329.26  " style="stroke-width: 1.42 ;&st7;   " /><path d=" M  4527.21,   449.73  C  4528.58    451.13   4530.82    451.15   4532.22    449.78  " style="stroke-width: 0.85 ;&st7;   " /><path d=" M  4532.22,   449.78  C  4533.62    448.41   4533.64    446.17   4532.27    444.77  " style="stroke-width: 0.85 ;&st7;   " /><path d=" M  4532.27,   444.77  C  4531.58    444.07   4530.73    443.71   4529.74    443.71  " style="stroke-width: 0.85 ;&st7;   " /><path d=" M  4878.18,   188.75  C  4878.18    193.45   4881.99    197.25   4886.68    197.25  " style="stroke-width: 1.42 ;&st7;   " /><path d=" M  4886.68,   197.25  C  4891.38    197.25   4895.18    193.45   4895.18    188.75  " style="stroke-width: 1.42 ;&st7;   " /><path d=" M  4895.18,   171.76  C  4895.18    167.06   4891.38    163.26   4886.68    163.26  " style="stroke-width: 1.42 ;&st7;   " /><path d=" M  4886.68,   163.26  C  4881.99    163.26   4878.18    167.06   4878.18    171.76  " style="stroke-width: 1.42 ;&st7;   " /><path d=" M  4759.20,   188.75  C  4761.16    188.75   4762.75    187.17   4762.75    185.21  " style="stroke-width: 0.85 ;&st7;   " /><path d=" M  4762.75,   185.21  C  4762.75    183.26   4761.16    181.67   4759.20    181.67  " style="stroke-width: 0.85 ;&st7;   " /><path d=" M  4759.20,   181.67  C  4758.21    181.67   4757.37    182.03   4756.68    182.73  " style="stroke-width: 0.85 ;&st7;   " /><path d=" M  4756.68,   182.73  C  4758.04    184.13   4760.29    184.15   4761.68    182.78  " style="stroke-width: 0.85 ;&st7;   " /><path d=" M  4761.68,   182.78  C  4763.08    181.42   4763.10    179.17   4761.73    177.78  " style="stroke-width: 0.85 ;&st7;   " /><path d=" M  4761.73,   177.78  C  4760.37    176.38   4758.12    176.36   4756.73    177.73  " style="stroke-width: 0.85 ;&st7;   " /><path d=" M  4756.73,   177.73  C  4756.71    177.74   4756.69    177.76   4756.68    177.78  " style="stroke-width: 0.85 ;&st7;   " /><path d=" M  4756.68,   177.78  C  4758.04    179.17   4760.29    179.20   4761.68    177.83  " style="stroke-width: 0.85 ;&st7;   " /><path d=" M  4761.68,   177.83  C  4763.08    176.46   4763.10    174.22   4761.73    172.82  " style="stroke-width: 0.85 ;&st7;   " /><path d=" M  4761.73,   172.82  C  4761.04    172.11   4760.20    171.76   4759.20    171.76  " style="stroke-width: 0.85 ;&st7;   " /><path d=" M  4750.71,   188.75  C  4750.71    193.45   4754.51    197.25   4759.20    197.25  " style="stroke-width: 1.42 ;&st7;   " /><path d=" M  4759.20,   197.25  C  4763.90    197.25   4767.70    193.45   4767.70    188.75  " style="stroke-width: 1.42 ;&st7;   " /><path d=" M  4884.15,   177.78  C  4885.52    179.17   4887.77    179.20   4889.16    177.83  " style="stroke-width: 0.85 ;&st7;   " /><path d=" M  4889.16,   177.83  C  4890.56    176.46   4890.58    174.22   4889.21    172.82  " style="stroke-width: 0.85 ;&st7;   " /><path d=" M  4889.21,   172.82  C  4888.52    172.11   4887.67    171.76   4886.68    171.76  " style="stroke-width: 0.85 ;&st7;   " /><path d=" M  4884.15,   182.73  C  4885.52    184.13   4887.77    184.15   4889.16    182.78  " style="stroke-width: 0.85 ;&st7;   " /><path d=" M  4889.16,   182.78  C  4890.56    181.42   4890.58    179.17   4889.21    177.78  " style="stroke-width: 0.85 ;&st7;   " /><path d=" M  4889.21,   177.78  C  4887.84    176.38   4885.60    176.36   4884.20    177.73  " style="stroke-width: 0.85 ;&st7;   " /><path d=" M  4884.20,   177.73  C  4884.19    177.74   4884.17    177.76   4884.15    177.78  " style="stroke-width: 0.85 ;&st7;   " /><path d=" M  4886.68,   188.75  C  4888.64    188.75   4890.22    187.17   4890.22    185.21  " style="stroke-width: 0.85 ;&st7;   " /><path d=" M  4890.22,   185.21  C  4890.22    183.26   4888.64    181.67   4886.68    181.67  " style="stroke-width: 0.85 ;&st7;   " /><path d=" M  4886.68,   181.67  C  4885.69    181.67   4884.85    182.03   4884.15    182.73  " style="stroke-width: 0.85 ;&st7;   " /><path d=" M  4763.74,   260.71  C  4763.74    258.21   4761.71    256.18   4759.20    256.18  " style="stroke-width: 1.42 ;&st7;   " /><path d=" M  4759.20,   256.18  C  4756.70    256.18   4754.67    258.21   4754.67    260.71  " style="stroke-width: 1.42 ;&st7;   " /><path d=" M  4754.67,   260.71  C  4754.67    263.21   4756.70    265.24   4759.20    265.24  " style="stroke-width: 1.42 ;&st7;   " /><path d=" M  4759.20,   265.24  C  4761.71    265.24   4763.74    263.21   4763.74    260.71  " style="stroke-width: 1.42 ;&st7;   " /><path d=" M  4721.24,   260.71  C  4721.24    258.21   4719.22    256.18   4716.71    256.18  " style="stroke-width: 1.42 ;&st7;   " /><path d=" M  4716.71,   256.18  C  4714.21    256.18   4712.18    258.21   4712.18    260.71  " style="stroke-width: 1.42 ;&st7;   " /><path d=" M  4712.18,   260.71  C  4712.18    263.21   4714.21    265.24   4716.71    265.24  " style="stroke-width: 1.42 ;&st7;   " /><path d=" M  4716.71,   265.24  C  4719.22    265.24   4721.24    263.21   4721.24    260.71  " style="stroke-width: 1.42 ;&st7;   " /><path d=" M  4848.72,   260.71  C  4848.72    258.21   4846.69    256.18   4844.19    256.18  " style="stroke-width: 1.42 ;&st7;   " /><path d=" M  4844.19,   256.18  C  4841.69    256.18   4839.66    258.21   4839.66    260.71  " style="stroke-width: 1.42 ;&st7;   " /><path d=" M  4839.66,   260.71  C  4839.66    263.21   4841.69    265.24   4844.19    265.24  " style="stroke-width: 1.42 ;&st7;   " /><path d=" M  4844.19,   265.24  C  4846.69    265.24   4848.72    263.21   4848.72    260.71  " style="stroke-width: 1.42 ;&st7;   " /><path d=" M  4891.22,   260.71  C  4891.22    258.21   4889.19    256.18   4886.68    256.18  " style="stroke-width: 1.42 ;&st7;   " /><path d=" M  4886.68,   256.18  C  4884.18    256.18   4882.15    258.21   4882.15    260.71  " style="stroke-width: 1.42 ;&st7;   " /><path d=" M  4882.15,   260.71  C  4882.15    263.21   4884.18    265.24   4886.68    265.24  " style="stroke-width: 1.42 ;&st7;   " /><path d=" M  4886.68,   265.24  C  4889.19    265.24   4891.22    263.21   4891.22    260.71  " style="stroke-width: 1.42 ;&st7;   " /><path d=" M  4767.70,   171.76  C  4767.70    167.06   4763.90    163.26   4759.20    163.26  " style="stroke-width: 1.42 ;&st7;   " /><path d=" M  4759.20,   163.26  C  4754.51    163.26   4750.71    167.06   4750.71    171.76  " style="stroke-width: 1.42 ;&st7;   " /><path d=" M  4500.28,   329.26  C  4500.28    326.76   4498.25    324.73   4495.75    324.73  " style="stroke-width: 1.42 ;&st7;   " /><path d=" M  4534.28,   329.26  C  4534.28    326.76   4532.25    324.73   4529.74    324.73  " style="stroke-width: 1.42 ;&st7;   " /><path d=" M  4529.74,   324.73  C  4527.24    324.73   4525.21    326.76   4525.21    329.26  " style="stroke-width: 1.42 ;&st7;   " /><path d=" M  4525.21,   329.26  C  4525.21    331.77   4527.24    333.80   4529.74    333.80  " style="stroke-width: 1.42 ;&st7;   " /><path d=" M  4529.74,   333.80  C  4532.25    333.80   4534.28    331.77   4534.28    329.26  " style="stroke-width: 1.42 ;&st7;   " /><path d=" M  4568.27,   329.26  C  4568.27    326.76   4566.24    324.73   4563.74    324.73  " style="stroke-width: 1.42 ;&st7;   " /><path d=" M  4563.74,   324.73  C  4561.23    324.73   4559.20    326.76   4559.20    329.26  " style="stroke-width: 1.42 ;&st7;   " /><path d=" M  4559.20,   329.26  C  4559.20    331.77   4561.23    333.80   4563.74    333.80  " style="stroke-width: 1.42 ;&st7;   " /><path d=" M  4563.74,   333.80  C  4566.24    333.80   4568.27    331.77   4568.27    329.26  " style="stroke-width: 1.42 ;&st7;   " /><path d=" M  4529.74,   460.71  C  4531.70    460.71   4533.28    459.12   4533.28    457.17  " style="stroke-width: 0.85 ;&st7;   " /><path d=" M  4533.28,   457.17  C  4533.28    455.21   4531.70    453.63   4529.74    453.63  " style="stroke-width: 0.85 ;&st7;   " /><path d=" M  4529.74,   453.63  C  4528.75    453.63   4527.91    453.98   4527.21    454.69  " style="stroke-width: 0.85 ;&st7;   " /><path d=" M  4527.21,   454.69  C  4528.58    456.09   4530.82    456.11   4532.22    454.74  " style="stroke-width: 0.85 ;&st7;   " /><path d=" M  4532.22,   454.74  C  4533.62    453.37   4533.64    451.13   4532.27    449.73  " style="stroke-width: 0.85 ;&st7;   " /><path d=" M  4532.27,   449.73  C  4530.90    448.33   4528.66    448.31   4527.26    449.68  " style="stroke-width: 0.85 ;&st7;   " /><path d=" M  4527.26,   449.68  C  4527.25    449.70   4527.23    449.71   4527.21    449.73  " style="stroke-width: 0.85 ;&st7;   " /><path d=" M  4568.27,   388.19  C  4568.27    385.68   4566.24    383.65   4563.74    383.65  " style="stroke-width: 1.42 ;&st7;   " /><path d=" M  4563.74,   383.65  C  4561.23    383.65   4559.20    385.68   4559.20    388.19  " style="stroke-width: 1.42 ;&st7;   " /><path d=" M  4559.20,   388.19  C  4559.20    390.69   4561.23    392.72   4563.74    392.72  " style="stroke-width: 1.42 ;&st7;   " /><path d=" M  4563.74,   392.72  C  4566.24    392.72   4568.27    390.69   4568.27    388.19  " style="stroke-width: 1.42 ;&st7;   " /><path d=" M  4534.28,   388.19  C  4534.28    385.68   4532.25    383.65   4529.74    383.65  " style="stroke-width: 1.42 ;&st7;   " /><path d=" M  4529.74,   383.65  C  4527.24    383.65   4525.21    385.68   4525.21    388.19  " style="stroke-width: 1.42 ;&st7;   " /><path d=" M  4525.21,   388.19  C  4525.21    390.69   4527.24    392.72   4529.74    392.72  " style="stroke-width: 1.42 ;&st7;   " /><path d=" M  4529.74,   392.72  C  4532.25    392.72   4534.28    390.69   4534.28    388.19  " style="stroke-width: 1.42 ;&st7;   " /><path d=" M  4576.77,   260.71  C  4576.77    258.21   4574.74    256.18   4572.24    256.18  " style="stroke-width: 1.42 ;&st7;   " /><path d=" M  4572.24,   256.18  C  4569.73    256.18   4567.70    258.21   4567.70    260.71  " style="stroke-width: 1.42 ;&st7;   " /><path d=" M  4567.70,   260.71  C  4567.70    263.21   4569.73    265.24   4572.24    265.24  " style="stroke-width: 1.42 ;&st7;   " /><path d=" M  4572.24,   265.24  C  4574.74    265.24   4576.77    263.21   4576.77    260.71  " style="stroke-width: 1.42 ;&st7;   " /><path d=" M  4500.28,   388.19  C  4500.28    385.68   4498.25    383.65   4495.75    383.65  " style="stroke-width: 1.42 ;&st7;   " /><path d=" M  4997.17,   324.73  C  4994.66    324.73   4992.63    326.76   4992.63    329.26  " style="stroke-width: 1.42 ;&st7;   " /><path d=" M  4992.63,   329.26  C  4992.63    331.77   4994.66    333.80   4997.17    333.80  " style="stroke-width: 1.42 ;&st7;   " /><path d=" M  4997.17,   333.80  C  4999.67    333.80   5001.70    331.77   5001.70    329.26  " style="stroke-width: 1.42 ;&st7;   " /><path d=" M  4711.05,   486.20  C  4711.05    485.42   4710.41    484.79   4709.63    484.79  " style="stroke-width: 0.85 ;&st7;   " /><path d=" M  4709.63,   484.79  C  4708.85    484.79   4708.21    485.42   4708.21    486.20  " style="stroke-width: 0.85 ;&st7;   " /><path d=" M  4708.21,   486.20  C  4708.21    486.99   4708.85    487.62   4709.63    487.62  " style="stroke-width: 0.85 ;&st7;   " /><path d=" M  4709.63,   487.62  C  4710.41    487.62   4711.05    486.99   4711.05    486.20  " style="stroke-width: 0.85 ;&st7;   " /><path d=" M  4733.71,   486.20  C  4733.71    485.42   4733.07    484.79   4732.29    484.79  " style="stroke-width: 0.85 ;&st7;   " /><path d=" M  4732.29,   484.79  C  4731.51    484.79   4730.88    485.42   4730.88    486.20  " style="stroke-width: 0.85 ;&st7;   " /><path d=" M  4730.88,   486.20  C  4730.88    486.99   4731.51    487.62   4732.29    487.62  " style="stroke-width: 0.85 ;&st7;   " /><path d=" M  4732.29,   487.62  C  4733.07    487.62   4733.71    486.99   4733.71    486.20  " style="stroke-width: 0.85 ;&st7;   " /><path d=" M  4704.25,   422.18  C  4704.25    419.68   4702.22    417.65   4699.71    417.65  " style="stroke-width: 1.42 ;&st7;   " /><path d=" M  4699.71,   417.65  C  4697.21    417.65   4695.18    419.68   4695.18    422.18  " style="stroke-width: 1.42 ;&st7;   " /><path d=" M  4695.18,   422.18  C  4695.18    424.68   4697.21    426.71   4699.71    426.71  " style="stroke-width: 1.42 ;&st7;   " /><path d=" M  4699.71,   426.71  C  4702.22    426.71   4704.25    424.68   4704.25    422.18  " style="stroke-width: 1.42 ;&st7;   " /><path d=" M  4746.74,   422.18  C  4746.74    419.68   4744.71    417.65   4742.21    417.65  " style="stroke-width: 1.42 ;&st7;   " /><path d=" M  4742.21,   417.65  C  4739.70    417.65   4737.68    419.68   4737.68    422.18  " style="stroke-width: 1.42 ;&st7;   " /><path d=" M  4737.68,   422.18  C  4737.68    424.68   4739.70    426.71   4742.21    426.71  " style="stroke-width: 1.42 ;&st7;   " /><path d=" M  4742.21,   426.71  C  4744.71    426.71   4746.74    424.68   4746.74    422.18  " style="stroke-width: 1.42 ;&st7;   " /><path d=" M  4704.25,   448.24  C  4704.25    445.74   4702.22    443.71   4699.71    443.71  " style="stroke-width: 1.42 ;&st7;   " /><path d=" M  4699.71,   443.71  C  4697.21    443.71   4695.18    445.74   4695.18    448.24  " style="stroke-width: 1.42 ;&st7;   " /><path d=" M  4695.18,   448.24  C  4695.18    450.75   4697.21    452.78   4699.71    452.78  " style="stroke-width: 1.42 ;&st7;   " /><path d=" M  4699.71,   452.78  C  4702.22    452.78   4704.25    450.75   4704.25    448.24  " style="stroke-width: 1.42 ;&st7;   " /><path d=" M  4746.74,   448.24  C  4746.74    445.74   4744.71    443.71   4742.21    443.71  " style="stroke-width: 1.42 ;&st7;   " /><path d=" M  4742.21,   443.71  C  4739.70    443.71   4737.68    445.74   4737.68    448.24  " style="stroke-width: 1.42 ;&st7;   " /><path d=" M  4737.68,   448.24  C  4737.68    450.75   4739.70    452.78   4742.21    452.78  " style="stroke-width: 1.42 ;&st7;   " /><path d=" M  4742.21,   452.78  C  4744.71    452.78   4746.74    450.75   4746.74    448.24  " style="stroke-width: 1.42 ;&st7;   " /><path d=" M  4831.73,   558.16  C  4831.73    555.66   4829.70    553.63   4827.19    553.63  " style="stroke-width: 1.42 ;&st7;   " /><path d=" M  4827.19,   553.63  C  4824.69    553.63   4822.66    555.66   4822.66    558.16  " style="stroke-width: 1.42 ;&st7;   " /><path d=" M  4822.66,   558.16  C  4822.66    560.66   4824.69    562.69   4827.19    562.69  " style="stroke-width: 1.42 ;&st7;   " /><path d=" M  4827.19,   562.69  C  4829.70    562.69   4831.73    560.66   4831.73    558.16  " style="stroke-width: 1.42 ;&st7;   " /><path d=" M  4831.73,   592.72  C  4831.73    590.22   4829.70    588.19   4827.19    588.19  " style="stroke-width: 1.42 ;&st7;   " /><path d=" M  4827.19,   588.19  C  4824.69    588.19   4822.66    590.22   4822.66    592.72  " style="stroke-width: 1.42 ;&st7;   " /><path d=" M  4822.66,   592.72  C  4822.66    595.22   4824.69    597.25   4827.19    597.25  " style="stroke-width: 1.42 ;&st7;   " /><path d=" M  4827.19,   597.25  C  4829.70    597.25   4831.73    595.22   4831.73    592.72  " style="stroke-width: 1.42 ;&st7;   " /><path d=" M  4704.25,   329.26  C  4704.25    326.76   4702.22    324.73   4699.71    324.73  " style="stroke-width: 1.42 ;&st7;   " /><path d=" M  4699.71,   324.73  C  4697.21    324.73   4695.18    326.76   4695.18    329.26  " style="stroke-width: 1.42 ;&st7;   " /><path d=" M  4695.18,   329.26  C  4695.18    331.77   4697.21    333.80   4699.71    333.80  " style="stroke-width: 1.42 ;&st7;   " /><path d=" M  4699.71,   333.80  C  4702.22    333.80   4704.25    331.77   4704.25    329.26  " style="stroke-width: 1.42 ;&st7;   " /><path d=" M  4733.71,   588.19  C  4733.71    587.40   4733.07    586.77   4732.29    586.77  " style="stroke-width: 0.85 ;&st7;   " /><path d=" M  4732.29,   586.77  C  4731.51    586.77   4730.88    587.40   4730.88    588.19  " style="stroke-width: 0.85 ;&st7;   " /><path d=" M  4730.88,   588.19  C  4730.88    588.97   4731.51    589.60   4732.29    589.60  " style="stroke-width: 0.85 ;&st7;   " /><path d=" M  4732.29,   589.60  C  4733.07    589.60   4733.71    588.97   4733.71    588.19  " style="stroke-width: 0.85 ;&st7;   " /><path d=" M  4711.05,   520.20  C  4711.05    519.42   4710.41    518.78   4709.63    518.78  " style="stroke-width: 0.85 ;&st7;   " /><path d=" M  4709.63,   518.78  C  4708.85    518.78   4708.21    519.42   4708.21    520.20  " style="stroke-width: 0.85 ;&st7;   " /><path d=" M  4708.21,   520.20  C  4708.21    520.98   4708.85    521.61   4709.63    521.61  " style="stroke-width: 0.85 ;&st7;   " /><path d=" M  4709.63,   521.61  C  4710.41    521.61   4711.05    520.98   4711.05    520.20  " style="stroke-width: 0.85 ;&st7;   " /><path d=" M  4711.05,   554.19  C  4711.05    553.41   4710.41    552.78   4709.63    552.78  " style="stroke-width: 0.85 ;&st7;   " /><path d=" M  4709.63,   552.78  C  4708.85    552.78   4708.21    553.41   4708.21    554.19  " style="stroke-width: 0.85 ;&st7;   " /><path d=" M  4708.21,   554.19  C  4708.21    554.97   4708.85    555.61   4709.63    555.61  " style="stroke-width: 0.85 ;&st7;   " /><path d=" M  4709.63,   555.61  C  4710.41    555.61   4711.05    554.97   4711.05    554.19  " style="stroke-width: 0.85 ;&st7;   " /><path d=" M  4711.05,   588.19  C  4711.05    587.40   4710.41    586.77   4709.63    586.77  " style="stroke-width: 0.85 ;&st7;   " /><path d=" M  4709.63,   586.77  C  4708.85    586.77   4708.21    587.40   4708.21    588.19  " style="stroke-width: 0.85 ;&st7;   " /><path d=" M  4708.21,   588.19  C  4708.21    588.97   4708.85    589.60   4709.63    589.60  " style="stroke-width: 0.85 ;&st7;   " /><path d=" M  4709.63,   589.60  C  4710.41    589.60   4711.05    588.97   4711.05    588.19  " style="stroke-width: 0.85 ;&st7;   " /><path d=" M  4733.71,   520.20  C  4733.71    519.42   4733.07    518.78   4732.29    518.78  " style="stroke-width: 0.85 ;&st7;   " /><path d=" M  4732.29,   518.78  C  4731.51    518.78   4730.88    519.42   4730.88    520.20  " style="stroke-width: 0.85 ;&st7;   " /><path d=" M  4730.88,   520.20  C  4730.88    520.98   4731.51    521.61   4732.29    521.61  " style="stroke-width: 0.85 ;&st7;   " /><path d=" M  4732.29,   521.61  C  4733.07    521.61   4733.71    520.98   4733.71    520.20  " style="stroke-width: 0.85 ;&st7;   " /><path d=" M  4733.71,   554.19  C  4733.71    553.41   4733.07    552.78   4732.29    552.78  " style="stroke-width: 0.85 ;&st7;   " /><path d=" M  4732.29,   552.78  C  4731.51    552.78   4730.88    553.41   4730.88    554.19  " style="stroke-width: 0.85 ;&st7;   " /><path d=" M  4730.88,   554.19  C  4730.88    554.97   4731.51    555.61   4732.29    555.61  " style="stroke-width: 0.85 ;&st7;   " /><path d=" M  4732.29,   555.61  C  4733.07    555.61   4733.71    554.97   4733.71    554.19  " style="stroke-width: 0.85 ;&st7;   " /><path d=" M  4576.77,   175.72  C  4576.77    173.22   4574.74    171.19   4572.24    171.19  " style="stroke-width: 1.42 ;&st7;   " /><path d=" M  4572.24,   171.19  C  4569.73    171.19   4567.70    173.22   4567.70    175.72  " style="stroke-width: 1.42 ;&st7;   " /><path d=" M  4567.70,   175.72  C  4567.70    178.23   4569.73    180.26   4572.24    180.26  " style="stroke-width: 1.42 ;&st7;   " /><path d=" M  4572.24,   180.26  C  4574.74    180.26   4576.77    178.23   4576.77    175.72  " style="stroke-width: 1.42 ;&st7;   " /><path d=" M  4576.77,   201.78  C  4576.77    199.28   4574.74    197.25   4572.24    197.25  " style="stroke-width: 1.42 ;&st7;   " /><path d=" M  4572.24,   197.25  C  4569.73    197.25   4567.70    199.28   4567.70    201.78  " style="stroke-width: 1.42 ;&st7;   " /><path d=" M  4567.70,   201.78  C  4567.70    204.29   4569.73    206.32   4572.24    206.32  " style="stroke-width: 1.42 ;&st7;   " /><path d=" M  4572.24,   206.32  C  4574.74    206.32   4576.77    204.29   4576.77    201.78  " style="stroke-width: 1.42 ;&st7;   " /><text ewd:textID="68" style="&st18;" transform="matrix(&st17;  4782.42  200.16 )">Transmission Revolution Sensor <tspan dy="6.0" x="0 ">(Turbine)</tspan></text><text style="&st18;" transform="matrix(&st16;  4882.79  321.03 )">E1</text><text style="&st18;" transform="matrix(&st16;  4873.9  331.23 )">81</text><text style="&st18;" transform="matrix(&st16;  4884.42  331.23 )">B</text><text style="&st18;" transform="matrix(&st17;  4950.98  473.14 )">BR</text><text style="&st18;" transform="matrix(&st17;  4882.99  474.93 )">W-B</text><text style="&st18;" transform="matrix(&st16;  4952.41  331.23 )">B</text><text style="&st18;" transform="matrix(&st16;  4941.89  331.23 )">42</text><text style="&st18;" transform="matrix(&st16;  4949.11  321.03 )">E02</text><text style="&st18;" transform="matrix(&st17;  4916.98  474.93 )">W-B</text><text style="&st18;" transform="matrix(&st16;  4918.41  331.23 )">B</text><text style="&st18;" transform="matrix(&st16;  4907.89  331.23 )">82</text><text style="&st18;" transform="matrix(&st16;  4912.63  321.03 )">ME01</text><text style="&st18;" transform="matrix(&st17;  4902.79  200.15 )">C36</text><text style="&st18;" transform="matrix(&st17;  4775.31  200.15 )">C35</text><text style="&st18;" transform="matrix(&st16;  4752.87  159.57 )">2</text><text style="&st18;" transform="matrix(&st16;  4752.87  205.45 )">1</text><text style="&st18;" transform="matrix(&st16;  4880.34  205.45 )">1</text><text style="&st18;" transform="matrix(&st16;  4880.34  159.57 )">2</text><text style="&st18;" transform="matrix(&st16;  4756.94  262.68 )">B</text><text style="&st18;" transform="matrix(&st16;  4743.08  262.68 )">123</text><text style="&st18;" transform="matrix(&st16;  4714.45  262.68 )">B</text><text style="&st18;" transform="matrix(&st16;  4700.59  262.68 )">124</text><text style="&st18;" transform="matrix(&st16;  4841.92  262.68 )">B</text><text style="&st18;" transform="matrix(&st16;  4828.07  262.68 )">101</text><text style="&st18;" transform="matrix(&st16;  4884.42  262.68 )">B</text><text style="&st18;" transform="matrix(&st16;  4870.56  262.68 )">100</text><text style="&st18;" transform="matrix(&st16;  4710.72  272.88 )">NT+</text><text style="&st18;" transform="matrix(&st16;  4753.95  272.88 )">NT-</text><text style="&st18;" transform="matrix(&st16;  4836.54  272.88 )">SP2+</text><text style="&st18;" transform="matrix(&st16;  4879.76  272.88 )">SP2-</text><text style="&st18;" transform="matrix(&st17;  4882.99  233.01 )">B</text><text style="&st18;" transform="matrix(&st17;  4840.49  232.9 )">Y</text><text style="&st18;" transform="matrix(&st17;  4755.51  233.01 )">B</text><text style="&st18;" transform="matrix(&st17;  4713.02  232.9 )">Y</text><text style="&st18;" transform="matrix(&st16;  4561.47  390.16 )">B</text><text style="&st18;" transform="matrix(&st16;  4554.26  390.16 )">4</text><text style="&st18;" transform="matrix(&st16;  4527.48  331.23 )">B</text><text style="&st18;" transform="matrix(&st16;  4516.96  331.23 )">12</text><text style="&st18;" transform="matrix(&st16;  4561.47  331.23 )">B</text><text style="&st18;" transform="matrix(&st16;  4550.95  331.23 )">13</text><text style="&st18;" transform="matrix(&st17;  4526.05  368.19 )">G-R</text><text style="&st18;" transform="matrix(&st17;  4560.04  368.31 )">L-W</text><text style="&st18;" transform="matrix(&st16;  4522.44  321.03 )">SL2+</text><text style="&st18;" transform="matrix(&st16;  4557.17  321.03 )">SL2-</text><text style="&st18;" transform="matrix(&st17;  4526.05  415.62 )">Y</text><text style="&st18;" transform="matrix(&st17;  4560.04  415.73 )">V</text><text style="&st18;" transform="matrix(&st16;  4566.32  400.91 )">SL2-</text><text style="&st18;" transform="matrix(&st16;  4532.33  400.91 )">SL2+</text><text style="&st18;" transform="matrix(&st16;  4520.26  390.16 )">2</text><text style="&st18;" transform="matrix(&st16;  4527.48  390.16 )">B</text><text style="&st18;" transform="matrix(&st16;  4566.48  272.88 )">ALT</text><text style="&st18;" transform="matrix(&st17;  4568.54  233.17 )">R</text><text style="&st18;" transform="matrix(&st16;  4569.97  262.68 )">B</text><text style="&st18;" transform="matrix(&st16;  4559.45  262.68 )">32</text><text style="&st18;" transform="matrix(&st17;  4993.47  474.93 )">W-B</text><text style="&st18;" transform="matrix(&st16;  4994.9  331.23 )">B</text><text style="&st18;" transform="matrix(&st16;  4984.38  331.23 )">46</text><text style="&st18;" transform="matrix(&st16;  4991.6  321.03 )">E03</text><text style="&st18;" transform="matrix(&st17;  4526.05  233.17 )">R</text><text ewd:textID="40" style="&st18;" transform="matrix(&st16;  4582.99  193.56 )">Junction <tspan dy="6.0" x="0 ">Connector</tspan></text><text style="&st18;" transform="matrix(&st16;  4582.99  186.45 )">C43(A)</text><text style="&st18;" transform="matrix(&st16;  4897.44  299.79 )">ECM</text><text style="&st18;" transform="matrix(&st16;  4897.44  292.68 )">A38(A),C45(B)</text><text ewd:textID="40" style="&st18;" transform="matrix(&st17;  4809.05  421.12 )">Junction <tspan dy="6.0" x="0 ">Connector</tspan></text><text style="&st18;" transform="matrix(&st17;  4801.94  421.11 )">E60</text><text style="&st18;" transform="matrix(&st16;  4569.97  177.69 )">A</text><text style="&st18;" transform="matrix(&st16;  4562.76  177.69 )">1</text><text style="&st18;" transform="matrix(&st16;  4569.97  203.75 )">A</text><text style="&st18;" transform="matrix(&st16;  4562.76  203.75 )">3</text><text style="&st18;" transform="matrix(&st16;  4817.52  426.41 )">74</text><text style="&st18;" transform="matrix(&st16;  4817.52  397.53 )">54</text><text ewd:textID="67" style="&st18;" transform="matrix(&st17;  4909.9  200.16 )">Transmission Revolution Sensor <tspan dy="6.0" x="0 ">(Counter Gear)</tspan></text><text style="&st18;" transform="matrix(&st16;  4969.7  660.98 )">W-B</text><text style="&st18;" transform="matrix(&st17;  4696.02  402.6 )">L</text><text style="&st18;" transform="matrix(&st17;  4823.5  626.12 )">BR</text><text style="&st18;" transform="matrix(&st17;  4823.5  473.14 )">BR</text><text style="&st18;" transform="matrix(&st16;  4744.79  434.91 )">ECC</text><text style="&st18;" transform="matrix(&st16;  4709.27  478.54 )">ON-OFF</text><text style="&st18;" transform="matrix(&st17;  4843.3  591.09 )">A37(A),C44(B)</text><text ewd:textID="40" style="&st18;" transform="matrix(&st17;  4850.41  591.09 )">Junction <tspan dy="6.0" x="0 ">Connector</tspan></text><text style="&st18;" transform="matrix(&st16;  4697.45  424.15 )">A</text><text style="&st18;" transform="matrix(&st16;  4690.23  424.15 )">1</text><text style="&st18;" transform="matrix(&st16;  4739.94  424.15 )">A</text><text style="&st18;" transform="matrix(&st16;  4732.73  424.15 )">2</text><text style="&st18;" transform="matrix(&st16;  4697.29  450.21 )">D</text><text style="&st18;" transform="matrix(&st16;  4690.23  450.21 )">3</text><text style="&st18;" transform="matrix(&st16;  4739.79  450.21 )">D</text><text style="&st18;" transform="matrix(&st16;  4732.73  450.21 )">4</text><text ewd:textID="61" style="&st18;" transform="matrix(&st17;  4782.42  446.62 )">Spiral Cable <tspan dy="6.0" x="0 ">Sub-Assembly</tspan></text><text style="&st18;" transform="matrix(&st17;  4775.31  446.61 )">E12(A),z37(D)</text><text style="&st18;" transform="matrix(&st16;  4824.93  560.13 )">A</text><text style="&st18;" transform="matrix(&st16;  4814.38  560.13 )">19</text><text style="&st18;" transform="matrix(&st16;  4824.93  594.69 )">B</text><text style="&st18;" transform="matrix(&st16;  4814.38  594.69 )">14</text><text style="&st18;" transform="matrix(&st17;  4823.5  532.63 )">BR</text><text style="&st18;" transform="matrix(&st17;  4738.51  405.16 )">BR</text><text style="&st18;" transform="matrix(&st17;  4696.02  351.61 )">L</text><text ewd:textID="19" style="&st18;" transform="matrix(&st17;  4782.42  608.09 )">Cruise Control Main Switch</text><text style="&st18;" transform="matrix(&st16;  4693.11  321.03 )">CCS</text><text style="&st18;" transform="matrix(&st16;  4686.93  331.23 )">45</text><text style="&st18;" transform="matrix(&st16;  4697.45  331.23 )">A</text><text style="&st18;" transform="matrix(&st16;  4702.3  434.91 )">CCS</text><text style="&st18;" transform="matrix(&st16;  4708.5  580.52 )">CANCEL</text><text style="&st18;" transform="matrix(&st16;  4713.03  546.53 )">- SET</text><text style="&st18;" transform="matrix(&st16;  4711.95  512.54 )">+ RES</text><text style="&st18;" transform="matrix(&st17;  4775.31  608.08 )">z37(D)</text><text style="&st18;" transform="matrix(&st16;  4682.96  381.94 )">14</text><text style="&st18;" transform="matrix(&st16;  4810.44  492.42 )">67</text><text style="&st18;" transform="matrix(&st16;  4856.75  660.98 )">BR</text></svg>