﻿<?xml version="1.0" encoding="utf-8"?>
<!DOCTYPE svg PUBLIC "-//W3C//DTD SVG 1.0//EN" "http://www.w3.org/TR/2001/REC-SVG-20010904/DTD/svg10.dtd"[
	<!ENTITY ns_flows "http://ns.adobe.com/Flows/1.0/">
	<!ENTITY ns_svg "http://www.w3.org/2000/svg">
	<!ENTITY ns_xlink "http://www.w3.org/1999/xlink">
	<!ENTITY st0 "font-size:7px;font-family:'MS-PGothic';adobe-font-script:japanese;">
	<!ENTITY st1 "font-size:6px;font-family:'ArialMT';">
	<!-- White fill  -->
	<!ENTITY st2 "fill:#FFFFFF;stroke:#000000; stroke-width:1.41;stroke-linecap:round;stroke-linejoin:round;">
	<!-- Yellow fill  -->
	<!ENTITY st3 "fill:#FFFFCC;stroke:#FFFFCC; stroke-width:0.1;stroke-linecap:round;stroke-linejoin:round;">
	<!-- Gray fill  -->
	<!ENTITY st4 "fill:#CCCCCC;stroke:#CCCCCC; stroke-width:0.1;stroke-linecap:round;stroke-linejoin:round;">
	<!-- Light-blue fill -->
	<!ENTITY st5 "fill:#CCECF4;stroke:#000000; stroke-width:1.133;stroke-linecap:round;stroke-linejoin:round;">
	<!ENTITY st6 "fill:none;stroke-linecap:butt; stroke-linejoin:round;">
	<!ENTITY st7 "fill:none;stroke:#000000;stroke-linecap:round;stroke-linejoin:round;">
	<!ENTITY st8 "enable-background:new    ;">
	<!-- Black fill -->
	<!ENTITY st9 "fill:#000000;stroke:#000000; stroke-linecap:round;stroke-linejoin:round;">
	<!-- SRS note   -->
	<!ENTITY st10 "font-size:9px;font-family:'ArialMT';">
	<!ENTITY st11 "font-size:9px;font-family:'Svg Symbol';">
	<!ENTITY st12 "font-size:6px;font-family:'Svg Symbol';">
	<!ENTITY st13 "fill:none;stroke:#ff0000;stroke-linecap:round;stroke-linejoin:round;">
	<!-- Yellow fill  -->
	<!ENTITY st14 "fill:#FFFF00;stroke:#FFFF00; stroke-width:0.1;stroke-linecap:round;stroke-linejoin:round;">
	<!ENTITY st15 "font-size:6px;font-family:'MS-PGothic';adobe-font-script:japanese;">
	<!ENTITY st16 "1.00 0.00 0.00 1.00">
	<!ENTITY st17 "0.00 -1.00 1.00 0.00">
	<!ENTITY st18 "font-size:6px;font-family:'Arial';">
	<!ENTITY st19 "font-size:9px;font-family:'Arial';">
	<!ENTITY st20 "font-size:6px;font-family:'MS-PGothic','MS PGothic';adobe-font-script:japanese;">
	<!ENTITY st21 "font-size:7px;font-family:'MS-PGothic','MS PGothic';adobe-font-script:japanese;">
	<!ATTLIST svg
		xmlns:ewd CDATA #FIXED "http://shcl.co.jp/ewd"
		xmlns:a CDATA #FIXED "http://ns.adobe.com/AdobeSVGViewerExtensions/3.0/"
		ewd:ver CDATA #IMPLIED
	>
	<!ATTLIST a
		ewd:lineID CDATA #IMPLIED
		ewd:groupID CDATA #IMPLIED
		ewd:figtype CDATA #IMPLIED
		ewd:code CDATA #IMPLIED
		ewd:figID CDATA #IMPLIED
		ewd:pinNo CDATA #IMPLIED
		ewd:comment CDATA #IMPLIED >
	<!ATTLIST g
		ewd:lineID CDATA #IMPLIED
		ewd:groupID CDATA #IMPLIED
		ewd:figtype CDATA #IMPLIED
		ewd:code CDATA #IMPLIED
		ewd:figID CDATA #IMPLIED
		ewd:pinNo CDATA #IMPLIED
		ewd:comment CDATA #IMPLIED >
	<!ATTLIST text
		ewd:textID CDATA #IMPLIED >
	<!ATTLIST title
		ewd:textID CDATA #IMPLIED >
]>
<!-- Generator: Shintec Hozumi YS   -->
<svg onload="call_execInitLoadProc_svg('system')" style="overflow:visible;  enable-background:new 0 0 11388.622 710.000" viewBox="0 0 11388.622 710.000" height="710.000" width="11388.622" xml:space="preserve" ewd:ver="L2.3.0.14" xmlns="&ns_svg;" xmlns:a="http://ns.adobe.com/AdobeSVGViewerExtensions/3.0/" xmlns:ewd="http://shcl.co.jp/ewd" xmlns:xlink="&ns_xlink;">
<path d=" M  7920.68,   362.97  L  7920.68,   358.73  " style="stroke-width: 0.85 ;&st7;  " /><path d=" M  7920.68,   392.72  L  7920.68,   388.47  " style="stroke-width: 0.85 ;&st7;  " /><path d=" M  7920.68,   385.64  L  7926.34,   362.97  " style="stroke-width: 1.42 ;&st7;  " /><path d=" M  7997.16,   362.97  L  7997.16,   358.73  " style="stroke-width: 0.85 ;&st7;  " /><path d=" M  7997.16,   392.72  L  7997.16,   388.47  " style="stroke-width: 0.85 ;&st7;  " /><path d=" M  7997.16,   385.64  L  8002.83,   362.97  " style="stroke-width: 1.42 ;&st7;  " /><path d=" M  8005.66,   256.74  L  7997.16,   256.74  " style="stroke-width: 1.42 ;&st7;  " /><path d=" M  7929.18,   256.74  L  7920.68,   256.74  " style="stroke-width: 1.42 ;&st7;  " /><path d=" M  8001.41,   262.41  L  7997.16,   258.16  L  7992.91,   262.41  " style="stroke-width: 1.42 ;&st7;  " /><path d=" M  8001.41,   265.81  L  7997.16,   261.56  L  7992.91,   265.81  " style="stroke-width: 1.42 ;&st7;  " /><path d=" M  7919.26,   409.72  L  7922.09,   409.72  " style="stroke-width: 0.85 ;&st7;  " /><path d=" M  7917.84,   406.88  L  7923.51,   406.88  " style="stroke-width: 0.85 ;&st7;  " /><path d=" M  7916.42,   404.05  L  7924.92,   404.05  " style="stroke-width: 0.85 ;&st7;  " /><path d=" M  7912.17,   401.22  L  7929.17,   401.22  " style="stroke-width: 0.85 ;&st7;  " /><path d=" M  7920.67,   392.72  L  7920.67,   401.22  " style="stroke-width: 0.85 ;&st7;  " /><path d=" M  7929.17,   392.72  L  7929.17,   358.73  L  7912.17,   358.73  L  7912.17,   392.72  L  7929.17,   392.72  " style="stroke-width: 1.42 ;&st7;  " /><path d=" M  7995.74,   409.72  L  7998.58,   409.72  " style="stroke-width: 0.85 ;&st7;  " /><path d=" M  7994.33,   406.88  L  7999.99,   406.88  " style="stroke-width: 0.85 ;&st7;  " /><path d=" M  7992.91,   404.05  L  8001.41,   404.05  " style="stroke-width: 0.85 ;&st7;  " /><path d=" M  7988.66,   401.22  L  8005.66,   401.22  " style="stroke-width: 0.85 ;&st7;  " /><path d=" M  7997.16,   392.72  L  7997.16,   401.22  " style="stroke-width: 0.85 ;&st7;  " /><path d=" M  8005.66,   392.72  L  8005.66,   358.73  L  7988.66,   358.73  L  7988.66,   392.72  L  8005.66,   392.72  " style="stroke-width: 1.42 ;&st7;  " /><path d=" M  7572.23,   265.24  L  7572.23,   333.23  L  7708.21,   333.23  L  7708.21,   265.24  L  7572.23,   265.24  " style="stroke-width: 1.42 ;&st7;  " /><path d=" M  7924.92,   262.41  L  7920.67,   258.16  L  7916.42,   262.41  " style="stroke-width: 1.42 ;&st7;  " /><path d=" M  7924.92,   265.81  L  7920.67,   261.56  L  7916.42,   265.81  " style="stroke-width: 1.42 ;&st7;  " /><path d=" M  7922.09,   364.39  C  7922.09    363.61   7921.46    362.97   7920.68    362.97  " style="stroke-width: 0.85 ;&st7;   " /><path d=" M  7920.68,   362.97  C  7919.89    362.97   7919.26    363.61   7919.26    364.39  " style="stroke-width: 0.85 ;&st7;   " /><path d=" M  7919.26,   364.39  C  7919.26    365.17   7919.89    365.81   7920.68    365.81  " style="stroke-width: 0.85 ;&st7;   " /><path d=" M  7920.68,   365.81  C  7921.46    365.81   7922.09    365.17   7922.09    364.39  " style="stroke-width: 0.85 ;&st7;   " /><path d=" M  7922.09,   387.05  C  7922.09    386.27   7921.46    385.64   7920.68    385.64  " style="stroke-width: 0.85 ;&st7;   " /><path d=" M  7920.68,   385.64  C  7919.89    385.64   7919.26    386.27   7919.26    387.05  " style="stroke-width: 0.85 ;&st7;   " /><path d=" M  7919.26,   387.05  C  7919.26    387.84   7919.89    388.47   7920.68    388.47  " style="stroke-width: 0.85 ;&st7;   " /><path d=" M  7920.68,   388.47  C  7921.46    388.47   7922.09    387.84   7922.09    387.05  " style="stroke-width: 0.85 ;&st7;   " /><path d=" M  7925.21,    91.30  C  7925.21     88.80   7923.18     86.77   7920.68     86.77  " style="stroke-width: 1.42 ;&st7;   " /><path d=" M  7920.68,    86.77  C  7918.17     86.77   7916.14     88.80   7916.14     91.30  " style="stroke-width: 1.42 ;&st7;   " /><path d=" M  7916.14,    91.30  C  7916.14     93.81   7918.17     95.84   7920.68     95.84  " style="stroke-width: 1.42 ;&st7;   " /><path d=" M  7920.68,    95.84  C  7923.18     95.84   7925.21     93.81   7925.21     91.30  " style="stroke-width: 1.42 ;&st7;   " /><path d=" M  7998.58,   364.39  C  7998.58    363.61   7997.95    362.97   7997.16    362.97  " style="stroke-width: 0.85 ;&st7;   " /><path d=" M  7997.16,   362.97  C  7996.38    362.97   7995.75    363.61   7995.75    364.39  " style="stroke-width: 0.85 ;&st7;   " /><path d=" M  7995.75,   364.39  C  7995.75    365.17   7996.38    365.81   7997.16    365.81  " style="stroke-width: 0.85 ;&st7;   " /><path d=" M  7997.16,   365.81  C  7997.95    365.81   7998.58    365.17   7998.58    364.39  " style="stroke-width: 0.85 ;&st7;   " /><path d=" M  7998.58,   387.05  C  7998.58    386.27   7997.95    385.64   7997.16    385.64  " style="stroke-width: 0.85 ;&st7;   " /><path d=" M  7997.16,   385.64  C  7996.38    385.64   7995.75    386.27   7995.75    387.05  " style="stroke-width: 0.85 ;&st7;   " /><path d=" M  7995.75,   387.05  C  7995.75    387.84   7996.38    388.47   7997.16    388.47  " style="stroke-width: 0.85 ;&st7;   " /><path d=" M  7997.16,   388.47  C  7997.95    388.47   7998.58    387.84   7998.58    387.05  " style="stroke-width: 0.85 ;&st7;   " /><path d=" M  7997.16,    86.77  C  7994.66     86.77   7992.63     88.80   7992.63     91.30  " style="stroke-width: 1.42 ;&st7;   " /><path d=" M  7992.63,    91.30  C  7992.63     93.81   7994.66     95.84   7997.16     95.84  " style="stroke-width: 1.42 ;&st7;   " /><path d=" M  7997.16,    95.84  C  7999.67     95.84   8001.70     93.81   8001.70     91.30  " style="stroke-width: 1.42 ;&st7;   " /><path d=" M  7593.76,   260.71  C  7593.76    258.21   7591.74    256.18   7589.23    256.18  " style="stroke-width: 1.42 ;&st7;   " /><path d=" M  7589.23,   256.18  C  7586.73    256.18   7584.70    258.21   7584.70    260.71  " style="stroke-width: 1.42 ;&st7;   " /><path d=" M  7584.70,   260.71  C  7584.70    263.21   7586.73    265.24   7589.23    265.24  " style="stroke-width: 1.42 ;&st7;   " /><path d=" M  7589.23,   265.24  C  7591.74    265.24   7593.76    263.21   7593.76    260.71  " style="stroke-width: 1.42 ;&st7;   " /><path d=" M  7644.76,   260.71  C  7644.76    258.21   7642.73    256.18   7640.22    256.18  " style="stroke-width: 1.42 ;&st7;   " /><path d=" M  7640.22,   256.18  C  7637.72    256.18   7635.69    258.21   7635.69    260.71  " style="stroke-width: 1.42 ;&st7;   " /><path d=" M  7635.69,   260.71  C  7635.69    263.21   7637.72    265.24   7640.22    265.24  " style="stroke-width: 1.42 ;&st7;   " /><path d=" M  7640.22,   265.24  C  7642.73    265.24   7644.76    263.21   7644.76    260.71  " style="stroke-width: 1.42 ;&st7;   " /><path d=" M  7695.75,   260.71  C  7695.75    258.21   7693.72    256.18   7691.21    256.18  " style="stroke-width: 1.42 ;&st7;   " /><path d=" M  7691.21,   256.18  C  7688.71    256.18   7686.68    258.21   7686.68    260.71  " style="stroke-width: 1.42 ;&st7;   " /><path d=" M  7686.68,   260.71  C  7686.68    263.21   7688.71    265.24   7691.21    265.24  " style="stroke-width: 1.42 ;&st7;   " /><path d=" M  7691.21,   265.24  C  7693.72    265.24   7695.75    263.21   7695.75    260.71  " style="stroke-width: 1.42 ;&st7;   " /><path d=" M  7593.76,   337.76  C  7593.76    335.26   7591.74    333.23   7589.23    333.23  " style="stroke-width: 1.42 ;&st7;   " /><path d=" M  7589.23,   333.23  C  7586.73    333.23   7584.70    335.26   7584.70    337.76  " style="stroke-width: 1.42 ;&st7;   " /><path d=" M  7584.70,   337.76  C  7584.70    340.27   7586.73    342.29   7589.23    342.29  " style="stroke-width: 1.42 ;&st7;   " /><path d=" M  7589.23,   342.29  C  7591.74    342.29   7593.76    340.27   7593.76    337.76  " style="stroke-width: 1.42 ;&st7;   " /><path d=" M  7627.76,   337.76  C  7627.76    335.26   7625.73    333.23   7623.23    333.23  " style="stroke-width: 1.42 ;&st7;   " /><path d=" M  7623.23,   333.23  C  7620.72    333.23   7618.69    335.26   7618.69    337.76  " style="stroke-width: 1.42 ;&st7;   " /><path d=" M  7618.69,   337.76  C  7618.69    340.27   7620.72    342.29   7623.23    342.29  " style="stroke-width: 1.42 ;&st7;   " /><path d=" M  7623.23,   342.29  C  7625.73    342.29   7627.76    340.27   7627.76    337.76  " style="stroke-width: 1.42 ;&st7;   " /><path d=" M  7661.75,   337.76  C  7661.75    335.26   7659.72    333.23   7657.22    333.23  " style="stroke-width: 1.42 ;&st7;   " /><path d=" M  7657.22,   333.23  C  7654.72    333.23   7652.69    335.26   7652.69    337.76  " style="stroke-width: 1.42 ;&st7;   " /><path d=" M  7652.69,   337.76  C  7652.69    340.27   7654.72    342.29   7657.22    342.29  " style="stroke-width: 1.42 ;&st7;   " /><path d=" M  7657.22,   342.29  C  7659.72    342.29   7661.75    340.27   7661.75    337.76  " style="stroke-width: 1.42 ;&st7;   " /><path d=" M  7695.75,   337.76  C  7695.75    335.26   7693.72    333.23   7691.21    333.23  " style="stroke-width: 1.42 ;&st7;   " /><path d=" M  7691.21,   333.23  C  7688.71    333.23   7686.68    335.26   7686.68    337.76  " style="stroke-width: 1.42 ;&st7;   " /><path d=" M  7686.68,   337.76  C  7686.68    340.27   7688.71    342.29   7691.21    342.29  " style="stroke-width: 1.42 ;&st7;   " /><path d=" M  7691.21,   342.29  C  7693.72    342.29   7695.75    340.27   7695.75    337.76  " style="stroke-width: 1.42 ;&st7;   " /><text style="&st18;" transform="matrix(&st16;  7980.41  254.46 )">23</text><text style="&st18;" transform="matrix(&st17;  7916.98  301.0 )">V</text><text style="&st18;" transform="matrix(&st17;  7916.98  131.03 )">V</text><text style="&st18;" transform="matrix(&st17;  7936.79  395.62 )">L1</text><text style="&st18;" transform="matrix(&st16;  7914.34  355.04 )">1</text><text style="&st18;" transform="matrix(&st16;  7907.86  93.27 )">27</text><text style="&st18;" transform="matrix(&st16;  7912.32  83.07 )">FRCY</text><text style="&st18;" transform="matrix(&st16;  7918.41  93.27 )">B</text><text style="&st18;" transform="matrix(&st17;  7993.47  301.0 )">V</text><text style="&st18;" transform="matrix(&st16;  7990.82  355.04 )">1</text><text style="&st18;" transform="matrix(&st16;  7987.68  93.27 )">6</text><text style="&st18;" transform="matrix(&st16;  7989.35  83.07 )">FLCY</text><text style="&st18;" transform="matrix(&st16;  7994.9  93.27 )">B</text><text style="&st18;" transform="matrix(&st17;  7993.47  131.03 )">V</text><text style="&st18;" transform="matrix(&st16;  7586.97  262.68 )">A</text><text style="&st18;" transform="matrix(&st16;  7576.42  262.68 )">31</text><text style="&st18;" transform="matrix(&st16;  7580.76  329.53 )">RRVT</text><text style="&st18;" transform="matrix(&st16;  7616.66  329.53 )">RILL</text><text ewd:textID="82" style="&st18;" transform="matrix(&st17;  7568.54  336.14 )">Overhead Module</text><text style="&st18;" transform="matrix(&st16;  7637.96  262.68 )">A</text><text style="&st18;" transform="matrix(&st16;  7627.41  262.68 )">32</text><text style="&st18;" transform="matrix(&st16;  7648.13  329.53 )">RGND</text><text style="&st18;" transform="matrix(&st16;  7678.4  262.68 )">16</text><text style="&st18;" transform="matrix(&st16;  7688.95  262.68 )">A</text><text style="&st18;" transform="matrix(&st16;  7583.59  272.88 )">+B1</text><text style="&st18;" transform="matrix(&st16;  7633.81  272.88 )">ILLB</text><text style="&st18;" transform="matrix(&st16;  7685.58  272.88 )">+B3</text><text style="&st18;" transform="matrix(&st16;  7579.75  339.73 )">5</text><text style="&st18;" transform="matrix(&st16;  7586.97  339.73 )">A</text><text style="&st18;" transform="matrix(&st16;  7613.75  339.73 )">6</text><text style="&st18;" transform="matrix(&st16;  7620.96  339.73 )">A</text><text style="&st18;" transform="matrix(&st16;  7647.74  339.73 )">1</text><text style="&st18;" transform="matrix(&st16;  7654.95  339.73 )">A</text><text style="&st18;" transform="matrix(&st16;  7518.82  202.05 )">R</text><text style="&st18;" transform="matrix(&st17;  7636.53  207.67 )">R</text><text style="&st18;" transform="matrix(&st17;  7687.52  216.17 )">R</text><text style="&st18;" transform="matrix(&st17;  7561.72  336.13 )">R7(A)</text><text style="&st18;" transform="matrix(&st17;  7653.53  389.94 )">W-B</text><text style="&st18;" transform="matrix(&st17;  7619.53  386.3 )">G</text><text ewd:textID="54" style="&st18;" transform="matrix(&st17;  7943.89  395.63 )">Front Door Courtesy <tspan dy="6.0" x="0 ">Light Switch Assembly RH</tspan></text><text style="&st18;" transform="matrix(&st16;  7681.73  339.73 )">9</text><text style="&st18;" transform="matrix(&st16;  7688.95  339.73 )">A</text><text style="&st18;" transform="matrix(&st16;  7684.99  329.53 )">CTY</text><text style="&st18;" transform="matrix(&st16;  7518.82  185.06 )">R</text><text style="&st18;" transform="matrix(&st16;  7518.67  380.52 )">G</text><text style="&st18;" transform="matrix(&st16;  7518.67  397.52 )">G</text><text style="&st18;" transform="matrix(&st17;  7687.52  386.3 )">G</text><text ewd:textID="26" style="&st18;" transform="matrix(&st16;  7526.34  641.15 )">*45 :Before Aug. 2016 Production</text><text ewd:textID="30" style="&st18;" transform="matrix(&st16;  7526.34  666.64 )">*49 :From Aug. 2016 Production until Aug. 2017 Production</text><text ewd:textID="28" style="&st18;" transform="matrix(&st16;  7526.34  649.65 )">*47 :Before Aug. 2017 Production</text><text ewd:textID="29" style="&st18;" transform="matrix(&st16;  7526.34  658.14 )">*48 :From Aug. 2017 Production</text><text style="&st18;" transform="matrix(&st16;  7929.71  254.46 )">(*48)</text><text style="&st18;" transform="matrix(&st16;  7929.71  245.96 )">(*47)</text><text style="&st18;" transform="matrix(&st16;  7903.92  245.96 )">76</text><text style="&st18;" transform="matrix(&st16;  7903.92  254.46 )">35</text><text ewd:textID="13" style="&st18;" transform="matrix(&st16;  7526.34  615.65 )">*19 :Except China</text><text ewd:textID="12" style="&st18;" transform="matrix(&st16;  7526.34  607.15 )">*18 :China</text><text ewd:textID="25" style="&st18;" transform="matrix(&st16;  7526.34  632.65 )">*31 :w/o Map Light Assembly</text><text ewd:textID="24" style="&st18;" transform="matrix(&st16;  7526.34  624.15 )">*30 :w/ Map Light Assembly</text></svg>