﻿<?xml version="1.0" encoding="utf-8"?>
<!DOCTYPE svg PUBLIC "-//W3C//DTD SVG 1.0//EN" "http://www.w3.org/TR/2001/REC-SVG-20010904/DTD/svg10.dtd"[
	<!ENTITY ns_flows "http://ns.adobe.com/Flows/1.0/">
	<!ENTITY ns_svg "http://www.w3.org/2000/svg">
	<!ENTITY ns_xlink "http://www.w3.org/1999/xlink">
	<!ENTITY st0 "font-size:7px;font-family:'MS-PGothic';adobe-font-script:japanese;">
	<!ENTITY st1 "font-size:6px;font-family:'ArialMT';">
	<!-- White fill  -->
	<!ENTITY st2 "fill:#FFFFFF;stroke:#000000; stroke-width:1.41;stroke-linecap:round;stroke-linejoin:round;">
	<!-- Yellow fill  -->
	<!ENTITY st3 "fill:#FFFFCC;stroke:#FFFFCC; stroke-width:0.1;stroke-linecap:round;stroke-linejoin:round;">
	<!-- Gray fill  -->
	<!ENTITY st4 "fill:#CCCCCC;stroke:#CCCCCC; stroke-width:0.1;stroke-linecap:round;stroke-linejoin:round;">
	<!-- Light-blue fill -->
	<!ENTITY st5 "fill:#CCECF4;stroke:#000000; stroke-width:1.133;stroke-linecap:round;stroke-linejoin:round;">
	<!ENTITY st6 "fill:none;stroke-linecap:butt; stroke-linejoin:round;">
	<!ENTITY st7 "fill:none;stroke:#000000;stroke-linecap:round;stroke-linejoin:round;">
	<!ENTITY st8 "enable-background:new    ;">
	<!-- Black fill -->
	<!ENTITY st9 "fill:#000000;stroke:#000000; stroke-linecap:round;stroke-linejoin:round;">
	<!-- SRS note   -->
	<!ENTITY st10 "font-size:9px;font-family:'ArialMT';">
	<!ENTITY st11 "font-size:9px;font-family:'Svg Symbol';">
	<!ENTITY st12 "font-size:6px;font-family:'Svg Symbol';">
	<!ENTITY st13 "fill:none;stroke:#ff0000;stroke-linecap:round;stroke-linejoin:round;">
	<!-- Yellow fill  -->
	<!ENTITY st14 "fill:#FFFF00;stroke:#FFFF00; stroke-width:0.1;stroke-linecap:round;stroke-linejoin:round;">
	<!ENTITY st15 "font-size:6px;font-family:'MS-PGothic';adobe-font-script:japanese;">
	<!ENTITY st16 "1.00 0.00 0.00 1.00">
	<!ENTITY st17 "0.00 -1.00 1.00 0.00">
	<!ENTITY st18 "font-size:6px;font-family:'Arial';">
	<!ENTITY st19 "font-size:9px;font-family:'Arial';">
	<!ENTITY st20 "font-size:6px;font-family:'MS-PGothic','MS PGothic';adobe-font-script:japanese;">
	<!ENTITY st21 "font-size:7px;font-family:'MS-PGothic','MS PGothic';adobe-font-script:japanese;">
	<!ATTLIST svg
		xmlns:ewd CDATA #FIXED "http://shcl.co.jp/ewd"
		xmlns:a CDATA #FIXED "http://ns.adobe.com/AdobeSVGViewerExtensions/3.0/"
		ewd:ver CDATA #IMPLIED
	>
	<!ATTLIST a
		ewd:lineID CDATA #IMPLIED
		ewd:groupID CDATA #IMPLIED
		ewd:figtype CDATA #IMPLIED
		ewd:code CDATA #IMPLIED
		ewd:figID CDATA #IMPLIED
		ewd:pinNo CDATA #IMPLIED
		ewd:comment CDATA #IMPLIED >
	<!ATTLIST g
		ewd:lineID CDATA #IMPLIED
		ewd:groupID CDATA #IMPLIED
		ewd:figtype CDATA #IMPLIED
		ewd:code CDATA #IMPLIED
		ewd:figID CDATA #IMPLIED
		ewd:pinNo CDATA #IMPLIED
		ewd:comment CDATA #IMPLIED >
	<!ATTLIST text
		ewd:textID CDATA #IMPLIED >
	<!ATTLIST title
		ewd:textID CDATA #IMPLIED >
]>
<!-- Generator: Shintec Hozumi YS   -->
<svg onload="call_execInitLoadProc_svg('system')" style="overflow:visible;  enable-background:new 0 0 10370.492 710.000" viewBox="0 0 10370.492 710.000" height="710.000" width="10370.492" xml:space="preserve" ewd:ver="L2.3.0.14" xmlns="&ns_svg;" xmlns:a="http://ns.adobe.com/AdobeSVGViewerExtensions/3.0/" xmlns:ewd="http://shcl.co.jp/ewd" xmlns:xlink="&ns_xlink;">
<path d=" M   424.93,   180.26  L   365.44,   180.26  " style="stroke:#000000;stroke-width: 0.85;stroke-dasharray:3, 1.5;&st6;" /><path d=" M   178.47,   146.26  L   229.46,   146.26  " style="stroke:#000000;stroke-width: 0.85;stroke-dasharray:3, 1.5;&st6;" /><path d=" M   178.47,   180.26  L   229.46,   180.26  " style="stroke:#000000;stroke-width: 0.85;stroke-dasharray:3, 1.5;&st6;" /><path d=" M   365.44,   146.26  L   424.93,   146.26  " style="stroke:#000000;stroke-width: 0.85;stroke-dasharray:3, 1.5;&st6;" /><path d=" M   152.97,   414.69  L   148.00,   409.72  " style="stroke-width: 1.42 ;&st7;  " /><path d=" M   135.98,   421.75  L   140.95,   426.71  " style="stroke-width: 1.42 ;&st7;  " /><path d=" M   148.00,   426.71  L   152.97,   421.75  " style="stroke-width: 1.42 ;&st7;  " /><path d=" M   140.95,   409.72  L   135.98,   414.69  " style="stroke-width: 1.42 ;&st7;  " /><path d=" M   203.97,   413.97  L   203.97,   418.22  " style="stroke-width: 1.42 ;&st7;  " /><path d=" M   203.97,   583.94  L   203.97,   588.19  " style="stroke-width: 1.42 ;&st7;  " /><path d=" M   263.46,   270.21  L   258.48,   265.24  " style="stroke-width: 1.42 ;&st7;  " /><path d=" M   246.46,   277.27  L   251.43,   282.24  " style="stroke-width: 1.42 ;&st7;  " /><path d=" M   258.48,   282.24  L   263.46,   277.27  " style="stroke-width: 1.42 ;&st7;  " /><path d=" M   251.43,   265.24  L   246.46,   270.21  " style="stroke-width: 1.42 ;&st7;  " /><path d=" M   263.46,   372.20  L   258.48,   367.22  " style="stroke-width: 1.42 ;&st7;  " /><path d=" M   246.46,   379.25  L   251.43,   384.22  " style="stroke-width: 1.42 ;&st7;  " /><path d=" M   258.48,   384.22  L   263.46,   379.25  " style="stroke-width: 1.42 ;&st7;  " /><path d=" M   251.43,   367.22  L   246.46,   372.20  " style="stroke-width: 1.42 ;&st7;  " /><path d=" M   263.46,   499.67  L   258.48,   494.70  " style="stroke-width: 1.42 ;&st7;  " /><path d=" M   246.46,   506.73  L   251.43,   511.70  " style="stroke-width: 1.42 ;&st7;  " /><path d=" M   258.48,   511.70  L   263.46,   506.73  " style="stroke-width: 1.42 ;&st7;  " /><path d=" M   251.43,   494.70  L   246.46,   499.67  " style="stroke-width: 1.42 ;&st7;  " /><path d=" M   293.92,   231.25  L   288.95,   236.22  " style="stroke-width: 1.42 ;&st7;  " /><path d=" M   300.98,   248.24  L   305.95,   243.27  " style="stroke-width: 1.42 ;&st7;  " /><path d=" M   288.95,   243.27  L   293.92,   248.24  " style="stroke-width: 1.42 ;&st7;  " /><path d=" M   305.95,   236.22  L   300.98,   231.25  " style="stroke-width: 1.42 ;&st7;  " /><path d=" M   395.18,   277.99  L   399.43,   277.99  " style="stroke-width: 1.42 ;&st7;  " /><path d=" M   399.43,   286.49  L   395.18,   286.49  " style="stroke-width: 1.42 ;&st7;  " /><path d=" M   395.18,   320.48  L   399.43,   320.48  " style="stroke-width: 1.42 ;&st7;  " /><path d=" M   399.43,   328.98  L   395.18,   328.98  " style="stroke-width: 1.42 ;&st7;  " /><path d=" M   395.18,   362.97  L   399.43,   362.97  " style="stroke-width: 1.42 ;&st7;  " /><path d=" M   399.43,   371.47  L   395.18,   371.47  " style="stroke-width: 1.42 ;&st7;  " /><path d=" M   305.95,   321.20  L   300.98,   316.23  " style="stroke-width: 1.42 ;&st7;  " /><path d=" M   288.95,   328.26  L   293.92,   333.23  " style="stroke-width: 1.42 ;&st7;  " /><path d=" M   300.98,   333.23  L   305.95,   328.26  " style="stroke-width: 1.42 ;&st7;  " /><path d=" M   293.92,   316.23  L   288.95,   321.20  " style="stroke-width: 1.42 ;&st7;  " /><path d=" M   305.95,   176.73  L   300.98,   171.76  " style="stroke-width: 1.42 ;&st7;  " /><path d=" M   288.95,   183.78  L   293.92,   188.75  " style="stroke-width: 1.42 ;&st7;  " /><path d=" M   300.98,   188.75  L   305.95,   183.78  " style="stroke-width: 1.42 ;&st7;  " /><path d=" M   293.92,   171.76  L   288.95,   176.73  " style="stroke-width: 1.42 ;&st7;  " /><path d=" M   310.92,   511.70  L   305.95,   516.67  " style="stroke-width: 1.42 ;&st7;  " /><path d=" M   317.97,   528.70  L   322.95,   523.73  " style="stroke-width: 1.42 ;&st7;  " /><path d=" M   305.95,   523.73  L   310.92,   528.70  " style="stroke-width: 1.42 ;&st7;  " /><path d=" M   322.95,   516.67  L   317.97,   511.70  " style="stroke-width: 1.42 ;&st7;  " /><path d=" M   246.46,   142.73  L   241.49,   137.76  " style="stroke-width: 1.42 ;&st7;  " /><path d=" M   229.46,   149.79  L   234.43,   154.76  " style="stroke-width: 1.42 ;&st7;  " /><path d=" M   241.49,   154.76  L   246.46,   149.79  " style="stroke-width: 1.42 ;&st7;  " /><path d=" M   234.43,   137.76  L   229.46,   142.73  " style="stroke-width: 1.42 ;&st7;  " /><path d=" M   246.46,   176.73  L   241.49,   171.76  " style="stroke-width: 1.42 ;&st7;  " /><path d=" M   229.46,   183.78  L   234.43,   188.75  " style="stroke-width: 1.42 ;&st7;  " /><path d=" M   241.49,   188.75  L   246.46,   183.78  " style="stroke-width: 1.42 ;&st7;  " /><path d=" M   234.43,   171.76  L   229.46,   176.73  " style="stroke-width: 1.42 ;&st7;  " /><path d=" M   365.44,   142.73  L   360.47,   137.76  " style="stroke-width: 1.42 ;&st7;  " /><path d=" M   348.44,   149.79  L   353.41,   154.76  " style="stroke-width: 1.42 ;&st7;  " /><path d=" M   360.47,   154.76  L   365.44,   149.79  " style="stroke-width: 1.42 ;&st7;  " /><path d=" M   353.41,   137.76  L   348.44,   142.73  " style="stroke-width: 1.42 ;&st7;  " /><path d=" M   365.44,   176.73  L   360.47,   171.76  " style="stroke-width: 1.42 ;&st7;  " /><path d=" M   348.44,   183.78  L   353.41,   188.75  " style="stroke-width: 1.42 ;&st7;  " /><path d=" M   360.47,   188.75  L   365.44,   183.78  " style="stroke-width: 1.42 ;&st7;  " /><path d=" M   353.41,   171.76  L   348.44,   176.73  " style="stroke-width: 1.42 ;&st7;  " /><path d=" M   322.95,   431.69  L   317.97,   426.71  " style="stroke-width: 1.42 ;&st7;  " /><path d=" M   305.95,   438.74  L   310.92,   443.71  " style="stroke-width: 1.42 ;&st7;  " /><path d=" M   317.97,   443.71  L   322.95,   438.74  " style="stroke-width: 1.42 ;&st7;  " /><path d=" M   310.92,   426.71  L   305.95,   431.69  " style="stroke-width: 1.42 ;&st7;  " /><path d=" M   161.47,    91.74  L   156.50,    86.77  " style="stroke-width: 1.42 ;&st7;  " /><path d=" M   144.48,    98.80  L   149.44,   103.77  " style="stroke-width: 1.42 ;&st7;  " /><path d=" M   156.50,   103.77  L   161.47,    98.80  " style="stroke-width: 1.42 ;&st7;  " /><path d=" M   149.44,    86.77  L   144.48,    91.74  " style="stroke-width: 1.42 ;&st7;  " /><path d=" M   161.47,    49.25  L   156.50,    44.28  " style="stroke-width: 1.42 ;&st7;  " /><path d=" M   144.48,    56.31  L   149.44,    61.28  " style="stroke-width: 1.42 ;&st7;  " /><path d=" M   156.50,    61.28  L   161.47,    56.31  " style="stroke-width: 1.42 ;&st7;  " /><path d=" M   149.44,    44.28  L   144.48,    49.25  " style="stroke-width: 1.42 ;&st7;  " /><path d=" M   386.69,    91.02  L   390.93,    91.02  " style="stroke-width: 1.42 ;&st7;  " /><path d=" M   390.93,    99.52  L   386.69,    99.52  " style="stroke-width: 1.42 ;&st7;  " /><path d=" M   161.47,   142.73  L   156.50,   137.76  " style="stroke-width: 1.42 ;&st7;  " /><path d=" M   144.48,   149.79  L   149.44,   154.76  " style="stroke-width: 1.42 ;&st7;  " /><path d=" M   156.50,   154.76  L   161.47,   149.79  " style="stroke-width: 1.42 ;&st7;  " /><path d=" M   149.44,   137.76  L   144.48,   142.73  " style="stroke-width: 1.42 ;&st7;  " /><path d=" M   253.54,   710.00  L   256.37,   710.00  " style="stroke-width: 0.85 ;&st7;  " /><path d=" M   246.46,   701.50  L   263.46,   701.50  " style="stroke-width: 0.85 ;&st7;  " /><path d=" M   252.12,   707.17  L   257.79,   707.17  " style="stroke-width: 0.85 ;&st7;  " /><path d=" M   250.71,   704.33  L   259.21,   704.33  " style="stroke-width: 0.85 ;&st7;  " /><path d=" M   254.96,   697.25  L   254.96,   701.50  " style="stroke-width: 0.85 ;&st7;  " /><path d=" M   297.45,   697.25  L   297.45,   701.50  " style="stroke-width: 0.85 ;&st7;  " /><path d=" M   288.95,   701.50  L   305.95,   701.50  " style="stroke-width: 0.85 ;&st7;  " /><path d=" M   293.20,   704.33  L   301.70,   704.33  " style="stroke-width: 0.85 ;&st7;  " /><path d=" M   294.62,   707.17  L   300.28,   707.17  " style="stroke-width: 0.85 ;&st7;  " /><path d=" M   296.03,   710.00  L   298.87,   710.00  " style="stroke-width: 0.85 ;&st7;  " /><path d=" M     8.50,   622.18  L     8.50,   647.68  L    93.48,   647.68  L    93.48,   622.18  L     8.50,   622.18  " style="stroke-width: 1.42 ;&st7;  " /><path d=" M     8.50,   579.69  L     8.50,   605.18  L    93.48,   605.18  L    93.48,   579.69  L     8.50,   579.69  " style="stroke-width: 1.42 ;&st7;  " /><path d=" M     8.50,   537.20  L     8.50,   562.69  L    93.48,   562.69  L    93.48,   537.20  L     8.50,   537.20  " style="stroke-width: 1.42 ;&st7;  " /><path d=" M     8.50,   494.70  L     8.50,   520.20  L    93.48,   520.20  L    93.48,   494.70  L     8.50,   494.70  " style="stroke-width: 1.42 ;&st7;  " /><path d=" M     8.50,   452.21  L     8.50,   477.71  L    93.48,   477.71  L    93.48,   452.21  L     8.50,   452.21  " style="stroke-width: 1.42 ;&st7;  " /><path d=" M     8.50,   409.72  L     8.50,   435.21  L    93.48,   435.21  L    93.48,   409.72  L     8.50,   409.72  " style="stroke-width: 1.42 ;&st7;  " /><path d=" M     8.50,   367.22  L     8.50,   392.72  L    93.48,   392.72  L    93.48,   367.22  L     8.50,   367.22  " style="stroke-width: 1.42 ;&st7;  " /><path d=" M     8.50,   324.73  L     8.50,   350.23  L    93.48,   350.23  L    93.48,   324.73  L     8.50,   324.73  " style="stroke-width: 1.42 ;&st7;  " /><path d=" M     8.50,   265.24  L     8.50,   307.73  L    93.48,   307.73  L    93.48,   265.24  L     8.50,   265.24  " style="stroke-width: 1.42 ;&st7;  " /><path d=" M     8.50,   205.75  L     8.50,   248.24  L    93.48,   248.24  L    93.48,   205.75  L     8.50,   205.75  " style="stroke-width: 1.42 ;&st7;  " /><path d=" M   424.93,   647.68  L   424.93,   681.67  L   509.91,   681.67  L   509.91,   647.68  L   424.93,   647.68  " style="stroke-width: 1.42 ;&st7;  " /><path d=" M   424.93,   486.20  L   424.93,   554.19  L   509.91,   554.19  L   509.91,   486.20  L   424.93,   486.20  " style="stroke-width: 1.42 ;&st7;  " /><path d=" M   424.93,   401.22  L   424.93,   469.21  L   509.91,   469.21  L   509.91,   401.22  L   424.93,   401.22  " style="stroke-width: 1.42 ;&st7;  " /><path d=" M   424.93,   358.73  L   424.93,   384.22  L   509.91,   384.22  L   509.91,   358.73  L   424.93,   358.73  " style="stroke-width: 1.42 ;&st7;  " /><path d=" M   424.93,   316.23  L   424.93,   341.73  L   509.91,   341.73  L   509.91,   316.23  L   424.93,   316.23  " style="stroke-width: 1.42 ;&st7;  " /><path d=" M   424.93,   273.74  L   424.93,   299.24  L   509.91,   299.24  L   509.91,   273.74  L   424.93,   273.74  " style="stroke-width: 1.42 ;&st7;  " /><path d=" M   424.93,   231.25  L   424.93,   256.74  L   509.91,   256.74  L   509.91,   231.25  L   424.93,   231.25  " style="stroke-width: 1.42 ;&st7;  " /><path d=" M   213.03,   422.46  L   208.78,   418.22  L   213.03,   413.97  " style="stroke-width: 1.42 ;&st7;  " /><path d=" M   209.63,   422.46  L   205.38,   418.22  L   209.63,   413.97  " style="stroke-width: 1.42 ;&st7;  " /><path d=" M   213.03,   592.44  L   208.78,   588.19  L   213.03,   583.94  " style="stroke-width: 1.42 ;&st7;  " /><path d=" M   209.63,   592.44  L   205.38,   588.19  L   209.63,   583.94  " style="stroke-width: 1.42 ;&st7;  " /><path d=" M   408.58,   282.24  L   411.41,   279.41  L   407.16,   279.41  L   404.33,   282.24  L   407.16,   285.07  L   411.41,   285.07  L   408.58,   282.24  " style="stroke-width: 0.28 ;&st9;  " /><path d=" M   408.58,   324.73  L   411.41,   321.90  L   407.16,   321.90  L   404.33,   324.73  L   407.16,   327.56  L   411.41,   327.56  L   408.58,   324.73  " style="stroke-width: 0.28 ;&st9;  " /><path d=" M   408.58,   367.22  L   411.41,   364.39  L   407.16,   364.39  L   404.33,   367.22  L   407.16,   370.06  L   411.41,   370.06  L   408.58,   367.22  " style="stroke-width: 0.28 ;&st9;  " /><path d=" M   403.68,   367.22  L   424.93,   367.22  " style="stroke-width: 0.85 ;&st7;  " /><path d=" M   424.93,   324.73  L   403.68,   324.73  " style="stroke-width: 0.85 ;&st7;  " /><path d=" M   424.93,   282.24  L   403.68,   282.24  " style="stroke-width: 0.85 ;&st7;  " /><path d=" M     8.50,   137.76  L     8.50,   180.26  L    93.48,   180.26  L    93.48,   137.76  L     8.50,   137.76  " style="stroke-width: 1.42 ;&st7;  " /><path d=" M     8.50,    86.77  L     8.50,   129.26  L    93.48,   129.26  L    93.48,    86.77  L     8.50,    86.77  " style="stroke-width: 1.42 ;&st7;  " /><path d=" M     8.50,    10.28  L     8.50,    35.78  L    93.48,    35.78  L    93.48,    10.28  L     8.50,    10.28  " style="stroke-width: 1.42 ;&st7;  " /><path d=" M   424.93,    86.77  L   424.93,   112.27  L   509.91,   112.27  L   509.91,    86.77  L   424.93,    86.77  " style="stroke-width: 1.42 ;&st7;  " /><path d=" M   400.08,    95.27  L   402.91,    92.44  L   398.66,    92.44  L   395.83,    95.27  L   398.66,    98.10  L   402.91,    98.10  L   400.08,    95.27  " style="stroke-width: 0.28 ;&st9;  " /><path d=" M   424.93,    95.27  L   395.18,    95.27  " style="stroke-width: 0.85 ;&st7;  " /><path d=" M     8.50,    44.28  L     8.50,    69.77  L    93.48,    69.77  L    93.48,    44.28  L     8.50,    44.28  " style="stroke-width: 1.42 ;&st7;  " /><path d=" M   178.61,   172.77  C   176.71    174.91    176.65    178.04    178.47    180.25  " style="stroke-width: 1.42 ;&st7;   " /><path d=" M   178.33,   187.74  C   180.23    185.60    180.29    182.47    178.47    180.26  " style="stroke-width: 1.42 ;&st7;   " /><path d=" M   178.33,   153.75  C   180.23    151.60    180.29    148.47    178.47    146.26  " style="stroke-width: 1.42 ;&st7;   " /><path d=" M   178.61,   138.78  C   176.71    140.92    176.65    144.05    178.47    146.26  " style="stroke-width: 1.42 ;&st7;   " /><path d=" M   386.69,    91.02  C   384.34     91.02    382.44     92.92    382.44     95.27  " style="stroke-width: 1.42 ;&st7;   " /><path d=" M   382.44,    95.27  C   382.44     97.62    384.34     99.52    386.69     99.52  " style="stroke-width: 1.42 ;&st7;   " /><path d=" M   390.93,    99.52  C   393.28     99.52    395.18     97.62    395.18     95.27  " style="stroke-width: 1.42 ;&st7;   " /><path d=" M   395.18,    95.27  C   395.18     92.92    393.28     91.02    390.93     91.02  " style="stroke-width: 1.42 ;&st7;   " /><path d=" M   395.18,   277.99  C   392.84    277.99    390.93    279.89    390.93    282.24  " style="stroke-width: 1.42 ;&st7;   " /><path d=" M   390.93,   282.24  C   390.93    284.58    392.84    286.49    395.18    286.49  " style="stroke-width: 1.42 ;&st7;   " /><path d=" M   399.43,   286.49  C   401.78    286.49    403.68    284.58    403.68    282.24  " style="stroke-width: 1.42 ;&st7;   " /><path d=" M   403.68,   282.24  C   403.68    279.89    401.78    277.99    399.43    277.99  " style="stroke-width: 1.42 ;&st7;   " /><path d=" M   395.18,   320.48  C   392.84    320.48    390.93    322.38    390.93    324.73  " style="stroke-width: 1.42 ;&st7;   " /><path d=" M   390.93,   324.73  C   390.93    327.08    392.84    328.98    395.18    328.98  " style="stroke-width: 1.42 ;&st7;   " /><path d=" M   399.43,   328.98  C   401.78    328.98    403.68    327.08    403.68    324.73  " style="stroke-width: 1.42 ;&st7;   " /><path d=" M   403.68,   324.73  C   403.68    322.38    401.78    320.48    399.43    320.48  " style="stroke-width: 1.42 ;&st7;   " /><path d=" M   395.18,   362.97  C   392.84    362.97    390.93    364.88    390.93    367.22  " style="stroke-width: 1.42 ;&st7;   " /><path d=" M   390.93,   367.22  C   390.93    369.57    392.84    371.47    395.18    371.47  " style="stroke-width: 1.42 ;&st7;   " /><path d=" M   399.43,   371.47  C   401.78    371.47    403.68    369.57    403.68    367.22  " style="stroke-width: 1.42 ;&st7;   " /><path d=" M   403.68,   367.22  C   403.68    364.88    401.78    362.97    399.43    362.97  " style="stroke-width: 1.42 ;&st7;   " /><path d=" M   425.07,   172.77  C   423.17    174.91    423.11    178.04    424.93    180.25  " style="stroke-width: 1.42 ;&st7;   " /><path d=" M   424.79,   187.74  C   426.69    185.60    426.75    182.47    424.93    180.26  " style="stroke-width: 1.42 ;&st7;   " /><path d=" M   424.79,   153.75  C   426.69    151.60    426.75    148.47    424.93    146.26  " style="stroke-width: 1.42 ;&st7;   " /><path d=" M   425.07,   138.78  C   423.17    140.92    423.11    144.05    424.93    146.26  " style="stroke-width: 1.42 ;&st7;   " /><text style="&st18;" transform="matrix(&st16;  269.98  660.98 )">W-B</text><text style="&st18;" transform="matrix(&st16;  73.96  632.65 )">(GND)</text><text ewd:textID="109" style="&st18;" transform="matrix(&st16;  9.34  638.31 )">Front Blower with Fan <tspan dy="6.0" x="0 ">Motor Sub-Assembly</tspan></text><text style="&st18;" transform="matrix(&st16;  9.34  631.21 )">A29</text><text style="&st18;" transform="matrix(&st16;  70.62  590.16 )">(GND1)</text><text ewd:textID="238" style="&st18;" transform="matrix(&st16;  9.34  595.82 )">Skid Control ECU with <tspan dy="6.0" x="0 ">Actuator Assembly</tspan></text><text style="&st18;" transform="matrix(&st16;  9.34  588.72 )">A24</text><text style="&st18;" transform="matrix(&st16;  83.26  547.66 )">(E)</text><text ewd:textID="85" style="&st18;" transform="matrix(&st16;  9.34  553.33 )">Condenser Blower <tspan dy="6.0" x="0 ">Motor Assembly</tspan></text><text style="&st18;" transform="matrix(&st16;  9.34  546.22 )">A9</text><text style="&st18;" transform="matrix(&st16;  9.34  503.73 )">A84</text><text style="&st18;" transform="matrix(&st16;  83.26  505.17 )">(E)</text><text style="&st18;" transform="matrix(&st16;  83.26  462.68 )">(E)</text><text ewd:textID="106" style="&st18;" transform="matrix(&st16;  9.34  468.34 )">Fog Light <tspan dy="6.0" x="0 ">Assembly RH</tspan></text><text style="&st18;" transform="matrix(&st16;  9.34  461.24 )">B6</text><text style="&st18;" transform="matrix(&st16;  83.26  420.18 )">(E)</text><text ewd:textID="105" style="&st18;" transform="matrix(&st16;  9.34  425.85 )">Fog Light <tspan dy="6.0" x="0 ">Assembly LH</tspan></text><text style="&st18;" transform="matrix(&st16;  9.34  418.74 )">B5</text><text style="&st18;" transform="matrix(&st16;  83.26  377.69 )">(E)</text><text style="&st18;" transform="matrix(&st16;  9.34  376.25 )">A68</text><text style="&st18;" transform="matrix(&st16;  83.26  335.2 )">(E)</text><text style="&st18;" transform="matrix(&st16;  9.34  333.76 )">A65</text><text style="&st18;" transform="matrix(&st16;  83.26  275.71 )">(E)</text><text style="&st18;" transform="matrix(&st16;  9.34  274.27 )">A69</text><text style="&st18;" transform="matrix(&st16;  83.26  216.22 )">(E)</text><text style="&st18;" transform="matrix(&st16;  9.34  214.78 )">A66</text><text style="&st18;" transform="matrix(&st16;  426.66  658.14 )">(GND3)</text><text style="&st18;" transform="matrix(&st16;  451.26  656.7 )">A25</text><text ewd:textID="238" style="&st18;" transform="matrix(&st16;  451.27  663.81 )">Skid Control <tspan dy="6.0" x="0 ">ECU with Actuator </tspan><tspan dy="6.0" x="0 ">Assembly</tspan></text><text style="&st18;" transform="matrix(&st16;  426.66  496.67 )">(E)</text><text style="&st18;" transform="matrix(&st16;  451.26  495.23 )">A68</text><text style="&st18;" transform="matrix(&st16;  426.66  411.69 )">(E)</text><text style="&st18;" transform="matrix(&st16;  451.26  410.25 )">A65</text><text style="&st18;" transform="matrix(&st16;  426.66  369.19 )">(GND)</text><text ewd:textID="185" style="&st18;" transform="matrix(&st16;  451.27  374.86 )">Noise Filter</text><text ewd:textID="185" style="&st18;" transform="matrix(&st16;  451.27  332.37 )">Noise Filter</text><text style="&st18;" transform="matrix(&st16;  426.66  326.7 )">(DEF)</text><text style="&st18;" transform="matrix(&st16;  426.66  284.21 )">(E)</text><text ewd:textID="89" style="&st18;" transform="matrix(&st16;  451.27  289.87 )">DEF Relay</text><text style="&st18;" transform="matrix(&st16;  426.66  241.71 )">(GND)</text><text style="&st18;" transform="matrix(&st16;  451.26  240.27 )">A73</text><text style="&st18;" transform="matrix(&st16;  193.59  410.98 )">2</text><text style="&st18;" transform="matrix(&st16;  193.59  580.95 )">1</text><text style="&st18;" transform="matrix(&st16;  395.43  284.21 )">1</text><text style="&st18;" transform="matrix(&st16;  395.43  326.7 )">1</text><text style="&st18;" transform="matrix(&st16;  395.43  369.19 )">1</text><text style="&st18;" transform="matrix(&st16;  426.66  437.18 )">(E)</text><text style="&st18;" transform="matrix(&st16;  426.66  522.17 )">(E)</text><text style="&st18;" transform="matrix(&st16;  112.76  457.01 )">W-B</text><text style="&st18;" transform="matrix(&st16;  112.76  414.52 )">W-B</text><text style="&st18;" transform="matrix(&st16;  163.75  414.52 )">W-B</text><text style="&st18;" transform="matrix(&st16;  214.74  414.52 )">W-B</text><text style="&st18;" transform="matrix(&st16;  163.75  372.03 )">W-B</text><text style="&st18;" transform="matrix(&st16;  163.75  329.53 )">W-B</text><text style="&st18;" transform="matrix(&st16;  163.75  270.04 )">W-B</text><text style="&st18;" transform="matrix(&st16;  163.75  210.55 )">W-B</text><text style="&st18;" transform="matrix(&st16;  163.75  499.5 )">W-B</text><text style="&st18;" transform="matrix(&st16;  163.75  542.0 )">W-B</text><text style="&st18;" transform="matrix(&st16;  223.24  584.49 )">W-B</text><text style="&st18;" transform="matrix(&st16;  163.75  626.98 )">W-B</text><text style="&st18;" transform="matrix(&st16;  163.75  584.49 )">W-B</text><text style="&st18;" transform="matrix(&st16;  359.22  236.05 )">W-B</text><text style="&st18;" transform="matrix(&st16;  359.22  278.54 )">W-B</text><text style="&st18;" transform="matrix(&st16;  359.22  321.03 )">W-B</text><text style="&st18;" transform="matrix(&st16;  359.22  363.53 )">W-B</text><text style="&st18;" transform="matrix(&st16;  359.22  406.02 )">W-B</text><text style="&st18;" transform="matrix(&st16;  359.22  431.52 )">W-B</text><text style="&st18;" transform="matrix(&st16;  359.22  491.01 )">W-B</text><text style="&st18;" transform="matrix(&st16;  359.22  516.5 )">W-B</text><text style="&st18;" transform="matrix(&st16;  359.22  652.48 )">W-B</text><text style="&st18;" transform="matrix(&st17;  310.75  627.9 )">W-B</text><text style="&st18;" transform="matrix(&st17;  251.26  568.41 )">W-B</text><text style="&st18;" transform="matrix(&st17;  293.76  440.93 )">W-B</text><text style="&st18;" transform="matrix(&st17;  251.26  440.93 )">W-B</text><text style="&st18;" transform="matrix(&st17;  251.26  330.45 )">W-B</text><text style="&st18;" transform="matrix(&st17;  293.76  279.46 )">W-B</text><text style="&st18;" transform="matrix(&st17;  293.76  219.97 )">W-B</text><text ewd:textID="2" style="&st18;" transform="matrix(&st16;  385.57  176.56 )">(Shielded)</text><text ewd:textID="2" style="&st18;" transform="matrix(&st16;  385.57  142.56 )">(Shielded)</text><text ewd:textID="134" style="&st18;" transform="matrix(&st16;  451.27  417.35 )">Headlight <tspan dy="6.0" x="0 ">Assembly LH</tspan></text><text ewd:textID="135" style="&st18;" transform="matrix(&st16;  9.34  281.37 )">Headlight <tspan dy="6.0" x="0 ">Assembly RH</tspan></text><text ewd:textID="134" style="&st18;" transform="matrix(&st16;  9.34  221.88 )">Headlight <tspan dy="6.0" x="0 ">Assembly LH</tspan></text><text ewd:textID="135" style="&st18;" transform="matrix(&st16;  451.27  502.34 )">Headlight <tspan dy="6.0" x="0 ">Assembly RH</tspan></text><text ewd:textID="276" style="&st18;" transform="matrix(&st16;  9.34  510.84 )">Wireless Door <tspan dy="6.0" x="0 ">Lock Buzzer</tspan></text><text style="&st18;" transform="matrix(&st16;  73.96  241.71 )">(LH E)</text><text style="&st18;" transform="matrix(&st16;  163.75  236.05 )">W-B</text><text style="&st18;" transform="matrix(&st16;  72.95  301.2 )">(RH E)</text><text style="&st18;" transform="matrix(&st16;  163.75  295.54 )">W-B</text><text ewd:textID="2" style="&st18;" transform="matrix(&st16;  190.11  176.56 )">(Shielded)</text><text ewd:textID="2" style="&st18;" transform="matrix(&st16;  190.11  142.56 )">(Shielded)</text><text style="&st18;" transform="matrix(&st16;  257.24  142.56 )">W-B</text><text style="&st18;" transform="matrix(&st16;  257.24  176.56 )">W-B</text><text style="&st18;" transform="matrix(&st16;  325.22  142.56 )">W-B</text><text style="&st18;" transform="matrix(&st16;  325.22  176.56 )">W-B</text><text style="&st18;" transform="matrix(&st16;  426.66  462.68 )">(E)</text><text style="&st18;" transform="matrix(&st16;  426.66  547.66 )">(E)</text><text style="&st18;" transform="matrix(&st16;  359.22  457.01 )">W-B</text><text style="&st18;" transform="matrix(&st16;  359.22  542.0 )">W-B</text><text style="&st18;" transform="matrix(&st16;  83.26  20.75 )">(E)</text><text style="&st18;" transform="matrix(&st16;  9.34  19.31 )">A47</text><text style="&st18;" transform="matrix(&st16;  112.76  49.08 )">W-B</text><text style="&st18;" transform="matrix(&st16;  76.67  97.24 )">(L2E)</text><text style="&st18;" transform="matrix(&st16;  9.34  95.8 )">A62</text><text style="&st18;" transform="matrix(&st16;  75.66  148.23 )">(R2E)</text><text style="&st18;" transform="matrix(&st16;  9.34  146.79 )">A61</text><text style="&st18;" transform="matrix(&st16;  426.66  97.24 )">(-S)</text><text ewd:textID="50" style="&st18;" transform="matrix(&st16;  451.27  102.9 )">AHC Relay</text><text style="&st18;" transform="matrix(&st16;  386.93  97.24 )">1</text><text style="&st18;" transform="matrix(&st16;  359.22  91.57 )">W-B</text><text style="&st18;" transform="matrix(&st16;  112.76  91.57 )">W-B</text><text style="&st18;" transform="matrix(&st16;  112.76  142.56 )">W-B</text><text style="&st18;" transform="matrix(&st17;  149.28  79.74 )">W-B</text><text style="&st18;" transform="matrix(&st17;  149.28  126.49 )">W-B</text><text style="&st18;" transform="matrix(&st16;  112.76  117.07 )">W-B</text><text style="&st18;" transform="matrix(&st16;  112.76  168.06 )">W-B</text><text style="&st18;" transform="matrix(&st16;  75.66  173.73 )">(R1E)</text><text style="&st18;" transform="matrix(&st16;  76.67  122.73 )">(L1E)</text><text ewd:textID="135" style="&st18;" transform="matrix(&st16;  9.34  383.36 )">Headlight <tspan dy="6.0" x="0 ">Assembly RH</tspan></text><text ewd:textID="134" style="&st18;" transform="matrix(&st16;  9.34  340.86 )">Headlight <tspan dy="6.0" x="0 ">Assembly LH</tspan></text><text ewd:textID="141" style="&st18;" transform="matrix(&st16;  9.34  153.9 )">Heated Windshield <tspan dy="6.0" x="0 ">Defroster </tspan><tspan dy="6.0" x="0 ">(Windshield Glass)</tspan></text><text ewd:textID="141" style="&st18;" transform="matrix(&st16;  9.34  102.9 )">Heated Windshield <tspan dy="6.0" x="0 ">Defroster </tspan><tspan dy="6.0" x="0 ">(Windshield Glass)</tspan></text><text ewd:textID="237" style="&st18;" transform="matrix(&st16;  9.34  26.42 )">Side Turn Signal <tspan dy="6.0" x="0 ">Light Assembly RH</tspan></text><text ewd:textID="246" style="&st18;" transform="matrix(&st16;  451.27  247.38 )">Stop Light <tspan dy="6.0" x="0 ">Switch Assembly</tspan></text><text style="&st18;" transform="matrix(&st16;  83.26  54.75 )">(E)</text><text ewd:textID="271" style="&st18;" transform="matrix(&st16;  9.34  60.41 )">Winch Main Relay (No.1 <tspan dy="6.0" x="0 ">Magnet Switch Assembly)</tspan></text><text style="&st18;" transform="matrix(&st16;  9.34  53.3 )">A42</text><text style="&st18;" transform="matrix(&st17;  310.75  483.43 )">W-B</text><text style="&st18;" transform="matrix(&st16;  112.76  15.09 )">W-B</text><text style="&st18;" transform="matrix(&st16;  486.7  15.09 )">W-B</text><text style="&st18;" transform="matrix(&st16;  172.25  15.09 )">W-B</text></svg>