﻿<?xml version="1.0" encoding="utf-8"?>
<!DOCTYPE svg PUBLIC "-//W3C//DTD SVG 1.0//EN" "http://www.w3.org/TR/2001/REC-SVG-20010904/DTD/svg10.dtd"[
	<!ENTITY ns_flows "http://ns.adobe.com/Flows/1.0/">
	<!ENTITY ns_svg "http://www.w3.org/2000/svg">
	<!ENTITY ns_xlink "http://www.w3.org/1999/xlink">
	<!ENTITY st0 "font-size:7px;font-family:'MS-PGothic';adobe-font-script:japanese;">
	<!ENTITY st1 "font-size:6px;font-family:'ArialMT';">
	<!-- White fill  -->
	<!ENTITY st2 "fill:#FFFFFF;stroke:#000000; stroke-width:1.41;stroke-linecap:round;stroke-linejoin:round;">
	<!-- Yellow fill  -->
	<!ENTITY st3 "fill:#FFFFCC;stroke:#FFFFCC; stroke-width:0.1;stroke-linecap:round;stroke-linejoin:round;">
	<!-- Gray fill  -->
	<!ENTITY st4 "fill:#CCCCCC;stroke:#CCCCCC; stroke-width:0.1;stroke-linecap:round;stroke-linejoin:round;">
	<!-- Light-blue fill -->
	<!ENTITY st5 "fill:#CCECF4;stroke:#000000; stroke-width:1.133;stroke-linecap:round;stroke-linejoin:round;">
	<!ENTITY st6 "fill:none;stroke-linecap:butt; stroke-linejoin:round;">
	<!ENTITY st7 "fill:none;stroke:#000000;stroke-linecap:round;stroke-linejoin:round;">
	<!ENTITY st8 "enable-background:new    ;">
	<!-- Black fill -->
	<!ENTITY st9 "fill:#000000;stroke:#000000; stroke-linecap:round;stroke-linejoin:round;">
	<!-- SRS note   -->
	<!ENTITY st10 "font-size:9px;font-family:'ArialMT';">
	<!ENTITY st11 "font-size:9px;font-family:'Svg Symbol';">
	<!ENTITY st12 "font-size:6px;font-family:'Svg Symbol';">
	<!ENTITY st13 "fill:none;stroke:#ff0000;stroke-linecap:round;stroke-linejoin:round;">
	<!-- Yellow fill  -->
	<!ENTITY st14 "fill:#FFFF00;stroke:#FFFF00; stroke-width:0.1;stroke-linecap:round;stroke-linejoin:round;">
	<!ENTITY st15 "font-size:6px;font-family:'MS-PGothic';adobe-font-script:japanese;">
	<!ENTITY st16 "1.00 0.00 0.00 1.00">
	<!ENTITY st17 "0.00 -1.00 1.00 0.00">
	<!ENTITY st18 "font-size:6px;font-family:'Arial';">
	<!ENTITY st19 "font-size:9px;font-family:'Arial';">
	<!ENTITY st20 "font-size:6px;font-family:'MS-PGothic','MS PGothic';adobe-font-script:japanese;">
	<!ENTITY st21 "font-size:7px;font-family:'MS-PGothic','MS PGothic';adobe-font-script:japanese;">
	<!ATTLIST svg
		xmlns:ewd CDATA #FIXED "http://shcl.co.jp/ewd"
		xmlns:a CDATA #FIXED "http://ns.adobe.com/AdobeSVGViewerExtensions/3.0/"
		ewd:ver CDATA #IMPLIED
	>
	<!ATTLIST a
		ewd:lineID CDATA #IMPLIED
		ewd:groupID CDATA #IMPLIED
		ewd:figtype CDATA #IMPLIED
		ewd:code CDATA #IMPLIED
		ewd:figID CDATA #IMPLIED
		ewd:pinNo CDATA #IMPLIED
		ewd:comment CDATA #IMPLIED >
	<!ATTLIST g
		ewd:lineID CDATA #IMPLIED
		ewd:groupID CDATA #IMPLIED
		ewd:figtype CDATA #IMPLIED
		ewd:code CDATA #IMPLIED
		ewd:figID CDATA #IMPLIED
		ewd:pinNo CDATA #IMPLIED
		ewd:comment CDATA #IMPLIED >
	<!ATTLIST text
		ewd:textID CDATA #IMPLIED >
	<!ATTLIST title
		ewd:textID CDATA #IMPLIED >
]>
<!-- Generator: Shintec Hozumi YS   -->
<svg onload="call_execInitLoadProc_svg('system')" style="overflow:visible;  enable-background:new 0 0 10370.492 710.000" viewBox="0 0 10370.492 710.000" height="710.000" width="10370.492" xml:space="preserve" ewd:ver="L2.3.0.14" xmlns="&ns_svg;" xmlns:a="http://ns.adobe.com/AdobeSVGViewerExtensions/3.0/" xmlns:ewd="http://shcl.co.jp/ewd" xmlns:xlink="&ns_xlink;">
<path d=" M  7504.25,   210.00  L  7504.25,   214.25  " style="stroke-width: 1.42 ;&st7;  " /><path d=" M  7572.23,   210.72  L  7567.26,   205.75  " style="stroke-width: 1.42 ;&st7;  " /><path d=" M  7555.24,   217.78  L  7560.21,   222.75  " style="stroke-width: 1.42 ;&st7;  " /><path d=" M  7567.26,   222.75  L  7572.23,   217.78  " style="stroke-width: 1.42 ;&st7;  " /><path d=" M  7560.21,   205.75  L  7555.24,   210.72  " style="stroke-width: 1.42 ;&st7;  " /><path d=" M  7980.17,   363.70  L  7975.19,   358.73  " style="stroke-width: 1.42 ;&st7;  " /><path d=" M  7963.17,   370.75  L  7968.14,   375.72  " style="stroke-width: 1.42 ;&st7;  " /><path d=" M  7975.19,   375.72  L  7980.17,   370.75  " style="stroke-width: 1.42 ;&st7;  " /><path d=" M  7968.14,   358.73  L  7963.17,   363.70  " style="stroke-width: 1.42 ;&st7;  " /><path d=" M  7920.68,    14.53  L  7920.68,    18.78  " style="stroke-width: 1.42 ;&st7;  " /><path d=" M  7968.14,    78.27  L  7963.17,    83.24  " style="stroke-width: 1.42 ;&st7;  " /><path d=" M  7975.19,    95.27  L  7980.17,    90.30  " style="stroke-width: 1.42 ;&st7;  " /><path d=" M  7963.17,    90.30  L  7968.14,    95.27  " style="stroke-width: 1.42 ;&st7;  " /><path d=" M  7980.17,    83.24  L  7975.19,    78.27  " style="stroke-width: 1.42 ;&st7;  " /><path d=" M  7652.97,   210.00  L  7657.22,   210.00  " style="stroke-width: 1.42 ;&st7;  " /><path d=" M  7657.22,   218.50  L  7652.97,   218.50  " style="stroke-width: 1.42 ;&st7;  " /><path d=" M  7572.23,   457.18  L  7567.26,   452.21  " style="stroke-width: 1.42 ;&st7;  " /><path d=" M  7555.24,   464.24  L  7560.21,   469.21  " style="stroke-width: 1.42 ;&st7;  " /><path d=" M  7567.26,   469.21  L  7572.23,   464.24  " style="stroke-width: 1.42 ;&st7;  " /><path d=" M  7560.21,   452.21  L  7555.24,   457.18  " style="stroke-width: 1.42 ;&st7;  " /><path d=" M  7572.23,   559.16  L  7567.26,   554.19  " style="stroke-width: 1.42 ;&st7;  " /><path d=" M  7555.24,   566.22  L  7560.21,   571.19  " style="stroke-width: 1.42 ;&st7;  " /><path d=" M  7567.26,   571.19  L  7572.23,   566.22  " style="stroke-width: 1.42 ;&st7;  " /><path d=" M  7560.21,   554.19  L  7555.24,   559.16  " style="stroke-width: 1.42 ;&st7;  " /><path d=" M  7997.16,   290.74  L  8005.66,   290.74  " style="stroke-width: 1.42 ;&st7;  " /><path d=" M  7980.17,   299.24  L  7971.67,   299.24  " style="stroke-width: 1.42 ;&st7;  " /><path d=" M  7980.17,    15.26  L  7975.19,    10.28  " style="stroke-width: 1.42 ;&st7;  " /><path d=" M  7963.17,    22.31  L  7968.14,    27.28  " style="stroke-width: 1.42 ;&st7;  " /><path d=" M  7975.19,    27.28  L  7980.17,    22.31  " style="stroke-width: 1.42 ;&st7;  " /><path d=" M  7968.14,    10.28  L  7963.17,    15.26  " style="stroke-width: 1.42 ;&st7;  " /><path d=" M  7513.31,   218.50  L  7509.06,   214.25  L  7513.31,   210.00  " style="stroke-width: 1.42 ;&st7;  " /><path d=" M  7509.91,   218.50  L  7505.66,   214.25  L  7509.91,   210.00  " style="stroke-width: 1.42 ;&st7;  " /><path d=" M  7784.70,   358.73  L  7784.70,   384.22  L  7869.68,   384.22  L  7869.68,   358.73  L  7784.70,   358.73  " style="stroke-width: 1.42 ;&st7;  " /><path d=" M  7784.70,   324.73  L  7784.70,   350.23  L  7869.68,   350.23  L  7869.68,   324.73  L  7784.70,   324.73  " style="stroke-width: 1.42 ;&st7;  " /><path d=" M  7784.70,   528.70  L  7784.70,   554.19  L  7869.68,   554.19  L  7869.68,   528.70  L  7784.70,   528.70  " style="stroke-width: 1.42 ;&st7;  " /><path d=" M  7784.70,   469.21  L  7784.70,   520.20  L  7869.68,   520.20  L  7869.68,   469.21  L  7784.70,   469.21  " style="stroke-width: 1.42 ;&st7;  " /><path d=" M  7954.67,   697.25  L  7954.67,   701.50  " style="stroke-width: 0.85 ;&st7;  " /><path d=" M  7946.17,   701.50  L  7963.17,   701.50  " style="stroke-width: 0.85 ;&st7;  " /><path d=" M  7950.42,   704.33  L  7958.92,   704.33  " style="stroke-width: 0.85 ;&st7;  " /><path d=" M  7951.83,   707.17  L  7957.50,   707.17  " style="stroke-width: 0.85 ;&st7;  " /><path d=" M  7953.25,   710.00  L  7956.08,   710.00  " style="stroke-width: 0.85 ;&st7;  " /><path d=" M  7784.70,    78.27  L  7784.70,   103.77  L  7869.68,   103.77  L  7869.68,    78.27  L  7784.70,    78.27  " style="stroke-width: 1.42 ;&st7;  " /><path d=" M  7784.70,   112.27  L  7784.70,   137.76  L  7869.68,   137.76  L  7869.68,   112.27  L  7784.70,   112.27  " style="stroke-width: 1.42 ;&st7;  " /><path d=" M  7784.70,    10.28  L  7784.70,    35.78  L  7869.68,    35.78  L  7869.68,    10.28  L  7784.70,    10.28  " style="stroke-width: 1.42 ;&st7;  " /><path d=" M  7929.74,    23.03  L  7925.49,    18.78  L  7929.74,    14.53  " style="stroke-width: 1.42 ;&st7;  " /><path d=" M  7926.34,    23.03  L  7922.09,    18.78  L  7926.34,    14.53  " style="stroke-width: 1.42 ;&st7;  " /><path d=" M  7682.71,   205.75  L  7682.71,   231.25  L  7767.70,   231.25  L  7767.70,   205.75  L  7682.71,   205.75  " style="stroke-width: 1.42 ;&st7;  " /><path d=" M  7666.36,   214.25  L  7669.19,   211.42  L  7664.95,   211.42  L  7662.11,   214.25  L  7664.95,   217.08  L  7669.19,   217.08  L  7666.36,   214.25  " style="stroke-width: 0.28 ;&st9;  " /><path d=" M  7682.71,   214.25  L  7661.47,   214.25  " style="stroke-width: 0.85 ;&st7;  " /><path d=" M  7682.71,   418.22  L  7682.71,   443.71  L  7767.70,   443.71  L  7767.70,   418.22  L  7682.71,   418.22  " style="stroke-width: 1.42 ;&st7;  " /><path d=" M  7682.71,   452.21  L  7682.71,   477.71  L  7767.70,   477.71  L  7767.70,   452.21  L  7682.71,   452.21  " style="stroke-width: 1.42 ;&st7;  " /><path d=" M  7784.70,   562.69  L  7784.70,   588.19  L  7869.68,   588.19  L  7869.68,   562.69  L  7784.70,   562.69  " style="stroke-width: 1.42 ;&st7;  " /><path d=" M  7784.70,   596.69  L  7784.70,   622.18  L  7869.68,   622.18  L  7869.68,   596.69  L  7784.70,   596.69  " style="stroke-width: 1.42 ;&st7;  " /><path d=" M  7784.70,   630.68  L  7784.70,   656.18  L  7869.68,   656.18  L  7869.68,   630.68  L  7784.70,   630.68  " style="stroke-width: 1.42 ;&st7;  " /><path d=" M  7784.70,   392.72  L  7784.70,   418.22  L  7869.68,   418.22  L  7869.68,   392.72  L  7784.70,   392.72  " style="stroke-width: 1.42 ;&st7;  " /><path d=" M  7784.70,   426.71  L  7784.70,   452.21  L  7869.68,   452.21  L  7869.68,   426.71  L  7784.70,   426.71  " style="stroke-width: 1.42 ;&st7;  " /><path d=" M  7975.91,   308.30  L  7971.66,   304.05  L  7967.42,   308.30  " style="stroke-width: 1.42 ;&st7;  " /><path d=" M  7975.91,   304.90  L  7971.66,   300.65  L  7967.42,   304.90  " style="stroke-width: 1.42 ;&st7;  " /><path d=" M  7784.70,   248.24  L  7784.70,   273.74  L  7869.68,   273.74  L  7869.68,   248.24  L  7784.70,   248.24  " style="stroke-width: 1.42 ;&st7;  " /><path d=" M  7784.70,   214.25  L  7784.70,   239.75  L  7869.68,   239.75  L  7869.68,   214.25  L  7784.70,   214.25  " style="stroke-width: 1.42 ;&st7;  " /><path d=" M  7784.70,   146.26  L  7784.70,   171.76  L  7869.68,   171.76  L  7869.68,   146.26  L  7784.70,   146.26  " style="stroke-width: 1.42 ;&st7;  " /><path d=" M  7784.70,    44.28  L  7784.70,    69.77  L  7869.68,    69.77  L  7869.68,    44.28  L  7784.70,    44.28  " style="stroke-width: 1.42 ;&st7;  " /><path d=" M  7784.70,   180.26  L  7784.70,   205.75  L  7869.68,   205.75  L  7869.68,   180.26  L  7784.70,   180.26  " style="stroke-width: 1.42 ;&st7;  " /><path d=" M  7652.97,   210.00  C  7650.62    210.00   7648.72    211.90   7648.72    214.25  " style="stroke-width: 1.42 ;&st7;   " /><path d=" M  7648.72,   214.25  C  7648.72    216.60   7650.62    218.50   7652.97    218.50  " style="stroke-width: 1.42 ;&st7;   " /><path d=" M  7657.22,   218.50  C  7659.57    218.50   7661.47    216.60   7661.47    214.25  " style="stroke-width: 1.42 ;&st7;   " /><path d=" M  7661.47,   214.25  C  7661.47    211.90   7659.57    210.00   7657.22    210.00  " style="stroke-width: 1.42 ;&st7;   " /><text style="&st18;" transform="matrix(&st16;  7846.82  369.19 )">(GND1)</text><text ewd:textID="196" style="&st18;" transform="matrix(&st16;  7785.54  374.86 )">Parking Assist ECU</text><text style="&st18;" transform="matrix(&st16;  7785.54  367.75 )">F75</text><text style="&st18;" transform="matrix(&st16;  7859.47  335.2 )">(E)</text><text style="&st18;" transform="matrix(&st16;  7785.54  333.76 )">F130</text><text style="&st18;" transform="matrix(&st16;  7846.82  539.16 )">(GND1)</text><text ewd:textID="177" style="&st18;" transform="matrix(&st16;  7785.54  544.83 )">Multi-Media Module <tspan dy="6.0" x="0 ">Receiver Assembly</tspan></text><text style="&st18;" transform="matrix(&st16;  7785.54  537.72 )">F77</text><text style="&st18;" transform="matrix(&st16;  7850.16  479.67 )">(GND)</text><text ewd:textID="244" style="&st18;" transform="matrix(&st16;  7785.54  485.34 )">Stereo Component <tspan dy="6.0" x="0 ">Amplifier Assembly</tspan></text><text style="&st18;" transform="matrix(&st16;  7785.54  478.23 )">F74</text><text style="&st18;" transform="matrix(&st16;  7846.82  505.17 )">(GND2)</text><text style="&st18;" transform="matrix(&st16;  7888.96  474.01 )">W-B</text><text style="&st18;" transform="matrix(&st16;  7888.96  499.5 )">W-B</text><text style="&st18;" transform="matrix(&st16;  7888.96  533.5 )">W-B</text><text style="&st18;" transform="matrix(&st16;  7888.96  329.53 )">W-B</text><text style="&st18;" transform="matrix(&st16;  7888.96  363.53 )">W-B</text><text style="&st18;" transform="matrix(&st16;  7523.52  210.55 )">W-B</text><text style="&st18;" transform="matrix(&st16;  7850.16  88.74 )">(GND)</text><text style="&st18;" transform="matrix(&st16;  7785.54  87.3 )">L65</text><text style="&st18;" transform="matrix(&st16;  7850.16  122.73 )">(GND)</text><text style="&st18;" transform="matrix(&st16;  7785.54  121.29 )">L47</text><text style="&st18;" transform="matrix(&st16;  7846.13  20.75 )">(BRGD)</text><text ewd:textID="70" style="&st18;" transform="matrix(&st16;  7785.54  26.42 )">Blind Spot Monitor <tspan dy="6.0" x="0 ">Sensor RH</tspan></text><text style="&st18;" transform="matrix(&st16;  7785.54  19.31 )">r1</text><text style="&st18;" transform="matrix(&st16;  7910.3  11.54 )">7</text><text style="&st18;" transform="matrix(&st16;  7882.25  15.09 )">BR</text><text style="&st18;" transform="matrix(&st16;  7907.74  83.07 )">BR</text><text style="&st18;" transform="matrix(&st16;  7907.74  117.07 )">BR</text><text style="&st18;" transform="matrix(&st16;  7941.74  15.09 )">BR</text><text style="&st18;" transform="matrix(&st16;  7903.44  94.41 )">(*7 *9)</text><text style="&st18;" transform="matrix(&st16;  7907.12  128.4 )">(*8)</text><text ewd:textID="150" style="&st18;" transform="matrix(&st16;  7709.06  221.88 )">IG NO.4 Relay</text><text style="&st18;" transform="matrix(&st16;  7651.05  216.22 )">3C</text><text style="&st18;" transform="matrix(&st16;  7653.22  207.01 )">8</text><text style="&st18;" transform="matrix(&st17;  7560.04  347.45 )">W-B</text><text style="&st18;" transform="matrix(&st16;  7684.45  428.68 )">(GND2)</text><text style="&st18;" transform="matrix(&st16;  7709.05  427.24 )">E179</text><text style="&st18;" transform="matrix(&st16;  7684.45  462.68 )">(MSE)</text><text style="&st18;" transform="matrix(&st16;  7709.05  461.24 )">E139</text><text style="&st18;" transform="matrix(&st16;  7608.51  423.02 )">W-B</text><text style="&st18;" transform="matrix(&st16;  7608.51  457.01 )">W-B</text><text style="&st18;" transform="matrix(&st16;  7608.51  210.55 )">W-B</text><text style="&st18;" transform="matrix(&st17;  7560.04  517.42 )">W-B</text><text style="&st18;" transform="matrix(&st16;  7850.16  573.16 )">(GND)</text><text style="&st18;" transform="matrix(&st16;  7785.54  571.72 )">F112</text><text style="&st18;" transform="matrix(&st16;  7846.82  607.15 )">(GND2)</text><text style="&st18;" transform="matrix(&st16;  7785.54  605.71 )">F120</text><text style="&st18;" transform="matrix(&st16;  7888.96  567.49 )">W-B</text><text style="&st18;" transform="matrix(&st16;  7888.96  601.49 )">W-B</text><text style="&st18;" transform="matrix(&st16;  7850.16  641.15 )">(GND)</text><text style="&st18;" transform="matrix(&st16;  7785.54  639.71 )">F112</text><text style="&st18;" transform="matrix(&st16;  7888.96  635.48 )">W-B</text><text style="&st18;" transform="matrix(&st16;  7850.16  403.19 )">(GND)</text><text style="&st18;" transform="matrix(&st16;  7785.54  401.75 )">F10</text><text style="&st18;" transform="matrix(&st16;  7850.16  437.18 )">(GND)</text><text style="&st18;" transform="matrix(&st16;  7785.54  435.74 )">F111</text><text style="&st18;" transform="matrix(&st16;  7992.24  305.45 )">8</text><text style="&st18;" transform="matrix(&st16;  7992.24  296.96 )">8</text><text style="&st18;" transform="matrix(&st16;  7958.25  296.96 )">5</text><text style="&st18;" transform="matrix(&st16;  7859.47  258.71 )">(E)</text><text style="&st18;" transform="matrix(&st16;  7785.54  257.27 )">g1</text><text style="&st18;" transform="matrix(&st16;  7859.47  224.72 )">(E)</text><text style="&st18;" transform="matrix(&st16;  7785.54  223.28 )">g2</text><text style="&st18;" transform="matrix(&st16;  7888.96  219.05 )">W-B</text><text style="&st18;" transform="matrix(&st16;  7884.77  230.38 )">(*1 *33)</text><text style="&st18;" transform="matrix(&st16;  7888.96  253.05 )">W-B</text><text style="&st18;" transform="matrix(&st16;  7890.12  264.38 )">(*2)</text><text style="&st18;" transform="matrix(&st17;  7967.97  334.7 )">W-B</text><text style="&st18;" transform="matrix(&st17;  7979.3  333.54 )">(*2)</text><text style="&st18;" transform="matrix(&st16;  7888.96  397.52 )">W-B</text><text style="&st18;" transform="matrix(&st16;  7890.12  408.85 )">(*2)</text><text style="&st18;" transform="matrix(&st16;  7888.96  431.52 )">W-B</text><text style="&st18;" transform="matrix(&st16;  7890.12  442.85 )">(*1)</text><text style="&st18;" transform="matrix(&st16;  7850.16  156.73 )">(GND)</text><text style="&st18;" transform="matrix(&st16;  7785.54  155.29 )">L64</text><text style="&st18;" transform="matrix(&st16;  7907.74  151.06 )">BR</text><text style="&st18;" transform="matrix(&st16;  7901.77  162.39 )">(*7 *10)</text><text style="&st18;" transform="matrix(&st16;  7850.16  54.75 )">(GND)</text><text style="&st18;" transform="matrix(&st16;  7785.54  53.3 )">L75</text><text style="&st18;" transform="matrix(&st16;  7907.74  49.08 )">BR</text><text style="&st18;" transform="matrix(&st16;  7903.44  60.41 )">(*8 *9)</text><text style="&st18;" transform="matrix(&st17;  7967.97  56.71 )">BR</text><text ewd:textID="82" style="&st18;" transform="matrix(&st16;  7785.54  196.39 )">Clock Assembly</text><text style="&st18;" transform="matrix(&st16;  7859.47  190.72 )">(E)</text><text style="&st18;" transform="matrix(&st16;  7785.54  189.28 )">F115</text><text style="&st18;" transform="matrix(&st16;  7884.77  196.39 )">(*1 *32)</text><text style="&st18;" transform="matrix(&st16;  7888.96  185.06 )">W-B</text><text style="&st18;" transform="matrix(&st16;  7999.44  363.53 )">W-B</text><text ewd:textID="63" style="&st18;" transform="matrix(&st16;  7709.06  468.34 )">Back Door <tspan dy="6.0" x="0 ">Control Switch</tspan></text><text ewd:textID="259" style="&st18;" transform="matrix(&st16;  7709.06  434.35 )">Transfer <tspan dy="6.0" x="0 ">Position Switch</tspan></text><text ewd:textID="206" style="&st18;" transform="matrix(&st16;  7785.54  646.81 )">Radio Receiver <tspan dy="6.0" x="0 ">Assembly</tspan></text><text ewd:textID="205" style="&st18;" transform="matrix(&st16;  7785.54  612.82 )">Radio &amp; Display <tspan dy="6.0" x="0 ">Receiver Assembly</tspan></text><text ewd:textID="206" style="&st18;" transform="matrix(&st16;  7785.54  578.82 )">Radio Receiver <tspan dy="6.0" x="0 ">Assembly</tspan></text><text ewd:textID="47" style="&st18;" transform="matrix(&st16;  7785.54  442.85 )">A/C Control Assembly</text><text ewd:textID="47" style="&st18;" transform="matrix(&st16;  7785.54  408.85 )">A/C Control Assembly</text><text ewd:textID="133" style="&st18;" transform="matrix(&st16;  7785.54  340.86 )">Hazard Warning <tspan dy="6.0" x="0 ">Signal Switch Assembly</tspan></text><text ewd:textID="82" style="&st18;" transform="matrix(&st16;  7785.54  264.38 )">Clock Assembly</text><text ewd:textID="82" style="&st18;" transform="matrix(&st16;  7785.54  230.38 )">Clock Assembly</text><text ewd:textID="96" style="&st18;" transform="matrix(&st16;  7785.54  162.39 )">Door Control Receiver</text><text ewd:textID="96" style="&st18;" transform="matrix(&st16;  7785.54  128.4 )">Door Control Receiver</text><text ewd:textID="101" style="&st18;" transform="matrix(&st16;  7785.54  94.41 )">Electrical Key &amp; TPMS <tspan dy="6.0" x="0 ">Receiver Assembly</tspan></text><text ewd:textID="256" style="&st18;" transform="matrix(&st16;  7785.54  60.41 )">Tire Pressure Monitor <tspan dy="6.0" x="0 ">Receiver Assembly</tspan></text><text style="&st18;" transform="matrix(&st16;  7888.46  544.83 )">(*39)</text><text style="&st18;" transform="matrix(&st16;  7888.46  612.82 )">(*36)</text></svg>