﻿<?xml version="1.0" encoding="utf-8"?>
<!DOCTYPE svg PUBLIC "-//W3C//DTD SVG 1.0//EN" "http://www.w3.org/TR/2001/REC-SVG-20010904/DTD/svg10.dtd"[
	<!ENTITY ns_flows "http://ns.adobe.com/Flows/1.0/">
	<!ENTITY ns_svg "http://www.w3.org/2000/svg">
	<!ENTITY ns_xlink "http://www.w3.org/1999/xlink">
	<!ENTITY st0 "font-size:7px;font-family:'MS-PGothic';adobe-font-script:japanese;">
	<!ENTITY st1 "font-size:6px;font-family:'ArialMT';">
	<!-- White fill  -->
	<!ENTITY st2 "fill:#FFFFFF;stroke:#000000; stroke-width:1.41;stroke-linecap:round;stroke-linejoin:round;">
	<!-- Yellow fill  -->
	<!ENTITY st3 "fill:#FFFFCC;stroke:#FFFFCC; stroke-width:0.1;stroke-linecap:round;stroke-linejoin:round;">
	<!-- Gray fill  -->
	<!ENTITY st4 "fill:#CCCCCC;stroke:#CCCCCC; stroke-width:0.1;stroke-linecap:round;stroke-linejoin:round;">
	<!-- Light-blue fill -->
	<!ENTITY st5 "fill:#CCECF4;stroke:#000000; stroke-width:1.133;stroke-linecap:round;stroke-linejoin:round;">
	<!ENTITY st6 "fill:none;stroke-linecap:butt; stroke-linejoin:round;">
	<!ENTITY st7 "fill:none;stroke:#000000;stroke-linecap:round;stroke-linejoin:round;">
	<!ENTITY st8 "enable-background:new    ;">
	<!-- Black fill -->
	<!ENTITY st9 "fill:#000000;stroke:#000000; stroke-linecap:round;stroke-linejoin:round;">
	<!-- SRS note   -->
	<!ENTITY st10 "font-size:9px;font-family:'ArialMT';">
	<!ENTITY st11 "font-size:9px;font-family:'Svg Symbol';">
	<!ENTITY st12 "font-size:6px;font-family:'Svg Symbol';">
	<!ENTITY st13 "fill:none;stroke:#ff0000;stroke-linecap:round;stroke-linejoin:round;">
	<!-- Yellow fill  -->
	<!ENTITY st14 "fill:#FFFF00;stroke:#FFFF00; stroke-width:0.1;stroke-linecap:round;stroke-linejoin:round;">
	<!ENTITY st15 "font-size:6px;font-family:'MS-PGothic';adobe-font-script:japanese;">
	<!ENTITY st16 "1.00 0.00 0.00 1.00">
	<!ENTITY st17 "0.00 -1.00 1.00 0.00">
	<!ENTITY st18 "font-size:6px;font-family:'Arial';">
	<!ENTITY st19 "font-size:9px;font-family:'Arial';">
	<!ENTITY st20 "font-size:6px;font-family:'MS-PGothic','MS PGothic';adobe-font-script:japanese;">
	<!ENTITY st21 "font-size:7px;font-family:'MS-PGothic','MS PGothic';adobe-font-script:japanese;">
	<!ATTLIST svg
		xmlns:ewd CDATA #FIXED "http://shcl.co.jp/ewd"
		xmlns:a CDATA #FIXED "http://ns.adobe.com/AdobeSVGViewerExtensions/3.0/"
		ewd:ver CDATA #IMPLIED
	>
	<!ATTLIST a
		ewd:lineID CDATA #IMPLIED
		ewd:groupID CDATA #IMPLIED
		ewd:figtype CDATA #IMPLIED
		ewd:code CDATA #IMPLIED
		ewd:figID CDATA #IMPLIED
		ewd:pinNo CDATA #IMPLIED
		ewd:comment CDATA #IMPLIED >
	<!ATTLIST g
		ewd:lineID CDATA #IMPLIED
		ewd:groupID CDATA #IMPLIED
		ewd:figtype CDATA #IMPLIED
		ewd:code CDATA #IMPLIED
		ewd:figID CDATA #IMPLIED
		ewd:pinNo CDATA #IMPLIED
		ewd:comment CDATA #IMPLIED >
	<!ATTLIST text
		ewd:textID CDATA #IMPLIED >
	<!ATTLIST title
		ewd:textID CDATA #IMPLIED >
]>
<!-- Generator: Shintec Hozumi YS   -->
<svg onload="call_execInitLoadProc_svg('system')" style="overflow:visible;  enable-background:new 0 0 506.191 710.000" viewBox="0 0 506.191 710.000" height="710.000" width="506.191" xml:space="preserve" ewd:ver="L2.3.0.14" xmlns="&ns_svg;" xmlns:a="http://ns.adobe.com/AdobeSVGViewerExtensions/3.0/" xmlns:ewd="http://shcl.co.jp/ewd" xmlns:xlink="&ns_xlink;"><script type="text/javascript" xlink:href="../../../../../system/js/ewd/fig/svgfig.js" xmlns:xlink="http://www.w3.org/1999/xlink" />
<g id="ewd_top"><a ewd:code="A10,A58" ewd:figID="1" ewd:figtype="conn" style="cursor:pointer;"><path d=" M   152.97,   409.72  L   280.45,   409.72  L   280.45,   469.21  L   152.97,   469.21  L   152.97,   409.72 " style="fill:#CCECF4;stroke:#000000; stroke-width:1.133; stroke-linecap:round;stroke-linejoin:round; " /><title ewd:textID="5">Headlight Assembly RH</title></a><a ewd:code="A1,A54" ewd:figID="2" ewd:figtype="conn" style="cursor:pointer;"><path d=" M   373.94,   409.72  L   501.42,   409.72  L   501.42,   469.21  L   373.94,   469.21  L   373.94,   409.72 " style="fill:#CCECF4;stroke:#000000; stroke-width:1.133; stroke-linecap:round;stroke-linejoin:round; " /><title ewd:textID="4">Headlight Assembly LH</title></a><a ewd:code="FUSE101" ewd:figID="3" ewd:figtype="rb" style="cursor:pointer;"><path d=" M    29.75,    35.78  L    29.75,    78.27  L    55.24,    78.27  L    55.24,    35.78  L    29.75,    35.78 " style="fill:#CCECF4;stroke:#000000; stroke-width:0; stroke-linecap:round;stroke-linejoin:round; " /></a><a ewd:code="G17,G9" ewd:figID="4" ewd:figtype="conn" style="cursor:pointer;"><path d=" M   152.97,    86.77  L   339.94,    86.77  L   339.94,   146.26  L   152.97,   146.26  L   152.97,    86.77 " style="fill:#CCECF4;stroke:#000000; stroke-width:1.133; stroke-linecap:round;stroke-linejoin:round; " /><title ewd:textID="8">Headlight Leveling Switch</title></a><a ewd:code="E59" ewd:figID="5" ewd:figtype="conn" style="cursor:pointer;"><path d=" M   314.45,   503.20  L   331.44,   503.20  L   331.44,   520.20  L   314.45,   520.20  L   314.45,   503.20 " style="fill:#CCECF4;stroke:#000000; stroke-width:1.133; stroke-linecap:round;stroke-linejoin:round; " /><title ewd:textID="9">Junction Connector</title></a><a ewd:code="1" ewd:figID="6" ewd:figtype="rb" style="cursor:pointer;"><path d=" M    76.49,   197.25  L    33.99,   197.25  L    33.99,   231.25  L    76.49,   231.25  L    76.49,   197.25 " style="fill:#CCECF4;stroke:#000000; stroke-width:0; stroke-linecap:round;stroke-linejoin:round; " /></a><a ewd:code="2" ewd:figID="7" ewd:figtype="rb" style="cursor:pointer;"><path d=" M    84.99,   333.23  L    84.99,   367.22  L   118.98,   367.22  L   118.98,   333.23  L    84.99,   333.23 " style="fill:#CCECF4;stroke:#000000; stroke-width:0; stroke-linecap:round;stroke-linejoin:round; " /></a><a ewd:code="E62" ewd:figID="8" ewd:figtype="conn" style="cursor:pointer;"><path d=" M   314.45,   596.69  L   314.45,   613.68  L   331.44,   613.68  L   331.44,   596.69  L   314.45,   596.69 " style="fill:#CCECF4;stroke:#000000; stroke-width:1.133; stroke-linecap:round;stroke-linejoin:round; " /><title ewd:textID="9">Junction Connector</title></a><a ewd:code="FUSE55" ewd:figID="9" ewd:figtype="rb" style="cursor:pointer;"><path d=" M    29.75,   333.23  L    29.75,   375.72  L    55.24,   375.72  L    55.24,   333.23  L    29.75,   333.23 " style="fill:#CCECF4;stroke:#000000; stroke-width:0; stroke-linecap:round;stroke-linejoin:round; " /></a><a ewd:code="2" ewd:figID="10" ewd:figtype="jb" style="cursor:pointer;"><path d=" M    84.99,   299.24  L    84.99,   333.23  L   118.98,   333.23  L   118.98,   299.24  L    84.99,   299.24  " style="&st4; " /></a><a ewd:code="1" ewd:figID="11" ewd:figtype="jb" style="cursor:pointer;"><path d=" M    25.50,    95.27  L    25.50,   103.77  L    50.99,   103.77  L    50.99,    95.27  L    25.50,    95.27  " style="&st4; " /></a><a ewd:code="FUSE101" ewd:figID="12" ewd:figtype="fuse" style="cursor:pointer;"><path d=" M    29.75,    35.78  L    29.75,    78.27  L    55.24,    78.27  L    55.24,    35.78  L    29.75,    35.78 " style="&st7; stroke-width:0;" /></a><a ewd:code="FUSE55" ewd:figID="13" ewd:figtype="fuse" style="cursor:pointer;"><path d=" M    29.75,   333.23  L    29.75,   375.72  L    55.24,   375.72  L    55.24,   333.23  L    29.75,   333.23 " style="&st7; stroke-width:0;" /></a><a ewd:lineID="1" style="cursor:pointer;"><path d=" M    42.49,   409.72  L    42.49,   469.21  L   135.98,   469.21  L   135.98,   350.23  L   161.47,   350.23  " style="stroke:#FF0000;stroke-width: 5.10 ;&st6;" /></a><a ewd:lineID="2" style="cursor:pointer;"><path d=" M    42.49,   265.24  L    42.49,   299.24  " style="stroke:#00A0C6;stroke-width: 5.10 ;&st6;" /></a><a ewd:lineID="3" style="cursor:pointer;"><path d=" M    42.49,   137.76  L    42.49,   163.26  " style="stroke:#FF0000;stroke-width: 5.10 ;&st6;" /></a><a ewd:lineID="4" style="cursor:pointer;"><path d=" M    42.49,   103.77  L    42.49,   120.77  " style="stroke:#FF0000;stroke-width: 5.10 ;&st6;" /></a><a ewd:lineID="5" style="cursor:pointer;"><path d=" M    50.99,   129.26  L    67.99,   129.26  L    67.99,   163.26  " style="stroke:#FF0000;stroke-width: 5.10 ;&st6;" /></a><a ewd:lineID="6" style="cursor:pointer;"><path d=" M   101.98,   265.24  L   101.98,   299.24  " style="stroke:#00A0C6;stroke-width: 5.10 ;&st6;" /></a><a ewd:lineID="7" style="cursor:pointer;"><path d=" M   169.97,   358.73  L   169.97,   391.59  " style="stroke:#FF0000;stroke-width: 5.10 ;&st6;" /></a><a ewd:lineID="8" style="cursor:pointer;"><path d=" M   169.97,   279.97  L   169.97,   341.73  " style="stroke:#FF0000;stroke-width: 5.10 ;&st6;" /></a><a ewd:lineID="9" style="cursor:pointer;"><path d=" M   169.97,   220.48  L   169.97,   265.24  " style="stroke:#FF0000;stroke-width: 5.10 ;&st6;" /></a><a ewd:lineID="10" style="cursor:pointer;"><path d=" M   169.97,   164.39  L   169.97,   205.75  " style="stroke:#FF0000;stroke-width: 5.10 ;&st6;" /></a><a ewd:lineID="11" style="cursor:pointer;"><path d=" M   178.47,   350.23  L   390.93,   350.23  L   390.93,   391.59  " style="stroke:#FF0000;stroke-width: 5.10 ;&st6;" /></a><a ewd:lineID="12" style="cursor:pointer;"><path d=" M   263.46,   560.42  L   263.46,   681.67  " style="stroke:#000000;stroke-width: 5.10 ;&st6;" /><path d=" M   263.46,   560.42  L   263.46,   681.67  " style="stroke:#FFFFFF;stroke-width: 4.53 ;&st6;" /><path d=" M   263.46,   560.42  L   263.46,   681.67  " style="stroke:#000000;stroke-width: 1.13 ;&st6;" /></a><a ewd:lineID="13" style="cursor:pointer;"><path d=" M   263.46,   487.34  L   263.46,   545.69  " style="stroke:#000000;stroke-width: 5.10 ;&st6;" /><path d=" M   263.46,   487.34  L   263.46,   545.69  " style="stroke:#FFFFFF;stroke-width: 4.53 ;&st6;" /><path d=" M   263.46,   487.34  L   263.46,   545.69  " style="stroke:#000000;stroke-width: 1.13 ;&st6;" /></a><a ewd:lineID="14" style="cursor:pointer;"><path d=" M   263.46,   324.73  L   263.46,   391.59  " style="stroke:#00A0C6;stroke-width: 5.10 ;&st6;" /></a><a ewd:lineID="15" style="cursor:pointer;"><path d=" M   263.46,   279.97  L   263.46,   307.73  " style="stroke:#00A0C6;stroke-width: 5.10 ;&st6;" /></a><a ewd:lineID="16" style="cursor:pointer;"><path d=" M   263.46,   220.48  L   263.46,   265.24  " style="stroke:#00A0C6;stroke-width: 5.10 ;&st6;" /></a><a ewd:lineID="17" style="cursor:pointer;"><path d=" M   263.46,   164.39  L   263.46,   205.75  " style="stroke:#00A0C6;stroke-width: 5.10 ;&st6;" /></a><a ewd:lineID="18" style="cursor:pointer;"><path d=" M   271.95,   316.23  L   484.42,   316.23  L   484.42,   391.59  " style="stroke:#00A0C6;stroke-width: 5.10 ;&st6;" /></a><a ewd:lineID="19" style="cursor:pointer;"><path d=" M   322.95,   613.68  L   322.95,   681.67  " style="stroke:#000000;stroke-width: 5.10 ;&st6;" /><path d=" M   322.95,   613.68  L   322.95,   681.67  " style="stroke:#FFFFFF;stroke-width: 4.53 ;&st6;" /><path d=" M   322.95,   613.68  L   322.95,   681.67  " style="stroke:#000000;stroke-width: 1.13 ;&st6;" /></a><a ewd:lineID="20" style="cursor:pointer;"><path d=" M   322.95,   520.20  L   322.95,   596.69  " style="stroke:#000000;stroke-width: 5.10 ;&st6;" /><path d=" M   322.95,   520.20  L   322.95,   596.69  " style="stroke:#FFFFFF;stroke-width: 4.53 ;&st6;" /><path d=" M   322.95,   520.20  L   322.95,   596.69  " style="stroke:#000000;stroke-width: 1.13 ;&st6;" /></a><a ewd:lineID="21" style="cursor:pointer;"><path d=" M   322.95,   520.20  L   322.95,   528.70  L   339.94,   545.69  L   390.93,   545.69  L   390.93,   681.67  " style="stroke:#000000;stroke-width: 5.10 ;&st6;" /><path d=" M   322.95,   520.20  L   322.95,   528.70  L   339.94,   545.69  L   390.93,   545.69  L   390.93,   681.67  " style="stroke:#FFFFFF;stroke-width: 4.53 ;&st6;" /><path d=" M   322.95,   520.20  L   322.95,   528.70  L   339.94,   545.69  L   390.93,   545.69  L   390.93,   681.67  " style="stroke:#000000;stroke-width: 1.13 ;&st6;" /></a><a ewd:lineID="22" style="cursor:pointer;"><path d=" M   322.95,   220.48  L   322.95,   503.20  " style="stroke:#000000;stroke-width: 5.10 ;&st6;" /><path d=" M   322.95,   220.48  L   322.95,   503.20  " style="stroke:#FFFFFF;stroke-width: 4.53 ;&st6;" /><path d=" M   322.95,   220.48  L   322.95,   503.20  " style="stroke:#000000;stroke-width: 1.13 ;&st6;" /></a><a ewd:lineID="23" style="cursor:pointer;"><path d=" M   322.95,   164.39  L   322.95,   205.75  " style="stroke:#000000;stroke-width: 5.10 ;&st6;" /><path d=" M   322.95,   164.39  L   322.95,   205.75  " style="stroke:#FFFFFF;stroke-width: 4.53 ;&st6;" /><path d=" M   322.95,   164.39  L   322.95,   205.75  " style="stroke:#000000;stroke-width: 1.13 ;&st6;" /></a><a ewd:lineID="24" style="cursor:pointer;"><path d=" M   484.42,   487.34  L   484.42,   681.67  " style="stroke:#000000;stroke-width: 5.10 ;&st6;" /><path d=" M   484.42,   487.34  L   484.42,   681.67  " style="stroke:#FFFFFF;stroke-width: 4.53 ;&st6;" /><path d=" M   484.42,   487.34  L   484.42,   681.67  " style="stroke:#000000;stroke-width: 1.13 ;&st6;" /></a><a ewd:code="GE1" ewd:figID="14" ewd:figtype="w2w" ewd:pinNo="8" style="cursor:pointer;"><path d=" M   178.47,   205.75  L   161.47,   205.75  L   161.47,   214.25  L   178.47,   214.25  L   178.47,   205.75 " style="&st2;" /><text style="&st8;" transform="matrix(&st16;  164.14  212.12 )"><tspan style="&st18;" x="0" y="0">GE1</tspan></text></a><a ewd:code="GE1" ewd:figID="15" ewd:figtype="w2w" ewd:pinNo="19" style="cursor:pointer;"><path d=" M   271.95,   205.75  L   254.96,   205.75  L   254.96,   214.25  L   271.95,   214.25  L   271.95,   205.75 " style="&st2;" /><text style="&st8;" transform="matrix(&st16;  257.62  212.12 )"><tspan style="&st18;" x="0" y="0">GE1</tspan></text></a><a ewd:code="EA2" ewd:figID="16" ewd:figtype="w2w" ewd:pinNo="23" style="cursor:pointer;"><path d=" M   178.47,   265.24  L   161.47,   265.24  L   161.47,   273.74  L   178.47,   273.74  L   178.47,   265.24 " style="&st2;" /><text style="&st8;" transform="matrix(&st16;  164.48  271.61 )"><tspan style="&st18;" x="0" y="0">EA2</tspan></text></a><a ewd:code="EA2" ewd:figID="17" ewd:figtype="w2w" ewd:pinNo="25" style="cursor:pointer;"><path d=" M   271.95,   265.24  L   254.96,   265.24  L   254.96,   273.74  L   271.95,   273.74  L   271.95,   265.24 " style="&st2;" /><text style="&st8;" transform="matrix(&st16;  257.96  271.61 )"><tspan style="&st18;" x="0" y="0">EA2</tspan></text></a><a ewd:code="GE2" ewd:figID="18" ewd:figtype="w2w" ewd:pinNo="1" style="cursor:pointer;"><path d=" M   331.44,   205.75  L   314.45,   205.75  L   314.45,   214.25  L   331.44,   214.25  L   331.44,   205.75 " style="&st2;" /><text style="&st8;" transform="matrix(&st16;  317.11  212.12 )"><tspan style="&st18;" x="0" y="0">GE2</tspan></text></a><a ewd:code="AA3" ewd:figID="19" ewd:figtype="w2w" ewd:pinNo="2" style="cursor:pointer;"><path d=" M   271.95,   545.69  L   254.96,   545.69  L   254.96,   554.19  L   271.95,   554.19  L   271.95,   545.69 " style="&st2;" /><text style="&st8;" transform="matrix(&st16;  257.96  552.06 )"><tspan style="&st18;" x="0" y="0">AA3</tspan></text></a><a ewd:code="A4" ewd:figID="20" ewd:figtype="gp" style="cursor:pointer;"><path d=" M   252.83,   681.67  L   274.08,   681.67  L   263.46,   697.25  L   252.83,   681.67 " style="&st2;" /><text style="&st8;" transform="matrix(&st16;  259.92  689.46 )"><tspan style="&st18;" x="0" y="0">A4</tspan></text></a><a ewd:code="E1" ewd:figID="21" ewd:figtype="gp" style="cursor:pointer;"><path d=" M   312.32,   681.67  L   333.57,   681.67  L   322.95,   697.25  L   312.32,   681.67 " style="&st2;" /><text style="&st8;" transform="matrix(&st16;  319.41  689.46 )"><tspan style="&st18;" x="0" y="0">E1</tspan></text></a><a ewd:code="E3" ewd:figID="22" ewd:figtype="gp" style="cursor:pointer;"><path d=" M   380.31,   681.67  L   401.56,   681.67  L   390.93,   697.25  L   380.31,   681.67 " style="&st2;" /><text style="&st8;" transform="matrix(&st16;  387.4  689.46 )"><tspan style="&st18;" x="0" y="0">E3</tspan></text></a><a ewd:code="A2" ewd:figID="23" ewd:figtype="gp" style="cursor:pointer;"><path d=" M   473.80,   681.67  L   495.04,   681.67  L   484.42,   697.25  L   473.80,   681.67 " style="&st2;" /><text style="&st8;" transform="matrix(&st16;  480.88  689.46 )"><tspan style="&st18;" x="0" y="0">A2</tspan></text></a><a ewd:code="3649" ewd:figID="24" ewd:figtype="sp" style="cursor:pointer;"><path d=" M    38.24,   120.77  L    46.74,   120.77  L    50.99,   125.01  L    50.99,   133.51  L    46.74,   137.76  L    38.24,   137.76  L    33.99,   133.51  L    33.99,   125.01  L    38.24,   120.77 " style="&st2;" /></a><a ewd:code="3817" ewd:figID="25" ewd:figtype="sp" style="cursor:pointer;"><path d=" M   165.72,   341.73  L   174.22,   341.73  L   178.47,   345.98  L   178.47,   354.48  L   174.22,   358.73  L   165.72,   358.73  L   161.47,   354.48  L   161.47,   345.98  L   165.72,   341.73 " style="&st2;" /></a><a ewd:code="3685" ewd:figID="26" ewd:figtype="sp" style="cursor:pointer;"><path d=" M   259.21,   307.73  L   267.71,   307.73  L   271.95,   311.98  L   271.95,   320.48  L   267.71,   324.73  L   259.21,   324.73  L   254.96,   320.48  L   254.96,   311.98  L   259.21,   307.73 " style="&st2;" /></a></g></svg>