﻿<?xml version="1.0" encoding="utf-8"?>
<!DOCTYPE svg PUBLIC "-//W3C//DTD SVG 1.0//EN" "http://www.w3.org/TR/2001/REC-SVG-20010904/DTD/svg10.dtd"[
	<!ENTITY ns_flows "http://ns.adobe.com/Flows/1.0/">
	<!ENTITY ns_svg "http://www.w3.org/2000/svg">
	<!ENTITY ns_xlink "http://www.w3.org/1999/xlink">
	<!ENTITY st0 "font-size:7px;font-family:'MS-PGothic';adobe-font-script:japanese;">
	<!ENTITY st1 "font-size:6px;font-family:'ArialMT';">
	<!-- White fill  -->
	<!ENTITY st2 "fill:#FFFFFF;stroke:#000000; stroke-width:1.41;stroke-linecap:round;stroke-linejoin:round;">
	<!-- Yellow fill  -->
	<!ENTITY st3 "fill:#FFFFCC;stroke:#FFFFCC; stroke-width:0.1;stroke-linecap:round;stroke-linejoin:round;">
	<!-- Gray fill  -->
	<!ENTITY st4 "fill:#CCCCCC;stroke:#CCCCCC; stroke-width:0.1;stroke-linecap:round;stroke-linejoin:round;">
	<!-- Light-blue fill -->
	<!ENTITY st5 "fill:#CCECF4;stroke:#000000; stroke-width:1.133;stroke-linecap:round;stroke-linejoin:round;">
	<!ENTITY st6 "fill:none;stroke-linecap:butt; stroke-linejoin:round;">
	<!ENTITY st7 "fill:none;stroke:#000000;stroke-linecap:round;stroke-linejoin:round;">
	<!ENTITY st8 "enable-background:new    ;">
	<!-- Black fill -->
	<!ENTITY st9 "fill:#000000;stroke:#000000; stroke-linecap:round;stroke-linejoin:round;">
	<!-- SRS note   -->
	<!ENTITY st10 "font-size:9px;font-family:'ArialMT';">
	<!ENTITY st11 "font-size:9px;font-family:'Svg Symbol';">
	<!ENTITY st12 "font-size:6px;font-family:'Svg Symbol';">
	<!ENTITY st13 "fill:none;stroke:#ff0000;stroke-linecap:round;stroke-linejoin:round;">
	<!-- Yellow fill  -->
	<!ENTITY st14 "fill:#FFFF00;stroke:#FFFF00; stroke-width:0.1;stroke-linecap:round;stroke-linejoin:round;">
	<!ENTITY st15 "font-size:6px;font-family:'MS-PGothic';adobe-font-script:japanese;">
	<!ENTITY st16 "1.00 0.00 0.00 1.00">
	<!ENTITY st17 "0.00 -1.00 1.00 0.00">
	<!ENTITY st18 "font-size:6px;font-family:'Arial';">
	<!ENTITY st19 "font-size:9px;font-family:'Arial';">
	<!ENTITY st20 "font-size:6px;font-family:'MS-PGothic','MS PGothic';adobe-font-script:japanese;">
	<!ENTITY st21 "font-size:7px;font-family:'MS-PGothic','MS PGothic';adobe-font-script:japanese;">
	<!ATTLIST svg
		xmlns:ewd CDATA #FIXED "http://shcl.co.jp/ewd"
		xmlns:a CDATA #FIXED "http://ns.adobe.com/AdobeSVGViewerExtensions/3.0/"
		ewd:ver CDATA #IMPLIED
	>
	<!ATTLIST a
		ewd:lineID CDATA #IMPLIED
		ewd:groupID CDATA #IMPLIED
		ewd:figtype CDATA #IMPLIED
		ewd:code CDATA #IMPLIED
		ewd:figID CDATA #IMPLIED
		ewd:pinNo CDATA #IMPLIED
		ewd:comment CDATA #IMPLIED >
	<!ATTLIST g
		ewd:lineID CDATA #IMPLIED
		ewd:groupID CDATA #IMPLIED
		ewd:figtype CDATA #IMPLIED
		ewd:code CDATA #IMPLIED
		ewd:figID CDATA #IMPLIED
		ewd:pinNo CDATA #IMPLIED
		ewd:comment CDATA #IMPLIED >
	<!ATTLIST text
		ewd:textID CDATA #IMPLIED >
	<!ATTLIST title
		ewd:textID CDATA #IMPLIED >
]>
<!-- Generator: Shintec Hozumi YS   -->
<svg onload="call_execInitLoadProc_svg('system')" style="overflow:visible;  enable-background:new 0 0 972.210 710.000" viewBox="0 0 972.210 710.000" height="710.000" width="972.210" xml:space="preserve" ewd:ver="L2.3.0.14" xmlns="&ns_svg;" xmlns:a="http://ns.adobe.com/AdobeSVGViewerExtensions/3.0/" xmlns:ewd="http://shcl.co.jp/ewd" xmlns:xlink="&ns_xlink;">
<path d=" M   263.46,    69.77  L   263.46,    95.27  " style="stroke-width: 0.85 ;&st7;  " /><path d=" M   265.58,    95.27  L   261.33,    95.27  " style="stroke-width: 1.42 ;&st7;  " /><path d=" M   265.58,   103.77  L   261.33,   103.77  " style="stroke-width: 1.42 ;&st7;  " /><path d=" M   254.96,   146.26  L   263.46,   146.26  " style="stroke-width: 1.42 ;&st7;  " /><path d=" M    76.49,   401.22  L    76.49,   390.60  " style="stroke-width: 0.85 ;&st7;  " /><path d=" M    76.49,   386.35  L    76.49,   375.72  " style="stroke-width: 0.85 ;&st7;  " /><path d=" M    80.74,   386.35  L    72.24,   386.35  " style="stroke-width: 1.42 ;&st7;  " /><path d=" M    80.74,   390.60  L    72.24,   390.60  " style="stroke-width: 1.42 ;&st7;  " /><path d=" M   127.48,   401.22  L   127.48,   390.60  " style="stroke-width: 0.85 ;&st7;  " /><path d=" M   127.48,   386.35  L   127.48,   375.72  " style="stroke-width: 0.85 ;&st7;  " /><path d=" M   131.73,   386.35  L   123.23,   386.35  " style="stroke-width: 1.42 ;&st7;  " /><path d=" M   131.73,   390.60  L   123.23,   390.60  " style="stroke-width: 1.42 ;&st7;  " /><path d=" M   212.46,   618.65  L   207.49,   613.68  " style="stroke-width: 1.42 ;&st7;  " /><path d=" M   195.47,   625.71  L   200.44,   630.68  " style="stroke-width: 1.42 ;&st7;  " /><path d=" M   207.49,   630.68  L   212.46,   625.71  " style="stroke-width: 1.42 ;&st7;  " /><path d=" M   200.44,   613.68  L   195.47,   618.65  " style="stroke-width: 1.42 ;&st7;  " /><path d=" M   271.95,   202.22  L   266.98,   197.25  " style="stroke-width: 1.42 ;&st7;  " /><path d=" M   254.96,   209.28  L   259.93,   214.25  " style="stroke-width: 1.42 ;&st7;  " /><path d=" M   266.98,   214.25  L   271.95,   209.28  " style="stroke-width: 1.42 ;&st7;  " /><path d=" M   259.93,   197.25  L   254.96,   202.22  " style="stroke-width: 1.42 ;&st7;  " /><path d=" M   271.95,   244.72  L   266.98,   239.75  " style="stroke-width: 1.42 ;&st7;  " /><path d=" M   254.96,   251.77  L   259.93,   256.74  " style="stroke-width: 1.42 ;&st7;  " /><path d=" M   266.98,   256.74  L   271.95,   251.77  " style="stroke-width: 1.42 ;&st7;  " /><path d=" M   259.93,   239.75  L   254.96,   244.72  " style="stroke-width: 1.42 ;&st7;  " /><path d=" M   305.95,   270.21  L   300.98,   265.24  " style="stroke-width: 1.42 ;&st7;  " /><path d=" M   288.95,   277.27  L   293.92,   282.24  " style="stroke-width: 1.42 ;&st7;  " /><path d=" M   300.98,   282.24  L   305.95,   277.27  " style="stroke-width: 1.42 ;&st7;  " /><path d=" M   293.92,   265.24  L   288.95,   270.21  " style="stroke-width: 1.42 ;&st7;  " /><path d=" M   407.93,   295.71  L   402.96,   290.74  " style="stroke-width: 1.42 ;&st7;  " /><path d=" M   390.93,   302.77  L   395.90,   307.73  " style="stroke-width: 1.42 ;&st7;  " /><path d=" M   402.96,   307.73  L   407.93,   302.77  " style="stroke-width: 1.42 ;&st7;  " /><path d=" M   395.90,   290.74  L   390.93,   295.71  " style="stroke-width: 1.42 ;&st7;  " /><path d=" M   373.94,   202.22  L   368.97,   197.25  " style="stroke-width: 1.42 ;&st7;  " /><path d=" M   356.94,   209.28  L   361.91,   214.25  " style="stroke-width: 1.42 ;&st7;  " /><path d=" M   368.97,   214.25  L   373.94,   209.28  " style="stroke-width: 1.42 ;&st7;  " /><path d=" M   361.91,   197.25  L   356.94,   202.22  " style="stroke-width: 1.42 ;&st7;  " /><path d=" M   263.46,    90.37  L   260.62,    87.54  L   260.62,    91.79  L   263.46,    94.62  L   266.29,    91.79  L   266.29,    87.54  L   263.46,    90.37  " style="stroke-width: 0.28 ;&st9;  " /><path d=" M   250.71,    35.78  L   250.71,    78.27  L   276.20,    78.27  L   276.20,    35.78  L   250.71,    35.78  " style="stroke-width: 1.42 ;&st7;  " /><path d=" M   259.21,   137.20  L   263.46,   141.45  L   267.71,   137.20  " style="stroke-width: 1.42 ;&st7;  " /><path d=" M   267.71,   140.60  L   263.46,   144.84  L   259.21,   140.60  " style="stroke-width: 1.42 ;&st7;  " /><path d=" M    84.99,   375.72  L    67.99,   375.72  L    67.99,   401.22  L    84.99,   401.22  L    84.99,   375.72  " style="stroke-width: 1.42 ;&st7;  " /><path d=" M   135.98,   375.72  L   118.98,   375.72  L   118.98,   401.22  L   135.98,   401.22  L   135.98,   375.72  " style="stroke-width: 1.42 ;&st7;  " /><path d=" M   169.97,   697.25  L   169.97,   701.50  " style="stroke-width: 0.85 ;&st7;  " /><path d=" M   161.47,   701.50  L   178.47,   701.50  " style="stroke-width: 0.85 ;&st7;  " /><path d=" M   165.72,   704.33  L   174.22,   704.33  " style="stroke-width: 0.85 ;&st7;  " /><path d=" M   167.14,   707.17  L   172.80,   707.17  " style="stroke-width: 0.85 ;&st7;  " /><path d=" M   168.56,   710.00  L   171.39,   710.00  " style="stroke-width: 0.85 ;&st7;  " /><path d=" M   203.97,   697.25  L   203.97,   701.50  " style="stroke-width: 0.85 ;&st7;  " /><path d=" M   195.47,   701.50  L   212.46,   701.50  " style="stroke-width: 0.85 ;&st7;  " /><path d=" M   199.72,   704.33  L   208.22,   704.33  " style="stroke-width: 0.85 ;&st7;  " /><path d=" M   201.13,   707.17  L   206.80,   707.17  " style="stroke-width: 0.85 ;&st7;  " /><path d=" M   202.55,   710.00  L   205.38,   710.00  " style="stroke-width: 0.85 ;&st7;  " /><path d=" M   246.46,   375.72  L   246.46,   418.22  L   314.45,   418.22  L   314.45,   375.72  L   246.46,   375.72  " style="stroke-width: 1.42 ;&st7;  " /><path d=" M   348.44,   375.72  L   348.44,   418.22  L   416.43,   418.22  L   416.43,   375.72  L   348.44,   375.72  " style="stroke-width: 1.42 ;&st7;  " /><path d=" M   271.95,   609.15  L   348.44,   609.15  " style="stroke-width: 0.85 ;&st7; stroke-dasharray:3, 1.5;" /><path d=" M   271.95,   600.09  L   348.44,   600.09  " style="stroke-width: 0.85 ;&st7; stroke-dasharray:3, 1.5;" /><path d=" M   246.46,   613.68  L   246.46,   656.18  L   917.85,   656.18  L   917.85,   613.68  L   246.46,   613.68  " style="stroke-width: 1.42 ;&st7;  " /><path d=" M   263.46,    47.11  C   260.72     48.72    259.81     52.25    261.42     54.99  " style="stroke-width: 1.42 ;&st7;   " /><path d=" M   261.42,    54.99  C   261.94     55.87    262.57     56.51    263.46     57.03  " style="stroke-width: 1.42 ;&st7;   " /><path d=" M   263.46,    66.94  C   266.19     65.33    267.11     61.80    265.49     59.06  " style="stroke-width: 1.42 ;&st7;   " /><path d=" M   265.49,    59.06  C   264.97     58.18    264.34     57.55    263.46     57.03  " style="stroke-width: 1.42 ;&st7;   " /><path d=" M   264.87,    45.69  C   264.87     44.91    264.24     44.28    263.46     44.28  " style="stroke-width: 0.85 ;&st7;   " /><path d=" M   263.46,    44.28  C   262.67     44.28    262.04     44.91    262.04     45.69  " style="stroke-width: 0.85 ;&st7;   " /><path d=" M   262.04,    45.69  C   262.04     46.48    262.67     47.11    263.46     47.11  " style="stroke-width: 0.85 ;&st7;   " /><path d=" M   263.46,    47.11  C   264.24     47.11    264.87     46.48    264.87     45.69  " style="stroke-width: 0.85 ;&st7;   " /><path d=" M   264.87,    68.36  C   264.87     67.57    264.24     66.94    263.46     66.94  " style="stroke-width: 0.85 ;&st7;   " /><path d=" M   263.46,    66.94  C   262.67     66.94    262.04     67.57    262.04     68.36  " style="stroke-width: 0.85 ;&st7;   " /><path d=" M   262.04,    68.36  C   262.04     69.14    262.67     69.77    263.46     69.77  " style="stroke-width: 0.85 ;&st7;   " /><path d=" M   263.46,    69.77  C   264.24     69.77    264.87     69.14    264.87     68.36  " style="stroke-width: 0.85 ;&st7;   " /><path d=" M   261.33,    95.27  C   258.98     95.27    257.08     97.17    257.08     99.52  " style="stroke-width: 1.42 ;&st7;   " /><path d=" M   257.08,    99.52  C   257.08    101.87    258.98    103.77    261.33    103.77  " style="stroke-width: 1.42 ;&st7;   " /><path d=" M   265.58,   103.77  C   267.93    103.77    269.83    101.87    269.83     99.52  " style="stroke-width: 1.42 ;&st7;   " /><path d=" M   269.83,    99.52  C   269.83     97.17    267.93     95.27    265.58     95.27  " style="stroke-width: 1.42 ;&st7;   " /><path d=" M   267.99,   609.15  C   267.99    606.65    265.96    604.62    263.46    604.62  " style="stroke-width: 1.42 ;&st7;   " /><path d=" M   263.46,   604.62  C   260.95    604.62    258.92    606.65    258.92    609.15  " style="stroke-width: 1.42 ;&st7;   " /><path d=" M   258.92,   609.15  C   258.92    611.65    260.95    613.68    263.46    613.68  " style="stroke-width: 1.42 ;&st7;   " /><path d=" M   263.46,   613.68  C   265.96    613.68    267.99    611.65    267.99    609.15  " style="stroke-width: 1.42 ;&st7;   " /><path d=" M   369.97,   609.15  C   369.97    606.65    367.94    604.62    365.44    604.62  " style="stroke-width: 1.42 ;&st7;   " /><path d=" M   365.44,   604.62  C   362.94    604.62    360.91    606.65    360.91    609.15  " style="stroke-width: 1.42 ;&st7;   " /><path d=" M   360.91,   609.15  C   360.91    611.65    362.94    613.68    365.44    613.68  " style="stroke-width: 1.42 ;&st7;   " /><path d=" M   365.44,   613.68  C   367.94    613.68    369.97    611.65    369.97    609.15  " style="stroke-width: 1.42 ;&st7;   " /><path d=" M   267.99,   600.09  C   267.99    597.58    265.96    595.55    263.46    595.55  " style="stroke-width: 1.42 ;&st7;   " /><path d=" M   263.46,   595.55  C   260.95    595.55    258.92    597.58    258.92    600.09  " style="stroke-width: 1.42 ;&st7;   " /><path d=" M   258.92,   600.09  C   258.92    602.59    260.95    604.62    263.46    604.62  " style="stroke-width: 1.42 ;&st7;   " /><path d=" M   263.46,   604.62  C   265.96    604.62    267.99    602.59    267.99    600.09  " style="stroke-width: 1.42 ;&st7;   " /><path d=" M   369.97,   600.09  C   369.97    597.58    367.94    595.55    365.44    595.55  " style="stroke-width: 1.42 ;&st7;   " /><path d=" M   365.44,   595.55  C   362.94    595.55    360.91    597.58    360.91    600.09  " style="stroke-width: 1.42 ;&st7;   " /><path d=" M   360.91,   600.09  C   360.91    602.59    362.94    604.62    365.44    604.62  " style="stroke-width: 1.42 ;&st7;   " /><path d=" M   365.44,   604.62  C   367.94    604.62    369.97    602.59    369.97    600.09  " style="stroke-width: 1.42 ;&st7;   " /><text ewd:textID="10" style="&st18;" transform="matrix(&st17;  150.7  404.12 )">Noise Filter (Ignition Bank 1)</text><text style="&st18;" transform="matrix(&st17;  143.59  404.12 )">C10</text><text ewd:textID="3" style="&st18;" transform="matrix(&st17;  329.17  421.12 )">Ignition Coil Assembly No.1</text><text style="&st18;" transform="matrix(&st17;  322.06  421.11 )">C4</text><text ewd:textID="4" style="&st18;" transform="matrix(&st17;  431.15  421.12 )">Ignition Coil Assembly No.2</text><text style="&st18;" transform="matrix(&st17;  424.04  421.11 )">C15</text><text style="&st18;" transform="matrix(&st17;  259.76  465.62 )">B-R</text><text style="&st18;" transform="matrix(&st17;  293.75  465.77 )">G-B</text><text style="&st18;" transform="matrix(&st17;  361.74  465.11 )">L-B</text><text style="&st18;" transform="matrix(&st17;  395.74  465.77 )">G-B</text><text style="&st18;" transform="matrix(&st17;  259.76  338.14 )">B-R</text><text style="&st18;" transform="matrix(&st17;  293.76  338.95 )">W-B</text><text style="&st18;" transform="matrix(&st17;  361.74  338.14 )">B-R</text><text style="&st18;" transform="matrix(&st17;  395.74  338.95 )">W-B</text><text style="&st18;" transform="matrix(&st17;  259.76  185.16 )">B-R</text><text style="&st18;" transform="matrix(&st17;  259.76  122.53 )">B</text><text style="&st18;" transform="matrix(&st17;  200.27  602.41 )">W-B</text><text style="&st18;" transform="matrix(&st17;  123.78  466.43 )">W-B</text><text style="&st18;" transform="matrix(&st17;  72.79  466.43 )">W-B</text><text style="&st18;" transform="matrix(&st17;  72.79  338.14 )">B-R</text><text style="&st18;" transform="matrix(&st17;  123.78  338.14 )">B-R</text><text style="&st18;" transform="matrix(&st17;  166.28  649.15 )">W-B</text><text style="&st18;" transform="matrix(&st16;  377.03  202.05 )">B-R</text><text style="&st18;" transform="matrix(&st16;  309.04  202.05 )">B-R</text><text style="&st18;" transform="matrix(&st16;  269.98  270.04 )">W-B</text><text style="&st18;" transform="matrix(&st16;  312.48  270.04 )">W-B</text><text style="&st18;" transform="matrix(&st16;  371.97  295.54 )">W-B</text><text style="&st18;" transform="matrix(&st16;  279.3  244.55 )">B-R</text><text style="&st18;" transform="matrix(&st16;  232.55  244.55 )">B-R</text><text style="&st18;" transform="matrix(&st17;  259.76  231.9 )">B-R</text><text style="&st18;" transform="matrix(&st17;  200.27  649.15 )">W-B</text><text style="&st18;" transform="matrix(&st16;  129.76  652.48 )">W-B</text><text style="&st18;" transform="matrix(&st17;  259.76  567.6 )">B-R</text><text style="&st18;" transform="matrix(&st17;  361.74  567.09 )">L-B</text><text style="&st18;" transform="matrix(&st16;  256.54  621.32 )">IGT1</text><text style="&st18;" transform="matrix(&st16;  261.04  611.12 )">C</text><text style="&st18;" transform="matrix(&st16;  250.67  611.12 )">40</text><text style="&st18;" transform="matrix(&st16;  358.52  621.32 )">IGT2</text><text style="&st18;" transform="matrix(&st16;  363.02  611.12 )">C</text><text style="&st18;" transform="matrix(&st16;  352.65  611.12 )">39</text><text style="&st18;" transform="matrix(&st16;  250.64  602.05 )">40</text><text style="&st18;" transform="matrix(&st16;  261.19  602.05 )">B</text><text style="&st18;" transform="matrix(&st16;  352.62  602.05 )">39</text><text style="&st18;" transform="matrix(&st16;  363.17  602.05 )">B</text><text style="&st18;" transform="matrix(&st16;  328.03  632.62 )">C45(B),C46(C)</text><text style="&st18;" transform="matrix(&st16;  328.04  639.73 )">ECM</text><text style="&st18;" transform="matrix(&st16;  370.53  602.05 )">(LHD)</text><text style="&st18;" transform="matrix(&st16;  370.53  611.12 )">(RHD)</text><text style="&st18;" transform="matrix(&st16;  487.51  202.05 )">B-R</text><text style="&st18;" transform="matrix(&st16;  487.51  244.55 )">B-R</text><text style="&st18;" transform="matrix(&st16;  486.7  270.04 )">W-B</text><text style="&st18;" transform="matrix(&st16;  486.7  295.54 )">W-B</text><text style="&st18;" transform="matrix(&st16;  487.36  491.01 )">G-B</text><text style="&st18;" transform="matrix(&st16;  487.36  508.0 )">G-B</text><text style="&st18;" transform="matrix(&st16;  279.88  56.17 )">10A <tspan dy="6.0" x="0 ">INJ</tspan></text><text style="&st18;" transform="matrix(&st16;  261.58  101.49 )">1</text><text style="&st18;" transform="matrix(&st16;  257.12  86.47 )">2</text><text style="&st18;" transform="matrix(&st16;  258.09  32.08 )">(IG)</text><text style="&st18;" transform="matrix(&st16;  246.7  152.48 )">15</text><text style="&st18;" transform="matrix(&st16;  70.15  409.41 )">2</text><text style="&st18;" transform="matrix(&st16;  70.15  372.03 )">1</text><text style="&st18;" transform="matrix(&st16;  121.14  409.41 )">2</text><text style="&st18;" transform="matrix(&st16;  121.14  372.03 )">1</text><text style="&st18;" transform="matrix(&st16;  232.55  202.05 )">B-R</text><text style="&st18;" transform="matrix(&st16;  257.12  426.41 )">3</text><text style="&st18;" transform="matrix(&st16;  291.11  426.41 )">2</text><text style="&st18;" transform="matrix(&st16;  359.1  426.41 )">3</text><text style="&st18;" transform="matrix(&st16;  393.09  426.41 )">2</text><text style="&st18;" transform="matrix(&st16;  257.12  372.03 )">1</text><text style="&st18;" transform="matrix(&st16;  291.11  372.03 )">4</text><text style="&st18;" transform="matrix(&st16;  359.1  372.03 )">1</text><text style="&st18;" transform="matrix(&st16;  393.09  372.03 )">4</text><text style="&st18;" transform="matrix(&st16;  259.48  383.36 )">+B</text><text style="&st18;" transform="matrix(&st16;  292.24  414.52 )">IGF</text><text style="&st18;" transform="matrix(&st16;  361.47  383.36 )">+B</text><text style="&st18;" transform="matrix(&st16;  290.53  383.36 )">GND</text><text style="&st18;" transform="matrix(&st16;  392.51  383.36 )">GND</text><text style="&st18;" transform="matrix(&st16;  256.54  414.52 )">IGT1</text><text style="&st18;" transform="matrix(&st16;  358.52  414.52 )">IGT2</text><text style="&st18;" transform="matrix(&st16;  394.22  414.52 )">IGF</text><text ewd:textID="11" style="&st18;" transform="matrix(&st17;  99.7  404.12 )">Noise Filter (Ignition Bank 2)</text><text style="&st18;" transform="matrix(&st17;  92.6  404.12 )">C17</text></svg>