﻿<?xml version="1.0" encoding="utf-8"?>
<!DOCTYPE svg PUBLIC "-//W3C//DTD SVG 1.0//EN" "http://www.w3.org/TR/2001/REC-SVG-20010904/DTD/svg10.dtd"[
	<!ENTITY ns_flows "http://ns.adobe.com/Flows/1.0/">
	<!ENTITY ns_svg "http://www.w3.org/2000/svg">
	<!ENTITY ns_xlink "http://www.w3.org/1999/xlink">
	<!ENTITY st0 "font-size:7px;font-family:'MS-PGothic';adobe-font-script:japanese;">
	<!ENTITY st1 "font-size:6px;font-family:'ArialMT';">
	<!-- White fill  -->
	<!ENTITY st2 "fill:#FFFFFF;stroke:#000000; stroke-width:1.41;stroke-linecap:round;stroke-linejoin:round;">
	<!-- Yellow fill  -->
	<!ENTITY st3 "fill:#FFFFCC;stroke:#FFFFCC; stroke-width:0.1;stroke-linecap:round;stroke-linejoin:round;">
	<!-- Gray fill  -->
	<!ENTITY st4 "fill:#CCCCCC;stroke:#CCCCCC; stroke-width:0.1;stroke-linecap:round;stroke-linejoin:round;">
	<!-- Light-blue fill -->
	<!ENTITY st5 "fill:#CCECF4;stroke:#000000; stroke-width:1.133;stroke-linecap:round;stroke-linejoin:round;">
	<!ENTITY st6 "fill:none;stroke-linecap:butt; stroke-linejoin:round;">
	<!ENTITY st7 "fill:none;stroke:#000000;stroke-linecap:round;stroke-linejoin:round;">
	<!ENTITY st8 "enable-background:new    ;">
	<!-- Black fill -->
	<!ENTITY st9 "fill:#000000;stroke:#000000; stroke-linecap:round;stroke-linejoin:round;">
	<!-- SRS note   -->
	<!ENTITY st10 "font-size:9px;font-family:'ArialMT';">
	<!ENTITY st11 "font-size:9px;font-family:'Svg Symbol';">
	<!ENTITY st12 "font-size:6px;font-family:'Svg Symbol';">
	<!ENTITY st13 "fill:none;stroke:#ff0000;stroke-linecap:round;stroke-linejoin:round;">
	<!-- Yellow fill  -->
	<!ENTITY st14 "fill:#FFFF00;stroke:#FFFF00; stroke-width:0.1;stroke-linecap:round;stroke-linejoin:round;">
	<!ENTITY st15 "font-size:6px;font-family:'MS-PGothic';adobe-font-script:japanese;">
	<!ENTITY st16 "1.00 0.00 0.00 1.00">
	<!ENTITY st17 "0.00 -1.00 1.00 0.00">
	<!ENTITY st18 "font-size:6px;font-family:'Arial';">
	<!ENTITY st19 "font-size:9px;font-family:'Arial';">
	<!ENTITY st20 "font-size:6px;font-family:'MS-PGothic','MS PGothic';adobe-font-script:japanese;">
	<!ENTITY st21 "font-size:7px;font-family:'MS-PGothic','MS PGothic';adobe-font-script:japanese;">
	<!ATTLIST svg
		xmlns:ewd CDATA #FIXED "http://shcl.co.jp/ewd"
		xmlns:a CDATA #FIXED "http://ns.adobe.com/AdobeSVGViewerExtensions/3.0/"
		ewd:ver CDATA #IMPLIED
	>
	<!ATTLIST a
		ewd:lineID CDATA #IMPLIED
		ewd:groupID CDATA #IMPLIED
		ewd:figtype CDATA #IMPLIED
		ewd:code CDATA #IMPLIED
		ewd:figID CDATA #IMPLIED
		ewd:pinNo CDATA #IMPLIED
		ewd:comment CDATA #IMPLIED >
	<!ATTLIST g
		ewd:lineID CDATA #IMPLIED
		ewd:groupID CDATA #IMPLIED
		ewd:figtype CDATA #IMPLIED
		ewd:code CDATA #IMPLIED
		ewd:figID CDATA #IMPLIED
		ewd:pinNo CDATA #IMPLIED
		ewd:comment CDATA #IMPLIED >
	<!ATTLIST text
		ewd:textID CDATA #IMPLIED >
	<!ATTLIST title
		ewd:textID CDATA #IMPLIED >
]>
<!-- Generator: Shintec Hozumi YS   -->
<svg onload="call_execInitLoadProc_svg('system')" style="overflow:visible;  enable-background:new 0 0 3611.897 710.000" viewBox="0 0 3611.897 710.000" height="710.000" width="3611.897" xml:space="preserve" ewd:ver="L2.3.0.14" xmlns="&ns_svg;" xmlns:a="http://ns.adobe.com/AdobeSVGViewerExtensions/3.0/" xmlns:ewd="http://shcl.co.jp/ewd" xmlns:xlink="&ns_xlink;">
<path d=" M   127.48,    69.77  L   127.48,    78.27  " style="stroke-width: 0.85 ;&st7;  " /><path d=" M   129.60,    95.27  L   125.35,    95.27  " style="stroke-width: 1.42 ;&st7;  " /><path d=" M   129.60,   103.77  L   125.35,   103.77  " style="stroke-width: 1.42 ;&st7;  " /><path d=" M   401.56,   137.76  L   397.31,   137.76  " style="stroke-width: 1.42 ;&st7;  " /><path d=" M   401.56,   146.26  L   397.31,   146.26  " style="stroke-width: 1.42 ;&st7;  " /><path d=" M   427.05,   137.76  L   422.80,   137.76  " style="stroke-width: 1.42 ;&st7;  " /><path d=" M   427.05,   146.26  L   422.80,   146.26  " style="stroke-width: 1.42 ;&st7;  " /><path d=" M   401.56,   214.25  L   397.31,   214.25  " style="stroke-width: 1.42 ;&st7;  " /><path d=" M   401.56,   222.75  L   397.31,   222.75  " style="stroke-width: 1.42 ;&st7;  " /><path d=" M   427.05,   214.25  L   422.80,   214.25  " style="stroke-width: 1.42 ;&st7;  " /><path d=" M   427.05,   222.75  L   422.80,   222.75  " style="stroke-width: 1.42 ;&st7;  " /><path d=" M   399.43,   190.17  L   393.77,   167.51  " style="stroke-width: 1.42 ;&st7;  " /><path d=" M   399.43,   193.00  L   399.43,   197.25  " style="stroke-width: 0.85 ;&st7;  " /><path d=" M   390.93,   180.26  L   393.77,   180.26  " style="stroke-width: 0.85 ;&st7;  " /><path d=" M   399.43,   163.26  L   399.43,   167.51  " style="stroke-width: 0.85 ;&st7;  " /><path d=" M   424.93,   163.26  L   424.93,   171.76  " style="stroke-width: 0.85 ;&st7;  " /><path d=" M   424.93,   188.75  L   424.93,   197.25  " style="stroke-width: 0.85 ;&st7;  " /><path d=" M   424.93,    69.77  L   424.93,    78.27  " style="stroke-width: 0.85 ;&st7;  " /><path d=" M   427.05,    95.27  L   422.80,    95.27  " style="stroke-width: 1.42 ;&st7;  " /><path d=" M   427.05,   103.77  L   422.80,   103.77  " style="stroke-width: 1.42 ;&st7;  " /><path d=" M   361.19,   176.01  L   365.44,   176.01  " style="stroke-width: 1.42 ;&st7;  " /><path d=" M   365.44,   184.50  L   361.19,   184.50  " style="stroke-width: 1.42 ;&st7;  " /><path d=" M   178.47,   278.71  L   173.50,   273.74  " style="stroke-width: 1.42 ;&st7;  " /><path d=" M   161.47,   285.77  L   166.44,   290.74  " style="stroke-width: 1.42 ;&st7;  " /><path d=" M   173.50,   290.74  L   178.47,   285.77  " style="stroke-width: 1.42 ;&st7;  " /><path d=" M   166.44,   273.74  L   161.47,   278.71  " style="stroke-width: 1.42 ;&st7;  " /><path d=" M   135.98,   125.74  L   131.01,   120.77  " style="stroke-width: 1.42 ;&st7;  " /><path d=" M   118.98,   132.79  L   123.95,   137.76  " style="stroke-width: 1.42 ;&st7;  " /><path d=" M   131.01,   137.76  L   135.98,   132.79  " style="stroke-width: 1.42 ;&st7;  " /><path d=" M   123.95,   120.77  L   118.98,   125.74  " style="stroke-width: 1.42 ;&st7;  " /><path d=" M   339.94,   125.74  L   334.97,   120.77  " style="stroke-width: 1.42 ;&st7;  " /><path d=" M   322.95,   132.79  L   327.91,   137.76  " style="stroke-width: 1.42 ;&st7;  " /><path d=" M   334.97,   137.76  L   339.94,   132.79  " style="stroke-width: 1.42 ;&st7;  " /><path d=" M   327.91,   120.77  L   322.95,   125.74  " style="stroke-width: 1.42 ;&st7;  " /><path d=" M    59.49,   559.16  L    54.52,   554.19  " style="stroke-width: 1.42 ;&st7;  " /><path d=" M    42.49,   566.22  L    47.46,   571.19  " style="stroke-width: 1.42 ;&st7;  " /><path d=" M    54.52,   571.19  L    59.49,   566.22  " style="stroke-width: 1.42 ;&st7;  " /><path d=" M    47.46,   554.19  L    42.49,   559.16  " style="stroke-width: 1.42 ;&st7;  " /><path d=" M   114.73,    35.78  L   114.73,    78.27  L   140.23,    78.27  L   140.23,    35.78  L   114.73,    35.78  " style="stroke-width: 1.42 ;&st7;  " /><path d=" M   127.48,    90.37  L   124.65,    87.54  L   124.65,    91.79  L   127.48,    94.62  L   130.31,    91.79  L   130.31,    87.54  L   127.48,    90.37  " style="stroke-width: 0.28 ;&st9;  " /><path d=" M   127.48,    78.27  L   127.48,    95.27  " style="stroke-width: 0.85 ;&st7;  " /><path d=" M   144.48,   214.25  L   144.48,   180.26  L    33.99,   180.26  L    33.99,   214.25  L   144.48,   214.25  " style="stroke-width: 1.42 ;&st7;  " /><path d=" M   399.43,   146.26  L   399.43,   163.26  " style="stroke-width: 0.85 ;&st7;  " /><path d=" M   390.93,   180.26  L   369.69,   180.26  " style="stroke-width: 0.85 ;&st7;  " /><path d=" M   433.43,   163.26  L   390.93,   163.26  L   390.93,   197.25  L   433.43,   197.25  L   433.43,   163.26  " style="stroke-width: 1.42 ;&st7;  " /><path d=" M   399.43,   151.16  L   402.27,   153.99  L   402.27,   149.74  L   399.43,   146.91  L   396.60,   149.74  L   396.60,   153.99  L   399.43,   151.16  " style="stroke-width: 0.28 ;&st9;  " /><path d=" M   424.93,   151.16  L   427.76,   153.99  L   427.76,   149.74  L   424.93,   146.91  L   422.10,   149.74  L   422.10,   153.99  L   424.93,   151.16  " style="stroke-width: 0.28 ;&st9;  " /><path d=" M   399.43,   209.35  L   396.60,   206.52  L   396.60,   210.77  L   399.43,   213.60  L   402.27,   210.77  L   402.27,   206.52  L   399.43,   209.35  " style="stroke-width: 0.28 ;&st9;  " /><path d=" M   424.93,   209.35  L   422.10,   206.52  L   422.10,   210.77  L   424.93,   213.60  L   427.76,   210.77  L   427.76,   206.52  L   424.93,   209.35  " style="stroke-width: 0.28 ;&st9;  " /><path d=" M   424.93,   146.26  L   424.93,   163.26  " style="stroke-width: 0.85 ;&st7;  " /><path d=" M   399.43,   214.25  L   399.43,   197.25  " style="stroke-width: 0.85 ;&st7;  " /><path d=" M   424.93,   214.25  L   424.93,   197.25  " style="stroke-width: 0.85 ;&st7;  " /><path d=" M   412.18,    35.78  L   412.18,    78.27  L   437.68,    78.27  L   437.68,    35.78  L   412.18,    35.78  " style="stroke-width: 1.42 ;&st7;  " /><path d=" M   424.93,    78.27  L   424.93,    95.27  " style="stroke-width: 0.85 ;&st7;  " /><path d=" M   424.93,    90.37  L   422.10,    87.54  L   422.10,    91.79  L   424.93,    94.62  L   427.76,    91.79  L   427.76,    87.54  L   424.93,    90.37  " style="stroke-width: 0.28 ;&st9;  " /><path d=" M   195.47,    52.78  L   348.44,    52.78  L   348.44,    86.77  L   195.47,    86.77  L   195.47,    52.78  " style="stroke-width: 1.42 ;&st7;  " /><path d=" M    49.58,   710.00  L    52.41,   710.00  " style="stroke-width: 0.85 ;&st7;  " /><path d=" M    48.16,   707.17  L    53.82,   707.17  " style="stroke-width: 0.85 ;&st7;  " /><path d=" M    46.74,   704.33  L    55.24,   704.33  " style="stroke-width: 0.85 ;&st7;  " /><path d=" M   374.58,   180.26  L   377.42,   177.42  L   373.17,   177.42  L   370.33,   180.26  L   373.17,   183.09  L   377.42,   183.09  L   374.58,   180.26  " style="stroke-width: 0.28 ;&st9;  " /><path d=" M   254.96,   697.25  L   254.96,   701.50  " style="stroke-width: 0.85 ;&st7;  " /><path d=" M   246.46,   701.50  L   263.46,   701.50  " style="stroke-width: 0.85 ;&st7;  " /><path d=" M   250.71,   704.33  L   259.21,   704.33  " style="stroke-width: 0.85 ;&st7;  " /><path d=" M   252.12,   707.17  L   257.79,   707.17  " style="stroke-width: 0.85 ;&st7;  " /><path d=" M   253.54,   710.00  L   256.37,   710.00  " style="stroke-width: 0.85 ;&st7;  " /><path d=" M    42.49,   701.50  L    59.49,   701.50  " style="stroke-width: 0.85 ;&st7;  " /><path d=" M    50.99,   697.25  L    50.99,   701.50  " style="stroke-width: 0.85 ;&st7;  " /><path d=" M    84.99,   697.25  L    84.99,   701.50  " style="stroke-width: 0.85 ;&st7;  " /><path d=" M    76.49,   701.50  L    93.48,   701.50  " style="stroke-width: 0.85 ;&st7;  " /><path d=" M    80.74,   704.33  L    89.24,   704.33  " style="stroke-width: 0.85 ;&st7;  " /><path d=" M    82.15,   707.17  L    87.82,   707.17  " style="stroke-width: 0.85 ;&st7;  " /><path d=" M    83.57,   710.00  L    86.40,   710.00  " style="stroke-width: 0.85 ;&st7;  " /><path d=" M   127.48,    47.11  C   124.74     48.72    123.83     52.25    125.44     54.99  " style="stroke-width: 1.42 ;&st7;   " /><path d=" M   125.44,    54.99  C   125.96     55.87    126.60     56.51    127.48     57.03  " style="stroke-width: 1.42 ;&st7;   " /><path d=" M   127.48,    66.94  C   130.22     65.33    131.13     61.80    129.52     59.06  " style="stroke-width: 1.42 ;&st7;   " /><path d=" M   129.52,    59.06  C   129.00     58.18    128.36     57.55    127.48     57.03  " style="stroke-width: 1.42 ;&st7;   " /><path d=" M   128.90,    45.69  C   128.90     44.91    128.26     44.28    127.48     44.28  " style="stroke-width: 0.85 ;&st7;   " /><path d=" M   127.48,    44.28  C   126.70     44.28    126.06     44.91    126.06     45.69  " style="stroke-width: 0.85 ;&st7;   " /><path d=" M   126.06,    45.69  C   126.06     46.48    126.70     47.11    127.48     47.11  " style="stroke-width: 0.85 ;&st7;   " /><path d=" M   127.48,    47.11  C   128.26     47.11    128.90     46.48    128.90     45.69  " style="stroke-width: 0.85 ;&st7;   " /><path d=" M   128.90,    68.36  C   128.90     67.57    128.26     66.94    127.48     66.94  " style="stroke-width: 0.85 ;&st7;   " /><path d=" M   127.48,    66.94  C   126.70     66.94    126.06     67.57    126.06     68.36  " style="stroke-width: 0.85 ;&st7;   " /><path d=" M   126.06,    68.36  C   126.06     69.14    126.70     69.77    127.48     69.77  " style="stroke-width: 0.85 ;&st7;   " /><path d=" M   127.48,    69.77  C   128.26     69.77    128.90     69.14    128.90     68.36  " style="stroke-width: 0.85 ;&st7;   " /><path d=" M   125.35,    95.27  C   123.01     95.27    121.10     97.17    121.10     99.52  " style="stroke-width: 1.42 ;&st7;   " /><path d=" M   121.10,    99.52  C   121.10    101.87    123.01    103.77    125.35    103.77  " style="stroke-width: 1.42 ;&st7;   " /><path d=" M   129.60,   103.77  C   131.95    103.77    133.85    101.87    133.85     99.52  " style="stroke-width: 1.42 ;&st7;   " /><path d=" M   133.85,    99.52  C   133.85     97.17    131.95     95.27    129.60     95.27  " style="stroke-width: 1.42 ;&st7;   " /><path d=" M   397.31,   137.76  C   394.96    137.76    393.06    139.66    393.06    142.01  " style="stroke-width: 1.42 ;&st7;   " /><path d=" M   393.06,   142.01  C   393.06    144.36    394.96    146.26    397.31    146.26  " style="stroke-width: 1.42 ;&st7;   " /><path d=" M   401.56,   146.26  C   403.90    146.26    405.81    144.36    405.81    142.01  " style="stroke-width: 1.42 ;&st7;   " /><path d=" M   405.81,   142.01  C   405.81    139.66    403.90    137.76    401.56    137.76  " style="stroke-width: 1.42 ;&st7;   " /><path d=" M   422.80,   137.76  C   420.46    137.76    418.56    139.66    418.56    142.01  " style="stroke-width: 1.42 ;&st7;   " /><path d=" M   418.56,   142.01  C   418.56    144.36    420.46    146.26    422.80    146.26  " style="stroke-width: 1.42 ;&st7;   " /><path d=" M   427.05,   146.26  C   429.40    146.26    431.30    144.36    431.30    142.01  " style="stroke-width: 1.42 ;&st7;   " /><path d=" M   431.30,   142.01  C   431.30    139.66    429.40    137.76    427.05    137.76  " style="stroke-width: 1.42 ;&st7;   " /><path d=" M   397.31,   214.25  C   394.96    214.25    393.06    216.15    393.06    218.50  " style="stroke-width: 1.42 ;&st7;   " /><path d=" M   393.06,   218.50  C   393.06    220.85    394.96    222.75    397.31    222.75  " style="stroke-width: 1.42 ;&st7;   " /><path d=" M   401.56,   222.75  C   403.90    222.75    405.81    220.85    405.81    218.50  " style="stroke-width: 1.42 ;&st7;   " /><path d=" M   405.81,   218.50  C   405.81    216.15    403.90    214.25    401.56    214.25  " style="stroke-width: 1.42 ;&st7;   " /><path d=" M   422.80,   214.25  C   420.46    214.25    418.56    216.15    418.56    218.50  " style="stroke-width: 1.42 ;&st7;   " /><path d=" M   418.56,   218.50  C   418.56    220.85    420.46    222.75    422.80    222.75  " style="stroke-width: 1.42 ;&st7;   " /><path d=" M   427.05,   222.75  C   429.40    222.75    431.30    220.85    431.30    218.50  " style="stroke-width: 1.42 ;&st7;   " /><path d=" M   431.30,   218.50  C   431.30    216.15    429.40    214.25    427.05    214.25  " style="stroke-width: 1.42 ;&st7;   " /><path d=" M   396.60,   180.26  C   396.60    179.47    395.97    178.84    395.18    178.84  " style="stroke-width: 0.85 ;&st7;   " /><path d=" M   395.18,   178.84  C   394.40    178.84    393.77    179.47    393.77    180.26  " style="stroke-width: 0.85 ;&st7;   " /><path d=" M   393.77,   180.26  C   393.77    181.04    394.40    181.67    395.18    181.67  " style="stroke-width: 0.85 ;&st7;   " /><path d=" M   395.18,   181.67  C   395.97    181.67    396.60    181.04    396.60    180.26  " style="stroke-width: 0.85 ;&st7;   " /><path d=" M   400.85,   191.59  C   400.85    190.80    400.22    190.17    399.43    190.17  " style="stroke-width: 0.85 ;&st7;   " /><path d=" M   399.43,   190.17  C   398.65    190.17    398.02    190.80    398.02    191.59  " style="stroke-width: 0.85 ;&st7;   " /><path d=" M   398.02,   191.59  C   398.02    192.37    398.65    193.00    399.43    193.00  " style="stroke-width: 0.85 ;&st7;   " /><path d=" M   399.43,   193.00  C   400.22    193.00    400.85    192.37    400.85    191.59  " style="stroke-width: 0.85 ;&st7;   " /><path d=" M   400.85,   168.92  C   400.85    168.14    400.22    167.51    399.43    167.51  " style="stroke-width: 0.85 ;&st7;   " /><path d=" M   399.43,   167.51  C   398.65    167.51    398.02    168.14    398.02    168.92  " style="stroke-width: 0.85 ;&st7;   " /><path d=" M   398.02,   168.92  C   398.02    169.71    398.65    170.34    399.43    170.34  " style="stroke-width: 0.85 ;&st7;   " /><path d=" M   399.43,   170.34  C   400.22    170.34    400.85    169.71    400.85    168.92  " style="stroke-width: 0.85 ;&st7;   " /><path d=" M   422.40,   177.78  C   423.77    179.17    426.01    179.20    427.41    177.83  " style="stroke-width: 0.85 ;&st7;   " /><path d=" M   427.41,   177.83  C   428.80    176.46    428.83    174.22    427.46    172.82  " style="stroke-width: 0.85 ;&st7;   " /><path d=" M   427.46,   172.82  C   426.77    172.11    425.92    171.76    424.93    171.76  " style="stroke-width: 0.85 ;&st7;   " /><path d=" M   422.40,   182.73  C   423.77    184.13    426.01    184.15    427.41    182.78  " style="stroke-width: 0.85 ;&st7;   " /><path d=" M   427.41,   182.78  C   428.80    181.42    428.83    179.17    427.46    177.78  " style="stroke-width: 0.85 ;&st7;   " /><path d=" M   427.46,   177.78  C   426.09    176.38    423.85    176.36    422.45    177.73  " style="stroke-width: 0.85 ;&st7;   " /><path d=" M   422.45,   177.73  C   422.43    177.74    422.42    177.76    422.40    177.78  " style="stroke-width: 0.85 ;&st7;   " /><path d=" M   424.93,   188.75  C   426.88    188.75    428.47    187.17    428.47    185.21  " style="stroke-width: 0.85 ;&st7;   " /><path d=" M   428.47,   185.21  C   428.47    183.26    426.88    181.67    424.93    181.67  " style="stroke-width: 0.85 ;&st7;   " /><path d=" M   424.93,   181.67  C   423.94    181.67    423.09    182.03    422.40    182.73  " style="stroke-width: 0.85 ;&st7;   " /><path d=" M   424.93,    47.11  C   422.19     48.72    421.28     52.25    422.89     54.99  " style="stroke-width: 1.42 ;&st7;   " /><path d=" M   422.89,    54.99  C   423.41     55.87    424.05     56.51    424.93     57.03  " style="stroke-width: 1.42 ;&st7;   " /><path d=" M   424.93,    66.94  C   427.67     65.33    428.58     61.80    426.97     59.06  " style="stroke-width: 1.42 ;&st7;   " /><path d=" M   426.97,    59.06  C   426.45     58.18    425.81     57.55    424.93     57.03  " style="stroke-width: 1.42 ;&st7;   " /><path d=" M   426.35,    45.69  C   426.35     44.91    425.71     44.28    424.93     44.28  " style="stroke-width: 0.85 ;&st7;   " /><path d=" M   424.93,    44.28  C   424.15     44.28    423.51     44.91    423.51     45.69  " style="stroke-width: 0.85 ;&st7;   " /><path d=" M   423.51,    45.69  C   423.51     46.48    424.15     47.11    424.93     47.11  " style="stroke-width: 0.85 ;&st7;   " /><path d=" M   424.93,    47.11  C   425.71     47.11    426.35     46.48    426.35     45.69  " style="stroke-width: 0.85 ;&st7;   " /><path d=" M   426.35,    68.36  C   426.35     67.57    425.71     66.94    424.93     66.94  " style="stroke-width: 0.85 ;&st7;   " /><path d=" M   424.93,    66.94  C   424.15     66.94    423.51     67.57    423.51     68.36  " style="stroke-width: 0.85 ;&st7;   " /><path d=" M   423.51,    68.36  C   423.51     69.14    424.15     69.77    424.93     69.77  " style="stroke-width: 0.85 ;&st7;   " /><path d=" M   424.93,    69.77  C   425.71     69.77    426.35     69.14    426.35     68.36  " style="stroke-width: 0.85 ;&st7;   " /><path d=" M   422.80,    95.27  C   420.46     95.27    418.56     97.17    418.56     99.52  " style="stroke-width: 1.42 ;&st7;   " /><path d=" M   418.56,    99.52  C   418.56    101.87    420.46    103.77    422.80    103.77  " style="stroke-width: 1.42 ;&st7;   " /><path d=" M   427.05,   103.77  C   429.40    103.77    431.30    101.87    431.30     99.52  " style="stroke-width: 1.42 ;&st7;   " /><path d=" M   431.30,    99.52  C   431.30     97.17    429.40     95.27    427.05     95.27  " style="stroke-width: 1.42 ;&st7;   " /><path d=" M   361.19,   176.01  C   358.84    176.01    356.94    177.91    356.94    180.26  " style="stroke-width: 1.42 ;&st7;   " /><path d=" M   356.94,   180.26  C   356.94    182.60    358.84    184.50    361.19    184.50  " style="stroke-width: 1.42 ;&st7;   " /><path d=" M   365.44,   184.50  C   367.79    184.50    369.69    182.60    369.69    180.26  " style="stroke-width: 1.42 ;&st7;   " /><path d=" M   369.69,   180.26  C   369.69    177.91    367.79    176.01    365.44    176.01  " style="stroke-width: 1.42 ;&st7;   " /><text style="&st18;" transform="matrix(&st17;  81.29  653.4 )">W-B</text><text style="&st18;" transform="matrix(&st17;  92.62  655.92 )">(RHD)</text><text style="&st18;" transform="matrix(&st16;  488.64  312.54 )">SB</text><text style="&st18;" transform="matrix(&st16;  490.5  338.03 )">R</text><text style="&st18;" transform="matrix(&st16;  490.5  363.53 )">R</text><text style="&st18;" transform="matrix(&st16;  143.9  56.17 )">10A <tspan dy="6.0" x="0 ">STOP</tspan></text><text style="&st18;" transform="matrix(&st16;  121.14  86.47 )">2</text><text style="&st18;" transform="matrix(&st16;  125.6  101.49 )">1</text><text style="&st18;" transform="matrix(&st16;  119.4  32.08 )">(BAT)</text><text style="&st18;" transform="matrix(&st16;  125.21  187.89 )">B</text><text style="&st18;" transform="matrix(&st16;  121.14  222.44 )">2</text><text style="&st18;" transform="matrix(&st16;  121.14  176.57 )">1</text><text style="&st18;" transform="matrix(&st16;  393.09  205.45 )">3</text><text style="&st18;" transform="matrix(&st16;  418.59  205.45 )">2</text><text style="&st18;" transform="matrix(&st16;  393.09  159.57 )">5</text><text style="&st18;" transform="matrix(&st16;  418.59  159.57 )">1</text><text style="&st18;" transform="matrix(&st16;  397.56  143.98 )">1</text><text style="&st18;" transform="matrix(&st16;  423.05  143.98 )">1</text><text style="&st18;" transform="matrix(&st16;  397.56  220.47 )">1</text><text style="&st18;" transform="matrix(&st16;  423.05  220.47 )">1</text><text style="&st18;" transform="matrix(&st16;  384.6  176.56 )">4</text><text ewd:textID="37" style="&st18;" transform="matrix(&st17;  441.07  197.57 )">STP LP OPE <tspan dy="6.0" x="0 ">Relay</tspan></text><text style="&st18;" transform="matrix(&st16;  441.35  53.34 )">10A <tspan dy="6.0" x="0 ">ENG-IG </tspan><tspan dy="6.0" x="0 ">NO.1</tspan></text><text style="&st18;" transform="matrix(&st16;  419.56  32.08 )">(IG)</text><text style="&st18;" transform="matrix(&st16;  423.05  101.49 )">1</text><text style="&st18;" transform="matrix(&st17;  421.23  122.84 )">G</text><text style="&st18;" transform="matrix(&st17;  123.78  113.65 )">L</text><text style="&st18;" transform="matrix(&st17;  327.75  113.65 )">L</text><text style="&st18;" transform="matrix(&st17;  293.75  114.19 )">R</text><text style="&st18;" transform="matrix(&st17;  208.77  114.19 )">R</text><text style="&st18;" transform="matrix(&st16;  363.56  125.57 )">L</text><text style="&st18;" transform="matrix(&st16;  168.09  125.57 )">L</text><text style="&st18;" transform="matrix(&st16;  325.11  94.96 )">6</text><text style="&st18;" transform="matrix(&st16;  291.11  94.96 )">8</text><text style="&st18;" transform="matrix(&st17;  421.23  239.28 )">SB</text><text style="&st18;" transform="matrix(&st17;  395.74  237.42 )">R</text><text style="&st18;" transform="matrix(&st17;  152.09  217.15 )">A73</text><text style="&st18;" transform="matrix(&st16;  206.13  94.96 )">2</text><text style="&st18;" transform="matrix(&st16;  290.84  83.07 )">OUT</text><text style="&st18;" transform="matrix(&st16;  206.36  83.07 )">STP</text><text style="&st18;" transform="matrix(&st16;  192.05  41.97 )">A39</text><text style="&st18;" transform="matrix(&st17;  123.78  254.41 )">R</text><text style="&st18;" transform="matrix(&st16;  327.47  83.07 )">+B</text><text ewd:textID="47" style="&st18;" transform="matrix(&st16;  192.06  49.08 )">Stop Light Control Relay Assembly</text><text style="&st18;" transform="matrix(&st17;  123.78  160.39 )">L</text><text style="&st18;" transform="matrix(&st16;  44.07  210.55 )">GND</text><text style="&st18;" transform="matrix(&st17;  47.3  258.21 )">W-B</text><text style="&st18;" transform="matrix(&st16;  44.65  222.44 )">3</text><text style="&st18;" transform="matrix(&st16;  125.6  210.55 )">L</text><text style="&st18;" transform="matrix(&st17;  166.28  318.15 )">R</text><text style="&st18;" transform="matrix(&st16;  361.44  182.22 )">1</text><text style="&st18;" transform="matrix(&st17;  251.26  117.99 )">W-B</text><text style="&st18;" transform="matrix(&st16;  248.04  83.07 )">GND</text><text style="&st18;" transform="matrix(&st16;  248.62  94.96 )">4</text><text style="&st18;" transform="matrix(&st17;  251.26  653.4 )">W-B</text><text ewd:textID="48" style="&st18;" transform="matrix(&st17;  159.19  217.16 )">Stop Light <tspan dy="6.0" x="0 ">Switch Assembly</tspan></text><text style="&st18;" transform="matrix(&st16;  418.59  86.47 )">2</text><text style="&st18;" transform="matrix(&st17;  47.3  653.4 )">W-B</text><text style="&st18;" transform="matrix(&st17;  58.63  655.41 )">(LHD)</text></svg>