﻿<?xml version="1.0" encoding="utf-8"?>
<!DOCTYPE svg PUBLIC "-//W3C//DTD SVG 1.0//EN" "http://www.w3.org/TR/2001/REC-SVG-20010904/DTD/svg10.dtd"[
	<!ENTITY ns_flows "http://ns.adobe.com/Flows/1.0/">
	<!ENTITY ns_svg "http://www.w3.org/2000/svg">
	<!ENTITY ns_xlink "http://www.w3.org/1999/xlink">
	<!ENTITY st0 "font-size:7px;font-family:'MS-PGothic';adobe-font-script:japanese;">
	<!ENTITY st1 "font-size:6px;font-family:'ArialMT';">
	<!-- White fill  -->
	<!ENTITY st2 "fill:#FFFFFF;stroke:#000000; stroke-width:1.41;stroke-linecap:round;stroke-linejoin:round;">
	<!-- Yellow fill  -->
	<!ENTITY st3 "fill:#FFFFCC;stroke:#FFFFCC; stroke-width:0.1;stroke-linecap:round;stroke-linejoin:round;">
	<!-- Gray fill  -->
	<!ENTITY st4 "fill:#CCCCCC;stroke:#CCCCCC; stroke-width:0.1;stroke-linecap:round;stroke-linejoin:round;">
	<!-- Light-blue fill -->
	<!ENTITY st5 "fill:#CCECF4;stroke:#000000; stroke-width:1.133;stroke-linecap:round;stroke-linejoin:round;">
	<!ENTITY st6 "fill:none;stroke-linecap:butt; stroke-linejoin:round;">
	<!ENTITY st7 "fill:none;stroke:#000000;stroke-linecap:round;stroke-linejoin:round;">
	<!ENTITY st8 "enable-background:new    ;">
	<!-- Black fill -->
	<!ENTITY st9 "fill:#000000;stroke:#000000; stroke-linecap:round;stroke-linejoin:round;">
	<!-- SRS note   -->
	<!ENTITY st10 "font-size:9px;font-family:'ArialMT';">
	<!ENTITY st11 "font-size:9px;font-family:'Svg Symbol';">
	<!ENTITY st12 "font-size:6px;font-family:'Svg Symbol';">
	<!ENTITY st13 "fill:none;stroke:#ff0000;stroke-linecap:round;stroke-linejoin:round;">
	<!-- Yellow fill  -->
	<!ENTITY st14 "fill:#FFFF00;stroke:#FFFF00; stroke-width:0.1;stroke-linecap:round;stroke-linejoin:round;">
	<!ENTITY st15 "font-size:6px;font-family:'MS-PGothic';adobe-font-script:japanese;">
	<!ENTITY st16 "1.00 0.00 0.00 1.00">
	<!ENTITY st17 "0.00 -1.00 1.00 0.00">
	<!ENTITY st18 "font-size:6px;font-family:'Arial';">
	<!ENTITY st19 "font-size:9px;font-family:'Arial';">
	<!ENTITY st20 "font-size:6px;font-family:'MS-PGothic','MS PGothic';adobe-font-script:japanese;">
	<!ENTITY st21 "font-size:7px;font-family:'MS-PGothic','MS PGothic';adobe-font-script:japanese;">
	<!ATTLIST svg
		xmlns:ewd CDATA #FIXED "http://shcl.co.jp/ewd"
		xmlns:a CDATA #FIXED "http://ns.adobe.com/AdobeSVGViewerExtensions/3.0/"
		ewd:ver CDATA #IMPLIED
	>
	<!ATTLIST a
		ewd:lineID CDATA #IMPLIED
		ewd:groupID CDATA #IMPLIED
		ewd:figtype CDATA #IMPLIED
		ewd:code CDATA #IMPLIED
		ewd:figID CDATA #IMPLIED
		ewd:pinNo CDATA #IMPLIED
		ewd:comment CDATA #IMPLIED >
	<!ATTLIST g
		ewd:lineID CDATA #IMPLIED
		ewd:groupID CDATA #IMPLIED
		ewd:figtype CDATA #IMPLIED
		ewd:code CDATA #IMPLIED
		ewd:figID CDATA #IMPLIED
		ewd:pinNo CDATA #IMPLIED
		ewd:comment CDATA #IMPLIED >
	<!ATTLIST text
		ewd:textID CDATA #IMPLIED >
	<!ATTLIST title
		ewd:textID CDATA #IMPLIED >
]>
<!-- Generator: Shintec Hozumi YS   -->
<svg onload="call_execInitLoadProc_svg('system')" style="overflow:visible;  enable-background:new 0 0 4062.209 710.000" viewBox="0 0 4062.209 710.000" height="710.000" width="4062.209" xml:space="preserve" ewd:ver="L2.3.0.14" xmlns="&ns_svg;" xmlns:a="http://ns.adobe.com/AdobeSVGViewerExtensions/3.0/" xmlns:ewd="http://shcl.co.jp/ewd" xmlns:xlink="&ns_xlink;">
<path d=" M   688.38,   358.73  L   679.89,   358.73  " style="stroke-width: 1.42 ;&st7;  " /><path d=" M   637.39,   358.73  L   628.89,   358.73  " style="stroke-width: 1.42 ;&st7;  " /><path d=" M   781.87,   452.21  L   771.25,   452.21  " style="stroke-width: 0.85 ;&st7;  " /><path d=" M   767.00,   452.21  L   756.37,   452.21  " style="stroke-width: 0.85 ;&st7;  " /><path d=" M   767.00,   447.96  L   767.00,   456.46  " style="stroke-width: 1.42 ;&st7;  " /><path d=" M   771.25,   447.96  L   771.25,   456.46  " style="stroke-width: 1.42 ;&st7;  " /><path d=" M   620.40,   248.24  L   620.40,   299.24  L   909.35,   299.24  L   909.35,   248.24  L   620.40,   248.24  " style="stroke-width: 1.42 ;&st7;  " /><path d=" M   628.89,   248.24  L   628.89,   299.24  " style="stroke-width: 0.85 ;&st7;  " /><path d=" M   679.89,   299.24  L   679.89,   248.24  " style="stroke-width: 0.85 ;&st7;  " /><path d=" M   679.89,   282.24  L   900.85,   282.24  L   900.85,   248.24  " style="stroke-width: 0.85 ;&st7;  " /><path d=" M   628.89,   265.24  L   858.36,   265.24  L   858.36,   248.24  " style="stroke-width: 0.85 ;&st7;  " /><path d=" M   678.69,   281.24  L   678.42,   281.71  L   678.33,   282.24  L   678.42,   282.77  L   678.69,   283.24  L   679.11,   283.59  L   679.61,   283.77  L   680.16,   283.77  L   680.67,   283.59  L   681.08,   283.24  L   681.35,   282.77  L   681.44,   282.24  L   681.35,   281.71  L   681.08,   281.24  L   680.67,   280.89  L   680.16,   280.70  L   679.61,   280.70  L   679.11,   280.89  L   678.69,   281.24  L   679.09,   281.95  L   679.09,   282.53  L   679.46,   282.97  L   680.03,   283.07  L   680.54,   282.79  L   680.74,   282.24  L   680.54,   281.69  L   680.03,   281.40  L   679.46,   281.50  L   679.89,   282.24  " style="stroke-width: 0.85 ;&st7;  " /><path d=" M   627.70,   264.24  L   627.43,   264.71  L   627.34,   265.24  L   627.43,   265.77  L   627.70,   266.24  L   628.12,   266.59  L   628.62,   266.78  L   629.17,   266.78  L   629.67,   266.59  L   630.09,   266.24  L   630.36,   265.77  L   630.45,   265.24  L   630.36,   264.71  L   630.09,   264.24  L   629.67,   263.89  L   629.17,   263.71  L   628.62,   263.71  L   628.12,   263.89  L   627.70,   264.24  L   628.10,   264.95  L   628.10,   265.53  L   628.47,   265.98  L   629.04,   266.08  L   629.55,   265.79  L   629.74,   265.24  L   629.55,   264.69  L   629.04,   264.41  L   628.47,   264.50  L   628.89,   265.24  " style="stroke-width: 0.85 ;&st7;  " /><path d=" M   611.90,   477.71  L   611.90,   418.22  L   815.86,   418.22  L   815.86,   477.71  L   611.90,   477.71  " style="stroke-width: 1.42 ;&st7;  " /><path d=" M   633.14,   367.79  L   628.89,   363.54  L   624.65,   367.79  " style="stroke-width: 1.42 ;&st7;  " /><path d=" M   633.14,   364.39  L   628.89,   360.14  L   624.65,   364.39  " style="stroke-width: 1.42 ;&st7;  " /><path d=" M   684.14,   367.79  L   679.89,   363.54  L   675.64,   367.79  " style="stroke-width: 1.42 ;&st7;  " /><path d=" M   684.14,   364.39  L   679.89,   360.14  L   675.64,   364.39  " style="stroke-width: 1.42 ;&st7;  " /><path d=" M   722.38,   452.21  L   730.88,   452.21  L   732.29,   449.38  L   735.13,   455.04  L   737.96,   449.38  L   740.79,   455.04  L   743.63,   449.38  L   746.46,   455.04  L   747.87,   452.21  L   756.37,   452.21  " style="stroke-width: 0.85 ;&st7;  " /><path d=" M   722.38,   435.21  L   730.88,   435.21  L   732.29,   432.38  L   735.13,   438.05  L   737.96,   432.38  L   740.79,   438.05  L   743.63,   432.38  L   746.46,   438.05  L   747.87,   435.21  L   756.37,   435.21  L   756.37,   452.21  " style="stroke-width: 0.85 ;&st7;  " /><path d=" M   722.38,   452.21  L   628.89,   452.21  " style="stroke-width: 0.85 ;&st7;  " /><path d=" M   722.38,   435.21  L   679.89,   435.21  " style="stroke-width: 0.85 ;&st7;  " /><path d=" M   755.18,   451.21  L   754.91,   451.68  L   754.82,   452.21  L   754.91,   452.74  L   755.18,   453.21  L   755.59,   453.56  L   756.10,   453.75  L   756.65,   453.75  L   757.15,   453.56  L   757.57,   453.21  L   757.84,   452.74  L   757.93,   452.21  L   757.84,   451.68  L   757.57,   451.21  L   757.15,   450.86  L   756.65,   450.67  L   756.10,   450.67  L   755.59,   450.86  L   755.18,   451.21  L   755.57,   451.92  L   755.57,   452.50  L   755.95,   452.95  L   756.52,   453.05  L   757.02,   452.76  L   757.22,   452.21  L   757.02,   451.66  L   756.52,   451.37  L   755.95,   451.47  L   756.37,   452.21  " style="stroke-width: 0.85 ;&st7;  " /><path d=" M   722.38,   426.71  L   722.38,   460.71  L   781.87,   460.71  L   781.87,   426.71  L   722.38,   426.71  " style="stroke-width: 1.42 ;&st7;  " /><path d=" M   688.38,   418.22  L   688.38,   477.71  " style="stroke-width: 1.42 ;&st7;  " /><path d=" M   781.87,   452.21  L   798.87,   452.21  L   798.87,   477.71  " style="stroke-width: 0.85 ;&st7;  " /><path d=" M   796.03,   707.17  L   801.70,   707.17  " style="stroke-width: 0.85 ;&st7;  " /><path d=" M   794.62,   704.33  L   803.12,   704.33  " style="stroke-width: 0.85 ;&st7;  " /><path d=" M   790.37,   701.50  L   807.36,   701.50  " style="stroke-width: 0.85 ;&st7;  " /><path d=" M   798.87,   697.25  L   798.87,   701.50  " style="stroke-width: 0.85 ;&st7;  " /><path d=" M   797.45,   710.00  L   800.28,   710.00  " style="stroke-width: 0.85 ;&st7;  " /><path d=" M   611.90,   137.76  L   611.90,   180.26  L   696.88,   180.26  L   696.88,   137.76  L   611.90,   137.76  " style="stroke-width: 1.42 ;&st7;  " /><path d=" M   628.89,   477.71  L   628.89,   418.22  " style="stroke-width: 0.85 ;&st7;  " /><path d=" M   679.89,   477.71  L   679.89,   418.22  " style="stroke-width: 0.85 ;&st7;  " /><path d=" M   627.70,   451.21  L   627.43,   451.68  L   627.34,   452.21  L   627.43,   452.74  L   627.70,   453.21  L   628.12,   453.56  L   628.62,   453.75  L   629.17,   453.75  L   629.67,   453.56  L   630.09,   453.21  L   630.36,   452.74  L   630.45,   452.21  L   630.36,   451.68  L   630.09,   451.21  L   629.67,   450.86  L   629.17,   450.67  L   628.62,   450.67  L   628.12,   450.86  L   627.70,   451.21  L   628.10,   451.92  L   628.10,   452.50  L   628.47,   452.95  L   629.04,   453.05  L   629.55,   452.76  L   629.74,   452.21  L   629.55,   451.66  L   629.04,   451.37  L   628.47,   451.47  L   628.89,   452.21  " style="stroke-width: 0.85 ;&st7;  " /><path d=" M   678.69,   434.21  L   678.42,   434.68  L   678.33,   435.21  L   678.42,   435.75  L   678.69,   436.22  L   679.11,   436.56  L   679.61,   436.75  L   680.16,   436.75  L   680.67,   436.56  L   681.08,   436.22  L   681.35,   435.75  L   681.44,   435.21  L   681.35,   434.68  L   681.08,   434.21  L   680.67,   433.86  L   680.16,   433.68  L   679.61,   433.68  L   679.11,   433.86  L   678.69,   434.21  L   679.09,   434.92  L   679.09,   435.50  L   679.46,   435.95  L   680.03,   436.05  L   680.54,   435.76  L   680.74,   435.21  L   680.54,   434.67  L   680.03,   434.38  L   679.46,   434.48  L   679.89,   435.21  " style="stroke-width: 0.85 ;&st7;  " /><path d=" M   611.90,   537.20  L   611.90,   571.19  L   696.88,   571.19  L   696.88,   537.20  L   611.90,   537.20  " style="stroke-width: 1.42 ;&st7;  " /><path d=" M   841.36,   401.22  L   841.36,   358.73  L   917.85,   358.73  L   917.85,   401.22  L   841.36,   401.22  " style="stroke-width: 1.42 ;&st7;  " /><path d=" M   858.36,   265.24  L   858.36,   299.24  " style="stroke-width: 0.85 ;&st7;  " /><path d=" M   900.85,   282.24  L   900.85,   299.24  " style="stroke-width: 0.85 ;&st7;  " /><path d=" M   857.16,   264.24  L   856.89,   264.71  L   856.80,   265.24  L   856.89,   265.77  L   857.16,   266.24  L   857.58,   266.59  L   858.08,   266.78  L   858.63,   266.78  L   859.14,   266.59  L   859.55,   266.24  L   859.82,   265.77  L   859.91,   265.24  L   859.82,   264.71  L   859.55,   264.24  L   859.14,   263.89  L   858.63,   263.71  L   858.08,   263.71  L   857.58,   263.89  L   857.16,   264.24  L   857.56,   264.95  L   857.56,   265.53  L   857.93,   265.98  L   858.50,   266.08  L   859.01,   265.79  L   859.21,   265.24  L   859.01,   264.69  L   858.50,   264.41  L   857.93,   264.50  L   858.36,   265.24  " style="stroke-width: 0.85 ;&st7;  " /><path d=" M   899.66,   281.24  L   899.38,   281.71  L   899.29,   282.24  L   899.38,   282.77  L   899.66,   283.24  L   900.07,   283.59  L   900.58,   283.77  L   901.12,   283.77  L   901.63,   283.59  L   902.04,   283.24  L   902.31,   282.77  L   902.41,   282.24  L   902.31,   281.71  L   902.04,   281.24  L   901.63,   280.89  L   901.12,   280.70  L   900.58,   280.70  L   900.07,   280.89  L   899.66,   281.24  L   900.05,   281.95  L   900.05,   282.53  L   900.42,   282.97  L   901.00,   283.07  L   901.50,   282.79  L   901.70,   282.24  L   901.50,   281.69  L   901.00,   281.40  L   900.42,   281.50  L   900.85,   282.24  " style="stroke-width: 0.85 ;&st7;  " /><path d=" M   633.43,   184.79  C   633.43    182.28    631.40    180.26    628.89    180.26  " style="stroke-width: 1.42 ;&st7;   " /><path d=" M   628.89,   180.26  C   626.39    180.26    624.36    182.28    624.36    184.79  " style="stroke-width: 1.42 ;&st7;   " /><path d=" M   624.36,   184.79  C   624.36    187.29    626.39    189.32    628.89    189.32  " style="stroke-width: 1.42 ;&st7;   " /><path d=" M   628.89,   189.32  C   631.40    189.32    633.43    187.29    633.43    184.79  " style="stroke-width: 1.42 ;&st7;   " /><path d=" M   633.43,   482.24  C   633.43    479.73    631.40    477.71    628.89    477.71  " style="stroke-width: 1.42 ;&st7;   " /><path d=" M   628.89,   477.71  C   626.39    477.71    624.36    479.73    624.36    482.24  " style="stroke-width: 1.42 ;&st7;   " /><path d=" M   624.36,   482.24  C   624.36    484.74    626.39    486.77    628.89    486.77  " style="stroke-width: 1.42 ;&st7;   " /><path d=" M   628.89,   486.77  C   631.40    486.77    633.43    484.74    633.43    482.24  " style="stroke-width: 1.42 ;&st7;   " /><path d=" M   684.42,   482.24  C   684.42    479.73    682.39    477.71    679.89    477.71  " style="stroke-width: 1.42 ;&st7;   " /><path d=" M   679.89,   477.71  C   677.38    477.71    675.35    479.73    675.35    482.24  " style="stroke-width: 1.42 ;&st7;   " /><path d=" M   675.35,   482.24  C   675.35    484.74    677.38    486.77    679.89    486.77  " style="stroke-width: 1.42 ;&st7;   " /><path d=" M   679.89,   486.77  C   682.39    486.77    684.42    484.74    684.42    482.24  " style="stroke-width: 1.42 ;&st7;   " /><path d=" M   633.43,   532.66  C   633.43    530.16    631.40    528.13    628.89    528.13  " style="stroke-width: 1.42 ;&st7;   " /><path d=" M   628.89,   528.13  C   626.39    528.13    624.36    530.16    624.36    532.66  " style="stroke-width: 1.42 ;&st7;   " /><path d=" M   624.36,   532.66  C   624.36    535.17    626.39    537.20    628.89    537.20  " style="stroke-width: 1.42 ;&st7;   " /><path d=" M   628.89,   537.20  C   631.40    537.20    633.43    535.17    633.43    532.66  " style="stroke-width: 1.42 ;&st7;   " /><path d=" M   684.42,   532.66  C   684.42    530.16    682.39    528.13    679.89    528.13  " style="stroke-width: 1.42 ;&st7;   " /><path d=" M   679.89,   528.13  C   677.38    528.13    675.35    530.16    675.35    532.66  " style="stroke-width: 1.42 ;&st7;   " /><path d=" M   675.35,   532.66  C   675.35    535.17    677.38    537.20    679.89    537.20  " style="stroke-width: 1.42 ;&st7;   " /><path d=" M   679.89,   537.20  C   682.39    537.20    684.42    535.17    684.42    532.66  " style="stroke-width: 1.42 ;&st7;   " /><path d=" M   684.42,   184.79  C   684.42    182.28    682.39    180.26    679.89    180.26  " style="stroke-width: 1.42 ;&st7;   " /><path d=" M   679.89,   180.26  C   677.38    180.26    675.35    182.28    675.35    184.79  " style="stroke-width: 1.42 ;&st7;   " /><path d=" M   675.35,   184.79  C   675.35    187.29    677.38    189.32    679.89    189.32  " style="stroke-width: 1.42 ;&st7;   " /><path d=" M   679.89,   189.32  C   682.39    189.32    684.42    187.29    684.42    184.79  " style="stroke-width: 1.42 ;&st7;   " /><path d=" M   803.40,   482.24  C   803.40    479.73    801.37    477.71    798.87    477.71  " style="stroke-width: 1.42 ;&st7;   " /><path d=" M   798.87,   477.71  C   796.36    477.71    794.33    479.73    794.33    482.24  " style="stroke-width: 1.42 ;&st7;   " /><path d=" M   794.33,   482.24  C   794.33    484.74    796.36    486.77    798.87    486.77  " style="stroke-width: 1.42 ;&st7;   " /><path d=" M   798.87,   486.77  C   801.37    486.77    803.40    484.74    803.40    482.24  " style="stroke-width: 1.42 ;&st7;   " /><path d=" M   633.43,   413.68  C   633.43    411.18    631.40    409.15    628.89    409.15  " style="stroke-width: 1.42 ;&st7;   " /><path d=" M   628.89,   409.15  C   626.39    409.15    624.36    411.18    624.36    413.68  " style="stroke-width: 1.42 ;&st7;   " /><path d=" M   624.36,   413.68  C   624.36    416.19    626.39    418.22    628.89    418.22  " style="stroke-width: 1.42 ;&st7;   " /><path d=" M   628.89,   418.22  C   631.40    418.22    633.43    416.19    633.43    413.68  " style="stroke-width: 1.42 ;&st7;   " /><path d=" M   684.42,   413.68  C   684.42    411.18    682.39    409.15    679.89    409.15  " style="stroke-width: 1.42 ;&st7;   " /><path d=" M   679.89,   409.15  C   677.38    409.15    675.35    411.18    675.35    413.68  " style="stroke-width: 1.42 ;&st7;   " /><path d=" M   675.35,   413.68  C   675.35    416.19    677.38    418.22    679.89    418.22  " style="stroke-width: 1.42 ;&st7;   " /><path d=" M   679.89,   418.22  C   682.39    418.22    684.42    416.19    684.42    413.68  " style="stroke-width: 1.42 ;&st7;   " /><text style="&st18;" transform="matrix(&st16;  670.41  186.76 )">1</text><text style="&st18;" transform="matrix(&st16;  619.22  244.55 )">13</text><text style="&st18;" transform="matrix(&st16;  619.22  307.43 )">14</text><text style="&st18;" transform="matrix(&st16;  673.55  244.55 )">2</text><text style="&st18;" transform="matrix(&st16;  673.55  307.43 )">3</text><text style="&st18;" transform="matrix(&st16;  848.68  244.55 )">12</text><text style="&st18;" transform="matrix(&st16;  894.51  244.55 )">1</text><text style="&st18;" transform="matrix(&st17;  625.2  398.35 )">L</text><text style="&st18;" transform="matrix(&st17;  676.19  399.67 )">W</text><text style="&st18;" transform="matrix(&st16;  615.48  356.45 )">2</text><text style="&st18;" transform="matrix(&st16;  666.47  356.45 )">1</text><text style="&st18;" transform="matrix(&st16;  608.49  126.96 )">E42(B)</text><text style="&st18;" transform="matrix(&st16;  716.04  431.52 )">2</text><text style="&st18;" transform="matrix(&st16;  716.04  448.52 )">3</text><text ewd:textID="41" style="&st18;" transform="matrix(&st16;  732.52  468.34 )">ST-Plug</text><text style="&st18;" transform="matrix(&st16;  789.39  484.21 )">1</text><text style="&st18;" transform="matrix(&st16;  796.6  484.21 )">A</text><text style="&st18;" transform="matrix(&st16;  619.41  415.65 )">2</text><text style="&st18;" transform="matrix(&st16;  626.63  415.65 )">B</text><text style="&st18;" transform="matrix(&st16;  670.41  415.65 )">1</text><text style="&st18;" transform="matrix(&st16;  677.62  415.65 )">B</text><text style="&st18;" transform="matrix(&st16;  784.45  448.52 )">1</text><text style="&st18;" transform="matrix(&st17;  795.17  593.91 )">W-B</text><text style="&st18;" transform="matrix(&st16;  693.47  306.85 )">E71</text><text ewd:textID="28" style="&st18;" transform="matrix(&st16;  693.48  313.95 )">Junction Connector</text><text style="&st18;" transform="matrix(&st16;  848.68  307.43 )">15</text><text style="&st18;" transform="matrix(&st16;  894.51  355.04 )">1</text><text style="&st18;" transform="matrix(&st16;  852.02  355.04 )">2</text><text style="&st18;" transform="matrix(&st16;  850.08  366.36 )">CANL</text><text style="&st18;" transform="matrix(&st16;  892.07  366.36 )">CANH</text><text style="&st18;" transform="matrix(&st16;  846.45  408.83 )">E102</text><text ewd:textID="40" style="&st18;" transform="matrix(&st16;  846.45  415.94 )">Power Steering <tspan dy="6.0" x="0 ">ECU Assembly</tspan></text><text style="&st18;" transform="matrix(&st17;  854.66  334.61 )">L</text><text style="&st18;" transform="matrix(&st17;  897.15  336.97 )">LG</text><text style="&st18;" transform="matrix(&st16;  894.51  307.43 )">4</text><text style="&st18;" transform="matrix(&st17;  676.19  216.33 )">G</text><text style="&st18;" transform="matrix(&st17;  625.2  215.63 )">L</text><text style="&st18;" transform="matrix(&st16;  620.62  176.56 )">CANL</text><text style="&st18;" transform="matrix(&st16;  619.41  186.76 )">2</text><text ewd:textID="42" style="&st18;" transform="matrix(&st16;  608.49  134.07 )">Seat Belt Control ECU</text><text style="&st18;" transform="matrix(&st16;  626.63  186.76 )">B</text><text style="&st18;" transform="matrix(&st16;  677.62  186.76 )">B</text><text style="&st18;" transform="matrix(&st16;  671.11  176.56 )">CANH</text><text style="&st18;" transform="matrix(&st17;  897.15  216.95 )">W</text><text style="&st18;" transform="matrix(&st17;  854.66  215.63 )">L</text><text style="&st18;" transform="matrix(&st17;  625.2  334.61 )">L</text><text style="&st18;" transform="matrix(&st17;  676.19  335.93 )">W</text><text ewd:textID="28" style="&st18;" transform="matrix(&st16;  718.97  414.52 )">Junction Connector</text><text style="&st18;" transform="matrix(&st16;  718.97  407.41 )">K28(A),K29(B),K39(C)</text><text style="&st18;" transform="matrix(&st16;  619.41  484.21 )">2</text><text style="&st18;" transform="matrix(&st16;  626.47  484.21 )">C</text><text style="&st18;" transform="matrix(&st16;  670.41  484.21 )">1</text><text style="&st18;" transform="matrix(&st16;  677.47  484.21 )">C</text><text style="&st18;" transform="matrix(&st16;  619.41  534.63 )">8</text><text style="&st18;" transform="matrix(&st16;  626.63  534.63 )">A</text><text style="&st18;" transform="matrix(&st16;  670.41  534.63 )">7</text><text style="&st18;" transform="matrix(&st16;  677.62  534.63 )">A</text><text style="&st18;" transform="matrix(&st16;  620.62  544.83 )">CANL</text><text style="&st18;" transform="matrix(&st16;  671.11  544.83 )">CANH</text><text style="&st18;" transform="matrix(&st17;  676.19  504.97 )">V</text><text style="&st18;" transform="matrix(&st17;  625.2  504.58 )">L</text><text ewd:textID="46" style="&st18;" transform="matrix(&st16;  699.14  554.75 )">Suspension <tspan dy="6.0" x="0 ">Control ECU</tspan></text><text style="&st18;" transform="matrix(&st16;  699.14  547.64 )">K34(A)</text><text style="&st18;" transform="matrix(&st16;  539.47  626.98 )">BR</text><text style="&st18;" transform="matrix(&st16;  542.03  49.08 )">L</text><text style="&st18;" transform="matrix(&st16;  539.63  32.08 )">SB</text><text style="&st18;" transform="matrix(&st16;  541.64  643.98 )">B</text></svg>