﻿<?xml version="1.0" encoding="utf-8"?>
<!DOCTYPE svg PUBLIC "-//W3C//DTD SVG 1.0//EN" "http://www.w3.org/TR/2001/REC-SVG-20010904/DTD/svg10.dtd"[
	<!ENTITY ns_flows "http://ns.adobe.com/Flows/1.0/">
	<!ENTITY ns_svg "http://www.w3.org/2000/svg">
	<!ENTITY ns_xlink "http://www.w3.org/1999/xlink">
	<!ENTITY st0 "font-size:7px;font-family:'MS-PGothic';adobe-font-script:japanese;">
	<!ENTITY st1 "font-size:6px;font-family:'ArialMT';">
	<!-- White fill  -->
	<!ENTITY st2 "fill:#FFFFFF;stroke:#000000; stroke-width:1.41;stroke-linecap:round;stroke-linejoin:round;">
	<!-- Yellow fill  -->
	<!ENTITY st3 "fill:#FFFFCC;stroke:#FFFFCC; stroke-width:0.1;stroke-linecap:round;stroke-linejoin:round;">
	<!-- Gray fill  -->
	<!ENTITY st4 "fill:#CCCCCC;stroke:#CCCCCC; stroke-width:0.1;stroke-linecap:round;stroke-linejoin:round;">
	<!-- Light-blue fill -->
	<!ENTITY st5 "fill:#CCECF4;stroke:#000000; stroke-width:1.133;stroke-linecap:round;stroke-linejoin:round;">
	<!ENTITY st6 "fill:none;stroke-linecap:butt; stroke-linejoin:round;">
	<!ENTITY st7 "fill:none;stroke:#000000;stroke-linecap:round;stroke-linejoin:round;">
	<!ENTITY st8 "enable-background:new    ;">
	<!-- Black fill -->
	<!ENTITY st9 "fill:#000000;stroke:#000000; stroke-linecap:round;stroke-linejoin:round;">
	<!-- SRS note   -->
	<!ENTITY st10 "font-size:9px;font-family:'ArialMT';">
	<!ENTITY st11 "font-size:9px;font-family:'Svg Symbol';">
	<!ENTITY st12 "font-size:6px;font-family:'Svg Symbol';">
	<!ENTITY st13 "fill:none;stroke:#ff0000;stroke-linecap:round;stroke-linejoin:round;">
	<!-- Yellow fill  -->
	<!ENTITY st14 "fill:#FFFF00;stroke:#FFFF00; stroke-width:0.1;stroke-linecap:round;stroke-linejoin:round;">
	<!ENTITY st15 "font-size:6px;font-family:'MS-PGothic';adobe-font-script:japanese;">
	<!ENTITY st16 "1.00 0.00 0.00 1.00">
	<!ENTITY st17 "0.00 -1.00 1.00 0.00">
	<!ENTITY st18 "font-size:6px;font-family:'Arial';">
	<!ENTITY st19 "font-size:9px;font-family:'Arial';">
	<!ENTITY st20 "font-size:6px;font-family:'MS-PGothic','MS PGothic';adobe-font-script:japanese;">
	<!ENTITY st21 "font-size:7px;font-family:'MS-PGothic','MS PGothic';adobe-font-script:japanese;">
	<!ATTLIST svg
		xmlns:ewd CDATA #FIXED "http://shcl.co.jp/ewd"
		xmlns:a CDATA #FIXED "http://ns.adobe.com/AdobeSVGViewerExtensions/3.0/"
		ewd:ver CDATA #IMPLIED
	>
	<!ATTLIST a
		ewd:lineID CDATA #IMPLIED
		ewd:groupID CDATA #IMPLIED
		ewd:figtype CDATA #IMPLIED
		ewd:code CDATA #IMPLIED
		ewd:figID CDATA #IMPLIED
		ewd:pinNo CDATA #IMPLIED
		ewd:comment CDATA #IMPLIED >
	<!ATTLIST g
		ewd:lineID CDATA #IMPLIED
		ewd:groupID CDATA #IMPLIED
		ewd:figtype CDATA #IMPLIED
		ewd:code CDATA #IMPLIED
		ewd:figID CDATA #IMPLIED
		ewd:pinNo CDATA #IMPLIED
		ewd:comment CDATA #IMPLIED >
	<!ATTLIST text
		ewd:textID CDATA #IMPLIED >
	<!ATTLIST title
		ewd:textID CDATA #IMPLIED >
]>
<!-- Generator: Shintec Hozumi YS   -->
<svg onload="call_execInitLoadProc_svg('system')" style="overflow:visible;  enable-background:new 0 0 4062.209 710.000" viewBox="0 0 4062.209 710.000" height="710.000" width="4062.209" xml:space="preserve" ewd:ver="L2.3.0.14" xmlns="&ns_svg;" xmlns:a="http://ns.adobe.com/AdobeSVGViewerExtensions/3.0/" xmlns:ewd="http://shcl.co.jp/ewd" xmlns:xlink="&ns_xlink;">
<path d=" M  3305.95,   426.71  L  3297.45,   426.71  " style="stroke-width: 1.42 ;&st7;  " /><path d=" M  3263.45,   426.71  L  3254.96,   426.71  " style="stroke-width: 1.42 ;&st7;  " /><path d=" M  3305.95,   350.23  L  3297.45,   350.23  " style="stroke-width: 1.42 ;&st7;  " /><path d=" M  3263.45,   350.23  L  3254.96,   350.23  " style="stroke-width: 1.42 ;&st7;  " /><path d=" M  3301.70,   432.38  L  3297.45,   428.13  L  3293.20,   432.38  " style="stroke-width: 1.42 ;&st7;  " /><path d=" M  3301.70,   435.78  L  3297.45,   431.53  L  3293.20,   435.78  " style="stroke-width: 1.42 ;&st7;  " /><path d=" M  3339.94,   418.22  L  3339.94,   443.71  L  3586.40,   443.71  L  3586.40,   418.22  L  3339.94,   418.22  " style="stroke-width: 1.42 ;&st7;  " /><path d=" M  3008.50,   239.75  L  3008.50,   290.74  L  3305.95,   290.74  L  3305.95,   239.75  L  3008.50,   239.75  " style="stroke-width: 1.42 ;&st7;  " /><path d=" M  3016.99,   290.74  L  3016.99,   256.74  L  3297.45,   256.74  " style="stroke-width: 0.85 ;&st7;  " /><path d=" M  3059.49,   290.74  L  3059.49,   273.74  L  3254.95,   273.74  " style="stroke-width: 0.85 ;&st7;  " /><path d=" M  3203.96,   290.74  L  3203.96,   256.74  " style="stroke-width: 0.85 ;&st7;  " /><path d=" M  3484.42,   418.22  L  3484.42,   426.71  " style="stroke-width: 0.85 ;&st7;  " /><path d=" M  3441.92,   418.22  L  3441.92,   435.21  " style="stroke-width: 0.85 ;&st7;  " /><path d=" M  3259.20,   432.38  L  3254.95,   428.13  L  3250.71,   432.38  " style="stroke-width: 1.42 ;&st7;  " /><path d=" M  3259.20,   435.78  L  3254.95,   431.53  L  3250.71,   435.78  " style="stroke-width: 1.42 ;&st7;  " /><path d=" M  3202.77,   255.74  L  3202.50,   256.21  L  3202.41,   256.74  L  3202.50,   257.28  L  3202.77,   257.75  L  3203.18,   258.09  L  3203.69,   258.28  L  3204.23,   258.28  L  3204.74,   258.09  L  3205.16,   257.75  L  3205.43,   257.28  L  3205.52,   256.74  L  3205.43,   256.21  L  3205.16,   255.74  L  3204.74,   255.39  L  3204.23,   255.21  L  3203.69,   255.21  L  3203.18,   255.39  L  3202.77,   255.74  L  3203.16,   256.45  L  3203.16,   257.03  L  3203.54,   257.48  L  3204.11,   257.58  L  3204.61,   257.29  L  3204.81,   256.74  L  3204.61,   256.20  L  3204.11,   255.91  L  3203.54,   256.01  L  3203.96,   256.74  " style="stroke-width: 0.85 ;&st7;  " /><path d=" M  3253.76,   272.74  L  3253.49,   273.21  L  3253.40,   273.74  L  3253.49,   274.27  L  3253.76,   274.74  L  3254.18,   275.09  L  3254.69,   275.28  L  3255.22,   275.28  L  3255.73,   275.09  L  3256.15,   274.74  L  3256.42,   274.27  L  3256.51,   273.74  L  3256.42,   273.21  L  3256.15,   272.74  L  3255.73,   272.39  L  3255.22,   272.20  L  3254.69,   272.20  L  3254.18,   272.39  L  3253.76,   272.74  L  3254.16,   273.45  L  3254.16,   274.03  L  3254.53,   274.48  L  3255.10,   274.58  L  3255.61,   274.29  L  3255.80,   273.74  L  3255.61,   273.19  L  3255.10,   272.90  L  3254.53,   273.00  L  3254.95,   273.74  " style="stroke-width: 0.85 ;&st7;  " /><path d=" M  3144.47,   418.22  L  3144.47,   452.21  L  3220.96,   452.21  L  3220.96,   418.22  L  3144.47,   418.22  " style="stroke-width: 1.42 ;&st7;  " /><path d=" M  3301.70,   355.89  L  3297.45,   351.64  L  3293.20,   355.89  " style="stroke-width: 1.42 ;&st7;  " /><path d=" M  3301.70,   359.29  L  3297.45,   355.04  L  3293.20,   359.29  " style="stroke-width: 1.42 ;&st7;  " /><path d=" M  3259.20,   355.89  L  3254.95,   351.64  L  3250.71,   355.89  " style="stroke-width: 1.42 ;&st7;  " /><path d=" M  3259.20,   359.29  L  3254.95,   355.04  L  3250.71,   359.29  " style="stroke-width: 1.42 ;&st7;  " /><path d=" M  3158.64,   707.17  L  3164.30,   707.17  " style="stroke-width: 0.85 ;&st7;  " /><path d=" M  3157.22,   704.33  L  3165.72,   704.33  " style="stroke-width: 0.85 ;&st7;  " /><path d=" M  3152.97,   701.50  L  3169.97,   701.50  " style="stroke-width: 0.85 ;&st7;  " /><path d=" M  3161.47,   697.25  L  3161.47,   701.50  " style="stroke-width: 0.85 ;&st7;  " /><path d=" M  3160.05,   710.00  L  3162.89,   710.00  " style="stroke-width: 0.85 ;&st7;  " /><path d=" M  3152.97,   545.69  L  3152.97,   562.69  L  3169.97,   562.69  L  3169.97,   545.69  L  3152.97,   545.69  " style="stroke-width: 1.42 ;&st7;  " /><path d=" M  3161.47,   545.69  L  3161.47,   562.69  " style="stroke-width: 0.85 ;&st7;  " /><path d=" M  3160.28,   272.74  L  3160.01,   273.21  L  3159.91,   273.74  L  3160.01,   274.27  L  3160.28,   274.74  L  3160.69,   275.09  L  3161.20,   275.28  L  3161.74,   275.28  L  3162.25,   275.09  L  3162.66,   274.74  L  3162.94,   274.27  L  3163.03,   273.74  L  3162.94,   273.21  L  3162.66,   272.74  L  3162.25,   272.39  L  3161.74,   272.20  L  3161.20,   272.20  L  3160.69,   272.39  L  3160.28,   272.74  L  3160.67,   273.45  L  3160.67,   274.03  L  3161.05,   274.48  L  3161.62,   274.58  L  3162.12,   274.29  L  3162.32,   273.74  L  3162.12,   273.19  L  3161.62,   272.90  L  3161.05,   273.00  L  3161.47,   273.74  " style="stroke-width: 0.85 ;&st7;  " /><path d=" M  3296.26,   255.74  L  3295.98,   256.21  L  3295.89,   256.74  L  3295.98,   257.28  L  3296.26,   257.75  L  3296.67,   258.09  L  3297.18,   258.28  L  3297.72,   258.28  L  3298.23,   258.09  L  3298.64,   257.75  L  3298.91,   257.28  L  3299.01,   256.74  L  3298.91,   256.21  L  3298.64,   255.74  L  3298.23,   255.39  L  3297.72,   255.21  L  3297.18,   255.21  L  3296.67,   255.39  L  3296.26,   255.74  L  3296.65,   256.45  L  3296.65,   257.03  L  3297.02,   257.48  L  3297.59,   257.58  L  3298.10,   257.29  L  3298.30,   256.74  L  3298.10,   256.20  L  3297.59,   255.91  L  3297.02,   256.01  L  3297.45,   256.74  " style="stroke-width: 0.85 ;&st7;  " /><path d=" M  3297.45,   290.74  L  3297.45,   239.75  " style="stroke-width: 0.85 ;&st7;  " /><path d=" M  3254.95,   290.74  L  3254.95,   239.75  " style="stroke-width: 0.85 ;&st7;  " /><path d=" M  3237.96,   103.77  L  3237.96,   137.76  L  3314.44,   137.76  L  3314.44,   103.77  L  3237.96,   103.77  " style="stroke-width: 1.42 ;&st7;  " /><path d=" M  3331.44,   256.74  L  3331.44,   290.74  L  3407.93,   290.74  L  3407.93,   256.74  L  3331.44,   256.74  " style="stroke-width: 1.42 ;&st7;  " /><path d=" M  3348.44,   418.22  L  3348.44,   435.21  L  3535.41,   435.21  " style="stroke-width: 0.85 ;&st7;  " /><path d=" M  3390.93,   418.22  L  3390.93,   426.71  L  3577.90,   426.71  " style="stroke-width: 0.85 ;&st7;  " /><path d=" M  3424.93,   256.74  L  3424.93,   290.74  L  3501.41,   290.74  L  3501.41,   256.74  L  3424.93,   256.74  " style="stroke-width: 1.42 ;&st7;  " /><path d=" M  3161.47,   290.74  L  3161.47,   273.74  " style="stroke-width: 0.85 ;&st7;  " /><path d=" M  3483.22,   425.71  L  3482.95,   426.18  L  3482.86,   426.71  L  3482.95,   427.25  L  3483.22,   427.72  L  3483.64,   428.06  L  3484.15,   428.25  L  3484.69,   428.25  L  3485.20,   428.06  L  3485.61,   427.72  L  3485.88,   427.25  L  3485.97,   426.71  L  3485.88,   426.18  L  3485.61,   425.71  L  3485.20,   425.37  L  3484.69,   425.18  L  3484.15,   425.18  L  3483.64,   425.37  L  3483.22,   425.71  L  3483.62,   426.42  L  3483.62,   427.01  L  3483.99,   427.45  L  3484.56,   427.55  L  3485.07,   427.26  L  3485.27,   426.71  L  3485.07,   426.17  L  3484.56,   425.88  L  3483.99,   425.98  L  3484.42,   426.71  " style="stroke-width: 0.85 ;&st7;  " /><path d=" M  3440.73,   434.21  L  3440.46,   434.68  L  3440.37,   435.21  L  3440.46,   435.75  L  3440.73,   436.22  L  3441.14,   436.56  L  3441.65,   436.75  L  3442.19,   436.75  L  3442.70,   436.56  L  3443.12,   436.22  L  3443.39,   435.75  L  3443.48,   435.21  L  3443.39,   434.68  L  3443.12,   434.21  L  3442.70,   433.86  L  3442.19,   433.68  L  3441.65,   433.68  L  3441.14,   433.86  L  3440.73,   434.21  L  3441.12,   434.92  L  3441.12,   435.50  L  3441.50,   435.95  L  3442.07,   436.05  L  3442.58,   435.76  L  3442.77,   435.21  L  3442.58,   434.67  L  3442.07,   434.38  L  3441.50,   434.48  L  3441.92,   435.21  " style="stroke-width: 0.85 ;&st7;  " /><path d=" M  3259.49,   142.29  C  3259.49    139.79   3257.46    137.76   3254.96    137.76  " style="stroke-width: 1.42 ;&st7;   " /><path d=" M  3254.96,   137.76  C  3252.45    137.76   3250.42    139.79   3250.42    142.29  " style="stroke-width: 1.42 ;&st7;   " /><path d=" M  3250.42,   142.29  C  3250.42    144.80   3252.45    146.83   3254.96    146.83  " style="stroke-width: 1.42 ;&st7;   " /><path d=" M  3254.96,   146.83  C  3257.46    146.83   3259.49    144.80   3259.49    142.29  " style="stroke-width: 1.42 ;&st7;   " /><path d=" M  3301.98,   142.29  C  3301.98    139.79   3299.95    137.76   3297.45    137.76  " style="stroke-width: 1.42 ;&st7;   " /><path d=" M  3297.45,   137.76  C  3294.95    137.76   3292.92    139.79   3292.92    142.29  " style="stroke-width: 1.42 ;&st7;   " /><path d=" M  3292.92,   142.29  C  3292.92    144.80   3294.95    146.83   3297.45    146.83  " style="stroke-width: 1.42 ;&st7;   " /><path d=" M  3297.45,   146.83  C  3299.95    146.83   3301.98    144.80   3301.98    142.29  " style="stroke-width: 1.42 ;&st7;   " /><path d=" M  3352.97,   413.68  C  3352.97    411.18   3350.94    409.15   3348.44    409.15  " style="stroke-width: 1.42 ;&st7;   " /><path d=" M  3348.44,   409.15  C  3345.94    409.15   3343.91    411.18   3343.91    413.68  " style="stroke-width: 1.42 ;&st7;   " /><path d=" M  3343.91,   413.68  C  3343.91    416.19   3345.94    418.22   3348.44    418.22  " style="stroke-width: 1.42 ;&st7;   " /><path d=" M  3348.44,   418.22  C  3350.94    418.22   3352.97    416.19   3352.97    413.68  " style="stroke-width: 1.42 ;&st7;   " /><path d=" M  3395.47,   413.68  C  3395.47    411.18   3393.44    409.15   3390.93    409.15  " style="stroke-width: 1.42 ;&st7;   " /><path d=" M  3390.93,   409.15  C  3388.43    409.15   3386.40    411.18   3386.40    413.68  " style="stroke-width: 1.42 ;&st7;   " /><path d=" M  3386.40,   413.68  C  3386.40    416.19   3388.43    418.22   3390.93    418.22  " style="stroke-width: 1.42 ;&st7;   " /><path d=" M  3390.93,   418.22  C  3393.44    418.22   3395.47    416.19   3395.47    413.68  " style="stroke-width: 1.42 ;&st7;   " /><path d=" M  3446.46,   413.68  C  3446.46    411.18   3444.43    409.15   3441.92    409.15  " style="stroke-width: 1.42 ;&st7;   " /><path d=" M  3441.92,   409.15  C  3439.42    409.15   3437.39    411.18   3437.39    413.68  " style="stroke-width: 1.42 ;&st7;   " /><path d=" M  3437.39,   413.68  C  3437.39    416.19   3439.42    418.22   3441.92    418.22  " style="stroke-width: 1.42 ;&st7;   " /><path d=" M  3441.92,   418.22  C  3444.43    418.22   3446.46    416.19   3446.46    413.68  " style="stroke-width: 1.42 ;&st7;   " /><path d=" M  3488.95,   413.68  C  3488.95    411.18   3486.92    409.15   3484.42    409.15  " style="stroke-width: 1.42 ;&st7;   " /><path d=" M  3484.42,   409.15  C  3481.91    409.15   3479.89    411.18   3479.89    413.68  " style="stroke-width: 1.42 ;&st7;   " /><path d=" M  3479.89,   413.68  C  3479.89    416.19   3481.91    418.22   3484.42    418.22  " style="stroke-width: 1.42 ;&st7;   " /><path d=" M  3484.42,   418.22  C  3486.92    418.22   3488.95    416.19   3488.95    413.68  " style="stroke-width: 1.42 ;&st7;   " /><path d=" M  3446.46,   295.27  C  3446.46    292.77   3444.43    290.74   3441.92    290.74  " style="stroke-width: 1.42 ;&st7;   " /><path d=" M  3441.92,   290.74  C  3439.42    290.74   3437.39    292.77   3437.39    295.27  " style="stroke-width: 1.42 ;&st7;   " /><path d=" M  3437.39,   295.27  C  3437.39    297.77   3439.42    299.80   3441.92    299.80  " style="stroke-width: 1.42 ;&st7;   " /><path d=" M  3441.92,   299.80  C  3444.43    299.80   3446.46    297.77   3446.46    295.27  " style="stroke-width: 1.42 ;&st7;   " /><path d=" M  3488.95,   295.27  C  3488.95    292.77   3486.92    290.74   3484.42    290.74  " style="stroke-width: 1.42 ;&st7;   " /><path d=" M  3484.42,   290.74  C  3481.91    290.74   3479.89    292.77   3479.89    295.27  " style="stroke-width: 1.42 ;&st7;   " /><path d=" M  3479.89,   295.27  C  3479.89    297.77   3481.91    299.80   3484.42    299.80  " style="stroke-width: 1.42 ;&st7;   " /><path d=" M  3484.42,   299.80  C  3486.92    299.80   3488.95    297.77   3488.95    295.27  " style="stroke-width: 1.42 ;&st7;   " /><text style="&st18;" transform="matrix(&st17;  3157.78  318.0 )">V</text><text style="&st18;" transform="matrix(&st17;  3200.27  318.15 )">R</text><text style="&st18;" transform="matrix(&st16;  3284.03  424.43 )">3</text><text style="&st18;" transform="matrix(&st16;  3241.54  424.43 )">2</text><text style="&st18;" transform="matrix(&st16;  3287.78  298.93 )">12</text><text style="&st18;" transform="matrix(&st17;  3013.3  318.15 )">R</text><text style="&st18;" transform="matrix(&st16;  3155.13  414.53 )">1</text><text style="&st18;" transform="matrix(&st16;  3197.63  414.53 )">2</text><text style="&st18;" transform="matrix(&st17;  3157.78  653.4 )">W-B</text><text style="&st18;" transform="matrix(&st16;  3155.13  542.0 )">8</text><text style="&st18;" transform="matrix(&st16;  3155.13  570.88 )">1</text><text style="&st18;" transform="matrix(&st16;  3155.13  460.4 )">3</text><text style="&st18;" transform="matrix(&st16;  3154.55  448.51 )">GND</text><text ewd:textID="28" style="&st18;" transform="matrix(&st17;  3184.69  565.6 )">Junction <tspan dy="6.0" x="0 ">Connector</tspan></text><text style="&st18;" transform="matrix(&st17;  3177.58  565.59 )">E66</text><text style="&st18;" transform="matrix(&st17;  3157.78  500.42 )">W-B</text><text style="&st18;" transform="matrix(&st16;  3248.62  236.06 )">4</text><text style="&st18;" transform="matrix(&st16;  3287.78  236.06 )">15</text><text style="&st18;" transform="matrix(&st16;  3246.18  134.07 )">CANH</text><text style="&st18;" transform="matrix(&st17;  3251.26  184.0 )">LG</text><text style="&st18;" transform="matrix(&st16;  3234.55  92.96 )">E85(C)</text><text style="&st18;" transform="matrix(&st16;  3289.17  134.07 )">CANL</text><text style="&st18;" transform="matrix(&st17;  3293.75  182.18 )">R</text><text ewd:textID="47" style="&st18;" transform="matrix(&st16;  3234.55  100.07 )">Windshield Wiper ECU</text><text style="&st18;" transform="matrix(&st16;  3252.54  144.26 )">C</text><text style="&st18;" transform="matrix(&st16;  3245.5  144.26 )">6</text><text style="&st18;" transform="matrix(&st16;  3295.03  144.26 )">C</text><text style="&st18;" transform="matrix(&st16;  3288.0  144.26 )">5</text><text ewd:textID="36" style="&st18;" transform="matrix(&st16;  3166.56  466.93 )">Option Connector <tspan dy="6.0" x="0 ">(Bus Buffer)</tspan></text><text style="&st18;" transform="matrix(&st16;  3166.56  459.82 )">E92</text><text style="&st18;" transform="matrix(&st16;  3346.02  415.65 )">C</text><text style="&st18;" transform="matrix(&st16;  3338.96  415.65 )">2</text><text style="&st18;" transform="matrix(&st16;  3381.45  415.65 )">1</text><text style="&st18;" transform="matrix(&st16;  3388.51  415.65 )">C</text><text style="&st18;" transform="matrix(&st16;  3342.1  298.93 )">5</text><text style="&st18;" transform="matrix(&st16;  3340.09  287.04 )">MPX2</text><text style="&st18;" transform="matrix(&st16;  3382.58  287.04 )">MPX1</text><text style="&st18;" transform="matrix(&st16;  3328.03  239.99 )">L52</text><text style="&st18;" transform="matrix(&st16;  3384.59  298.93 )">6</text><text ewd:textID="39" style="&st18;" transform="matrix(&st16;  3328.04  247.1 )">Power Back Door <tspan dy="6.0" x="0 ">Unit Assembly</tspan></text><text style="&st18;" transform="matrix(&st17;  3344.74  377.64 )">R</text><text style="&st18;" transform="matrix(&st17;  3387.24  377.49 )">V</text><text ewd:textID="28" style="&st18;" transform="matrix(&st16;  3336.54  458.43 )">Junction Connector</text><text style="&st18;" transform="matrix(&st16;  3336.53  451.32 )">L29(A),L30(B),L54(C),L57(D)</text><text style="&st18;" transform="matrix(&st16;  3439.5  415.65 )">D</text><text style="&st18;" transform="matrix(&st16;  3432.44  415.65 )">2</text><text style="&st18;" transform="matrix(&st16;  3474.94  415.65 )">1</text><text style="&st18;" transform="matrix(&st16;  3482.0  415.65 )">D</text><text style="&st18;" transform="matrix(&st16;  3434.27  287.04 )">MPX-</text><text style="&st18;" transform="matrix(&st16;  3475.99  287.04 )">MPX+</text><text style="&st18;" transform="matrix(&st16;  3421.52  239.99 )">L50(A)</text><text ewd:textID="35" style="&st18;" transform="matrix(&st16;  3421.52  247.1 )">No.2 Multiplex <tspan dy="6.0" x="0 ">Network Body ECU</tspan></text><text style="&st18;" transform="matrix(&st17;  3438.23  377.64 )">R</text><text style="&st18;" transform="matrix(&st17;  3480.72  379.47 )">LG</text><text style="&st18;" transform="matrix(&st16;  3422.51  482.51 )">R</text><text style="&st18;" transform="matrix(&st16;  3420.18  508.0 )">GR</text><text style="&st18;" transform="matrix(&st16;  3421.73  533.5 )">W</text><text style="&st18;" transform="matrix(&st16;  3420.68  558.99 )">LG</text><text style="&st18;" transform="matrix(&st16;  3439.66  297.24 )">A</text><text style="&st18;" transform="matrix(&st16;  3429.11  297.24 )">12</text><text style="&st18;" transform="matrix(&st16;  3482.15  297.24 )">A</text><text style="&st18;" transform="matrix(&st16;  3471.6  297.24 )">11</text><text style="&st18;" transform="matrix(&st16;  3141.06  228.94 )">E73</text><text ewd:textID="28" style="&st18;" transform="matrix(&st16;  3141.07  236.05 )">Junction Connector</text><text style="&st18;" transform="matrix(&st16;  3053.15  298.93 )">3</text><text style="&st18;" transform="matrix(&st16;  3007.32  298.93 )">14</text><text style="&st18;" transform="matrix(&st16;  3248.62  298.93 )">1</text><text style="&st18;" transform="matrix(&st17;  3055.79  320.48 )">GR</text><text style="&st18;" transform="matrix(&st16;  3133.71  609.99 )">B</text><text style="&st18;" transform="matrix(&st16;  3133.71  592.99 )">V</text><text style="&st18;" transform="matrix(&st16;  3082.72  592.99 )">V</text><text style="&st18;" transform="matrix(&st16;  3082.72  609.99 )">B</text><text style="&st18;" transform="matrix(&st16;  3005.08  228.94 )">E73</text><text ewd:textID="28" style="&st18;" transform="matrix(&st16;  3005.09  236.05 )">Junction Connector</text><text style="&st18;" transform="matrix(&st16;  3155.13  298.93 )">2</text><text style="&st18;" transform="matrix(&st16;  3194.29  298.93 )">13</text><text style="&st18;" transform="matrix(&st16;  3153.12  425.85 )">CAN+</text><text style="&st18;" transform="matrix(&st16;  3196.39  425.85 )">CAN-</text><text style="&st18;" transform="matrix(&st17;  3293.75  318.15 )">R</text><text style="&st18;" transform="matrix(&st17;  3251.26  318.93 )">W</text><text style="&st18;" transform="matrix(&st16;  3280.7  347.95 )">29</text><text style="&st18;" transform="matrix(&st16;  3238.2  347.95 )">19</text><text style="&st18;" transform="matrix(&st17;  3293.75  377.64 )">R</text><text style="&st18;" transform="matrix(&st17;  3251.26  378.42 )">W</text><text style="&st18;" transform="matrix(&st16;  3418.2  493.84 )">(*13)</text><text style="&st18;" transform="matrix(&st16;  3418.2  519.33 )">(*14)</text><text style="&st18;" transform="matrix(&st16;  3418.2  544.83 )">(*13)</text><text style="&st18;" transform="matrix(&st16;  3418.2  570.33 )">(*14)</text></svg>