﻿<?xml version="1.0" encoding="utf-8"?>
<!DOCTYPE svg PUBLIC "-//W3C//DTD SVG 1.0//EN" "http://www.w3.org/TR/2001/REC-SVG-20010904/DTD/svg10.dtd"[
	<!ENTITY ns_flows "http://ns.adobe.com/Flows/1.0/">
	<!ENTITY ns_svg "http://www.w3.org/2000/svg">
	<!ENTITY ns_xlink "http://www.w3.org/1999/xlink">
	<!ENTITY st0 "font-size:7px;font-family:'MS-PGothic';adobe-font-script:japanese;">
	<!ENTITY st1 "font-size:6px;font-family:'ArialMT';">
	<!-- White fill  -->
	<!ENTITY st2 "fill:#FFFFFF;stroke:#000000; stroke-width:1.41;stroke-linecap:round;stroke-linejoin:round;">
	<!-- Yellow fill  -->
	<!ENTITY st3 "fill:#FFFFCC;stroke:#FFFFCC; stroke-width:0.1;stroke-linecap:round;stroke-linejoin:round;">
	<!-- Gray fill  -->
	<!ENTITY st4 "fill:#CCCCCC;stroke:#CCCCCC; stroke-width:0.1;stroke-linecap:round;stroke-linejoin:round;">
	<!-- Light-blue fill -->
	<!ENTITY st5 "fill:#CCECF4;stroke:#000000; stroke-width:1.133;stroke-linecap:round;stroke-linejoin:round;">
	<!ENTITY st6 "fill:none;stroke-linecap:butt; stroke-linejoin:round;">
	<!ENTITY st7 "fill:none;stroke:#000000;stroke-linecap:round;stroke-linejoin:round;">
	<!ENTITY st8 "enable-background:new    ;">
	<!-- Black fill -->
	<!ENTITY st9 "fill:#000000;stroke:#000000; stroke-linecap:round;stroke-linejoin:round;">
	<!-- SRS note   -->
	<!ENTITY st10 "font-size:9px;font-family:'ArialMT';">
	<!ENTITY st11 "font-size:9px;font-family:'Svg Symbol';">
	<!ENTITY st12 "font-size:6px;font-family:'Svg Symbol';">
	<!ENTITY st13 "fill:none;stroke:#ff0000;stroke-linecap:round;stroke-linejoin:round;">
	<!-- Yellow fill  -->
	<!ENTITY st14 "fill:#FFFF00;stroke:#FFFF00; stroke-width:0.1;stroke-linecap:round;stroke-linejoin:round;">
	<!ENTITY st15 "font-size:6px;font-family:'MS-PGothic';adobe-font-script:japanese;">
	<!ENTITY st16 "1.00 0.00 0.00 1.00">
	<!ENTITY st17 "0.00 -1.00 1.00 0.00">
	<!ENTITY st18 "font-size:6px;font-family:'Arial';">
	<!ENTITY st19 "font-size:9px;font-family:'Arial';">
	<!ENTITY st20 "font-size:6px;font-family:'MS-PGothic','MS PGothic';adobe-font-script:japanese;">
	<!ENTITY st21 "font-size:7px;font-family:'MS-PGothic','MS PGothic';adobe-font-script:japanese;">
	<!ATTLIST svg
		xmlns:ewd CDATA #FIXED "http://shcl.co.jp/ewd"
		xmlns:a CDATA #FIXED "http://ns.adobe.com/AdobeSVGViewerExtensions/3.0/"
		ewd:ver CDATA #IMPLIED
	>
	<!ATTLIST a
		ewd:lineID CDATA #IMPLIED
		ewd:groupID CDATA #IMPLIED
		ewd:figtype CDATA #IMPLIED
		ewd:code CDATA #IMPLIED
		ewd:figID CDATA #IMPLIED
		ewd:pinNo CDATA #IMPLIED
		ewd:comment CDATA #IMPLIED >
	<!ATTLIST g
		ewd:lineID CDATA #IMPLIED
		ewd:groupID CDATA #IMPLIED
		ewd:figtype CDATA #IMPLIED
		ewd:code CDATA #IMPLIED
		ewd:figID CDATA #IMPLIED
		ewd:pinNo CDATA #IMPLIED
		ewd:comment CDATA #IMPLIED >
	<!ATTLIST text
		ewd:textID CDATA #IMPLIED >
	<!ATTLIST title
		ewd:textID CDATA #IMPLIED >
]>
<!-- Generator: Shintec Hozumi YS   -->
<svg onload="call_execInitLoadProc_svg('system')" style="overflow:visible;  enable-background:new 0 0 4062.209 710.000" viewBox="0 0 4062.209 710.000" height="710.000" width="4062.209" xml:space="preserve" ewd:ver="L2.3.0.14" xmlns="&ns_svg;" xmlns:a="http://ns.adobe.com/AdobeSVGViewerExtensions/3.0/" xmlns:ewd="http://shcl.co.jp/ewd" xmlns:xlink="&ns_xlink;">
<path d=" M  1274.79,   358.73  L  1266.29,   358.73  " style="stroke-width: 1.42 ;&st7;  " /><path d=" M  1232.29,   358.73  L  1223.80,   358.73  " style="stroke-width: 1.42 ;&st7;  " /><path d=" M  1419.26,   163.26  L  1427.76,   163.26  " style="stroke-width: 1.42 ;&st7;  " /><path d=" M  1461.76,   163.26  L  1470.25,   163.26  " style="stroke-width: 1.42 ;&st7;  " /><path d=" M  1470.25,   282.24  L  1470.25,   299.24  " style="stroke-width: 0.85 ;&st7;  " /><path d=" M  1270.54,   364.39  L  1266.29,   360.14  L  1262.04,   364.39  " style="stroke-width: 1.42 ;&st7;  " /><path d=" M  1427.76,   265.24  L  1427.76,   299.24  " style="stroke-width: 0.85 ;&st7;  " /><path d=" M  1270.54,   367.79  L  1266.29,   363.54  L  1262.04,   367.79  " style="stroke-width: 1.42 ;&st7;  " /><path d=" M  1087.82,   562.69  L  1087.82,   528.70  L  1164.30,   528.70  L  1164.30,   562.69  L  1087.82,   562.69  " style="stroke-width: 1.42 ;&st7;  " /><path d=" M  1096.32,   418.22  L  1096.32,   469.21  L  1274.79,   469.21  L  1274.79,   418.22  L  1096.32,   418.22  " style="stroke-width: 1.42 ;&st7;  " /><path d=" M  1266.29,   418.22  L  1266.29,   452.21  L  1147.31,   452.21  L  1147.31,   469.21  " style="stroke-width: 0.85 ;&st7;  " /><path d=" M  1228.04,   364.39  L  1223.80,   360.14  L  1219.55,   364.39  " style="stroke-width: 1.42 ;&st7;  " /><path d=" M  1228.04,   367.79  L  1223.80,   363.54  L  1219.55,   367.79  " style="stroke-width: 1.42 ;&st7;  " /><path d=" M  1223.80,   418.22  L  1223.80,   435.21  L  1104.81,   435.21  L  1104.81,   469.21  " style="stroke-width: 0.85 ;&st7;  " /><path d=" M  1215.30,   248.24  L  1215.30,   299.24  L  1478.75,   299.24  L  1478.75,   248.24  L  1215.30,   248.24  " style="stroke-width: 1.42 ;&st7;  " /><path d=" M  1470.25,   248.24  L  1470.25,   282.24  L  1266.29,   282.24  L  1266.29,   299.24  " style="stroke-width: 0.85 ;&st7;  " /><path d=" M  1427.76,   248.24  L  1427.76,   265.24  L  1223.80,   265.24  L  1223.80,   299.24  " style="stroke-width: 0.85 ;&st7;  " /><path d=" M  1274.79,   303.77  L  1415.01,   303.77  " style="stroke-width: 0.85 ;&st7; stroke-dasharray:3, 1.5;" /><path d=" M  1436.26,   303.77  L  1453.26,   303.77  " style="stroke-width: 0.85 ;&st7; stroke-dasharray:3, 1.5;" /><path d=" M  1423.51,   154.19  L  1427.76,   158.44  L  1432.01,   154.19  " style="stroke-width: 1.42 ;&st7;  " /><path d=" M  1466.00,   154.19  L  1470.25,   158.44  L  1474.50,   154.19  " style="stroke-width: 1.42 ;&st7;  " /><path d=" M  1432.01,   157.59  L  1427.76,   161.84  L  1423.51,   157.59  " style="stroke-width: 1.42 ;&st7;  " /><path d=" M  1474.50,   157.59  L  1470.25,   161.84  L  1466.00,   157.59  " style="stroke-width: 1.42 ;&st7;  " /><path d=" M  1308.78,   469.21  L  1308.78,   503.20  L  1385.27,   503.20  L  1385.27,   469.21  L  1308.78,   469.21  " style="stroke-width: 1.42 ;&st7;  " /><path d=" M  1223.80,   435.21  L  1223.80,   469.21  " style="stroke-width: 0.85 ;&st7;  " /><path d=" M  1266.29,   452.21  L  1266.29,   469.21  " style="stroke-width: 0.85 ;&st7;  " /><path d=" M  1265.10,   451.21  L  1264.82,   451.68  L  1264.73,   452.21  L  1264.82,   452.74  L  1265.10,   453.21  L  1265.51,   453.56  L  1266.02,   453.75  L  1266.56,   453.75  L  1267.07,   453.56  L  1267.48,   453.21  L  1267.75,   452.74  L  1267.85,   452.21  L  1267.75,   451.68  L  1267.48,   451.21  L  1267.07,   450.86  L  1266.56,   450.67  L  1266.02,   450.67  L  1265.51,   450.86  L  1265.10,   451.21  L  1265.49,   451.92  L  1265.49,   452.50  L  1265.86,   452.95  L  1266.44,   453.05  L  1266.94,   452.76  L  1267.14,   452.21  L  1266.94,   451.66  L  1266.44,   451.37  L  1265.86,   451.47  L  1266.29,   452.21  " style="stroke-width: 0.85 ;&st7;  " /><path d=" M  1222.60,   434.21  L  1222.33,   434.68  L  1222.24,   435.21  L  1222.33,   435.75  L  1222.60,   436.22  L  1223.02,   436.56  L  1223.52,   436.75  L  1224.07,   436.75  L  1224.57,   436.56  L  1224.99,   436.22  L  1225.26,   435.75  L  1225.35,   435.21  L  1225.26,   434.68  L  1224.99,   434.21  L  1224.57,   433.86  L  1224.07,   433.68  L  1223.52,   433.68  L  1223.02,   433.86  L  1222.60,   434.21  L  1223.00,   434.92  L  1223.00,   435.50  L  1223.37,   435.95  L  1223.94,   436.05  L  1224.45,   435.76  L  1224.64,   435.21  L  1224.45,   434.67  L  1223.94,   434.38  L  1223.37,   434.48  L  1223.80,   435.21  " style="stroke-width: 0.85 ;&st7;  " /><path d=" M  1426.57,   264.24  L  1426.30,   264.71  L  1426.20,   265.24  L  1426.30,   265.77  L  1426.57,   266.24  L  1426.98,   266.59  L  1427.49,   266.78  L  1428.03,   266.78  L  1428.54,   266.59  L  1428.95,   266.24  L  1429.23,   265.77  L  1429.32,   265.24  L  1429.23,   264.71  L  1428.95,   264.24  L  1428.54,   263.89  L  1428.03,   263.71  L  1427.49,   263.71  L  1426.98,   263.89  L  1426.57,   264.24  L  1426.96,   264.95  L  1426.96,   265.53  L  1427.34,   265.98  L  1427.91,   266.08  L  1428.41,   265.79  L  1428.61,   265.24  L  1428.41,   264.69  L  1427.91,   264.41  L  1427.34,   264.50  L  1427.76,   265.24  " style="stroke-width: 0.85 ;&st7;  " /><path d=" M  1469.06,   281.24  L  1468.79,   281.71  L  1468.70,   282.24  L  1468.79,   282.77  L  1469.06,   283.24  L  1469.47,   283.59  L  1469.98,   283.77  L  1470.53,   283.77  L  1471.03,   283.59  L  1471.45,   283.24  L  1471.72,   282.77  L  1471.81,   282.24  L  1471.72,   281.71  L  1471.45,   281.24  L  1471.03,   280.89  L  1470.53,   280.70  L  1469.98,   280.70  L  1469.47,   280.89  L  1469.06,   281.24  L  1469.45,   281.95  L  1469.45,   282.53  L  1469.83,   282.97  L  1470.40,   283.07  L  1470.91,   282.79  L  1471.10,   282.24  L  1470.91,   281.69  L  1470.40,   281.40  L  1469.83,   281.50  L  1470.25,   282.24  " style="stroke-width: 0.85 ;&st7;  " /><path d=" M  1410.76,   469.21  L  1410.76,   503.20  L  1487.25,   503.20  L  1487.25,   469.21  L  1410.76,   469.21  " style="stroke-width: 1.42 ;&st7;  " /><path d=" M  1334.28,   464.67  L  1355.52,   464.67  " style="stroke-width: 0.85 ;&st7; stroke-dasharray:3, 1.5;" /><path d=" M  1334.28,   455.61  L  1355.52,   455.61  " style="stroke-width: 0.85 ;&st7; stroke-dasharray:3, 1.5;" /><path d=" M  1436.26,   234.65  L  1453.26,   234.65  " style="stroke-width: 0.85 ;&st7; stroke-dasharray:3, 1.5;" /><path d=" M  1436.26,   243.71  L  1453.26,   243.71  " style="stroke-width: 0.85 ;&st7; stroke-dasharray:3, 1.5;" /><path d=" M  1232.29,   312.83  L  1249.29,   312.83  " style="stroke-width: 0.85 ;&st7; stroke-dasharray:3, 1.5;" /><path d=" M  1232.29,   303.77  L  1249.29,   303.77  " style="stroke-width: 0.85 ;&st7; stroke-dasharray:3, 1.5;" /><path d=" M  1087.82,   256.74  L  1087.82,   299.24  L  1164.30,   299.24  L  1164.30,   256.74  L  1087.82,   256.74  " style="stroke-width: 1.42 ;&st7;  " /><path d=" M  1104.81,   418.22  L  1104.81,   435.21  " style="stroke-width: 0.85 ;&st7;  " /><path d=" M  1147.31,   418.22  L  1147.31,   452.21  " style="stroke-width: 0.85 ;&st7;  " /><path d=" M  1103.62,   434.21  L  1103.35,   434.68  L  1103.26,   435.21  L  1103.35,   435.75  L  1103.62,   436.22  L  1104.04,   436.56  L  1104.54,   436.75  L  1105.09,   436.75  L  1105.59,   436.56  L  1106.01,   436.22  L  1106.28,   435.75  L  1106.37,   435.21  L  1106.28,   434.68  L  1106.01,   434.21  L  1105.59,   433.86  L  1105.09,   433.68  L  1104.54,   433.68  L  1104.04,   433.86  L  1103.62,   434.21  L  1104.02,   434.92  L  1104.02,   435.50  L  1104.39,   435.95  L  1104.96,   436.05  L  1105.47,   435.76  L  1105.66,   435.21  L  1105.47,   434.67  L  1104.96,   434.38  L  1104.39,   434.48  L  1104.81,   435.21  " style="stroke-width: 0.85 ;&st7;  " /><path d=" M  1146.12,   451.21  L  1145.84,   451.68  L  1145.75,   452.21  L  1145.84,   452.74  L  1146.12,   453.21  L  1146.53,   453.56  L  1147.04,   453.75  L  1147.58,   453.75  L  1148.09,   453.56  L  1148.50,   453.21  L  1148.77,   452.74  L  1148.87,   452.21  L  1148.77,   451.68  L  1148.50,   451.21  L  1148.09,   450.86  L  1147.58,   450.67  L  1147.04,   450.67  L  1146.53,   450.86  L  1146.12,   451.21  L  1146.51,   451.92  L  1146.51,   452.50  L  1146.88,   452.95  L  1147.46,   453.05  L  1147.96,   452.76  L  1148.16,   452.21  L  1147.96,   451.66  L  1147.46,   451.37  L  1146.88,   451.47  L  1147.31,   452.21  " style="stroke-width: 0.85 ;&st7;  " /><path d=" M  1436.26,   455.61  L  1453.26,   455.61  " style="stroke-width: 0.85 ;&st7; stroke-dasharray:3, 1.5;" /><path d=" M  1436.26,   464.67  L  1453.26,   464.67  " style="stroke-width: 0.85 ;&st7; stroke-dasharray:3, 1.5;" /><path d=" M  1274.79,   312.83  L  1415.01,   312.83  " style="stroke-width: 0.85 ;&st7; stroke-dasharray:3, 1.5;" /><path d=" M  1436.26,   312.83  L  1453.26,   312.83  " style="stroke-width: 0.85 ;&st7; stroke-dasharray:3, 1.5;" /><path d=" M  1432.29,   464.67  C  1432.29    462.17   1430.26    460.14   1427.76    460.14  " style="stroke-width: 1.42 ;&st7;   " /><path d=" M  1427.76,   460.14  C  1425.26    460.14   1423.23    462.17   1423.23    464.67  " style="stroke-width: 1.42 ;&st7;   " /><path d=" M  1423.23,   464.67  C  1423.23    467.18   1425.26    469.21   1427.76    469.21  " style="stroke-width: 1.42 ;&st7;   " /><path d=" M  1427.76,   469.21  C  1430.26    469.21   1432.29    467.18   1432.29    464.67  " style="stroke-width: 1.42 ;&st7;   " /><path d=" M  1474.79,   464.67  C  1474.79    462.17   1472.76    460.14   1470.25    460.14  " style="stroke-width: 1.42 ;&st7;   " /><path d=" M  1470.25,   460.14  C  1467.75    460.14   1465.72    462.17   1465.72    464.67  " style="stroke-width: 1.42 ;&st7;   " /><path d=" M  1465.72,   464.67  C  1465.72    467.18   1467.75    469.21   1470.25    469.21  " style="stroke-width: 1.42 ;&st7;   " /><path d=" M  1470.25,   469.21  C  1472.76    469.21   1474.79    467.18   1474.79    464.67  " style="stroke-width: 1.42 ;&st7;   " /><path d=" M  1372.80,   464.67  C  1372.80    462.17   1370.77    460.14   1368.27    460.14  " style="stroke-width: 1.42 ;&st7;   " /><path d=" M  1368.27,   460.14  C  1365.77    460.14   1363.74    462.17   1363.74    464.67  " style="stroke-width: 1.42 ;&st7;   " /><path d=" M  1363.74,   464.67  C  1363.74    467.18   1365.77    469.21   1368.27    469.21  " style="stroke-width: 1.42 ;&st7;   " /><path d=" M  1368.27,   469.21  C  1370.77    469.21   1372.80    467.18   1372.80    464.67  " style="stroke-width: 1.42 ;&st7;   " /><path d=" M  1372.80,   455.61  C  1372.80    453.11   1370.77    451.08   1368.27    451.08  " style="stroke-width: 1.42 ;&st7;   " /><path d=" M  1368.27,   451.08  C  1365.77    451.08   1363.74    453.11   1363.74    455.61  " style="stroke-width: 1.42 ;&st7;   " /><path d=" M  1363.74,   455.61  C  1363.74    458.11   1365.77    460.14   1368.27    460.14  " style="stroke-width: 1.42 ;&st7;   " /><path d=" M  1368.27,   460.14  C  1370.77    460.14   1372.80    458.11   1372.80    455.61  " style="stroke-width: 1.42 ;&st7;   " /><path d=" M  1330.31,   464.67  C  1330.31    462.17   1328.28    460.14   1325.78    460.14  " style="stroke-width: 1.42 ;&st7;   " /><path d=" M  1325.78,   460.14  C  1323.28    460.14   1321.25    462.17   1321.25    464.67  " style="stroke-width: 1.42 ;&st7;   " /><path d=" M  1321.25,   464.67  C  1321.25    467.18   1323.28    469.21   1325.78    469.21  " style="stroke-width: 1.42 ;&st7;   " /><path d=" M  1325.78,   469.21  C  1328.28    469.21   1330.31    467.18   1330.31    464.67  " style="stroke-width: 1.42 ;&st7;   " /><path d=" M  1330.31,   455.61  C  1330.31    453.11   1328.28    451.08   1325.78    451.08  " style="stroke-width: 1.42 ;&st7;   " /><path d=" M  1325.78,   451.08  C  1323.28    451.08   1321.25    453.11   1321.25    455.61  " style="stroke-width: 1.42 ;&st7;   " /><path d=" M  1321.25,   455.61  C  1321.25    458.11   1323.28    460.14   1325.78    460.14  " style="stroke-width: 1.42 ;&st7;   " /><path d=" M  1325.78,   460.14  C  1328.28    460.14   1330.31    458.11   1330.31    455.61  " style="stroke-width: 1.42 ;&st7;   " /><path d=" M  1432.29,   243.71  C  1432.29    241.21   1430.26    239.18   1427.76    239.18  " style="stroke-width: 1.42 ;&st7;   " /><path d=" M  1427.76,   239.18  C  1425.26    239.18   1423.23    241.21   1423.23    243.71  " style="stroke-width: 1.42 ;&st7;   " /><path d=" M  1423.23,   243.71  C  1423.23    246.21   1425.26    248.24   1427.76    248.24  " style="stroke-width: 1.42 ;&st7;   " /><path d=" M  1427.76,   248.24  C  1430.26    248.24   1432.29    246.21   1432.29    243.71  " style="stroke-width: 1.42 ;&st7;   " /><path d=" M  1432.29,   234.65  C  1432.29    232.14   1430.26    230.11   1427.76    230.11  " style="stroke-width: 1.42 ;&st7;   " /><path d=" M  1427.76,   230.11  C  1425.26    230.11   1423.23    232.14   1423.23    234.65  " style="stroke-width: 1.42 ;&st7;   " /><path d=" M  1423.23,   234.65  C  1423.23    237.15   1425.26    239.18   1427.76    239.18  " style="stroke-width: 1.42 ;&st7;   " /><path d=" M  1427.76,   239.18  C  1430.26    239.18   1432.29    237.15   1432.29    234.65  " style="stroke-width: 1.42 ;&st7;   " /><path d=" M  1474.79,   243.71  C  1474.79    241.21   1472.76    239.18   1470.25    239.18  " style="stroke-width: 1.42 ;&st7;   " /><path d=" M  1470.25,   239.18  C  1467.75    239.18   1465.72    241.21   1465.72    243.71  " style="stroke-width: 1.42 ;&st7;   " /><path d=" M  1465.72,   243.71  C  1465.72    246.21   1467.75    248.24   1470.25    248.24  " style="stroke-width: 1.42 ;&st7;   " /><path d=" M  1470.25,   248.24  C  1472.76    248.24   1474.79    246.21   1474.79    243.71  " style="stroke-width: 1.42 ;&st7;   " /><path d=" M  1474.79,   234.65  C  1474.79    232.14   1472.76    230.11   1470.25    230.11  " style="stroke-width: 1.42 ;&st7;   " /><path d=" M  1470.25,   230.11  C  1467.75    230.11   1465.72    232.14   1465.72    234.65  " style="stroke-width: 1.42 ;&st7;   " /><path d=" M  1465.72,   234.65  C  1465.72    237.15   1467.75    239.18   1470.25    239.18  " style="stroke-width: 1.42 ;&st7;   " /><path d=" M  1470.25,   239.18  C  1472.76    239.18   1474.79    237.15   1474.79    234.65  " style="stroke-width: 1.42 ;&st7;   " /><path d=" M  1228.33,   312.83  C  1228.33    310.33   1226.30    308.30   1223.80    308.30  " style="stroke-width: 1.42 ;&st7;   " /><path d=" M  1223.80,   308.30  C  1221.29    308.30   1219.26    310.33   1219.26    312.83  " style="stroke-width: 1.42 ;&st7;   " /><path d=" M  1219.26,   312.83  C  1219.26    315.34   1221.29    317.37   1223.80    317.37  " style="stroke-width: 1.42 ;&st7;   " /><path d=" M  1223.80,   317.37  C  1226.30    317.37   1228.33    315.34   1228.33    312.83  " style="stroke-width: 1.42 ;&st7;   " /><path d=" M  1228.33,   303.77  C  1228.33    301.26   1226.30    299.24   1223.80    299.24  " style="stroke-width: 1.42 ;&st7;   " /><path d=" M  1223.80,   299.24  C  1221.29    299.24   1219.26    301.26   1219.26    303.77  " style="stroke-width: 1.42 ;&st7;   " /><path d=" M  1219.26,   303.77  C  1219.26    306.27   1221.29    308.30   1223.80    308.30  " style="stroke-width: 1.42 ;&st7;   " /><path d=" M  1223.80,   308.30  C  1226.30    308.30   1228.33    306.27   1228.33    303.77  " style="stroke-width: 1.42 ;&st7;   " /><path d=" M  1270.82,   312.83  C  1270.82    310.33   1268.79    308.30   1266.29    308.30  " style="stroke-width: 1.42 ;&st7;   " /><path d=" M  1266.29,   308.30  C  1263.79    308.30   1261.76    310.33   1261.76    312.83  " style="stroke-width: 1.42 ;&st7;   " /><path d=" M  1261.76,   312.83  C  1261.76    315.34   1263.79    317.37   1266.29    317.37  " style="stroke-width: 1.42 ;&st7;   " /><path d=" M  1266.29,   317.37  C  1268.79    317.37   1270.82    315.34   1270.82    312.83  " style="stroke-width: 1.42 ;&st7;   " /><path d=" M  1270.82,   303.77  C  1270.82    301.26   1268.79    299.24   1266.29    299.24  " style="stroke-width: 1.42 ;&st7;   " /><path d=" M  1266.29,   299.24  C  1263.79    299.24   1261.76    301.26   1261.76    303.77  " style="stroke-width: 1.42 ;&st7;   " /><path d=" M  1261.76,   303.77  C  1261.76    306.27   1263.79    308.30   1266.29    308.30  " style="stroke-width: 1.42 ;&st7;   " /><path d=" M  1266.29,   308.30  C  1268.79    308.30   1270.82    306.27   1270.82    303.77  " style="stroke-width: 1.42 ;&st7;   " /><path d=" M  1432.29,   303.77  C  1432.29    301.26   1430.26    299.24   1427.76    299.24  " style="stroke-width: 1.42 ;&st7;   " /><path d=" M  1427.76,   299.24  C  1425.26    299.24   1423.23    301.26   1423.23    303.77  " style="stroke-width: 1.42 ;&st7;   " /><path d=" M  1423.23,   303.77  C  1423.23    306.27   1425.26    308.30   1427.76    308.30  " style="stroke-width: 1.42 ;&st7;   " /><path d=" M  1427.76,   308.30  C  1430.26    308.30   1432.29    306.27   1432.29    303.77  " style="stroke-width: 1.42 ;&st7;   " /><path d=" M  1474.79,   303.77  C  1474.79    301.26   1472.76    299.24   1470.25    299.24  " style="stroke-width: 1.42 ;&st7;   " /><path d=" M  1470.25,   299.24  C  1467.75    299.24   1465.72    301.26   1465.72    303.77  " style="stroke-width: 1.42 ;&st7;   " /><path d=" M  1465.72,   303.77  C  1465.72    306.27   1467.75    308.30   1470.25    308.30  " style="stroke-width: 1.42 ;&st7;   " /><path d=" M  1470.25,   308.30  C  1472.76    308.30   1474.79    306.27   1474.79    303.77  " style="stroke-width: 1.42 ;&st7;   " /><path d=" M  1432.29,   455.61  C  1432.29    453.11   1430.26    451.08   1427.76    451.08  " style="stroke-width: 1.42 ;&st7;   " /><path d=" M  1427.76,   451.08  C  1425.26    451.08   1423.23    453.11   1423.23    455.61  " style="stroke-width: 1.42 ;&st7;   " /><path d=" M  1423.23,   455.61  C  1423.23    458.11   1425.26    460.14   1427.76    460.14  " style="stroke-width: 1.42 ;&st7;   " /><path d=" M  1427.76,   460.14  C  1430.26    460.14   1432.29    458.11   1432.29    455.61  " style="stroke-width: 1.42 ;&st7;   " /><path d=" M  1474.79,   455.61  C  1474.79    453.11   1472.76    451.08   1470.25    451.08  " style="stroke-width: 1.42 ;&st7;   " /><path d=" M  1470.25,   451.08  C  1467.75    451.08   1465.72    453.11   1465.72    455.61  " style="stroke-width: 1.42 ;&st7;   " /><path d=" M  1465.72,   455.61  C  1465.72    458.11   1467.75    460.14   1470.25    460.14  " style="stroke-width: 1.42 ;&st7;   " /><path d=" M  1470.25,   460.14  C  1472.76    460.14   1474.79    458.11   1474.79    455.61  " style="stroke-width: 1.42 ;&st7;   " /><path d=" M  1432.29,   312.83  C  1432.29    310.33   1430.26    308.30   1427.76    308.30  " style="stroke-width: 1.42 ;&st7;   " /><path d=" M  1427.76,   308.30  C  1425.26    308.30   1423.23    310.33   1423.23    312.83  " style="stroke-width: 1.42 ;&st7;   " /><path d=" M  1423.23,   312.83  C  1423.23    315.34   1425.26    317.37   1427.76    317.37  " style="stroke-width: 1.42 ;&st7;   " /><path d=" M  1427.76,   317.37  C  1430.26    317.37   1432.29    315.34   1432.29    312.83  " style="stroke-width: 1.42 ;&st7;   " /><path d=" M  1474.79,   312.83  C  1474.79    310.33   1472.76    308.30   1470.25    308.30  " style="stroke-width: 1.42 ;&st7;   " /><path d=" M  1470.25,   308.30  C  1467.75    308.30   1465.72    310.33   1465.72    312.83  " style="stroke-width: 1.42 ;&st7;   " /><path d=" M  1465.72,   312.83  C  1465.72    315.34   1467.75    317.37   1470.25    317.37  " style="stroke-width: 1.42 ;&st7;   " /><path d=" M  1470.25,   317.37  C  1472.76    317.37   1474.79    315.34   1474.79    312.83  " style="stroke-width: 1.42 ;&st7;   " /><text style="&st18;" transform="matrix(&st16;  1140.97  525.01 )">2</text><text style="&st18;" transform="matrix(&st16;  1098.48  525.01 )">3</text><text style="&st18;" transform="matrix(&st16;  1217.46  477.4 )">1</text><text style="&st18;" transform="matrix(&st16;  1249.54  356.45 )">11</text><text style="&st18;" transform="matrix(&st16;  1096.04  536.33 )">CANH</text><text style="&st18;" transform="matrix(&st16;  1139.03  536.33 )">CANL</text><text style="&st18;" transform="matrix(&st16;  1092.9  570.3 )">E50</text><text ewd:textID="48" style="&st18;" transform="matrix(&st16;  1092.91  577.41 )">Yaw Rate Sensor Assembly</text><text style="&st18;" transform="matrix(&st16;  1137.63  477.4 )">14</text><text style="&st18;" transform="matrix(&st16;  1256.61  477.4 )">12</text><text style="&st18;" transform="matrix(&st16;  1210.38  356.45 )">1</text><text style="&st18;" transform="matrix(&st17;  1220.1  334.88 )">Y</text><text style="&st18;" transform="matrix(&st17;  1101.12  507.14 )">BR</text><text style="&st18;" transform="matrix(&st17;  1143.61  504.58 )">L</text><text style="&st18;" transform="matrix(&st17;  1262.59  334.61 )">L</text><text style="&st18;" transform="matrix(&st17;  1220.1  395.79 )">Y</text><text style="&st18;" transform="matrix(&st16;  1098.48  477.4 )">3</text><text style="&st18;" transform="matrix(&st17;  1262.59  395.51 )">L</text><text style="&st18;" transform="matrix(&st17;  1282.4  472.11 )">E68</text><text ewd:textID="28" style="&st18;" transform="matrix(&st17;  1289.5  472.11 )">Junction Connector</text><text style="&st18;" transform="matrix(&st16;  1217.46  414.53 )">2</text><text style="&st18;" transform="matrix(&st16;  1007.05  32.08 )">SB</text><text style="&st18;" transform="matrix(&st16;  1305.37  510.81 )">F12(A),(B)</text><text ewd:textID="21" style="&st18;" transform="matrix(&st16;  1305.38  517.92 )">Clearance Warning <tspan dy="6.0" x="0 ">ECU Assembly</tspan></text><text style="&st18;" transform="matrix(&st16;  1317.0  476.84 )">CANH</text><text style="&st18;" transform="matrix(&st16;  1256.61  414.53 )">13</text><text style="&st18;" transform="matrix(&st16;  1411.01  169.48 )">10</text><text style="&st18;" transform="matrix(&st17;  1424.07  208.45 )">W</text><text style="&st18;" transform="matrix(&st17;  1466.56  207.13 )">L</text><text style="&st18;" transform="matrix(&st16;  1453.5  169.48 )">20</text><text style="&st18;" transform="matrix(&st16;  1009.07  643.98 )">B</text><text style="&st18;" transform="matrix(&st16;  1006.89  626.98 )">BR</text><text style="&st18;" transform="matrix(&st16;  1060.06  643.98 )">B</text><text style="&st18;" transform="matrix(&st16;  1057.89  626.98 )">BR</text><text ewd:textID="10" style="&st18;" transform="matrix(&st16;  1084.41  148.23 )">*11 :Liftgate Type</text><text ewd:textID="11" style="&st18;" transform="matrix(&st16;  1084.41  156.73 )">*12 :Swing Type</text><text ewd:textID="28" style="&st18;" transform="matrix(&st16;  1220.39  244.55 )">Junction Connector</text><text style="&st18;" transform="matrix(&st16;  1220.38  237.44 )">F21(A),F73(B)</text><text style="&st18;" transform="matrix(&st16;  1425.5  245.68 )">B</text><text style="&st18;" transform="matrix(&st16;  1418.28  245.68 )">6</text><text style="&st18;" transform="matrix(&st16;  1425.5  236.62 )">A</text><text style="&st18;" transform="matrix(&st16;  1418.28  236.62 )">2</text><text style="&st18;" transform="matrix(&st16;  1475.35  245.68 )">(*12,*14 *11)</text><text style="&st18;" transform="matrix(&st16;  1467.99  245.68 )">B</text><text style="&st18;" transform="matrix(&st16;  1457.44  245.68 )">17</text><text style="&st18;" transform="matrix(&st16;  1475.35  236.62 )">(*13 *11)</text><text style="&st18;" transform="matrix(&st16;  1467.99  236.62 )">A</text><text style="&st18;" transform="matrix(&st16;  1457.44  236.62 )">13</text><text style="&st18;" transform="matrix(&st16;  1221.53  314.8 )">B</text><text style="&st18;" transform="matrix(&st16;  1214.32  314.8 )">7</text><text style="&st18;" transform="matrix(&st16;  1221.53  305.74 )">A</text><text style="&st18;" transform="matrix(&st16;  1214.32  305.74 )">3</text><text style="&st18;" transform="matrix(&st16;  1264.02  314.8 )">B</text><text style="&st18;" transform="matrix(&st16;  1253.47  314.8 )">18</text><text style="&st18;" transform="matrix(&st16;  1264.02  305.74 )">A</text><text style="&st18;" transform="matrix(&st16;  1253.47  305.74 )">14</text><text style="&st18;" transform="matrix(&st16;  1418.28  305.74 )">1</text><text style="&st18;" transform="matrix(&st16;  1425.5  305.74 )">A</text><text style="&st18;" transform="matrix(&st16;  1457.44  305.74 )">12</text><text style="&st18;" transform="matrix(&st16;  1467.99  305.74 )">A</text><text style="&st18;" transform="matrix(&st17;  1143.61  334.61 )">L</text><text style="&st18;" transform="matrix(&st16;  1139.03  295.54 )">CANL</text><text style="&st18;" transform="matrix(&st16;  1092.9  239.99 )">E108</text><text style="&st18;" transform="matrix(&st16;  1140.97  307.43 )">9</text><text style="&st18;" transform="matrix(&st16;  1098.48  307.43 )">8</text><text ewd:textID="24" style="&st18;" transform="matrix(&st16;  1092.91  247.1 )">Distance Control <tspan dy="6.0" x="0 ">ECU Assembly</tspan></text><text style="&st18;" transform="matrix(&st17;  1101.12  337.01 )">SB</text><text style="&st18;" transform="matrix(&st16;  1096.04  295.54 )">CANH</text><text ewd:textID="12" style="&st18;" transform="matrix(&st16;  1084.41  165.23 )">*13 :Before Jan. 2012 Production</text><text ewd:textID="13" style="&st18;" transform="matrix(&st16;  1084.41  173.73 )">*14 :From Jan. 2012 Production</text><text style="&st18;" transform="matrix(&st16;  1098.48  414.53 )">4</text><text style="&st18;" transform="matrix(&st16;  1137.63  414.53 )">15</text><text style="&st18;" transform="matrix(&st16;  1425.5  457.58 )">A</text><text style="&st18;" transform="matrix(&st16;  1418.28  457.58 )">9</text><text style="&st18;" transform="matrix(&st16;  1475.35  457.58 )">(*13)</text><text style="&st18;" transform="matrix(&st16;  1467.99  457.58 )">A</text><text style="&st18;" transform="matrix(&st16;  1457.44  457.58 )">10</text><text style="&st18;" transform="matrix(&st16;  1475.35  466.64 )">(*14)</text><text style="&st18;" transform="matrix(&st16;  1425.5  314.8 )">B</text><text style="&st18;" transform="matrix(&st16;  1418.28  314.8 )">5</text><text style="&st18;" transform="matrix(&st16;  1475.35  314.8 )">(*12,*14 *11)</text><text style="&st18;" transform="matrix(&st16;  1467.99  314.8 )">B</text><text style="&st18;" transform="matrix(&st16;  1457.44  314.8 )">16</text><text style="&st18;" transform="matrix(&st16;  1475.35  305.74 )">(*13 *11)</text><text ewd:textID="15" style="&st18;" transform="matrix(&st16;  1084.41  182.22 )">*16 :w/ Multi-Terrain Monitor</text><text ewd:textID="16" style="&st18;" transform="matrix(&st16;  1084.41  190.72 )">*17 :From Jan. 2012 Production <tspan dy="8.5" x="14.17">w/o Multi-Terrain Monitor w/ Back Guide Monitor</tspan></text><text style="&st18;" transform="matrix(&st16;  1414.95  466.64 )">40</text><text style="&st18;" transform="matrix(&st16;  1425.5  466.64 )">B</text><text style="&st18;" transform="matrix(&st16;  1457.44  466.64 )">39</text><text style="&st18;" transform="matrix(&st16;  1467.99  466.64 )">B</text><text style="&st18;" transform="matrix(&st16;  1418.98  476.84 )">CANH</text><text style="&st18;" transform="matrix(&st16;  1461.98  476.84 )">CANL</text><text ewd:textID="38" style="&st18;" transform="matrix(&st16;  1407.36  517.92 )">Parking Assist ECU</text><text style="&st18;" transform="matrix(&st16;  1407.35  510.81 )">F43(A),F76(B)</text><text style="&st18;" transform="matrix(&st16;  1009.45  49.08 )">L</text><text style="&st18;" transform="matrix(&st16;  1060.44  49.08 )">L</text><text style="&st18;" transform="matrix(&st16;  1058.04  32.08 )">SB</text><text style="&st18;" transform="matrix(&st16;  1009.45  66.08 )">L</text><text style="&st18;" transform="matrix(&st16;  1008.13  83.07 )">W</text><text style="&st18;" transform="matrix(&st16;  1059.13  83.07 )">W</text><text style="&st18;" transform="matrix(&st16;  1060.44  66.08 )">L</text><text style="&st18;" transform="matrix(&st17;  1220.1  505.9 )">W</text><text style="&st18;" transform="matrix(&st17;  1262.59  504.58 )">L</text><text style="&st18;" transform="matrix(&st16;  1360.0  476.84 )">CANL</text><text style="&st18;" transform="matrix(&st17;  1322.08  394.49 )">V</text><text style="&st18;" transform="matrix(&st17;  1333.42  407.94 )">(*13 *2,*17)</text><text style="&st18;" transform="matrix(&st17;  1375.91  407.94 )">(*13 *2,*17)</text><text style="&st18;" transform="matrix(&st17;  1364.58  394.1 )">L</text><text style="&st18;" transform="matrix(&st17;  1424.07  394.49 )">V</text><text style="&st18;" transform="matrix(&st17;  1435.4  407.94 )">(*13 *1,*16)</text><text style="&st18;" transform="matrix(&st17;  1466.56  394.1 )">L</text><text style="&st18;" transform="matrix(&st17;  1477.89  407.94 )">(*13 *1,*16)</text><text ewd:textID="2" style="&st18;" transform="matrix(&st16;  1084.41  122.73 )">* 2 :w/o Back Guide Monitor</text><text ewd:textID="1" style="&st18;" transform="matrix(&st16;  1084.41  114.24 )">* 1 :w/ Back Guide Monitor</text><text ewd:textID="3" style="&st18;" transform="matrix(&st16;  1084.41  131.23 )">* 3 :Before Aug. 2007 Production</text><text style="&st18;" transform="matrix(&st16;  1366.01  466.64 )">B</text><text style="&st18;" transform="matrix(&st16;  1358.79  466.64 )">5</text><text style="&st18;" transform="matrix(&st16;  1373.36  466.64 )">(*4)</text><text style="&st18;" transform="matrix(&st16;  1373.36  457.58 )">(*3)</text><text style="&st18;" transform="matrix(&st16;  1358.79  457.58 )">5</text><text style="&st18;" transform="matrix(&st16;  1366.01  457.58 )">A</text><text style="&st18;" transform="matrix(&st16;  1316.3  466.64 )">3</text><text style="&st18;" transform="matrix(&st16;  1323.51  466.64 )">B</text><text style="&st18;" transform="matrix(&st16;  1316.3  457.58 )">3</text><text style="&st18;" transform="matrix(&st16;  1323.51  457.58 )">A</text><text ewd:textID="4" style="&st18;" transform="matrix(&st16;  1084.41  139.73 )">* 4 :From Aug. 2007 Production</text></svg>