﻿<?xml version="1.0" encoding="utf-8"?>
<!DOCTYPE svg PUBLIC "-//W3C//DTD SVG 1.0//EN" "http://www.w3.org/TR/2001/REC-SVG-20010904/DTD/svg10.dtd"[
	<!ENTITY ns_flows "http://ns.adobe.com/Flows/1.0/">
	<!ENTITY ns_svg "http://www.w3.org/2000/svg">
	<!ENTITY ns_xlink "http://www.w3.org/1999/xlink">
	<!ENTITY st0 "font-size:7px;font-family:'MS-PGothic';adobe-font-script:japanese;">
	<!ENTITY st1 "font-size:6px;font-family:'ArialMT';">
	<!-- White fill  -->
	<!ENTITY st2 "fill:#FFFFFF;stroke:#000000; stroke-width:1.41;stroke-linecap:round;stroke-linejoin:round;">
	<!-- Yellow fill  -->
	<!ENTITY st3 "fill:#FFFFCC;stroke:#FFFFCC; stroke-width:0.1;stroke-linecap:round;stroke-linejoin:round;">
	<!-- Gray fill  -->
	<!ENTITY st4 "fill:#CCCCCC;stroke:#CCCCCC; stroke-width:0.1;stroke-linecap:round;stroke-linejoin:round;">
	<!-- Light-blue fill -->
	<!ENTITY st5 "fill:#CCECF4;stroke:#000000; stroke-width:1.133;stroke-linecap:round;stroke-linejoin:round;">
	<!ENTITY st6 "fill:none;stroke-linecap:butt; stroke-linejoin:round;">
	<!ENTITY st7 "fill:none;stroke:#000000;stroke-linecap:round;stroke-linejoin:round;">
	<!ENTITY st8 "enable-background:new    ;">
	<!-- Black fill -->
	<!ENTITY st9 "fill:#000000;stroke:#000000; stroke-linecap:round;stroke-linejoin:round;">
	<!-- SRS note   -->
	<!ENTITY st10 "font-size:9px;font-family:'ArialMT';">
	<!ENTITY st11 "font-size:9px;font-family:'Svg Symbol';">
	<!ENTITY st12 "font-size:6px;font-family:'Svg Symbol';">
	<!ENTITY st13 "fill:none;stroke:#ff0000;stroke-linecap:round;stroke-linejoin:round;">
	<!-- Yellow fill  -->
	<!ENTITY st14 "fill:#FFFF00;stroke:#FFFF00; stroke-width:0.1;stroke-linecap:round;stroke-linejoin:round;">
	<!ENTITY st15 "font-size:6px;font-family:'MS-PGothic';adobe-font-script:japanese;">
	<!ENTITY st16 "1.00 0.00 0.00 1.00">
	<!ENTITY st17 "0.00 -1.00 1.00 0.00">
	<!ENTITY st18 "font-size:6px;font-family:'Arial';">
	<!ENTITY st19 "font-size:9px;font-family:'Arial';">
	<!ENTITY st20 "font-size:6px;font-family:'MS-PGothic','MS PGothic';adobe-font-script:japanese;">
	<!ENTITY st21 "font-size:7px;font-family:'MS-PGothic','MS PGothic';adobe-font-script:japanese;">
	<!ATTLIST svg
		xmlns:ewd CDATA #FIXED "http://shcl.co.jp/ewd"
		xmlns:a CDATA #FIXED "http://ns.adobe.com/AdobeSVGViewerExtensions/3.0/"
		ewd:ver CDATA #IMPLIED
	>
	<!ATTLIST a
		ewd:lineID CDATA #IMPLIED
		ewd:groupID CDATA #IMPLIED
		ewd:figtype CDATA #IMPLIED
		ewd:code CDATA #IMPLIED
		ewd:figID CDATA #IMPLIED
		ewd:pinNo CDATA #IMPLIED
		ewd:comment CDATA #IMPLIED >
	<!ATTLIST g
		ewd:lineID CDATA #IMPLIED
		ewd:groupID CDATA #IMPLIED
		ewd:figtype CDATA #IMPLIED
		ewd:code CDATA #IMPLIED
		ewd:figID CDATA #IMPLIED
		ewd:pinNo CDATA #IMPLIED
		ewd:comment CDATA #IMPLIED >
	<!ATTLIST text
		ewd:textID CDATA #IMPLIED >
	<!ATTLIST title
		ewd:textID CDATA #IMPLIED >
]>
<!-- Generator: Shintec Hozumi YS   -->
<svg onload="call_execInitLoadProc_svg('system')" style="overflow:visible;  enable-background:new 0 0 4660.594 710.000" viewBox="0 0 4660.594 710.000" height="710.000" width="4660.594" xml:space="preserve" ewd:ver="L2.3.0.14" xmlns="&ns_svg;" xmlns:a="http://ns.adobe.com/AdobeSVGViewerExtensions/3.0/" xmlns:ewd="http://shcl.co.jp/ewd" xmlns:xlink="&ns_xlink;">
<path d=" M  4589.23,   426.71  L  4597.73,   426.71  " style="stroke-width: 1.42 ;&st7;  " /><path d=" M  4623.23,   426.71  L  4631.73,   426.71  " style="stroke-width: 1.42 ;&st7;  " /><path d=" M  4606.23,   299.24  L  4597.73,   299.24  " style="stroke-width: 1.42 ;&st7;  " /><path d=" M  4640.22,   299.24  L  4631.73,   299.24  " style="stroke-width: 1.42 ;&st7;  " /><path d=" M  4606.23,   248.24  L  4597.73,   248.24  " style="stroke-width: 1.42 ;&st7;  " /><path d=" M  4640.22,   248.24  L  4631.73,   248.24  " style="stroke-width: 1.42 ;&st7;  " /><path d=" M  4635.97,   253.91  L  4631.72,   249.66  L  4627.47,   253.91  " style="stroke-width: 1.42 ;&st7;  " /><path d=" M  4635.97,   257.31  L  4631.72,   253.06  L  4627.47,   257.31  " style="stroke-width: 1.42 ;&st7;  " /><path d=" M  4601.98,   253.91  L  4597.73,   249.66  L  4593.48,   253.91  " style="stroke-width: 1.42 ;&st7;  " /><path d=" M  4601.98,   257.31  L  4597.73,   253.06  L  4593.48,   257.31  " style="stroke-width: 1.42 ;&st7;  " /><path d=" M  4631.72,   494.70  L  4631.72,   477.71  " style="stroke-width: 0.85 ;&st7;  " /><path d=" M  4589.23,   477.71  L  4589.23,   494.70  L  4640.22,   494.70  L  4640.22,   477.71  L  4589.23,   477.71  " style="stroke-width: 1.42 ;&st7;  " /><path d=" M  4597.73,   477.71  L  4597.73,   494.70  " style="stroke-width: 0.85 ;&st7;  " /><path d=" M  4635.97,   304.90  L  4631.72,   300.65  L  4627.47,   304.90  " style="stroke-width: 1.42 ;&st7;  " /><path d=" M  4635.97,   308.30  L  4631.72,   304.05  L  4627.47,   308.30  " style="stroke-width: 1.42 ;&st7;  " /><path d=" M  4601.98,   304.90  L  4597.73,   300.65  L  4593.48,   304.90  " style="stroke-width: 1.42 ;&st7;  " /><path d=" M  4601.98,   308.30  L  4597.73,   304.05  L  4593.48,   308.30  " style="stroke-width: 1.42 ;&st7;  " /><path d=" M  4597.73,   367.22  L  4597.73,   350.23  " style="stroke-width: 0.85 ;&st7;  " /><path d=" M  4631.72,   367.22  L  4631.72,   350.23  " style="stroke-width: 0.85 ;&st7;  " /><path d=" M  4627.47,   417.65  L  4631.72,   421.90  L  4635.97,   417.65  " style="stroke-width: 1.42 ;&st7;  " /><path d=" M  4635.97,   421.05  L  4631.72,   425.30  L  4627.47,   421.05  " style="stroke-width: 1.42 ;&st7;  " /><path d=" M  4593.48,   417.65  L  4597.73,   421.90  L  4601.98,   417.65  " style="stroke-width: 1.42 ;&st7;  " /><path d=" M  4589.23,   350.23  L  4589.23,   367.22  L  4640.22,   367.22  L  4640.22,   350.23  L  4589.23,   350.23  " style="stroke-width: 1.42 ;&st7;  " /><path d=" M  4601.98,   421.05  L  4597.73,   425.30  L  4593.48,   421.05  " style="stroke-width: 1.42 ;&st7;  " /><path d=" M  4538.24,   571.19  L  4538.24,   588.19  " style="stroke-width: 0.85 ;&st7;  " /><path d=" M  4529.74,   571.19  L  4580.73,   571.19  L  4580.73,   588.19  L  4529.74,   588.19  L  4529.74,   571.19  " style="stroke-width: 1.42 ;&st7;  " /><path d=" M  4572.23,   571.19  L  4572.23,   588.19  " style="stroke-width: 0.85 ;&st7;  " /><path d=" M  4529.74,   146.26  L  4529.74,   163.26  L  4580.73,   163.26  L  4580.73,   146.26  L  4529.74,   146.26  " style="stroke-width: 1.42 ;&st7;  " /><path d=" M  4538.24,   146.26  L  4538.24,   163.26  " style="stroke-width: 0.85 ;&st7;  " /><path d=" M  4572.23,   163.26  L  4572.23,   146.26  " style="stroke-width: 0.85 ;&st7;  " /><path d=" M  4570.82,   710.00  L  4573.65,   710.00  " style="stroke-width: 0.85 ;&st7;  " /><path d=" M  4569.40,   707.17  L  4575.07,   707.17  " style="stroke-width: 0.85 ;&st7;  " /><path d=" M  4567.98,   704.33  L  4576.48,   704.33  " style="stroke-width: 0.85 ;&st7;  " /><path d=" M  4563.74,   701.50  L  4580.73,   701.50  " style="stroke-width: 0.85 ;&st7;  " /><path d=" M  4572.23,   697.25  L  4572.23,   701.50  " style="stroke-width: 0.85 ;&st7;  " /><path d=" M  4636.26,   345.69  C  4636.26    343.19   4634.23    341.16   4631.73    341.16  " style="stroke-width: 1.42 ;&st7;   " /><path d=" M  4631.73,   341.16  C  4629.22    341.16   4627.19    343.19   4627.19    345.69  " style="stroke-width: 1.42 ;&st7;   " /><path d=" M  4627.19,   345.69  C  4627.19    348.20   4629.22    350.23   4631.73    350.23  " style="stroke-width: 1.42 ;&st7;   " /><path d=" M  4631.73,   350.23  C  4634.23    350.23   4636.26    348.20   4636.26    345.69  " style="stroke-width: 1.42 ;&st7;   " /><path d=" M  4636.26,   371.76  C  4636.26    369.25   4634.23    367.22   4631.73    367.22  " style="stroke-width: 1.42 ;&st7;   " /><path d=" M  4631.73,   367.22  C  4629.22    367.22   4627.19    369.25   4627.19    371.76  " style="stroke-width: 1.42 ;&st7;   " /><path d=" M  4627.19,   371.76  C  4627.19    374.26   4629.22    376.29   4631.73    376.29  " style="stroke-width: 1.42 ;&st7;   " /><path d=" M  4631.73,   376.29  C  4634.23    376.29   4636.26    374.26   4636.26    371.76  " style="stroke-width: 1.42 ;&st7;   " /><path d=" M  4602.26,   371.76  C  4602.26    369.25   4600.24    367.22   4597.73    367.22  " style="stroke-width: 1.42 ;&st7;   " /><path d=" M  4597.73,   367.22  C  4595.23    367.22   4593.20    369.25   4593.20    371.76  " style="stroke-width: 1.42 ;&st7;   " /><path d=" M  4593.20,   371.76  C  4593.20    374.26   4595.23    376.29   4597.73    376.29  " style="stroke-width: 1.42 ;&st7;   " /><path d=" M  4597.73,   376.29  C  4600.24    376.29   4602.26    374.26   4602.26    371.76  " style="stroke-width: 1.42 ;&st7;   " /><path d=" M  4602.26,   345.69  C  4602.26    343.19   4600.24    341.16   4597.73    341.16  " style="stroke-width: 1.42 ;&st7;   " /><path d=" M  4597.73,   341.16  C  4595.23    341.16   4593.20    343.19   4593.20    345.69  " style="stroke-width: 1.42 ;&st7;   " /><path d=" M  4593.20,   345.69  C  4593.20    348.20   4595.23    350.23   4597.73    350.23  " style="stroke-width: 1.42 ;&st7;   " /><path d=" M  4597.73,   350.23  C  4600.24    350.23   4602.26    348.20   4602.26    345.69  " style="stroke-width: 1.42 ;&st7;   " /><text style="&st18;" transform="matrix(&st17;  4628.03  518.65 )">W</text><text style="&st18;" transform="matrix(&st17;  4639.36  524.19 )">(RHD)</text><text style="&st18;" transform="matrix(&st17;  4594.04  517.87 )">R</text><text style="&st18;" transform="matrix(&st17;  4605.37  524.19 )">(RHD)</text><text style="&st18;" transform="matrix(&st17;  4639.36  235.24 )">(RHD)</text><text style="&st18;" transform="matrix(&st17;  4628.03  229.69 )">W</text><text style="&st18;" transform="matrix(&st17;  4594.04  228.92 )">R</text><text style="&st18;" transform="matrix(&st17;  4605.37  235.24 )">(RHD)</text><text style="&st18;" transform="matrix(&st16;  4523.52  635.48 )">W-B</text><text style="&st18;" transform="matrix(&st16;  4521.51  646.81 )">(LHD)</text><text style="&st18;" transform="matrix(&st16;  4625.39  474.02 )">7</text><text ewd:textID="21" style="&st18;" transform="matrix(&st17;  4654.94  497.61 )">Junction Connector</text><text style="&st18;" transform="matrix(&st17;  4545.88  277.23 )">(LHD)</text><text style="&st18;" transform="matrix(&st17;  4579.87  277.23 )">(LHD)</text><text style="&st18;" transform="matrix(&st17;  4647.84  370.12 )">L29(A),L30(B)</text><text ewd:textID="21" style="&st18;" transform="matrix(&st17;  4654.94  370.13 )">Junction Connector</text><text style="&st18;" transform="matrix(&st16;  4588.06  502.9 )">12</text><text style="&st18;" transform="matrix(&st16;  4625.39  502.9 )">1</text><text ewd:textID="21" style="&st18;" transform="matrix(&st17;  4595.45  166.16 )">Junction <tspan dy="6.0" x="0 ">Connector</tspan></text><text style="&st18;" transform="matrix(&st17;  4588.35  166.16 )">E73</text><text style="&st18;" transform="matrix(&st17;  4605.37  332.97 )">(RHD)</text><text style="&st18;" transform="matrix(&st17;  4534.55  271.41 )">R</text><text style="&st18;" transform="matrix(&st16;  4588.06  474.02 )">18</text><text style="&st18;" transform="matrix(&st16;  4565.9  142.57 )">4</text><text style="&st18;" transform="matrix(&st16;  4528.57  171.45 )">12</text><text style="&st18;" transform="matrix(&st16;  4565.9  171.45 )">1</text><text style="&st18;" transform="matrix(&st16;  4528.57  142.57 )">15</text><text style="&st18;" transform="matrix(&st16;  4565.9  567.5 )">1</text><text style="&st18;" transform="matrix(&st16;  4565.9  596.38 )">3</text><text style="&st18;" transform="matrix(&st17;  4568.54  272.19 )">W</text><text style="&st18;" transform="matrix(&st16;  4528.57  567.5 )">12</text><text style="&st18;" transform="matrix(&st16;  4528.57  596.38 )">14</text><text style="&st18;" transform="matrix(&st16;  4582.99  573.13 )">E70</text><text ewd:textID="21" style="&st18;" transform="matrix(&st16;  4582.99  580.24 )">Junction <tspan dy="6.0" x="0 ">Connector</tspan></text><text style="&st18;" transform="matrix(&st16;  4588.25  373.73 )">2</text><text style="&st18;" transform="matrix(&st16;  4595.47  373.73 )">B</text><text style="&st18;" transform="matrix(&st16;  4629.46  347.66 )">A</text><text style="&st18;" transform="matrix(&st16;  4622.25  347.66 )">1</text><text style="&st18;" transform="matrix(&st16;  4580.98  432.93 )">74</text><text style="&st18;" transform="matrix(&st16;  4622.25  373.73 )">1</text><text style="&st18;" transform="matrix(&st16;  4629.46  373.73 )">B</text><text style="&st18;" transform="matrix(&st16;  4614.97  432.93 )">73</text><text style="&st18;" transform="matrix(&st17;  4594.04  398.89 )">R</text><text style="&st18;" transform="matrix(&st17;  4628.03  398.62 )">Y</text><text style="&st18;" transform="matrix(&st16;  4588.25  347.66 )">2</text><text style="&st18;" transform="matrix(&st16;  4595.47  347.66 )">A</text><text style="&st18;" transform="matrix(&st16;  4584.31  296.96 )">3</text><text style="&st18;" transform="matrix(&st16;  4618.31  296.96 )">2</text><text style="&st18;" transform="matrix(&st17;  4594.04  328.98 )">GR</text><text style="&st18;" transform="matrix(&st17;  4647.84  497.6 )">E76</text><text style="&st18;" transform="matrix(&st17;  4628.03  328.48 )">LG</text><text style="&st18;" transform="matrix(&st17;  4639.36  332.97 )">(RHD)</text><text style="&st18;" transform="matrix(&st17;  4594.04  454.13 )">R</text><text style="&st18;" transform="matrix(&st17;  4628.03  453.86 )">Y</text><text style="&st18;" transform="matrix(&st17;  4605.37  460.45 )">(RHD)</text><text style="&st18;" transform="matrix(&st17;  4639.36  460.45 )">(RHD)</text><text style="&st18;" transform="matrix(&st17;  4605.37  405.21 )">(RHD)</text><text style="&st18;" transform="matrix(&st17;  4639.36  405.21 )">(RHD)</text><text style="&st18;" transform="matrix(&st16;  4580.98  245.96 )">29</text><text style="&st18;" transform="matrix(&st16;  4614.97  245.96 )">19</text><text style="&st18;" transform="matrix(&st17;  4605.37  277.73 )">(RHD)</text><text style="&st18;" transform="matrix(&st17;  4594.04  271.41 )">R</text><text style="&st18;" transform="matrix(&st17;  4628.03  272.19 )">W</text><text style="&st18;" transform="matrix(&st17;  4639.36  277.73 )">(RHD)</text></svg>