﻿<?xml version="1.0" encoding="utf-8"?>
<!DOCTYPE svg PUBLIC "-//W3C//DTD SVG 1.0//EN" "http://www.w3.org/TR/2001/REC-SVG-20010904/DTD/svg10.dtd"[
	<!ENTITY ns_flows "http://ns.adobe.com/Flows/1.0/">
	<!ENTITY ns_svg "http://www.w3.org/2000/svg">
	<!ENTITY ns_xlink "http://www.w3.org/1999/xlink">
	<!ENTITY st0 "font-size:7px;font-family:'MS-PGothic';adobe-font-script:japanese;">
	<!ENTITY st1 "font-size:6px;font-family:'ArialMT';">
	<!-- White fill  -->
	<!ENTITY st2 "fill:#FFFFFF;stroke:#000000; stroke-width:1.41;stroke-linecap:round;stroke-linejoin:round;">
	<!-- Yellow fill  -->
	<!ENTITY st3 "fill:#FFFFCC;stroke:#FFFFCC; stroke-width:0.1;stroke-linecap:round;stroke-linejoin:round;">
	<!-- Gray fill  -->
	<!ENTITY st4 "fill:#CCCCCC;stroke:#CCCCCC; stroke-width:0.1;stroke-linecap:round;stroke-linejoin:round;">
	<!-- Light-blue fill -->
	<!ENTITY st5 "fill:#CCECF4;stroke:#000000; stroke-width:1.133;stroke-linecap:round;stroke-linejoin:round;">
	<!ENTITY st6 "fill:none;stroke-linecap:butt; stroke-linejoin:round;">
	<!ENTITY st7 "fill:none;stroke:#000000;stroke-linecap:round;stroke-linejoin:round;">
	<!ENTITY st8 "enable-background:new    ;">
	<!-- Black fill -->
	<!ENTITY st9 "fill:#000000;stroke:#000000; stroke-linecap:round;stroke-linejoin:round;">
	<!-- SRS note   -->
	<!ENTITY st10 "font-size:9px;font-family:'ArialMT';">
	<!ENTITY st11 "font-size:9px;font-family:'Svg Symbol';">
	<!ENTITY st12 "font-size:6px;font-family:'Svg Symbol';">
	<!ENTITY st13 "fill:none;stroke:#ff0000;stroke-linecap:round;stroke-linejoin:round;">
	<!-- Yellow fill  -->
	<!ENTITY st14 "fill:#FFFF00;stroke:#FFFF00; stroke-width:0.1;stroke-linecap:round;stroke-linejoin:round;">
	<!ENTITY st15 "font-size:6px;font-family:'MS-PGothic';adobe-font-script:japanese;">
	<!ENTITY st16 "1.00 0.00 0.00 1.00">
	<!ENTITY st17 "0.00 -1.00 1.00 0.00">
	<!ENTITY st18 "font-size:6px;font-family:'Arial';">
	<!ENTITY st19 "font-size:9px;font-family:'Arial';">
	<!ENTITY st20 "font-size:6px;font-family:'MS-PGothic','MS PGothic';adobe-font-script:japanese;">
	<!ENTITY st21 "font-size:7px;font-family:'MS-PGothic','MS PGothic';adobe-font-script:japanese;">
	<!ATTLIST svg
		xmlns:ewd CDATA #FIXED "http://shcl.co.jp/ewd"
		xmlns:a CDATA #FIXED "http://ns.adobe.com/AdobeSVGViewerExtensions/3.0/"
		ewd:ver CDATA #IMPLIED
	>
	<!ATTLIST a
		ewd:lineID CDATA #IMPLIED
		ewd:groupID CDATA #IMPLIED
		ewd:figtype CDATA #IMPLIED
		ewd:code CDATA #IMPLIED
		ewd:figID CDATA #IMPLIED
		ewd:pinNo CDATA #IMPLIED
		ewd:comment CDATA #IMPLIED >
	<!ATTLIST g
		ewd:lineID CDATA #IMPLIED
		ewd:groupID CDATA #IMPLIED
		ewd:figtype CDATA #IMPLIED
		ewd:code CDATA #IMPLIED
		ewd:figID CDATA #IMPLIED
		ewd:pinNo CDATA #IMPLIED
		ewd:comment CDATA #IMPLIED >
	<!ATTLIST text
		ewd:textID CDATA #IMPLIED >
	<!ATTLIST title
		ewd:textID CDATA #IMPLIED >
]>
<!-- Generator: Shintec Hozumi YS   -->
<svg onload="call_execInitLoadProc_svg('system')" style="overflow:visible;  enable-background:new 0 0 3615.269 710.000" viewBox="0 0 3615.269 710.000" height="710.000" width="3615.269" xml:space="preserve" ewd:ver="L2.3.0.14" xmlns="&ns_svg;" xmlns:a="http://ns.adobe.com/AdobeSVGViewerExtensions/3.0/" xmlns:ewd="http://shcl.co.jp/ewd" xmlns:xlink="&ns_xlink;">
<path d=" M  1648.72,   146.26  L  1657.22,   146.26  " style="stroke-width: 1.42 ;&st7;  " /><path d=" M  1606.23,   146.26  L  1614.73,   146.26  " style="stroke-width: 1.42 ;&st7;  " /><path d=" M  1623.23,   341.73  L  1614.73,   341.73  " style="stroke-width: 1.42 ;&st7;  " /><path d=" M  1665.72,   341.73  L  1657.22,   341.73  " style="stroke-width: 1.42 ;&st7;  " /><path d=" M  1895.18,   222.75  L  1895.18,   265.24  L  2039.66,   265.24  L  2039.66,   222.75  L  1895.18,   222.75  " style="stroke-width: 1.42 ;&st7;  " /><path d=" M  1656.03,   255.74  L  1655.76,   256.21  L  1655.66,   256.74  L  1655.76,   257.28  L  1656.03,   257.75  L  1656.44,   258.09  L  1656.95,   258.28  L  1657.49,   258.28  L  1658.00,   258.09  L  1658.42,   257.75  L  1658.69,   257.28  L  1658.78,   256.74  L  1658.69,   256.21  L  1658.42,   255.74  L  1658.00,   255.39  L  1657.49,   255.21  L  1656.95,   255.21  L  1656.44,   255.39  L  1656.03,   255.74  L  1656.42,   256.45  L  1656.42,   257.03  L  1656.80,   257.48  L  1657.37,   257.58  L  1657.87,   257.29  L  1658.07,   256.74  L  1657.87,   256.20  L  1657.37,   255.91  L  1656.80,   256.01  L  1657.22,   256.74  " style="stroke-width: 0.85 ;&st7;  " /><path d=" M  1613.54,   238.74  L  1613.26,   239.21  L  1613.17,   239.75  L  1613.26,   240.28  L  1613.54,   240.75  L  1613.95,   241.09  L  1614.46,   241.28  L  1615.00,   241.28  L  1615.51,   241.09  L  1615.92,   240.75  L  1616.19,   240.28  L  1616.29,   239.75  L  1616.19,   239.21  L  1615.92,   238.74  L  1615.51,   238.40  L  1615.00,   238.21  L  1614.46,   238.21  L  1613.95,   238.40  L  1613.54,   238.74  L  1613.93,   239.45  L  1613.93,   240.04  L  1614.30,   240.48  L  1614.88,   240.58  L  1615.38,   240.29  L  1615.58,   239.75  L  1615.38,   239.20  L  1614.88,   238.91  L  1614.30,   239.01  L  1614.73,   239.75  " style="stroke-width: 0.85 ;&st7;  " /><path d=" M  1657.22,   256.74  L  1725.21,   256.74  L  1725.21,   222.75  " style="stroke-width: 0.85 ;&st7;  " /><path d=" M  1606.23,   392.72  L  1606.23,   443.71  L  1844.19,   443.71  L  1844.19,   392.72  L  1606.23,   392.72  " style="stroke-width: 1.42 ;&st7;  " /><path d=" M  1661.47,   140.60  L  1657.22,   144.84  L  1652.97,   140.60  " style="stroke-width: 1.42 ;&st7;  " /><path d=" M  1618.98,   140.60  L  1614.73,   144.84  L  1610.48,   140.60  " style="stroke-width: 1.42 ;&st7;  " /><path d=" M  1652.97,   137.20  L  1657.22,   141.45  L  1661.47,   137.20  " style="stroke-width: 1.42 ;&st7;  " /><path d=" M  1610.48,   137.20  L  1614.73,   141.45  L  1618.98,   137.20  " style="stroke-width: 1.42 ;&st7;  " /><path d=" M  1614.73,   273.74  L  1614.73,   222.75  " style="stroke-width: 0.85 ;&st7;  " /><path d=" M  1657.22,   273.74  L  1657.22,   222.75  " style="stroke-width: 0.85 ;&st7;  " /><path d=" M  1606.23,   222.75  L  1606.23,   273.74  L  1733.71,   273.74  L  1733.71,   222.75  L  1606.23,   222.75  " style="stroke-width: 1.42 ;&st7;  " /><path d=" M  1618.98,   350.79  L  1614.73,   346.54  L  1610.48,   350.79  " style="stroke-width: 1.42 ;&st7;  " /><path d=" M  1618.98,   347.39  L  1614.73,   343.14  L  1610.48,   347.39  " style="stroke-width: 1.42 ;&st7;  " /><path d=" M  1835.69,   239.75  L  1835.69,   222.75  " style="stroke-width: 0.85 ;&st7;  " /><path d=" M  1793.20,   222.75  L  1793.20,   239.75  " style="stroke-width: 0.85 ;&st7;  " /><path d=" M  1784.70,   222.75  L  1784.70,   239.75  L  1844.19,   239.75  L  1844.19,   222.75  L  1784.70,   222.75  " style="stroke-width: 1.42 ;&st7;  " /><path d=" M  1661.47,   350.79  L  1657.22,   346.54  L  1652.97,   350.79  " style="stroke-width: 1.42 ;&st7;  " /><path d=" M  1661.47,   347.39  L  1657.22,   343.14  L  1652.97,   347.39  " style="stroke-width: 1.42 ;&st7;  " /><path d=" M  1508.50,   327.56  L  1504.25,   331.81  L  1500.00,   327.56  " style="stroke-width: 1.42 ;&st7;  " /><path d=" M  1500.00,   324.16  L  1504.25,   328.41  L  1508.50,   324.16  " style="stroke-width: 1.42 ;&st7;  " /><path d=" M  1657.22,   392.72  L  1657.22,   409.72  L  1793.20,   409.72  L  1793.20,   392.72  " style="stroke-width: 0.85 ;&st7;  " /><path d=" M  1614.73,   392.72  L  1614.73,   426.71  L  1835.69,   426.71  L  1835.69,   392.72  " style="stroke-width: 0.85 ;&st7;  " /><path d=" M  1614.73,   239.75  L  1682.72,   239.75  L  1682.72,   222.75  " style="stroke-width: 0.85 ;&st7;  " /><text style="&st18;" transform="matrix(&st16;  1676.38  219.06 )">1</text><text style="&st18;" transform="matrix(&st16;  1715.54  219.06 )">12</text><text style="&st18;" transform="matrix(&st17;  1679.02  182.02 )">V</text><text style="&st18;" transform="matrix(&st17;  1721.52  181.63 )">L</text><text style="&st18;" transform="matrix(&st17;  1984.97  184.19 )">BR</text><text style="&st18;" transform="matrix(&st16;  1978.99  219.06 )">16</text><text style="&st18;" transform="matrix(&st16;  1980.39  230.38 )">CA1H</text><text style="&st18;" transform="matrix(&st16;  1925.77  272.85 )">E31</text><text ewd:textID="28" style="&st18;" transform="matrix(&st16;  1925.77  279.96 )">Network Gateway ECU</text><text style="&st18;" transform="matrix(&st16;  1902.51  219.06 )">13</text><text style="&st18;" transform="matrix(&st16;  1936.5  219.06 )">12</text><text style="&st18;" transform="matrix(&st16;  1903.9  230.38 )">CA2H</text><text style="&st18;" transform="matrix(&st16;  1938.44  230.38 )">CA2L</text><text style="&st18;" transform="matrix(&st16;  1640.47  152.48 )">20</text><text style="&st18;" transform="matrix(&st17;  1653.53  181.63 )">L</text><text style="&st18;" transform="matrix(&st17;  1611.03  181.91 )">Y</text><text style="&st18;" transform="matrix(&st16;  1597.98  152.48 )">10</text><text style="&st18;" transform="matrix(&st16;  1647.55  219.06 )">13</text><text style="&st18;" transform="matrix(&st16;  1608.39  219.06 )">2</text><text ewd:textID="24" style="&st18;" transform="matrix(&st17;  1748.43  276.65 )">Junction Connector</text><text style="&st18;" transform="matrix(&st17;  1741.32  276.64 )">F21</text><text style="&st18;" transform="matrix(&st16;  1608.39  281.93 )">3</text><text style="&st18;" transform="matrix(&st16;  1647.55  281.93 )">14</text><text ewd:textID="24" style="&st18;" transform="matrix(&st17;  1858.91  438.12 )">Junction <tspan dy="6.0" x="0 ">Connector</tspan></text><text style="&st18;" transform="matrix(&st17;  1851.8  438.11 )">E68</text><text style="&st18;" transform="matrix(&st17;  1653.53  364.35 )">L</text><text style="&st18;" transform="matrix(&st17;  1611.03  364.62 )">Y</text><text style="&st18;" transform="matrix(&st17;  1653.53  309.11 )">L</text><text style="&st18;" transform="matrix(&st17;  1611.03  309.38 )">Y</text><text style="&st18;" transform="matrix(&st16;  1829.35  389.03 )">1</text><text style="&st18;" transform="matrix(&st16;  1601.31  339.45 )">1</text><text style="&st18;" transform="matrix(&st16;  1783.53  389.03 )">12</text><text ewd:textID="24" style="&st18;" transform="matrix(&st17;  1858.91  242.65 )">Junction Connector</text><text style="&st18;" transform="matrix(&st17;  1851.8  242.64 )">E71</text><text style="&st18;" transform="matrix(&st17;  1832.0  184.04 )">SB</text><text style="&st18;" transform="matrix(&st17;  1789.5  181.63 )">L</text><text style="&st18;" transform="matrix(&st16;  1640.47  339.45 )">11</text><text style="&st18;" transform="matrix(&st17;  1832.0  310.43 )">W</text><text style="&st18;" transform="matrix(&st17;  1789.5  309.11 )">L</text><text style="&st18;" transform="matrix(&st16;  1511.07  117.07 )">Y(LHD)</text><text style="&st18;" transform="matrix(&st16;  1511.38  100.07 )">L(LHD)</text><text style="&st18;" transform="matrix(&st16;  1829.35  247.94 )">1</text><text style="&st18;" transform="matrix(&st16;  1783.53  247.94 )">12</text><text style="&st18;" transform="matrix(&st16;  1783.53  219.06 )">13</text><text style="&st18;" transform="matrix(&st16;  1829.35  219.06 )">2</text><text style="&st18;" transform="matrix(&st17;  1843.33  315.47 )">(LHD)</text><text style="&st18;" transform="matrix(&st17;  1800.84  315.47 )">(LHD)</text><text style="&st18;" transform="matrix(&st17;  1959.48  190.16 )">L(RHD)</text><text style="&st18;" transform="matrix(&st17;  1891.49  192.53 )">SB(RHD)</text><text style="&st18;" transform="matrix(&st16;  1510.84  66.08 )">L(RHD)</text><text style="&st18;" transform="matrix(&st16;  1508.47  83.07 )">SB(RHD)</text><text style="&st18;" transform="matrix(&st17;  1800.84  187.99 )">(LHD)</text><text style="&st18;" transform="matrix(&st17;  1843.33  187.99 )">(LHD)</text><text style="&st18;" transform="matrix(&st17;  1622.37  187.99 )">(LHD)</text><text style="&st18;" transform="matrix(&st17;  1664.86  187.99 )">(LHD)</text><text style="&st18;" transform="matrix(&st16;  1576.46  83.07 )">SB(RHD)</text><text style="&st18;" transform="matrix(&st16;  1578.83  66.08 )">L(RHD)</text><text style="&st18;" transform="matrix(&st16;  1579.06  117.07 )">Y(LHD)</text><text style="&st18;" transform="matrix(&st16;  1579.37  100.07 )">L(LHD)</text><text style="&st18;" transform="matrix(&st17;  1908.49  192.03 )">SB(LHD)</text><text style="&st18;" transform="matrix(&st17;  1942.48  189.62 )">L(LHD)</text><text style="&st18;" transform="matrix(&st16;  1509.56  465.51 )">W(RHD)</text><text style="&st18;" transform="matrix(&st16;  1510.84  482.51 )">L(RHD)</text><text style="&st18;" transform="matrix(&st16;  1577.55  465.51 )">W(RHD)</text><text style="&st18;" transform="matrix(&st16;  1578.83  482.51 )">L(RHD)</text><text style="&st18;" transform="matrix(&st17;  1882.99  412.41 )">W(RHD)</text><text style="&st18;" transform="matrix(&st17;  1899.99  411.13 )">L(RHD)</text><text style="&st18;" transform="matrix(&st16;  1587.36  23.58 )">L</text><text style="&st18;" transform="matrix(&st16;  1586.97  40.58 )">V</text><text style="&st18;" transform="matrix(&st16;  1519.37  23.58 )">L</text><text style="&st18;" transform="matrix(&st16;  1518.98  40.58 )">V</text><text style="&st18;" transform="matrix(&st17;  1511.89  375.47 )">(RHD)</text><text style="&st18;" transform="matrix(&st17;  1511.89  315.98 )">(RHD)</text><text style="&st18;" transform="matrix(&st17;  1500.55  368.99 )">V</text><text style="&st18;" transform="matrix(&st17;  1500.55  309.5 )">V</text><text style="&st18;" transform="matrix(&st16;  1647.55  389.03 )">13</text><text style="&st18;" transform="matrix(&st16;  1608.39  389.03 )">2</text></svg>