﻿<?xml version="1.0" encoding="utf-8"?>
<!DOCTYPE svg PUBLIC "-//W3C//DTD SVG 1.0//EN" "http://www.w3.org/TR/2001/REC-SVG-20010904/DTD/svg10.dtd"[
	<!ENTITY ns_flows "http://ns.adobe.com/Flows/1.0/">
	<!ENTITY ns_svg "http://www.w3.org/2000/svg">
	<!ENTITY ns_xlink "http://www.w3.org/1999/xlink">
	<!ENTITY st0 "font-size:7px;font-family:'MS-PGothic';adobe-font-script:japanese;">
	<!ENTITY st1 "font-size:6px;font-family:'ArialMT';">
	<!-- White fill  -->
	<!ENTITY st2 "fill:#FFFFFF;stroke:#000000; stroke-width:1.41;stroke-linecap:round;stroke-linejoin:round;">
	<!-- Yellow fill  -->
	<!ENTITY st3 "fill:#FFFFCC;stroke:#FFFFCC; stroke-width:0.1;stroke-linecap:round;stroke-linejoin:round;">
	<!-- Gray fill  -->
	<!ENTITY st4 "fill:#CCCCCC;stroke:#CCCCCC; stroke-width:0.1;stroke-linecap:round;stroke-linejoin:round;">
	<!-- Light-blue fill -->
	<!ENTITY st5 "fill:#CCECF4;stroke:#000000; stroke-width:1.133;stroke-linecap:round;stroke-linejoin:round;">
	<!ENTITY st6 "fill:none;stroke-linecap:butt; stroke-linejoin:round;">
	<!ENTITY st7 "fill:none;stroke:#000000;stroke-linecap:round;stroke-linejoin:round;">
	<!ENTITY st8 "enable-background:new    ;">
	<!-- Black fill -->
	<!ENTITY st9 "fill:#000000;stroke:#000000; stroke-linecap:round;stroke-linejoin:round;">
	<!-- SRS note   -->
	<!ENTITY st10 "font-size:9px;font-family:'ArialMT';">
	<!ENTITY st11 "font-size:9px;font-family:'Svg Symbol';">
	<!ENTITY st12 "font-size:6px;font-family:'Svg Symbol';">
	<!ENTITY st13 "fill:none;stroke:#ff0000;stroke-linecap:round;stroke-linejoin:round;">
	<!-- Yellow fill  -->
	<!ENTITY st14 "fill:#FFFF00;stroke:#FFFF00; stroke-width:0.1;stroke-linecap:round;stroke-linejoin:round;">
	<!ENTITY st15 "font-size:6px;font-family:'MS-PGothic';adobe-font-script:japanese;">
	<!ENTITY st16 "1.00 0.00 0.00 1.00">
	<!ENTITY st17 "0.00 -1.00 1.00 0.00">
	<!ENTITY st18 "font-size:6px;font-family:'Arial';">
	<!ENTITY st19 "font-size:9px;font-family:'Arial';">
	<!ENTITY st20 "font-size:6px;font-family:'MS-PGothic','MS PGothic';adobe-font-script:japanese;">
	<!ENTITY st21 "font-size:7px;font-family:'MS-PGothic','MS PGothic';adobe-font-script:japanese;">
	<!ATTLIST svg
		xmlns:ewd CDATA #FIXED "http://shcl.co.jp/ewd"
		xmlns:a CDATA #FIXED "http://ns.adobe.com/AdobeSVGViewerExtensions/3.0/"
		ewd:ver CDATA #IMPLIED
	>
	<!ATTLIST a
		ewd:lineID CDATA #IMPLIED
		ewd:groupID CDATA #IMPLIED
		ewd:figtype CDATA #IMPLIED
		ewd:code CDATA #IMPLIED
		ewd:figID CDATA #IMPLIED
		ewd:pinNo CDATA #IMPLIED
		ewd:comment CDATA #IMPLIED >
	<!ATTLIST g
		ewd:lineID CDATA #IMPLIED
		ewd:groupID CDATA #IMPLIED
		ewd:figtype CDATA #IMPLIED
		ewd:code CDATA #IMPLIED
		ewd:figID CDATA #IMPLIED
		ewd:pinNo CDATA #IMPLIED
		ewd:comment CDATA #IMPLIED >
	<!ATTLIST text
		ewd:textID CDATA #IMPLIED >
	<!ATTLIST title
		ewd:textID CDATA #IMPLIED >
]>
<!-- Generator: Shintec Hozumi YS   -->
<svg onload="call_execInitLoadProc_svg('system')" style="overflow:visible;  enable-background:new 0 0 3623.767 710.000" viewBox="0 0 3623.767 710.000" height="710.000" width="3623.767" xml:space="preserve" ewd:ver="L2.3.0.14" xmlns="&ns_svg;" xmlns:a="http://ns.adobe.com/AdobeSVGViewerExtensions/3.0/" xmlns:ewd="http://shcl.co.jp/ewd" xmlns:xlink="&ns_xlink;">
<path d=" M  3203.96,   197.25  L  3195.47,   197.25  " style="stroke-width: 1.42 ;&st7;  " /><path d=" M  3450.42,   627.15  L  3445.45,   622.18  " style="stroke-width: 1.42 ;&st7;  " /><path d=" M  3433.43,   634.21  L  3438.40,   639.18  " style="stroke-width: 1.42 ;&st7;  " /><path d=" M  3445.45,   639.18  L  3450.42,   634.21  " style="stroke-width: 1.42 ;&st7;  " /><path d=" M  3438.40,   622.18  L  3433.43,   627.15  " style="stroke-width: 1.42 ;&st7;  " /><path d=" M  3135.98,   443.71  L  3475.92,   443.71  " style="stroke-width: 0.85 ;&st7;  " /><path d=" M  3135.98,   477.71  L  3475.92,   477.71  " style="stroke-width: 0.85 ;&st7;  " /><path d=" M  3135.98,   494.70  L  3475.92,   494.70  " style="stroke-width: 0.85 ;&st7;  " /><path d=" M  3135.98,   511.70  L  3475.92,   511.70  " style="stroke-width: 0.85 ;&st7;  " /><path d=" M  3220.96,   426.71  L  3220.96,   528.70  " style="stroke-width: 0.85 ;&st7;  " /><path d=" M  3169.97,   426.71  L  3169.97,   528.70  " style="stroke-width: 0.85 ;&st7;  " /><path d=" M  3271.95,   426.71  L  3271.95,   528.70  " style="stroke-width: 0.85 ;&st7;  " /><path d=" M  3322.94,   426.71  L  3322.94,   528.70  " style="stroke-width: 0.85 ;&st7;  " /><path d=" M  3373.94,   426.71  L  3373.94,   528.70  " style="stroke-width: 0.85 ;&st7;  " /><path d=" M  3424.93,   426.71  L  3424.93,   528.70  " style="stroke-width: 0.85 ;&st7;  " /><path d=" M  3298.87,   469.21  L  3347.02,   469.21  " style="stroke-width: 0.85 ;&st7;  " /><path d=" M  3196.88,   520.20  L  3245.04,   520.20  " style="stroke-width: 0.85 ;&st7;  " /><path d=" M  3196.88,   503.20  L  3296.03,   503.20  " style="stroke-width: 0.85 ;&st7;  " /><path d=" M  3298.87,   486.20  L  3347.02,   486.20  " style="stroke-width: 0.85 ;&st7;  " /><path d=" M  3400.85,   486.20  L  3449.01,   486.20  " style="stroke-width: 0.85 ;&st7;  " /><path d=" M  3169.97,   329.70  L  3165.00,   324.73  " style="stroke-width: 1.42 ;&st7;  " /><path d=" M  3152.97,   336.76  L  3157.94,   341.73  " style="stroke-width: 1.42 ;&st7;  " /><path d=" M  3165.00,   341.73  L  3169.97,   336.76  " style="stroke-width: 1.42 ;&st7;  " /><path d=" M  3157.94,   324.73  L  3152.97,   329.70  " style="stroke-width: 1.42 ;&st7;  " /><path d=" M  3280.45,   329.70  L  3275.48,   324.73  " style="stroke-width: 1.42 ;&st7;  " /><path d=" M  3263.45,   336.76  L  3268.43,   341.73  " style="stroke-width: 1.42 ;&st7;  " /><path d=" M  3275.48,   341.73  L  3280.45,   336.76  " style="stroke-width: 1.42 ;&st7;  " /><path d=" M  3268.43,   324.73  L  3263.45,   329.70  " style="stroke-width: 1.42 ;&st7;  " /><path d=" M  3055.24,   239.75  L  3046.74,   239.75  " style="stroke-width: 0.85 ;&st7;  " /><path d=" M  3050.99,    69.77  L  3050.99,    95.27  " style="stroke-width: 0.85 ;&st7;  " /><path d=" M  3053.11,    95.27  L  3048.87,    95.27  " style="stroke-width: 1.42 ;&st7;  " /><path d=" M  3053.11,   103.77  L  3048.87,   103.77  " style="stroke-width: 1.42 ;&st7;  " /><path d=" M  3042.49,   163.26  L  3050.99,   163.26  " style="stroke-width: 1.42 ;&st7;  " /><path d=" M  3021.25,   239.75  L  3012.75,   239.75  " style="stroke-width: 0.85 ;&st7;  " /><path d=" M  3049.80,   272.74  L  3049.52,   273.21  L  3049.43,   273.74  L  3049.52,   274.27  L  3049.80,   274.74  L  3050.21,   275.09  L  3050.72,   275.28  L  3051.26,   275.28  L  3051.77,   275.09  L  3052.18,   274.74  L  3052.45,   274.27  L  3052.55,   273.74  L  3052.45,   273.21  L  3052.18,   272.74  L  3051.77,   272.39  L  3051.26,   272.20  L  3050.72,   272.20  L  3050.21,   272.39  L  3049.80,   272.74  L  3050.19,   273.45  L  3050.19,   274.03  L  3050.56,   274.48  L  3051.14,   274.58  L  3051.64,   274.29  L  3051.84,   273.74  L  3051.64,   273.19  L  3051.14,   272.90  L  3050.56,   273.00  L  3050.99,   273.74  " style="stroke-width: 0.85 ;&st7;  " /><path d=" M  3049.80,   221.75  L  3049.52,   222.22  L  3049.43,   222.75  L  3049.52,   223.28  L  3049.80,   223.75  L  3050.21,   224.10  L  3050.72,   224.28  L  3051.26,   224.28  L  3051.77,   224.10  L  3052.18,   223.75  L  3052.45,   223.28  L  3052.55,   222.75  L  3052.45,   222.22  L  3052.18,   221.75  L  3051.77,   221.40  L  3051.26,   221.21  L  3050.72,   221.21  L  3050.21,   221.40  L  3049.80,   221.75  L  3050.19,   222.46  L  3050.19,   223.04  L  3050.56,   223.48  L  3051.14,   223.58  L  3051.64,   223.30  L  3051.84,   222.75  L  3051.64,   222.20  L  3051.14,   221.91  L  3050.56,   222.01  L  3050.99,   222.75  " style="stroke-width: 0.85 ;&st7;  " /><path d=" M  3016.99,   239.75  L  3011.33,   231.25  L  3022.66,   231.25  L  3016.99,   239.75  " style="stroke-width: 0.28 ;&st9;  " /><path d=" M  3050.99,   214.25  L  3050.99,   333.23  " style="stroke-width: 0.85 ;&st7;  " /><path d=" M  3050.99,   239.75  L  3045.32,   231.25  L  3056.65,   231.25  L  3050.99,   239.75  " style="stroke-width: 0.28 ;&st9;  " /><path d=" M  3016.99,   256.74  L  3016.99,   222.75  L  3050.99,   222.75  " style="stroke-width: 0.85 ;&st7;  " /><path d=" M  3046.74,   154.19  L  3050.99,   158.44  L  3055.24,   154.19  " style="stroke-width: 1.42 ;&st7;  " /><path d=" M  3055.24,   157.59  L  3050.99,   161.84  L  3046.74,   157.59  " style="stroke-width: 1.42 ;&st7;  " /><path d=" M  3038.24,    35.78  L  3038.24,    78.27  L  3063.74,    78.27  L  3063.74,    35.78  L  3038.24,    35.78  " style="stroke-width: 1.42 ;&st7;  " /><path d=" M  3050.99,    90.37  L  3048.16,    87.54  L  3048.16,    91.79  L  3050.99,    94.62  L  3053.82,    91.79  L  3053.82,    87.54  L  3050.99,    90.37  " style="stroke-width: 0.28 ;&st9;  " /><path d=" M  3356.94,   396.69  L  3386.68,   396.69  " style="stroke-width: 0.85 ;&st7; stroke-dasharray:3, 1.5;" /><path d=" M  3305.95,   396.69  L  3335.69,   396.69  " style="stroke-width: 0.85 ;&st7; stroke-dasharray:3, 1.5;" /><path d=" M  3254.95,   396.69  L  3284.70,   396.69  " style="stroke-width: 0.85 ;&st7; stroke-dasharray:3, 1.5;" /><path d=" M  3203.96,   396.69  L  3233.71,   396.69  " style="stroke-width: 0.85 ;&st7; stroke-dasharray:3, 1.5;" /><path d=" M  3356.94,   387.62  L  3386.68,   387.62  " style="stroke-width: 0.85 ;&st7; stroke-dasharray:3, 1.5;" /><path d=" M  3305.95,   387.62  L  3335.69,   387.62  " style="stroke-width: 0.85 ;&st7; stroke-dasharray:3, 1.5;" /><path d=" M  3254.95,   387.62  L  3284.70,   387.62  " style="stroke-width: 0.85 ;&st7; stroke-dasharray:3, 1.5;" /><path d=" M  3203.96,   387.62  L  3233.71,   387.62  " style="stroke-width: 0.85 ;&st7; stroke-dasharray:3, 1.5;" /><path d=" M  3196.88,   452.21  L  3296.03,   452.21  " style="stroke-width: 0.85 ;&st7;  " /><path d=" M  3135.97,   460.71  L  3475.92,   460.71  " style="stroke-width: 0.85 ;&st7;  " /><path d=" M  3441.92,   528.70  L  3441.92,   545.69  " style="stroke-width: 0.85 ;&st7;  " /><path d=" M  3475.92,   426.71  L  3135.97,   426.71  L  3135.97,   528.70  L  3475.92,   528.70  L  3475.92,   426.71  " style="stroke-width: 1.42 ;&st7;  " /><path d=" M  3033.99,   418.22  L  3033.99,   401.22  L  3042.49,   401.22  L  3043.91,   398.39  L  3046.74,   404.05  L  3049.57,   398.39  L  3052.41,   404.05  L  3055.24,   398.39  L  3058.07,   404.05  L  3059.49,   401.22  L  3067.99,   401.22  L  3067.99,   418.22  " style="stroke-width: 0.85 ;&st7;  " /><path d=" M  3492.91,   554.19  L  3543.91,   554.19  L  3543.91,   571.19  L  3492.91,   571.19  L  3492.91,   554.19  " style="stroke-width: 1.42 ;&st7;  " /><path d=" M  3492.91,   146.26  L  3492.91,   163.26  L  3543.91,   163.26  L  3543.91,   146.26  L  3492.91,   146.26  " style="stroke-width: 1.42 ;&st7;  " /><path d=" M  3195.46,   401.22  L  3195.46,   426.71  " style="stroke-width: 0.85 ;&st7;  " /><path d=" M  3246.46,   401.22  L  3246.46,   426.71  " style="stroke-width: 0.85 ;&st7;  " /><path d=" M  3297.45,   401.22  L  3297.45,   426.71  " style="stroke-width: 0.85 ;&st7;  " /><path d=" M  3348.44,   401.22  L  3348.44,   426.71  " style="stroke-width: 0.85 ;&st7;  " /><path d=" M  3399.43,   401.22  L  3399.43,   426.71  " style="stroke-width: 0.85 ;&st7;  " /><path d=" M  3127.48,   401.22  L  3484.42,   401.22  L  3484.42,   545.69  L  3127.48,   545.69  L  3127.48,   401.22  " style="stroke-width: 1.42 ;&st7;  " /><path d=" M  3437.67,   704.33  L  3446.17,   704.33  " style="stroke-width: 0.85 ;&st7;  " /><path d=" M  3433.42,   701.50  L  3450.42,   701.50  " style="stroke-width: 0.85 ;&st7;  " /><path d=" M  3441.92,   697.25  L  3441.92,   701.50  " style="stroke-width: 0.85 ;&st7;  " /><path d=" M  3439.09,   707.17  L  3444.76,   707.17  " style="stroke-width: 0.85 ;&st7;  " /><path d=" M  3440.51,   710.00  L  3443.34,   710.00  " style="stroke-width: 0.85 ;&st7;  " /><path d=" M  3199.71,   202.92  L  3195.46,   198.67  L  3191.22,   202.92  " style="stroke-width: 1.42 ;&st7;  " /><path d=" M  3199.71,   206.32  L  3195.46,   202.07  L  3191.22,   206.32  " style="stroke-width: 1.42 ;&st7;  " /><path d=" M  3178.47,   112.27  L  3212.46,   112.27  L  3212.46,   146.26  L  3178.47,   146.26  L  3178.47,   112.27  " style="stroke-width: 1.42 ;&st7;  " /><path d=" M  3178.47,   239.75  L  3416.43,   239.75  L  3416.43,   273.74  L  3178.47,   273.74  L  3178.47,   239.75  " style="stroke-width: 1.42 ;&st7;  " /><path d=" M  3059.49,   697.25  L  3059.49,   701.50  " style="stroke-width: 0.85 ;&st7;  " /><path d=" M  3050.99,   701.50  L  3067.99,   701.50  " style="stroke-width: 0.85 ;&st7;  " /><path d=" M  3055.24,   704.33  L  3063.74,   704.33  " style="stroke-width: 0.85 ;&st7;  " /><path d=" M  3056.65,   707.17  L  3062.32,   707.17  " style="stroke-width: 0.85 ;&st7;  " /><path d=" M  3058.07,   710.00  L  3060.90,   710.00  " style="stroke-width: 0.85 ;&st7;  " /><path d=" M  3200.00,   235.21  C  3200.00    232.71   3197.97    230.68   3195.47    230.68  " style="stroke-width: 1.42 ;&st7;   " /><path d=" M  3195.47,   230.68  C  3192.96    230.68   3190.93    232.71   3190.93    235.21  " style="stroke-width: 1.42 ;&st7;   " /><path d=" M  3190.93,   235.21  C  3190.93    237.72   3192.96    239.75   3195.47    239.75  " style="stroke-width: 1.42 ;&st7;   " /><path d=" M  3195.47,   239.75  C  3197.97    239.75   3200.00    237.72   3200.00    235.21  " style="stroke-width: 1.42 ;&st7;   " /><path d=" M  3403.96,   278.27  C  3403.96    275.77   3401.94    273.74   3399.43    273.74  " style="stroke-width: 1.42 ;&st7;   " /><path d=" M  3399.43,   273.74  C  3396.93    273.74   3394.90    275.77   3394.90    278.27  " style="stroke-width: 1.42 ;&st7;   " /><path d=" M  3394.90,   278.27  C  3394.90    280.78   3396.93    282.80   3399.43    282.80  " style="stroke-width: 1.42 ;&st7;   " /><path d=" M  3399.43,   282.80  C  3401.94    282.80   3403.96    280.78   3403.96    278.27  " style="stroke-width: 1.42 ;&st7;   " /><path d=" M  3403.96,   396.69  C  3403.96    394.18   3401.94    392.15   3399.43    392.15  " style="stroke-width: 1.42 ;&st7;   " /><path d=" M  3399.43,   392.15  C  3396.93    392.15   3394.90    394.18   3394.90    396.69  " style="stroke-width: 1.42 ;&st7;   " /><path d=" M  3394.90,   396.69  C  3394.90    399.19   3396.93    401.22   3399.43    401.22  " style="stroke-width: 1.42 ;&st7;   " /><path d=" M  3399.43,   401.22  C  3401.94    401.22   3403.96    399.19   3403.96    396.69  " style="stroke-width: 1.42 ;&st7;   " /><path d=" M  3403.96,   387.62  C  3403.96    385.12   3401.94    383.09   3399.43    383.09  " style="stroke-width: 1.42 ;&st7;   " /><path d=" M  3399.43,   383.09  C  3396.93    383.09   3394.90    385.12   3394.90    387.62  " style="stroke-width: 1.42 ;&st7;   " /><path d=" M  3394.90,   387.62  C  3394.90    390.12   3396.93    392.15   3399.43    392.15  " style="stroke-width: 1.42 ;&st7;   " /><path d=" M  3399.43,   392.15  C  3401.94    392.15   3403.96    390.12   3403.96    387.62  " style="stroke-width: 1.42 ;&st7;   " /><path d=" M  3250.99,   278.27  C  3250.99    275.77   3248.96    273.74   3246.46    273.74  " style="stroke-width: 1.42 ;&st7;   " /><path d=" M  3246.46,   273.74  C  3243.95    273.74   3241.92    275.77   3241.92    278.27  " style="stroke-width: 1.42 ;&st7;   " /><path d=" M  3241.92,   278.27  C  3241.92    280.78   3243.95    282.80   3246.46    282.80  " style="stroke-width: 1.42 ;&st7;   " /><path d=" M  3246.46,   282.80  C  3248.96    282.80   3250.99    280.78   3250.99    278.27  " style="stroke-width: 1.42 ;&st7;   " /><path d=" M  3250.99,   396.69  C  3250.99    394.18   3248.96    392.15   3246.46    392.15  " style="stroke-width: 1.42 ;&st7;   " /><path d=" M  3246.46,   392.15  C  3243.95    392.15   3241.92    394.18   3241.92    396.69  " style="stroke-width: 1.42 ;&st7;   " /><path d=" M  3241.92,   396.69  C  3241.92    399.19   3243.95    401.22   3246.46    401.22  " style="stroke-width: 1.42 ;&st7;   " /><path d=" M  3246.46,   401.22  C  3248.96    401.22   3250.99    399.19   3250.99    396.69  " style="stroke-width: 1.42 ;&st7;   " /><path d=" M  3250.99,   387.62  C  3250.99    385.12   3248.96    383.09   3246.46    383.09  " style="stroke-width: 1.42 ;&st7;   " /><path d=" M  3246.46,   383.09  C  3243.95    383.09   3241.92    385.12   3241.92    387.62  " style="stroke-width: 1.42 ;&st7;   " /><path d=" M  3241.92,   387.62  C  3241.92    390.12   3243.95    392.15   3246.46    392.15  " style="stroke-width: 1.42 ;&st7;   " /><path d=" M  3246.46,   392.15  C  3248.96    392.15   3250.99    390.12   3250.99    387.62  " style="stroke-width: 1.42 ;&st7;   " /><path d=" M  3352.97,   278.27  C  3352.97    275.77   3350.94    273.74   3348.44    273.74  " style="stroke-width: 1.42 ;&st7;   " /><path d=" M  3348.44,   273.74  C  3345.94    273.74   3343.91    275.77   3343.91    278.27  " style="stroke-width: 1.42 ;&st7;   " /><path d=" M  3343.91,   278.27  C  3343.91    280.78   3345.94    282.80   3348.44    282.80  " style="stroke-width: 1.42 ;&st7;   " /><path d=" M  3348.44,   282.80  C  3350.94    282.80   3352.97    280.78   3352.97    278.27  " style="stroke-width: 1.42 ;&st7;   " /><path d=" M  3352.97,   396.69  C  3352.97    394.18   3350.94    392.15   3348.44    392.15  " style="stroke-width: 1.42 ;&st7;   " /><path d=" M  3348.44,   392.15  C  3345.94    392.15   3343.91    394.18   3343.91    396.69  " style="stroke-width: 1.42 ;&st7;   " /><path d=" M  3343.91,   396.69  C  3343.91    399.19   3345.94    401.22   3348.44    401.22  " style="stroke-width: 1.42 ;&st7;   " /><path d=" M  3348.44,   401.22  C  3350.94    401.22   3352.97    399.19   3352.97    396.69  " style="stroke-width: 1.42 ;&st7;   " /><path d=" M  3352.97,   387.62  C  3352.97    385.12   3350.94    383.09   3348.44    383.09  " style="stroke-width: 1.42 ;&st7;   " /><path d=" M  3348.44,   383.09  C  3345.94    383.09   3343.91    385.12   3343.91    387.62  " style="stroke-width: 1.42 ;&st7;   " /><path d=" M  3343.91,   387.62  C  3343.91    390.12   3345.94    392.15   3348.44    392.15  " style="stroke-width: 1.42 ;&st7;   " /><path d=" M  3348.44,   392.15  C  3350.94    392.15   3352.97    390.12   3352.97    387.62  " style="stroke-width: 1.42 ;&st7;   " /><path d=" M  3301.98,   278.27  C  3301.98    275.77   3299.95    273.74   3297.45    273.74  " style="stroke-width: 1.42 ;&st7;   " /><path d=" M  3297.45,   273.74  C  3294.95    273.74   3292.92    275.77   3292.92    278.27  " style="stroke-width: 1.42 ;&st7;   " /><path d=" M  3292.92,   278.27  C  3292.92    280.78   3294.95    282.80   3297.45    282.80  " style="stroke-width: 1.42 ;&st7;   " /><path d=" M  3297.45,   282.80  C  3299.95    282.80   3301.98    280.78   3301.98    278.27  " style="stroke-width: 1.42 ;&st7;   " /><path d=" M  3301.98,   396.69  C  3301.98    394.18   3299.95    392.15   3297.45    392.15  " style="stroke-width: 1.42 ;&st7;   " /><path d=" M  3297.45,   392.15  C  3294.95    392.15   3292.92    394.18   3292.92    396.69  " style="stroke-width: 1.42 ;&st7;   " /><path d=" M  3292.92,   396.69  C  3292.92    399.19   3294.95    401.22   3297.45    401.22  " style="stroke-width: 1.42 ;&st7;   " /><path d=" M  3297.45,   401.22  C  3299.95    401.22   3301.98    399.19   3301.98    396.69  " style="stroke-width: 1.42 ;&st7;   " /><path d=" M  3301.98,   387.62  C  3301.98    385.12   3299.95    383.09   3297.45    383.09  " style="stroke-width: 1.42 ;&st7;   " /><path d=" M  3297.45,   383.09  C  3294.95    383.09   3292.92    385.12   3292.92    387.62  " style="stroke-width: 1.42 ;&st7;   " /><path d=" M  3292.92,   387.62  C  3292.92    390.12   3294.95    392.15   3297.45    392.15  " style="stroke-width: 1.42 ;&st7;   " /><path d=" M  3297.45,   392.15  C  3299.95    392.15   3301.98    390.12   3301.98    387.62  " style="stroke-width: 1.42 ;&st7;   " /><path d=" M  3446.46,   559.29  C  3446.46    556.79   3444.43    554.76   3441.92    554.76  " style="stroke-width: 1.42 ;&st7;   " /><path d=" M  3441.92,   554.76  C  3439.42    554.76   3437.39    556.79   3437.39    559.29  " style="stroke-width: 1.42 ;&st7;   " /><path d=" M  3437.39,   559.29  C  3437.39    561.80   3439.42    563.82   3441.92    563.82  " style="stroke-width: 1.42 ;&st7;   " /><path d=" M  3441.92,   563.82  C  3444.43    563.82   3446.46    561.80   3446.46    559.29  " style="stroke-width: 1.42 ;&st7;   " /><path d=" M  3446.46,   550.23  C  3446.46    547.72   3444.43    545.69   3441.92    545.69  " style="stroke-width: 1.42 ;&st7;   " /><path d=" M  3441.92,   545.69  C  3439.42    545.69   3437.39    547.72   3437.39    550.23  " style="stroke-width: 1.42 ;&st7;   " /><path d=" M  3437.39,   550.23  C  3437.39    552.73   3439.42    554.76   3441.92    554.76  " style="stroke-width: 1.42 ;&st7;   " /><path d=" M  3441.92,   554.76  C  3444.43    554.76   3446.46    552.73   3446.46    550.23  " style="stroke-width: 1.42 ;&st7;   " /><path d=" M  3200.00,   396.69  C  3200.00    394.18   3197.97    392.15   3195.47    392.15  " style="stroke-width: 1.42 ;&st7;   " /><path d=" M  3195.47,   392.15  C  3192.96    392.15   3190.93    394.18   3190.93    396.69  " style="stroke-width: 1.42 ;&st7;   " /><path d=" M  3190.93,   396.69  C  3190.93    399.19   3192.96    401.22   3195.47    401.22  " style="stroke-width: 1.42 ;&st7;   " /><path d=" M  3195.47,   401.22  C  3197.97    401.22   3200.00    399.19   3200.00    396.69  " style="stroke-width: 1.42 ;&st7;   " /><path d=" M  3200.00,   387.62  C  3200.00    385.12   3197.97    383.09   3195.47    383.09  " style="stroke-width: 1.42 ;&st7;   " /><path d=" M  3195.47,   383.09  C  3192.96    383.09   3190.93    385.12   3190.93    387.62  " style="stroke-width: 1.42 ;&st7;   " /><path d=" M  3190.93,   387.62  C  3190.93    390.12   3192.96    392.15   3195.47    392.15  " style="stroke-width: 1.42 ;&st7;   " /><path d=" M  3195.47,   392.15  C  3197.97    392.15   3200.00    390.12   3200.00    387.62  " style="stroke-width: 1.42 ;&st7;   " /><path d=" M  3200.00,   278.27  C  3200.00    275.77   3197.97    273.74   3195.47    273.74  " style="stroke-width: 1.42 ;&st7;   " /><path d=" M  3195.47,   273.74  C  3192.96    273.74   3190.93    275.77   3190.93    278.27  " style="stroke-width: 1.42 ;&st7;   " /><path d=" M  3190.93,   278.27  C  3190.93    280.78   3192.96    282.80   3195.47    282.80  " style="stroke-width: 1.42 ;&st7;   " /><path d=" M  3195.47,   282.80  C  3197.97    282.80   3200.00    280.78   3200.00    278.27  " style="stroke-width: 1.42 ;&st7;   " /><path d=" M  3038.53,   422.75  C  3038.53    420.24   3036.50    418.22   3033.99    418.22  " style="stroke-width: 1.42 ;&st7;   " /><path d=" M  3033.99,   418.22  C  3031.49    418.22   3029.46    420.24   3029.46    422.75  " style="stroke-width: 1.42 ;&st7;   " /><path d=" M  3029.46,   422.75  C  3029.46    425.25   3031.49    427.28   3033.99    427.28  " style="stroke-width: 1.42 ;&st7;   " /><path d=" M  3033.99,   427.28  C  3036.50    427.28   3038.53    425.25   3038.53    422.75  " style="stroke-width: 1.42 ;&st7;   " /><path d=" M  3072.52,   422.75  C  3072.52    420.24   3070.49    418.22   3067.99    418.22  " style="stroke-width: 1.42 ;&st7;   " /><path d=" M  3067.99,   418.22  C  3065.48    418.22   3063.45    420.24   3063.45    422.75  " style="stroke-width: 1.42 ;&st7;   " /><path d=" M  3063.45,   422.75  C  3063.45    425.25   3065.48    427.28   3067.99    427.28  " style="stroke-width: 1.42 ;&st7;   " /><path d=" M  3067.99,   427.28  C  3070.49    427.28   3072.52    425.25   3072.52    422.75  " style="stroke-width: 1.42 ;&st7;   " /><path d=" M  3352.97,   235.21  C  3352.97    232.71   3350.94    230.68   3348.44    230.68  " style="stroke-width: 1.42 ;&st7;   " /><path d=" M  3348.44,   230.68  C  3345.94    230.68   3343.91    232.71   3343.91    235.21  " style="stroke-width: 1.42 ;&st7;   " /><path d=" M  3343.91,   235.21  C  3343.91    237.72   3345.94    239.75   3348.44    239.75  " style="stroke-width: 1.42 ;&st7;   " /><path d=" M  3348.44,   239.75  C  3350.94    239.75   3352.97    237.72   3352.97    235.21  " style="stroke-width: 1.42 ;&st7;   " /><path d=" M  3403.96,   235.21  C  3403.96    232.71   3401.94    230.68   3399.43    230.68  " style="stroke-width: 1.42 ;&st7;   " /><path d=" M  3399.43,   230.68  C  3396.93    230.68   3394.90    232.71   3394.90    235.21  " style="stroke-width: 1.42 ;&st7;   " /><path d=" M  3394.90,   235.21  C  3394.90    237.72   3396.93    239.75   3399.43    239.75  " style="stroke-width: 1.42 ;&st7;   " /><path d=" M  3399.43,   239.75  C  3401.94    239.75   3403.96    237.72   3403.96    235.21  " style="stroke-width: 1.42 ;&st7;   " /><path d=" M  3298.87,   486.20  C  3298.87    485.42   3298.23    484.79   3297.45    484.79  " style="stroke-width: 0.85 ;&st7;   " /><path d=" M  3297.45,   484.79  C  3296.67    484.79   3296.03    485.42   3296.03    486.20  " style="stroke-width: 0.85 ;&st7;   " /><path d=" M  3296.03,   486.20  C  3296.03    486.99   3296.67    487.62   3297.45    487.62  " style="stroke-width: 0.85 ;&st7;   " /><path d=" M  3297.45,   487.62  C  3298.23    487.62   3298.87    486.99   3298.87    486.20  " style="stroke-width: 0.85 ;&st7;   " /><path d=" M  3196.88,   503.20  C  3196.88    502.42   3196.25    501.78   3195.47    501.78  " style="stroke-width: 0.85 ;&st7;   " /><path d=" M  3195.47,   501.78  C  3194.68    501.78   3194.05    502.42   3194.05    503.20  " style="stroke-width: 0.85 ;&st7;   " /><path d=" M  3194.05,   503.20  C  3194.05    503.98   3194.68    504.62   3195.47    504.62  " style="stroke-width: 0.85 ;&st7;   " /><path d=" M  3195.47,   504.62  C  3196.25    504.62   3196.88    503.98   3196.88    503.20  " style="stroke-width: 0.85 ;&st7;   " /><path d=" M  3298.87,   503.20  C  3298.87    502.42   3298.23    501.78   3297.45    501.78  " style="stroke-width: 0.85 ;&st7;   " /><path d=" M  3297.45,   501.78  C  3296.67    501.78   3296.03    502.42   3296.03    503.20  " style="stroke-width: 0.85 ;&st7;   " /><path d=" M  3296.03,   503.20  C  3296.03    503.98   3296.67    504.62   3297.45    504.62  " style="stroke-width: 0.85 ;&st7;   " /><path d=" M  3297.45,   504.62  C  3298.23    504.62   3298.87    503.98   3298.87    503.20  " style="stroke-width: 0.85 ;&st7;   " /><path d=" M  3349.86,   486.20  C  3349.86    485.42   3349.22    484.79   3348.44    484.79  " style="stroke-width: 0.85 ;&st7;   " /><path d=" M  3348.44,   484.79  C  3347.66    484.79   3347.02    485.42   3347.02    486.20  " style="stroke-width: 0.85 ;&st7;   " /><path d=" M  3347.02,   486.20  C  3347.02    486.99   3347.66    487.62   3348.44    487.62  " style="stroke-width: 0.85 ;&st7;   " /><path d=" M  3348.44,   487.62  C  3349.22    487.62   3349.86    486.99   3349.86    486.20  " style="stroke-width: 0.85 ;&st7;   " /><path d=" M  3196.88,   520.20  C  3196.88    519.42   3196.25    518.78   3195.47    518.78  " style="stroke-width: 0.85 ;&st7;   " /><path d=" M  3195.47,   518.78  C  3194.68    518.78   3194.05    519.42   3194.05    520.20  " style="stroke-width: 0.85 ;&st7;   " /><path d=" M  3194.05,   520.20  C  3194.05    520.98   3194.68    521.61   3195.47    521.61  " style="stroke-width: 0.85 ;&st7;   " /><path d=" M  3195.47,   521.61  C  3196.25    521.61   3196.88    520.98   3196.88    520.20  " style="stroke-width: 0.85 ;&st7;   " /><path d=" M  3298.87,   469.21  C  3298.87    468.42   3298.23    467.79   3297.45    467.79  " style="stroke-width: 0.85 ;&st7;   " /><path d=" M  3297.45,   467.79  C  3296.67    467.79   3296.03    468.42   3296.03    469.21  " style="stroke-width: 0.85 ;&st7;   " /><path d=" M  3296.03,   469.21  C  3296.03    469.99   3296.67    470.62   3297.45    470.62  " style="stroke-width: 0.85 ;&st7;   " /><path d=" M  3297.45,   470.62  C  3298.23    470.62   3298.87    469.99   3298.87    469.21  " style="stroke-width: 0.85 ;&st7;   " /><path d=" M  3349.86,   469.21  C  3349.86    468.42   3349.22    467.79   3348.44    467.79  " style="stroke-width: 0.85 ;&st7;   " /><path d=" M  3348.44,   467.79  C  3347.66    467.79   3347.02    468.42   3347.02    469.21  " style="stroke-width: 0.85 ;&st7;   " /><path d=" M  3347.02,   469.21  C  3347.02    469.99   3347.66    470.62   3348.44    470.62  " style="stroke-width: 0.85 ;&st7;   " /><path d=" M  3348.44,   470.62  C  3349.22    470.62   3349.86    469.99   3349.86    469.21  " style="stroke-width: 0.85 ;&st7;   " /><path d=" M  3247.87,   520.20  C  3247.87    519.42   3247.24    518.78   3246.46    518.78  " style="stroke-width: 0.85 ;&st7;   " /><path d=" M  3246.46,   518.78  C  3245.68    518.78   3245.04    519.42   3245.04    520.20  " style="stroke-width: 0.85 ;&st7;   " /><path d=" M  3245.04,   520.20  C  3245.04    520.98   3245.68    521.61   3246.46    521.61  " style="stroke-width: 0.85 ;&st7;   " /><path d=" M  3246.46,   521.61  C  3247.24    521.61   3247.87    520.98   3247.87    520.20  " style="stroke-width: 0.85 ;&st7;   " /><path d=" M  3451.84,   486.20  C  3451.84    485.42   3451.21    484.79   3450.42    484.79  " style="stroke-width: 0.85 ;&st7;   " /><path d=" M  3450.42,   484.79  C  3449.64    484.79   3449.01    485.42   3449.01    486.20  " style="stroke-width: 0.85 ;&st7;   " /><path d=" M  3449.01,   486.20  C  3449.01    486.99   3449.64    487.62   3450.42    487.62  " style="stroke-width: 0.85 ;&st7;   " /><path d=" M  3450.42,   487.62  C  3451.21    487.62   3451.84    486.99   3451.84    486.20  " style="stroke-width: 0.85 ;&st7;   " /><path d=" M  3400.85,   486.20  C  3400.85    485.42   3400.21    484.79   3399.43    484.79  " style="stroke-width: 0.85 ;&st7;   " /><path d=" M  3399.43,   484.79  C  3398.65    484.79   3398.02    485.42   3398.02    486.20  " style="stroke-width: 0.85 ;&st7;   " /><path d=" M  3398.02,   486.20  C  3398.02    486.99   3398.65    487.62   3399.43    487.62  " style="stroke-width: 0.85 ;&st7;   " /><path d=" M  3399.43,   487.62  C  3400.21    487.62   3400.85    486.99   3400.85    486.20  " style="stroke-width: 0.85 ;&st7;   " /><path d=" M  3196.88,   452.21  C  3196.88    451.43   3196.25    450.79   3195.47    450.79  " style="stroke-width: 0.85 ;&st7;   " /><path d=" M  3195.47,   450.79  C  3194.68    450.79   3194.05    451.43   3194.05    452.21  " style="stroke-width: 0.85 ;&st7;   " /><path d=" M  3194.05,   452.21  C  3194.05    452.99   3194.68    453.63   3195.47    453.63  " style="stroke-width: 0.85 ;&st7;   " /><path d=" M  3195.47,   453.63  C  3196.25    453.63   3196.88    452.99   3196.88    452.21  " style="stroke-width: 0.85 ;&st7;   " /><path d=" M  3298.87,   452.21  C  3298.87    451.43   3298.23    450.79   3297.45    450.79  " style="stroke-width: 0.85 ;&st7;   " /><path d=" M  3297.45,   450.79  C  3296.67    450.79   3296.03    451.43   3296.03    452.21  " style="stroke-width: 0.85 ;&st7;   " /><path d=" M  3296.03,   452.21  C  3296.03    452.99   3296.67    453.63   3297.45    453.63  " style="stroke-width: 0.85 ;&st7;   " /><path d=" M  3297.45,   453.63  C  3298.23    453.63   3298.87    452.99   3298.87    452.21  " style="stroke-width: 0.85 ;&st7;   " /><path d=" M  3057.36,    99.52  C  3057.36     97.17   3055.46     95.27   3053.11     95.27  " style="stroke-width: 1.42 ;&st7;   " /><path d=" M  3050.99,    47.11  C  3048.25     48.72   3047.34     52.25   3048.95     54.99  " style="stroke-width: 1.42 ;&st7;   " /><path d=" M  3048.95,    54.99  C  3049.47     55.87   3050.11     56.51   3050.99     57.03  " style="stroke-width: 1.42 ;&st7;   " /><path d=" M  3050.99,    66.94  C  3053.73     65.33   3054.64     61.80   3053.03     59.06  " style="stroke-width: 1.42 ;&st7;   " /><path d=" M  3053.03,    59.06  C  3052.51     58.18   3051.87     57.55   3050.99     57.03  " style="stroke-width: 1.42 ;&st7;   " /><path d=" M  3053.11,   103.77  C  3055.46    103.77   3057.36    101.87   3057.36     99.52  " style="stroke-width: 1.42 ;&st7;   " /><path d=" M  3052.41,    68.36  C  3052.41     67.57   3051.77     66.94   3050.99     66.94  " style="stroke-width: 0.85 ;&st7;   " /><path d=" M  3050.99,    66.94  C  3050.21     66.94   3049.57     67.57   3049.57     68.36  " style="stroke-width: 0.85 ;&st7;   " /><path d=" M  3049.57,    68.36  C  3049.57     69.14   3050.21     69.77   3050.99     69.77  " style="stroke-width: 0.85 ;&st7;   " /><path d=" M  3050.99,    69.77  C  3051.77     69.77   3052.41     69.14   3052.41     68.36  " style="stroke-width: 0.85 ;&st7;   " /><path d=" M  3048.87,    95.27  C  3046.52     95.27   3044.62     97.17   3044.62     99.52  " style="stroke-width: 1.42 ;&st7;   " /><path d=" M  3052.41,    45.69  C  3052.41     44.91   3051.77     44.28   3050.99     44.28  " style="stroke-width: 0.85 ;&st7;   " /><path d=" M  3050.99,    44.28  C  3050.21     44.28   3049.57     44.91   3049.57     45.69  " style="stroke-width: 0.85 ;&st7;   " /><path d=" M  3049.57,    45.69  C  3049.57     46.48   3050.21     47.11   3050.99     47.11  " style="stroke-width: 0.85 ;&st7;   " /><path d=" M  3050.99,    47.11  C  3051.77     47.11   3052.41     46.48   3052.41     45.69  " style="stroke-width: 0.85 ;&st7;   " /><path d=" M  3044.62,    99.52  C  3044.62    101.87   3046.52    103.77   3048.87    103.77  " style="stroke-width: 1.42 ;&st7;   " /><path d=" M  3055.52,   209.72  C  3055.52    207.21   3053.49    205.18   3050.99    205.18  " style="stroke-width: 1.42 ;&st7;   " /><path d=" M  3050.99,   205.18  C  3048.49    205.18   3046.46    207.21   3046.46    209.72  " style="stroke-width: 1.42 ;&st7;   " /><path d=" M  3046.46,   209.72  C  3046.46    212.22   3048.49    214.25   3050.99    214.25  " style="stroke-width: 1.42 ;&st7;   " /><path d=" M  3050.99,   214.25  C  3053.49    214.25   3055.52    212.22   3055.52    209.72  " style="stroke-width: 1.42 ;&st7;   " /><text style="&st18;" transform="matrix(&st16;  3082.56  584.49 )">R</text><text style="&st18;" transform="matrix(&st16;  3047.6  340.86 )">IG</text><text ewd:textID="21" style="&st18;" transform="matrix(&st17;  3006.22  98.18 )">Junction Connector</text><text style="&st18;" transform="matrix(&st17;  3047.29  186.27 )">B</text><text style="&st18;" transform="matrix(&st17;  3047.29  138.42 )">B-R</text><text style="&st18;" transform="matrix(&st16;  3034.24  169.48 )">33</text><text style="&st18;" transform="matrix(&st16;  3045.62  32.08 )">(IG)</text><text style="&st18;" transform="matrix(&st16;  3044.65  86.47 )">2</text><text style="&st18;" transform="matrix(&st16;  3049.11  101.49 )">1</text><text style="&st18;" transform="matrix(&st16;  3067.41  56.17 )">5A <tspan dy="6.0" x="0 ">MET</tspan></text><text style="&st18;" transform="matrix(&st16;  3053.57  222.44 )">IG+</text><text style="&st18;" transform="matrix(&st16;  3048.72  211.69 )">A</text><text style="&st18;" transform="matrix(&st16;  3038.18  211.69 )">18</text><text style="&st18;" transform="matrix(&st17;  3067.13  668.67 )">(*1,*2)</text><text style="&st18;" transform="matrix(&st17;  3055.79  664.36 )">BR</text><text style="&st18;" transform="matrix(&st17;  3013.3  135.28 )">B</text><text style="&st18;" transform="matrix(&st17;  3024.63  139.74 )">(*14)</text><text style="&st18;" transform="matrix(&st17;  3058.63  139.74 )">(*13)</text><text ewd:textID="11" style="&st18;" transform="matrix(&st16;  3149.57  71.74 )">*14 :From Jan. 2013 Production Except China</text><text ewd:textID="10" style="&st18;" transform="matrix(&st16;  3149.57  63.24 )">*13 :Before Jan. 2013 Production, From Jan. 2013 Production China</text><text style="&st18;" transform="matrix(&st17;  3268.26  313.75 )">P</text><text style="&st18;" transform="matrix(&st17;  3279.59  318.21 )">(*14)</text><text style="&st18;" transform="matrix(&st17;  3268.26  356.55 )">G</text><text style="&st18;" transform="matrix(&st17;  3279.59  360.7 )">(*14)</text><text style="&st18;" transform="matrix(&st17;  3157.78  356.24 )">B</text><text style="&st18;" transform="matrix(&st17;  3169.11  360.7 )">(*14)</text><text style="&st18;" transform="matrix(&st17;  3157.78  313.36 )">L</text><text style="&st18;" transform="matrix(&st17;  3169.11  318.21 )">(*14)</text><text style="&st18;" transform="matrix(&st17;  3305.09  339.46 )">(*13)</text><text style="&st18;" transform="matrix(&st17;  3203.1  339.46 )">(*13)</text><text style="&st18;" transform="matrix(&st16;  3249.04  409.41 )">+2</text><text style="&st18;" transform="matrix(&st16;  3198.05  409.41 )">+B</text><text style="&st18;" transform="matrix(&st16;  3444.51  542.0 )">E</text><text style="&st18;" transform="matrix(&st16;  3193.2  280.24 )">A</text><text style="&st18;" transform="matrix(&st17;  3191.77  335.0 )">B</text><text style="&st18;" transform="matrix(&st16;  3193.2  398.65 )">B</text><text style="&st18;" transform="matrix(&st16;  3185.99  280.24 )">6</text><text style="&st18;" transform="matrix(&st16;  3191.18  270.04 )">ES</text><text style="&st18;" transform="matrix(&st16;  3185.99  398.65 )">3</text><text style="&st18;" transform="matrix(&st16;  3185.99  389.59 )">2</text><text style="&st18;" transform="matrix(&st17;  3449.56  672.92 )">(RHD)</text><text style="&st18;" transform="matrix(&st17;  3438.23  670.4 )">W-B</text><text style="&st18;" transform="matrix(&st16;  3188.78  142.56 )">MPX</text><text style="&st18;" transform="matrix(&st16;  3189.13  154.45 )">3</text><text ewd:textID="35" style="&st18;" transform="matrix(&st16;  3214.72  129.82 )">Rain Sensor</text><text style="&st18;" transform="matrix(&st16;  3214.72  122.71 )">R11</text><text style="&st18;" transform="matrix(&st17;  3191.77  173.68 )">R</text><text style="&st18;" transform="matrix(&st16;  3185.99  237.18 )">7</text><text style="&st18;" transform="matrix(&st16;  3193.05  237.18 )">C</text><text style="&st18;" transform="matrix(&st16;  3187.11  247.38 )">MPX1</text><text style="&st18;" transform="matrix(&st16;  3178.71  194.97 )">19</text><text style="&st18;" transform="matrix(&st17;  3191.77  216.17 )">R</text><text ewd:textID="6" style="&st18;" transform="matrix(&st16;  3149.57  46.25 )">* 8 :LHD, RHD Headlight Dimmer Switch Assembly LH Side Type</text><text ewd:textID="7" style="&st18;" transform="matrix(&st16;  3149.57  54.75 )">* 9 :RHD Headlight Dimmer Switch Assembly RH Side Type</text><text style="&st18;" transform="matrix(&st17;  3395.74  335.15 )">R</text><text style="&st18;" transform="matrix(&st16;  3390.81  270.04 )">AUTO</text><text style="&st18;" transform="matrix(&st16;  3397.01  280.24 )">C</text><text style="&st18;" transform="matrix(&st16;  3389.95  280.24 )">1</text><text style="&st18;" transform="matrix(&st16;  3389.95  398.65 )">6</text><text style="&st18;" transform="matrix(&st16;  3397.17  398.65 )">B</text><text style="&st18;" transform="matrix(&st16;  3389.95  389.59 )">9</text><text style="&st18;" transform="matrix(&st16;  3397.17  389.59 )">B</text><text style="&st18;" transform="matrix(&st17;  3242.76  335.15 )">R</text><text style="&st18;" transform="matrix(&st16;  3242.56  270.04 )">2S</text><text style="&st18;" transform="matrix(&st16;  3244.19  280.24 )">A</text><text style="&st18;" transform="matrix(&st16;  3236.98  280.24 )">9</text><text style="&st18;" transform="matrix(&st16;  3236.98  398.65 )">1</text><text style="&st18;" transform="matrix(&st16;  3244.19  398.65 )">B</text><text style="&st18;" transform="matrix(&st16;  3236.98  389.59 )">4</text><text style="&st18;" transform="matrix(&st16;  3244.19  389.59 )">B</text><text style="&st18;" transform="matrix(&st17;  3344.74  335.93 )">W</text><text style="&st18;" transform="matrix(&st16;  3339.82  270.04 )">SHOT</text><text style="&st18;" transform="matrix(&st16;  3346.17  280.24 )">A</text><text style="&st18;" transform="matrix(&st16;  3338.96  280.24 )">3</text><text style="&st18;" transform="matrix(&st16;  3338.96  398.65 )">4</text><text style="&st18;" transform="matrix(&st16;  3346.17  398.65 )">B</text><text style="&st18;" transform="matrix(&st16;  3338.96  389.59 )">1</text><text style="&st18;" transform="matrix(&st16;  3346.17  389.59 )">B</text><text style="&st18;" transform="matrix(&st16;  3284.63  280.24 )">10</text><text style="&st18;" transform="matrix(&st16;  3295.18  280.24 )">A</text><text style="&st18;" transform="matrix(&st16;  3293.55  270.04 )">1S</text><text style="&st18;" transform="matrix(&st17;  3293.75  335.31 )">G</text><text style="&st18;" transform="matrix(&st16;  3287.97  398.65 )">2</text><text style="&st18;" transform="matrix(&st16;  3295.18  398.65 )">B</text><text style="&st18;" transform="matrix(&st16;  3287.97  389.59 )">3</text><text style="&st18;" transform="matrix(&st16;  3295.18  389.59 )">B</text><text style="&st18;" transform="matrix(&st16;  3447.02  561.26 )">(*9)</text><text style="&st18;" transform="matrix(&st16;  3432.44  561.26 )">5</text><text style="&st18;" transform="matrix(&st16;  3439.66  561.26 )">B</text><text style="&st18;" transform="matrix(&st16;  3447.02  552.2 )">(*8)</text><text style="&st18;" transform="matrix(&st16;  3429.11  552.2 )">10</text><text style="&st18;" transform="matrix(&st16;  3439.66  552.2 )">B</text><text ewd:textID="39" style="&st18;" transform="matrix(&st16;  3217.56  236.05 )">Windshield Wiper ECU</text><text style="&st18;" transform="matrix(&st16;  3217.55  228.94 )">E83(A),E85(C)</text><text style="&st18;" transform="matrix(&st16;  3486.7  626.98 )">W-B</text><text style="&st18;" transform="matrix(&st16;  3193.2  389.59 )">B</text><text style="&st18;" transform="matrix(&st16;  3484.68  638.31 )">(LHD)</text><text style="&st18;" transform="matrix(&st16;  3300.03  409.41 )">+1</text><text style="&st18;" transform="matrix(&st17;  3064.29  445.63 )">R</text><text style="&st18;" transform="matrix(&st17;  3497.72  313.9 )">R</text><text style="&st18;" transform="matrix(&st16;  3491.74  171.45 )">12</text><text style="&st18;" transform="matrix(&st16;  3491.74  142.57 )">15</text><text style="&st18;" transform="matrix(&st16;  3491.74  550.5 )">12</text><text style="&st18;" transform="matrix(&st16;  3491.74  579.38 )">14</text><text style="&st18;" transform="matrix(&st16;  3131.73  601.49 )">LG</text><text style="&st18;" transform="matrix(&st16;  3024.51  424.72 )">1</text><text style="&st18;" transform="matrix(&st16;  3031.73  424.72 )">A</text><text style="&st18;" transform="matrix(&st16;  3058.51  424.72 )">2</text><text style="&st18;" transform="matrix(&st16;  3065.72  424.72 )">A</text><text style="&st18;" transform="matrix(&st16;  3036.58  414.53 )">MPX+</text><text style="&st18;" transform="matrix(&st16;  3070.57  414.53 )">MPX-</text><text style="&st18;" transform="matrix(&st17;  3030.3  447.46 )">LG</text><text style="&st18;" transform="matrix(&st16;  3133.56  584.49 )">R</text><text style="&st18;" transform="matrix(&st16;  3080.74  601.49 )">LG</text><text style="&st18;" transform="matrix(&st16;  3346.02  237.18 )">C</text><text style="&st18;" transform="matrix(&st16;  3338.96  237.18 )">6</text><text style="&st18;" transform="matrix(&st17;  3344.74  217.99 )">LG</text><text style="&st18;" transform="matrix(&st16;  3339.66  247.38 )">CANH</text><text style="&st18;" transform="matrix(&st16;  3397.01  237.18 )">C</text><text style="&st18;" transform="matrix(&st16;  3389.95  237.18 )">5</text><text style="&st18;" transform="matrix(&st17;  3395.74  216.17 )">R</text><text style="&st18;" transform="matrix(&st16;  3391.16  247.38 )">CANL</text><text style="&st18;" transform="matrix(&st16;  3351.02  409.41 )">+S</text><text style="&st18;" transform="matrix(&st16;  3402.02  409.41 )">AUTO</text><text style="&st18;" transform="matrix(&st16;  3144.35  488.17 )">AUTO</text><text style="&st18;" transform="matrix(&st16;  3146.75  471.18 )">OFF</text><text style="&st18;" transform="matrix(&st16;  3149.74  522.17 )">HI</text><text style="&st18;" transform="matrix(&st16;  3148.73  505.17 )">LO</text><text style="&st18;" transform="matrix(&st16;  3191.49  437.18 )">+B</text><text style="&st18;" transform="matrix(&st16;  3242.83  437.18 )">+2</text><text style="&st18;" transform="matrix(&st16;  3293.83  437.18 )">+1</text><text style="&st18;" transform="matrix(&st16;  3344.47  437.18 )">+S</text><text style="&st18;" transform="matrix(&st16;  3390.81  437.18 )">AUTO</text><text style="&st18;" transform="matrix(&st16;  3448.16  437.18 )">E</text><text ewd:textID="20" style="&st18;" transform="matrix(&st16;  3280.38  536.33 )">Front Wiper Switch</text><text style="&st18;" transform="matrix(&st16;  3145.55  454.18 )">MIST</text><text ewd:textID="41" style="&st18;" transform="matrix(&st16;  3132.57  560.41 )">Windshield Wiper Switch Assembly</text><text style="&st18;" transform="matrix(&st16;  3132.56  553.3 )">E16(B)</text><text style="&st18;" transform="matrix(&st16;  3404.53  398.65 )">(*9)</text><text style="&st18;" transform="matrix(&st16;  3404.53  389.59 )">(*8)</text><text style="&st18;" transform="matrix(&st17;  3438.23  581.16 )">W-B</text></svg>