﻿<?xml version="1.0" encoding="utf-8"?>
<!DOCTYPE svg PUBLIC "-//W3C//DTD SVG 1.0//EN" "http://www.w3.org/TR/2001/REC-SVG-20010904/DTD/svg10.dtd"[
	<!ENTITY ns_flows "http://ns.adobe.com/Flows/1.0/">
	<!ENTITY ns_svg "http://www.w3.org/2000/svg">
	<!ENTITY ns_xlink "http://www.w3.org/1999/xlink">
	<!ENTITY st0 "font-size:7px;font-family:'MS-PGothic';adobe-font-script:japanese;">
	<!ENTITY st1 "font-size:6px;font-family:'ArialMT';">
	<!-- White fill  -->
	<!ENTITY st2 "fill:#FFFFFF;stroke:#000000; stroke-width:1.41;stroke-linecap:round;stroke-linejoin:round;">
	<!-- Yellow fill  -->
	<!ENTITY st3 "fill:#FFFFCC;stroke:#FFFFCC; stroke-width:0.1;stroke-linecap:round;stroke-linejoin:round;">
	<!-- Gray fill  -->
	<!ENTITY st4 "fill:#CCCCCC;stroke:#CCCCCC; stroke-width:0.1;stroke-linecap:round;stroke-linejoin:round;">
	<!-- Light-blue fill -->
	<!ENTITY st5 "fill:#CCECF4;stroke:#000000; stroke-width:1.133;stroke-linecap:round;stroke-linejoin:round;">
	<!ENTITY st6 "fill:none;stroke-linecap:butt; stroke-linejoin:round;">
	<!ENTITY st7 "fill:none;stroke:#000000;stroke-linecap:round;stroke-linejoin:round;">
	<!ENTITY st8 "enable-background:new    ;">
	<!-- Black fill -->
	<!ENTITY st9 "fill:#000000;stroke:#000000; stroke-linecap:round;stroke-linejoin:round;">
	<!-- SRS note   -->
	<!ENTITY st10 "font-size:9px;font-family:'ArialMT';">
	<!ENTITY st11 "font-size:9px;font-family:'Svg Symbol';">
	<!ENTITY st12 "font-size:6px;font-family:'Svg Symbol';">
	<!ENTITY st13 "fill:none;stroke:#ff0000;stroke-linecap:round;stroke-linejoin:round;">
	<!-- Yellow fill  -->
	<!ENTITY st14 "fill:#FFFF00;stroke:#FFFF00; stroke-width:0.1;stroke-linecap:round;stroke-linejoin:round;">
	<!ENTITY st15 "font-size:6px;font-family:'MS-PGothic';adobe-font-script:japanese;">
	<!ENTITY st16 "1.00 0.00 0.00 1.00">
	<!ENTITY st17 "0.00 -1.00 1.00 0.00">
	<!ENTITY st18 "font-size:6px;font-family:'Arial';">
	<!ENTITY st19 "font-size:9px;font-family:'Arial';">
	<!ENTITY st20 "font-size:6px;font-family:'MS-PGothic','MS PGothic';adobe-font-script:japanese;">
	<!ENTITY st21 "font-size:7px;font-family:'MS-PGothic','MS PGothic';adobe-font-script:japanese;">
	<!ATTLIST svg
		xmlns:ewd CDATA #FIXED "http://shcl.co.jp/ewd"
		xmlns:a CDATA #FIXED "http://ns.adobe.com/AdobeSVGViewerExtensions/3.0/"
		ewd:ver CDATA #IMPLIED
	>
	<!ATTLIST a
		ewd:lineID CDATA #IMPLIED
		ewd:groupID CDATA #IMPLIED
		ewd:figtype CDATA #IMPLIED
		ewd:code CDATA #IMPLIED
		ewd:figID CDATA #IMPLIED
		ewd:pinNo CDATA #IMPLIED
		ewd:comment CDATA #IMPLIED >
	<!ATTLIST g
		ewd:lineID CDATA #IMPLIED
		ewd:groupID CDATA #IMPLIED
		ewd:figtype CDATA #IMPLIED
		ewd:code CDATA #IMPLIED
		ewd:figID CDATA #IMPLIED
		ewd:pinNo CDATA #IMPLIED
		ewd:comment CDATA #IMPLIED >
	<!ATTLIST text
		ewd:textID CDATA #IMPLIED >
	<!ATTLIST title
		ewd:textID CDATA #IMPLIED >
]>
<!-- Generator: Shintec Hozumi YS   -->
<svg onload="call_execInitLoadProc_svg('system')" style="overflow:visible;  enable-background:new 0 0 3601.981 710.000" viewBox="0 0 3601.981 710.000" height="710.000" width="3601.981" xml:space="preserve" ewd:ver="L2.3.0.14" xmlns="&ns_svg;" xmlns:a="http://ns.adobe.com/AdobeSVGViewerExtensions/3.0/" xmlns:ewd="http://shcl.co.jp/ewd" xmlns:xlink="&ns_xlink;">
<path d=" M  2464.59,   338.20  L  2459.62,   333.23  " style="stroke-width: 1.42 ;&st7;  " /><path d=" M  2447.59,   345.26  L  2452.56,   350.23  " style="stroke-width: 1.42 ;&st7;  " /><path d=" M  2459.62,   350.23  L  2464.59,   345.26  " style="stroke-width: 1.42 ;&st7;  " /><path d=" M  2452.56,   333.23  L  2447.59,   338.20  " style="stroke-width: 1.42 ;&st7;  " /><path d=" M  2022.66,   452.21  L  2014.16,   452.21  " style="stroke-width: 1.42 ;&st7;  " /><path d=" M  2005.66,   307.73  L  2014.16,   307.73  " style="stroke-width: 1.42 ;&st7;  " /><path d=" M  2192.63,   299.24  L  2201.13,   299.24  " style="stroke-width: 1.42 ;&st7;  " /><path d=" M  2209.63,   256.74  L  2201.13,   256.74  " style="stroke-width: 1.42 ;&st7;  " /><path d=" M  2362.61,   479.12  L  2368.27,   456.46  " style="stroke-width: 1.42 ;&st7;  " /><path d=" M  2362.61,   486.20  L  2362.61,   481.95  " style="stroke-width: 0.85 ;&st7;  " /><path d=" M  2362.61,   456.46  L  2362.61,   452.21  " style="stroke-width: 0.85 ;&st7;  " /><path d=" M  2405.10,   479.12  L  2410.76,   456.46  " style="stroke-width: 1.42 ;&st7;  " /><path d=" M  2405.10,   486.20  L  2405.10,   481.95  " style="stroke-width: 0.85 ;&st7;  " /><path d=" M  2405.10,   456.46  L  2405.10,   452.21  " style="stroke-width: 0.85 ;&st7;  " /><path d=" M  2430.59,   479.12  L  2436.26,   456.46  " style="stroke-width: 1.42 ;&st7;  " /><path d=" M  2430.59,   486.20  L  2430.59,   481.95  " style="stroke-width: 0.85 ;&st7;  " /><path d=" M  2430.59,   456.46  L  2430.59,   452.21  " style="stroke-width: 0.85 ;&st7;  " /><path d=" M  2337.11,   456.46  L  2337.11,   452.21  " style="stroke-width: 0.85 ;&st7;  " /><path d=" M  2337.11,   486.20  L  2337.11,   481.95  " style="stroke-width: 0.85 ;&st7;  " /><path d=" M  2337.11,   479.12  L  2335.42,   455.01  " style="stroke-width: 1.42 ;&st7;  " /><path d=" M  2379.60,   479.12  L  2377.91,   455.01  " style="stroke-width: 1.42 ;&st7;  " /><path d=" M  2379.60,   486.20  L  2379.60,   481.95  " style="stroke-width: 0.85 ;&st7;  " /><path d=" M  2379.60,   456.46  L  2379.60,   452.21  " style="stroke-width: 0.85 ;&st7;  " /><path d=" M  2311.61,   439.46  L  2311.61,   430.96  " style="stroke-width: 0.85 ;&st7;  " /><path d=" M  2301.99,   467.26  L  2309.35,   463.01  " style="stroke-width: 0.85 ;&st7;  " /><path d=" M  2307.35,   459.54  L  2299.99,   463.79  " style="stroke-width: 0.85 ;&st7;  " /><path d=" M  2298.87,   469.21  L  2290.37,   469.21  " style="stroke-width: 0.85 ;&st7;  " /><path d=" M  2453.26,   210.00  L  2457.22,   210.00  " style="stroke-width: 1.42 ;&st7;  " /><path d=" M  2457.22,   218.50  L  2453.26,   218.50  " style="stroke-width: 1.42 ;&st7;  " /><path d=" M  2453.26,   218.50  L  2453.26,   210.00  " style="stroke-width: 1.42 ;&st7;  " /><path d=" M  2475.92,   210.00  L  2471.95,   210.00  " style="stroke-width: 1.42 ;&st7;  " /><path d=" M  2471.95,   218.50  L  2475.92,   218.50  " style="stroke-width: 1.42 ;&st7;  " /><path d=" M  2475.92,   218.50  L  2475.92,   210.00  " style="stroke-width: 1.42 ;&st7;  " /><path d=" M  2252.12,   239.75  L  2252.12,   273.74  L  2498.58,   273.74  L  2498.58,   197.25  L  2430.59,   197.25  L  2430.59,   239.75  L  2252.12,   239.75  " style="stroke-width: 1.42 ;&st7;  " /><path d=" M  2196.88,   290.17  L  2201.13,   294.42  L  2205.38,   290.17  " style="stroke-width: 1.42 ;&st7;  " /><path d=" M  2205.38,   293.57  L  2201.13,   297.82  L  2196.88,   293.57  " style="stroke-width: 1.42 ;&st7;  " /><path d=" M  2205.38,   265.81  L  2201.13,   261.56  L  2196.88,   265.81  " style="stroke-width: 1.42 ;&st7;  " /><path d=" M  2205.38,   262.41  L  2201.13,   258.16  L  2196.88,   262.41  " style="stroke-width: 1.42 ;&st7;  " /><path d=" M  2365.08,   469.21  L  2336.41,   469.21  " style="stroke-width: 0.85 ;&st7; stroke-dasharray:3, 1.5;" /><path d=" M  2407.58,   469.21  L  2378.90,   469.21  " style="stroke-width: 0.85 ;&st7; stroke-dasharray:3, 1.5;" /><path d=" M  2405.10,   452.21  L  2405.10,   418.22  " style="stroke-width: 0.85 ;&st7;  " /><path d=" M  2362.60,   452.21  L  2362.60,   418.22  " style="stroke-width: 0.85 ;&st7;  " /><path d=" M  2405.10,   443.71  L  2379.60,   443.71  L  2379.60,   452.21  " style="stroke-width: 0.85 ;&st7;  " /><path d=" M  2362.60,   443.71  L  2337.11,   443.71  L  2337.11,   452.21  " style="stroke-width: 0.85 ;&st7;  " /><path d=" M  2311.61,   435.21  L  2303.11,   429.55  L  2303.11,   440.88  L  2311.61,   435.21  " style="stroke-width: 0.28 ;&st9;  " /><path d=" M  2362.60,   486.20  L  2362.60,   520.20  " style="stroke-width: 0.85 ;&st7;  " /><path d=" M  2405.10,   486.20  L  2405.10,   520.20  " style="stroke-width: 0.85 ;&st7;  " /><path d=" M  2379.60,   486.20  L  2379.60,   503.20  L  2320.11,   503.20  L  2320.11,   435.21  L  2294.62,   435.21  " style="stroke-width: 0.85 ;&st7;  " /><path d=" M  2338.30,   502.20  L  2338.57,   502.67  L  2338.67,   503.20  L  2338.57,   503.73  L  2338.30,   504.20  L  2337.89,   504.55  L  2337.38,   504.74  L  2336.84,   504.74  L  2336.33,   504.55  L  2335.92,   504.20  L  2335.64,   503.73  L  2335.55,   503.20  L  2335.64,   502.67  L  2335.92,   502.20  L  2336.33,   501.85  L  2336.84,   501.67  L  2337.38,   501.67  L  2337.89,   501.85  L  2338.30,   502.20  L  2337.91,   502.91  L  2337.91,   503.49  L  2337.53,   503.94  L  2336.96,   504.04  L  2336.46,   503.75  L  2336.26,   503.20  L  2336.46,   502.65  L  2336.96,   502.37  L  2337.53,   502.46  L  2337.11,   503.20  " style="stroke-width: 0.85 ;&st7;  " /><path d=" M  2481.58,   418.22  L  2277.62,   418.22  L  2277.62,   537.20  L  2481.58,   537.20  L  2481.58,   418.22  " style="stroke-width: 1.42 ;&st7;  " /><path d=" M  2406.29,   519.20  L  2406.56,   519.67  L  2406.66,   520.20  L  2406.56,   520.73  L  2406.29,   521.20  L  2405.88,   521.55  L  2405.37,   521.73  L  2404.83,   521.73  L  2404.32,   521.55  L  2403.90,   521.20  L  2403.63,   520.73  L  2403.54,   520.20  L  2403.63,   519.67  L  2403.90,   519.20  L  2404.32,   518.85  L  2404.83,   518.66  L  2405.37,   518.66  L  2405.88,   518.85  L  2406.29,   519.20  L  2405.90,   519.91  L  2405.90,   520.49  L  2405.52,   520.94  L  2404.95,   521.03  L  2404.45,   520.75  L  2404.25,   520.20  L  2404.45,   519.65  L  2404.95,   519.36  L  2405.52,   519.46  L  2405.10,   520.20  " style="stroke-width: 0.85 ;&st7;  " /><path d=" M  2431.79,   519.20  L  2432.06,   519.67  L  2432.15,   520.20  L  2432.06,   520.73  L  2431.79,   521.20  L  2431.37,   521.55  L  2430.86,   521.73  L  2430.32,   521.73  L  2429.81,   521.55  L  2429.40,   521.20  L  2429.13,   520.73  L  2429.03,   520.20  L  2429.13,   519.67  L  2429.40,   519.20  L  2429.81,   518.85  L  2430.32,   518.66  L  2430.86,   518.66  L  2431.37,   518.85  L  2431.79,   519.20  L  2431.39,   519.91  L  2431.39,   520.49  L  2431.02,   520.94  L  2430.45,   521.03  L  2429.94,   520.75  L  2429.74,   520.20  L  2429.94,   519.65  L  2430.45,   519.36  L  2431.02,   519.46  L  2430.59,   520.20  " style="stroke-width: 0.85 ;&st7;  " /><path d=" M  2363.80,   519.20  L  2364.07,   519.67  L  2364.16,   520.20  L  2364.07,   520.73  L  2363.80,   521.20  L  2363.38,   521.55  L  2362.88,   521.73  L  2362.33,   521.73  L  2361.83,   521.55  L  2361.41,   521.20  L  2361.14,   520.73  L  2361.05,   520.20  L  2361.14,   519.67  L  2361.41,   519.20  L  2361.83,   518.85  L  2362.33,   518.66  L  2362.88,   518.66  L  2363.38,   518.85  L  2363.80,   519.20  L  2363.40,   519.91  L  2363.40,   520.49  L  2363.03,   520.94  L  2362.46,   521.03  L  2361.95,   520.75  L  2361.75,   520.20  L  2361.95,   519.65  L  2362.46,   519.36  L  2363.03,   519.46  L  2362.60,   520.20  " style="stroke-width: 0.85 ;&st7;  " /><path d=" M  2363.80,   442.71  L  2364.07,   443.18  L  2364.16,   443.71  L  2364.07,   444.24  L  2363.80,   444.71  L  2363.38,   445.06  L  2362.88,   445.25  L  2362.33,   445.25  L  2361.83,   445.06  L  2361.41,   444.71  L  2361.14,   444.24  L  2361.05,   443.71  L  2361.14,   443.18  L  2361.41,   442.71  L  2361.83,   442.36  L  2362.33,   442.18  L  2362.88,   442.18  L  2363.38,   442.36  L  2363.80,   442.71  L  2363.40,   443.42  L  2363.40,   444.00  L  2363.03,   444.45  L  2362.46,   444.55  L  2361.95,   444.26  L  2361.75,   443.71  L  2361.95,   443.16  L  2362.46,   442.88  L  2363.03,   442.97  L  2362.60,   443.71  " style="stroke-width: 0.85 ;&st7;  " /><path d=" M  2406.29,   442.71  L  2406.56,   443.18  L  2406.66,   443.71  L  2406.56,   444.24  L  2406.29,   444.71  L  2405.88,   445.06  L  2405.37,   445.25  L  2404.83,   445.25  L  2404.32,   445.06  L  2403.90,   444.71  L  2403.63,   444.24  L  2403.54,   443.71  L  2403.63,   443.18  L  2403.90,   442.71  L  2404.32,   442.36  L  2404.83,   442.18  L  2405.37,   442.18  L  2405.88,   442.36  L  2406.29,   442.71  L  2405.90,   443.42  L  2405.90,   444.00  L  2405.52,   444.45  L  2404.95,   444.55  L  2404.45,   444.26  L  2404.25,   443.71  L  2404.45,   443.16  L  2404.95,   442.88  L  2405.52,   442.97  L  2405.10,   443.71  " style="stroke-width: 0.85 ;&st7;  " /><path d=" M  2295.81,   434.21  L  2296.08,   434.68  L  2296.17,   435.21  L  2296.08,   435.75  L  2295.81,   436.22  L  2295.39,   436.56  L  2294.89,   436.75  L  2294.34,   436.75  L  2293.84,   436.56  L  2293.42,   436.22  L  2293.15,   435.75  L  2293.06,   435.21  L  2293.15,   434.68  L  2293.42,   434.21  L  2293.84,   433.86  L  2294.34,   433.68  L  2294.89,   433.68  L  2295.39,   433.86  L  2295.81,   434.21  L  2295.41,   434.92  L  2295.41,   435.50  L  2295.04,   435.95  L  2294.47,   436.05  L  2293.96,   435.76  L  2293.77,   435.21  L  2293.96,   434.67  L  2294.47,   434.38  L  2295.04,   434.48  L  2294.62,   435.21  " style="stroke-width: 0.85 ;&st7;  " /><path d=" M  2430.59,   520.20  L  2456.09,   520.20  L  2456.09,   418.22  " style="stroke-width: 0.85 ;&st7;  " /><path d=" M  2430.59,   452.21  L  2430.59,   418.22  " style="stroke-width: 0.85 ;&st7;  " /><path d=" M  2309.35,   463.01  L  2307.02,   466.05  L  2305.55,   463.51  L  2309.35,   463.01  L  2308.07,   463.75  L  2307.09,   465.03  L  2306.47,   463.96  L  2308.07,   463.75  L  2307.43,   464.12  L  2307.12,   464.53  L  2306.92,   464.19  L  2307.43,   464.12  " style="stroke-width: 0.85 ;&st7;  " /><path d=" M  2307.35,   459.54  L  2305.02,   462.58  L  2303.55,   460.04  L  2307.35,   459.54  L  2306.07,   460.28  L  2305.08,   461.57  L  2304.46,   460.49  L  2306.07,   460.28  L  2305.43,   460.65  L  2305.11,   461.06  L  2304.92,   460.72  L  2305.43,   460.65  " style="stroke-width: 0.85 ;&st7;  " /><path d=" M  2294.62,   469.21  L  2288.95,   460.71  L  2300.28,   460.71  L  2294.62,   469.21  " style="stroke-width: 0.28 ;&st9;  " /><path d=" M  2337.11,   486.20  L  2337.11,   503.20  " style="stroke-width: 0.85 ;&st7;  " /><path d=" M  2294.62,   418.22  L  2294.62,   486.20  L  2297.45,   487.62  L  2291.78,   490.45  L  2297.45,   493.29  L  2291.78,   496.12  L  2297.45,   498.95  L  2291.78,   501.78  L  2294.62,   503.20  L  2294.62,   520.20  L  2430.59,   520.20  " style="stroke-width: 0.85 ;&st7;  " /><path d=" M  2430.59,   486.20  L  2430.59,   520.20  " style="stroke-width: 0.85 ;&st7;  " /><path d=" M  2475.92,   214.25  L  2490.08,   214.25  L  2490.08,   239.75  " style="stroke-width: 0.85 ;&st7;  " /><path d=" M  2453.26,   214.25  L  2439.09,   214.25  L  2439.09,   239.75  " style="stroke-width: 0.85 ;&st7;  " /><path d=" M  2430.59,   239.75  L  2498.58,   239.75  " style="stroke-width: 1.42 ;&st7;  " /><path d=" M  2201.13,   154.76  L  2201.13,   171.76  " style="stroke-width: 0.85 ;&st7;  " /><path d=" M  2107.65,   154.76  L  2209.63,   154.76  L  2209.63,   171.76  L  2107.65,   171.76  L  2107.65,   154.76  " style="stroke-width: 1.42 ;&st7;  " /><path d=" M  2199.94,   162.26  L  2199.67,   162.73  L  2199.57,   163.26  L  2199.67,   163.79  L  2199.94,   164.26  L  2200.35,   164.61  L  2200.86,   164.79  L  2201.40,   164.79  L  2201.91,   164.61  L  2202.32,   164.26  L  2202.60,   163.79  L  2202.69,   163.26  L  2202.60,   162.73  L  2202.32,   162.26  L  2201.91,   161.91  L  2201.40,   161.72  L  2200.86,   161.72  L  2200.35,   161.91  L  2199.94,   162.26  L  2200.33,   162.97  L  2200.33,   163.55  L  2200.71,   163.99  L  2201.28,   164.09  L  2201.78,   163.80  L  2201.98,   163.26  L  2201.78,   162.71  L  2201.28,   162.42  L  2200.71,   162.52  L  2201.13,   163.26  " style="stroke-width: 0.85 ;&st7;  " /><path d=" M  2157.45,   162.26  L  2157.17,   162.73  L  2157.08,   163.26  L  2157.17,   163.79  L  2157.45,   164.26  L  2157.86,   164.61  L  2158.37,   164.79  L  2158.91,   164.79  L  2159.42,   164.61  L  2159.83,   164.26  L  2160.10,   163.79  L  2160.20,   163.26  L  2160.10,   162.73  L  2159.83,   162.26  L  2159.42,   161.91  L  2158.91,   161.72  L  2158.37,   161.72  L  2157.86,   161.91  L  2157.45,   162.26  L  2157.84,   162.97  L  2157.84,   163.55  L  2158.21,   163.99  L  2158.79,   164.09  L  2159.29,   163.80  L  2159.49,   163.26  L  2159.29,   162.71  L  2158.79,   162.42  L  2158.21,   162.52  L  2158.64,   163.26  " style="stroke-width: 0.85 ;&st7;  " /><path d=" M  2158.64,   163.26  L  2158.64,   171.76  " style="stroke-width: 0.85 ;&st7;  " /><path d=" M  2116.15,   171.76  L  2116.15,   163.26  L  2201.13,   163.26  " style="stroke-width: 0.85 ;&st7;  " /><path d=" M  2005.66,   571.19  L  2022.66,   571.19  L  2022.66,   588.19  L  2005.66,   588.19  L  2005.66,   571.19  " style="stroke-width: 1.42 ;&st7;  " /><path d=" M  2014.16,   571.19  L  2014.16,   588.19  " style="stroke-width: 0.85 ;&st7;  " /><path d=" M  2014.16,   697.25  L  2014.16,   701.50  " style="stroke-width: 0.85 ;&st7;  " /><path d=" M  2005.66,   701.50  L  2022.66,   701.50  " style="stroke-width: 0.85 ;&st7;  " /><path d=" M  2009.91,   704.33  L  2018.41,   704.33  " style="stroke-width: 0.85 ;&st7;  " /><path d=" M  2011.33,   707.17  L  2017.00,   707.17  " style="stroke-width: 0.85 ;&st7;  " /><path d=" M  2012.75,   710.00  L  2015.58,   710.00  " style="stroke-width: 0.85 ;&st7;  " /><path d=" M  2018.41,   461.27  L  2014.16,   457.03  L  2009.91,   461.27  " style="stroke-width: 1.42 ;&st7;  " /><path d=" M  2018.41,   457.88  L  2014.16,   453.63  L  2009.91,   457.88  " style="stroke-width: 1.42 ;&st7;  " /><path d=" M  2018.41,   302.07  L  2014.16,   306.32  L  2009.91,   302.07  " style="stroke-width: 1.42 ;&st7;  " /><path d=" M  2009.91,   298.67  L  2014.16,   302.92  L  2018.41,   298.67  " style="stroke-width: 1.42 ;&st7;  " /><path d=" M  2124.64,   185.35  L  2137.39,   185.35  " style="stroke-width: 0.85 ;&st7; stroke-dasharray:3, 1.5;" /><path d=" M  2124.64,   176.29  L  2141.64,   176.29  " style="stroke-width: 0.85 ;&st7; stroke-dasharray:3, 1.5;" /><path d=" M  2167.14,   176.29  L  2184.13,   176.29  " style="stroke-width: 0.85 ;&st7; stroke-dasharray:3, 1.5;" /><path d=" M  2167.14,   185.35  L  2184.13,   185.35  " style="stroke-width: 0.85 ;&st7; stroke-dasharray:3, 1.5;" /><path d=" M  2205.66,    91.30  C  2205.66     88.80   2203.64     86.77   2201.13     86.77  " style="stroke-width: 1.42 ;&st7;   " /><path d=" M  2201.13,    86.77  C  2198.63     86.77   2196.60     88.80   2196.60     91.30  " style="stroke-width: 1.42 ;&st7;   " /><path d=" M  2196.60,    91.30  C  2196.60     93.81   2198.63     95.84   2201.13     95.84  " style="stroke-width: 1.42 ;&st7;   " /><path d=" M  2201.13,    95.84  C  2203.64     95.84   2205.66     93.81   2205.66     91.30  " style="stroke-width: 1.42 ;&st7;   " /><path d=" M  2120.68,   185.35  C  2120.68    182.85   2118.65    180.82   2116.15    180.82  " style="stroke-width: 1.42 ;&st7;   " /><path d=" M  2116.15,   180.82  C  2113.64    180.82   2111.61    182.85   2111.61    185.35  " style="stroke-width: 1.42 ;&st7;   " /><path d=" M  2111.61,   185.35  C  2111.61    187.86   2113.64    189.89   2116.15    189.89  " style="stroke-width: 1.42 ;&st7;   " /><path d=" M  2116.15,   189.89  C  2118.65    189.89   2120.68    187.86   2120.68    185.35  " style="stroke-width: 1.42 ;&st7;   " /><path d=" M  2120.68,   176.29  C  2120.68    173.79   2118.65    171.76   2116.15    171.76  " style="stroke-width: 1.42 ;&st7;   " /><path d=" M  2116.15,   171.76  C  2113.64    171.76   2111.61    173.79   2111.61    176.29  " style="stroke-width: 1.42 ;&st7;   " /><path d=" M  2111.61,   176.29  C  2111.61    178.79   2113.64    180.82   2116.15    180.82  " style="stroke-width: 1.42 ;&st7;   " /><path d=" M  2116.15,   180.82  C  2118.65    180.82   2120.68    178.79   2120.68    176.29  " style="stroke-width: 1.42 ;&st7;   " /><path d=" M  2163.17,   185.35  C  2163.17    182.85   2161.14    180.82   2158.64    180.82  " style="stroke-width: 1.42 ;&st7;   " /><path d=" M  2158.64,   180.82  C  2156.14    180.82   2154.11    182.85   2154.11    185.35  " style="stroke-width: 1.42 ;&st7;   " /><path d=" M  2154.11,   185.35  C  2154.11    187.86   2156.14    189.89   2158.64    189.89  " style="stroke-width: 1.42 ;&st7;   " /><path d=" M  2158.64,   189.89  C  2161.14    189.89   2163.17    187.86   2163.17    185.35  " style="stroke-width: 1.42 ;&st7;   " /><path d=" M  2163.17,   176.29  C  2163.17    173.79   2161.14    171.76   2158.64    171.76  " style="stroke-width: 1.42 ;&st7;   " /><path d=" M  2158.64,   171.76  C  2156.14    171.76   2154.11    173.79   2154.11    176.29  " style="stroke-width: 1.42 ;&st7;   " /><path d=" M  2154.11,   176.29  C  2154.11    178.79   2156.14    180.82   2158.64    180.82  " style="stroke-width: 1.42 ;&st7;   " /><path d=" M  2158.64,   180.82  C  2161.14    180.82   2163.17    178.79   2163.17    176.29  " style="stroke-width: 1.42 ;&st7;   " /><path d=" M  2205.66,   185.35  C  2205.66    182.85   2203.64    180.82   2201.13    180.82  " style="stroke-width: 1.42 ;&st7;   " /><path d=" M  2201.13,   180.82  C  2198.63    180.82   2196.60    182.85   2196.60    185.35  " style="stroke-width: 1.42 ;&st7;   " /><path d=" M  2196.60,   185.35  C  2196.60    187.86   2198.63    189.89   2201.13    189.89  " style="stroke-width: 1.42 ;&st7;   " /><path d=" M  2201.13,   189.89  C  2203.64    189.89   2205.66    187.86   2205.66    185.35  " style="stroke-width: 1.42 ;&st7;   " /><path d=" M  2205.66,   176.29  C  2205.66    173.79   2203.64    171.76   2201.13    171.76  " style="stroke-width: 1.42 ;&st7;   " /><path d=" M  2201.13,   171.76  C  2198.63    171.76   2196.60    173.79   2196.60    176.29  " style="stroke-width: 1.42 ;&st7;   " /><path d=" M  2196.60,   176.29  C  2196.60    178.79   2198.63    180.82   2201.13    180.82  " style="stroke-width: 1.42 ;&st7;   " /><path d=" M  2201.13,   180.82  C  2203.64    180.82   2205.66    178.79   2205.66    176.29  " style="stroke-width: 1.42 ;&st7;   " /><path d=" M  2205.66,   150.23  C  2205.66    147.72   2203.64    145.69   2201.13    145.69  " style="stroke-width: 1.42 ;&st7;   " /><path d=" M  2201.13,   145.69  C  2198.63    145.69   2196.60    147.72   2196.60    150.23  " style="stroke-width: 1.42 ;&st7;   " /><path d=" M  2196.60,   150.23  C  2196.60    152.73   2198.63    154.76   2201.13    154.76  " style="stroke-width: 1.42 ;&st7;   " /><path d=" M  2201.13,   154.76  C  2203.64    154.76   2205.66    152.73   2205.66    150.23  " style="stroke-width: 1.42 ;&st7;   " /><path d=" M  2205.66,   141.16  C  2205.66    138.66   2203.64    136.63   2201.13    136.63  " style="stroke-width: 1.42 ;&st7;   " /><path d=" M  2201.13,   136.63  C  2198.63    136.63   2196.60    138.66   2196.60    141.16  " style="stroke-width: 1.42 ;&st7;   " /><path d=" M  2196.60,   141.16  C  2196.60    143.66   2198.63    145.69   2201.13    145.69  " style="stroke-width: 1.42 ;&st7;   " /><path d=" M  2201.13,   145.69  C  2203.64    145.69   2205.66    143.66   2205.66    141.16  " style="stroke-width: 1.42 ;&st7;   " /><path d=" M  2364.02,   480.54  C  2364.02    479.76   2363.39    479.12   2362.61    479.12  " style="stroke-width: 0.85 ;&st7;   " /><path d=" M  2362.61,   479.12  C  2361.82    479.12   2361.19    479.76   2361.19    480.54  " style="stroke-width: 0.85 ;&st7;   " /><path d=" M  2361.19,   480.54  C  2361.19    481.32   2361.82    481.95   2362.61    481.95  " style="stroke-width: 0.85 ;&st7;   " /><path d=" M  2362.61,   481.95  C  2363.39    481.95   2364.02    481.32   2364.02    480.54  " style="stroke-width: 0.85 ;&st7;   " /><path d=" M  2364.02,   457.88  C  2364.02    457.09   2363.39    456.46   2362.61    456.46  " style="stroke-width: 0.85 ;&st7;   " /><path d=" M  2362.61,   456.46  C  2361.82    456.46   2361.19    457.09   2361.19    457.88  " style="stroke-width: 0.85 ;&st7;   " /><path d=" M  2361.19,   457.88  C  2361.19    458.66   2361.82    459.29   2362.61    459.29  " style="stroke-width: 0.85 ;&st7;   " /><path d=" M  2362.61,   459.29  C  2363.39    459.29   2364.02    458.66   2364.02    457.88  " style="stroke-width: 0.85 ;&st7;   " /><path d=" M  2406.51,   480.54  C  2406.51    479.76   2405.88    479.12   2405.10    479.12  " style="stroke-width: 0.85 ;&st7;   " /><path d=" M  2405.10,   479.12  C  2404.32    479.12   2403.68    479.76   2403.68    480.54  " style="stroke-width: 0.85 ;&st7;   " /><path d=" M  2403.68,   480.54  C  2403.68    481.32   2404.32    481.95   2405.10    481.95  " style="stroke-width: 0.85 ;&st7;   " /><path d=" M  2405.10,   481.95  C  2405.88    481.95   2406.51    481.32   2406.51    480.54  " style="stroke-width: 0.85 ;&st7;   " /><path d=" M  2406.51,   457.88  C  2406.51    457.09   2405.88    456.46   2405.10    456.46  " style="stroke-width: 0.85 ;&st7;   " /><path d=" M  2405.10,   456.46  C  2404.32    456.46   2403.68    457.09   2403.68    457.88  " style="stroke-width: 0.85 ;&st7;   " /><path d=" M  2403.68,   457.88  C  2403.68    458.66   2404.32    459.29   2405.10    459.29  " style="stroke-width: 0.85 ;&st7;   " /><path d=" M  2405.10,   459.29  C  2405.88    459.29   2406.51    458.66   2406.51    457.88  " style="stroke-width: 0.85 ;&st7;   " /><path d=" M  2432.01,   480.54  C  2432.01    479.76   2431.38    479.12   2430.59    479.12  " style="stroke-width: 0.85 ;&st7;   " /><path d=" M  2430.59,   479.12  C  2429.81    479.12   2429.18    479.76   2429.18    480.54  " style="stroke-width: 0.85 ;&st7;   " /><path d=" M  2429.18,   480.54  C  2429.18    481.32   2429.81    481.95   2430.59    481.95  " style="stroke-width: 0.85 ;&st7;   " /><path d=" M  2430.59,   481.95  C  2431.38    481.95   2432.01    481.32   2432.01    480.54  " style="stroke-width: 0.85 ;&st7;   " /><path d=" M  2432.01,   457.88  C  2432.01    457.09   2431.38    456.46   2430.59    456.46  " style="stroke-width: 0.85 ;&st7;   " /><path d=" M  2430.59,   456.46  C  2429.81    456.46   2429.18    457.09   2429.18    457.88  " style="stroke-width: 0.85 ;&st7;   " /><path d=" M  2429.18,   457.88  C  2429.18    458.66   2429.81    459.29   2430.59    459.29  " style="stroke-width: 0.85 ;&st7;   " /><path d=" M  2430.59,   459.29  C  2431.38    459.29   2432.01    458.66   2432.01    457.88  " style="stroke-width: 0.85 ;&st7;   " /><path d=" M  2338.53,   457.88  C  2338.53    457.09   2337.89    456.46   2337.11    456.46  " style="stroke-width: 0.85 ;&st7;   " /><path d=" M  2337.11,   456.46  C  2336.33    456.46   2335.69    457.09   2335.69    457.88  " style="stroke-width: 0.85 ;&st7;   " /><path d=" M  2335.69,   457.88  C  2335.69    458.66   2336.33    459.29   2337.11    459.29  " style="stroke-width: 0.85 ;&st7;   " /><path d=" M  2337.11,   459.29  C  2337.89    459.29   2338.53    458.66   2338.53    457.88  " style="stroke-width: 0.85 ;&st7;   " /><path d=" M  2338.53,   480.54  C  2338.53    479.76   2337.89    479.12   2337.11    479.12  " style="stroke-width: 0.85 ;&st7;   " /><path d=" M  2337.11,   479.12  C  2336.33    479.12   2335.69    479.76   2335.69    480.54  " style="stroke-width: 0.85 ;&st7;   " /><path d=" M  2335.69,   480.54  C  2335.69    481.32   2336.33    481.95   2337.11    481.95  " style="stroke-width: 0.85 ;&st7;   " /><path d=" M  2337.11,   481.95  C  2337.89    481.95   2338.53    481.32   2338.53    480.54  " style="stroke-width: 0.85 ;&st7;   " /><path d=" M  2381.02,   480.54  C  2381.02    479.76   2380.38    479.12   2379.60    479.12  " style="stroke-width: 0.85 ;&st7;   " /><path d=" M  2379.60,   479.12  C  2378.82    479.12   2378.19    479.76   2378.19    480.54  " style="stroke-width: 0.85 ;&st7;   " /><path d=" M  2378.19,   480.54  C  2378.19    481.32   2378.82    481.95   2379.60    481.95  " style="stroke-width: 0.85 ;&st7;   " /><path d=" M  2379.60,   481.95  C  2380.38    481.95   2381.02    481.32   2381.02    480.54  " style="stroke-width: 0.85 ;&st7;   " /><path d=" M  2381.02,   457.88  C  2381.02    457.09   2380.38    456.46   2379.60    456.46  " style="stroke-width: 0.85 ;&st7;   " /><path d=" M  2379.60,   456.46  C  2378.82    456.46   2378.19    457.09   2378.19    457.88  " style="stroke-width: 0.85 ;&st7;   " /><path d=" M  2378.19,   457.88  C  2378.19    458.66   2378.82    459.29   2379.60    459.29  " style="stroke-width: 0.85 ;&st7;   " /><path d=" M  2379.60,   459.29  C  2380.38    459.29   2381.02    458.66   2381.02    457.88  " style="stroke-width: 0.85 ;&st7;   " /><path d=" M  2464.59,   205.75  C  2459.89    205.75   2456.09    209.56   2456.09    214.25  " style="stroke-width: 1.42 ;&st7;   " /><path d=" M  2456.09,   214.25  C  2456.09    218.94   2459.89    222.75   2464.59    222.75  " style="stroke-width: 1.42 ;&st7;   " /><path d=" M  2464.59,   222.75  C  2469.28    222.75   2473.09    218.94   2473.09    214.25  " style="stroke-width: 1.42 ;&st7;   " /><path d=" M  2473.09,   214.25  C  2473.09    209.56   2469.28    205.75   2464.59    205.75  " style="stroke-width: 1.42 ;&st7;   " /><text style="&st18;" transform="matrix(&st16;  2458.67  426.41 )">GND</text><text style="&st18;" transform="matrix(&st16;  2433.18  426.41 )">AUTO</text><text style="&st18;" transform="matrix(&st16;  2407.68  426.41 )">DOWN</text><text ewd:textID="37" style="&st18;" transform="matrix(&st16;  2274.21  551.91 )">Rear Power Window Regulator Switch Assembly LH</text><text style="&st18;" transform="matrix(&st16;  2274.21  544.81 )">J10</text><text style="&st18;" transform="matrix(&st16;  2365.19  426.41 )">UP</text><text style="&st18;" transform="matrix(&st16;  2297.2  426.41 )">LED</text><text style="&st18;" transform="matrix(&st16;  2461.86  216.22 )">M</text><text style="&st18;" transform="matrix(&st16;  2198.71  93.27 )">C</text><text style="&st18;" transform="matrix(&st16;  2188.32  93.27 )">10</text><text style="&st18;" transform="matrix(&st16;  2194.56  83.07 )">LIN2</text><text style="&st18;" transform="matrix(&st17;  2197.44  114.34 )">G</text><text style="&st18;" transform="matrix(&st16;  2112.73  138.01 )">E58(A)</text><text ewd:textID="28" style="&st18;" transform="matrix(&st16;  2112.74  145.11 )">Junction <tspan dy="6.0" x="0 ">Connector</tspan></text><text style="&st18;" transform="matrix(&st16;  2045.58  236.05 )">G</text><text style="&st18;" transform="matrix(&st16;  2096.57  236.05 )">G</text><text style="&st18;" transform="matrix(&st17;  2197.44  216.33 )">G</text><text style="&st18;" transform="matrix(&st17;  2154.94  216.33 )">G</text><text style="&st18;" transform="matrix(&st17;  2290.92  343.8 )">G</text><text style="&st18;" transform="matrix(&st17;  2358.91  343.11 )">L</text><text style="&st18;" transform="matrix(&st17;  2401.4  343.49 )">B</text><text style="&st18;" transform="matrix(&st17;  2426.9  343.65 )">R</text><text style="&st18;" transform="matrix(&st17;  2452.39  304.96 )">W-B</text><text style="&st18;" transform="matrix(&st17;  2452.39  398.44 )">W-B</text><text style="&st18;" transform="matrix(&st16;  2184.38  305.45 )">15</text><text style="&st18;" transform="matrix(&st16;  2184.38  254.46 )">22</text><text style="&st18;" transform="matrix(&st17;  2197.44  280.07 )">G</text><text style="&st18;" transform="matrix(&st16;  2264.22  270.04 )">LIN</text><text style="&st18;" transform="matrix(&st16;  2288.55  270.04 )">LED</text><text style="&st18;" transform="matrix(&st16;  2358.17  270.04 )">UP</text><text style="&st18;" transform="matrix(&st16;  2395.23  270.04 )">DOWN</text><text style="&st18;" transform="matrix(&st16;  2421.97  270.04 )">AUTO</text><text style="&st18;" transform="matrix(&st16;  2449.17  270.04 )">GND</text><text style="&st18;" transform="matrix(&st16;  2479.32  270.04 )">B</text><text style="&st18;" transform="matrix(&st16;  2288.28  414.53 )">4</text><text style="&st18;" transform="matrix(&st16;  2356.27  414.53 )">6</text><text style="&st18;" transform="matrix(&st16;  2398.76  414.53 )">7</text><text style="&st18;" transform="matrix(&st16;  2424.25  414.53 )">8</text><text style="&st18;" transform="matrix(&st16;  2449.75  414.53 )">1</text><text style="&st18;" transform="matrix(&st16;  2262.78  281.93 )">9</text><text style="&st18;" transform="matrix(&st16;  2288.28  281.93 )">5</text><text style="&st18;" transform="matrix(&st16;  2352.93  281.93 )">10</text><text style="&st18;" transform="matrix(&st16;  2398.76  281.93 )">7</text><text style="&st18;" transform="matrix(&st16;  2424.25  281.93 )">4</text><text style="&st18;" transform="matrix(&st16;  2449.75  281.93 )">1</text><text style="&st18;" transform="matrix(&st16;  2475.25  281.93 )">2</text><text ewd:textID="35" style="&st18;" transform="matrix(&st16;  2248.72  230.1 )">Rear Power Window Regulator <tspan dy="6.0" x="0 ">Motor Assembly LH</tspan></text><text style="&st18;" transform="matrix(&st16;  2248.71  222.99 )">J11</text><text style="&st18;" transform="matrix(&st17;  2010.47  406.94 )">W-B</text><text style="&st18;" transform="matrix(&st16;  2007.82  596.38 )">1</text><text style="&st18;" transform="matrix(&st16;  2007.82  567.5 )">2</text><text ewd:textID="28" style="&st18;" transform="matrix(&st16;  2024.92  580.24 )">Junction <tspan dy="6.0" x="0 ">Connector</tspan></text><text style="&st18;" transform="matrix(&st16;  2024.92  573.13 )">E62</text><text style="&st18;" transform="matrix(&st17;  2010.47  525.92 )">W-B</text><text style="&st18;" transform="matrix(&st17;  2010.47  636.4 )">W-B</text><text style="&st18;" transform="matrix(&st16;  2112.73  24.98 )">E1(A),E2(B),E3(C),E4(D)</text><text ewd:textID="31" style="&st18;" transform="matrix(&st16;  2112.74  32.08 )">Main Body ECU</text><text style="&st18;" transform="matrix(&st16;  2232.55  338.03 )">G</text><text style="&st18;" transform="matrix(&st16;  2023.19  322.45 )">(*4)</text><text style="&st18;" transform="matrix(&st16;  2023.19  313.95 )">(*3)</text><text style="&st18;" transform="matrix(&st16;  2000.75  322.45 )">4</text><text style="&st18;" transform="matrix(&st16;  2000.75  313.95 )">4</text><text style="&st18;" transform="matrix(&st16;  2113.88  187.32 )">A</text><text style="&st18;" transform="matrix(&st16;  2103.33  187.32 )">70</text><text style="&st18;" transform="matrix(&st16;  2113.88  178.26 )">A</text><text style="&st18;" transform="matrix(&st16;  2106.67  178.26 )">9</text><text style="&st18;" transform="matrix(&st16;  2156.37  187.32 )">A</text><text style="&st18;" transform="matrix(&st16;  2142.49  187.32 )">100</text><text style="&st18;" transform="matrix(&st16;  2156.37  178.26 )">A</text><text style="&st18;" transform="matrix(&st16;  2145.82  178.26 )">79</text><text style="&st18;" transform="matrix(&st16;  2206.23  187.32 )">(*8)</text><text style="&st18;" transform="matrix(&st16;  2198.87  187.32 )">A</text><text style="&st18;" transform="matrix(&st16;  2188.32  187.32 )">90</text><text style="&st18;" transform="matrix(&st16;  2206.23  178.26 )">(*7)</text><text style="&st18;" transform="matrix(&st16;  2198.87  178.26 )">A</text><text style="&st18;" transform="matrix(&st16;  2188.32  178.26 )">49</text><text style="&st18;" transform="matrix(&st16;  2206.23  152.2 )">(*8)</text><text style="&st18;" transform="matrix(&st16;  2198.87  152.2 )">A</text><text style="&st18;" transform="matrix(&st16;  2188.32  152.2 )">80</text><text style="&st18;" transform="matrix(&st16;  2206.23  143.13 )">(*7)</text><text style="&st18;" transform="matrix(&st16;  2198.87  143.13 )">A</text><text style="&st18;" transform="matrix(&st16;  2188.32  143.13 )">39</text></svg>