﻿<?xml version="1.0" encoding="utf-8"?>
<!DOCTYPE svg PUBLIC "-//W3C//DTD SVG 1.0//EN" "http://www.w3.org/TR/2001/REC-SVG-20010904/DTD/svg10.dtd"[
	<!ENTITY ns_flows "http://ns.adobe.com/Flows/1.0/">
	<!ENTITY ns_svg "http://www.w3.org/2000/svg">
	<!ENTITY ns_xlink "http://www.w3.org/1999/xlink">
	<!ENTITY st0 "font-size:7px;font-family:'MS-PGothic';adobe-font-script:japanese;">
	<!ENTITY st1 "font-size:6px;font-family:'ArialMT';">
	<!-- White fill  -->
	<!ENTITY st2 "fill:#FFFFFF;stroke:#000000; stroke-width:1.41;stroke-linecap:round;stroke-linejoin:round;">
	<!-- Yellow fill  -->
	<!ENTITY st3 "fill:#FFFFCC;stroke:#FFFFCC; stroke-width:0.1;stroke-linecap:round;stroke-linejoin:round;">
	<!-- Gray fill  -->
	<!ENTITY st4 "fill:#CCCCCC;stroke:#CCCCCC; stroke-width:0.1;stroke-linecap:round;stroke-linejoin:round;">
	<!-- Light-blue fill -->
	<!ENTITY st5 "fill:#CCECF4;stroke:#000000; stroke-width:1.133;stroke-linecap:round;stroke-linejoin:round;">
	<!ENTITY st6 "fill:none;stroke-linecap:butt; stroke-linejoin:round;">
	<!ENTITY st7 "fill:none;stroke:#000000;stroke-linecap:round;stroke-linejoin:round;">
	<!ENTITY st8 "enable-background:new    ;">
	<!-- Black fill -->
	<!ENTITY st9 "fill:#000000;stroke:#000000; stroke-linecap:round;stroke-linejoin:round;">
	<!-- SRS note   -->
	<!ENTITY st10 "font-size:9px;font-family:'ArialMT';">
	<!ENTITY st11 "font-size:9px;font-family:'Svg Symbol';">
	<!ENTITY st12 "font-size:6px;font-family:'Svg Symbol';">
	<!ENTITY st13 "fill:none;stroke:#ff0000;stroke-linecap:round;stroke-linejoin:round;">
	<!-- Yellow fill  -->
	<!ENTITY st14 "fill:#FFFF00;stroke:#FFFF00; stroke-width:0.1;stroke-linecap:round;stroke-linejoin:round;">
	<!ENTITY st15 "font-size:6px;font-family:'MS-PGothic';adobe-font-script:japanese;">
	<!ENTITY st16 "1.00 0.00 0.00 1.00">
	<!ENTITY st17 "0.00 -1.00 1.00 0.00">
	<!ENTITY st18 "font-size:6px;font-family:'Arial';">
	<!ENTITY st19 "font-size:9px;font-family:'Arial';">
	<!ENTITY st20 "font-size:6px;font-family:'MS-PGothic','MS PGothic';adobe-font-script:japanese;">
	<!ENTITY st21 "font-size:7px;font-family:'MS-PGothic','MS PGothic';adobe-font-script:japanese;">
	<!ATTLIST svg
		xmlns:ewd CDATA #FIXED "http://shcl.co.jp/ewd"
		xmlns:a CDATA #FIXED "http://ns.adobe.com/AdobeSVGViewerExtensions/3.0/"
		ewd:ver CDATA #IMPLIED
	>
	<!ATTLIST a
		ewd:lineID CDATA #IMPLIED
		ewd:groupID CDATA #IMPLIED
		ewd:figtype CDATA #IMPLIED
		ewd:code CDATA #IMPLIED
		ewd:figID CDATA #IMPLIED
		ewd:pinNo CDATA #IMPLIED
		ewd:comment CDATA #IMPLIED >
	<!ATTLIST g
		ewd:lineID CDATA #IMPLIED
		ewd:groupID CDATA #IMPLIED
		ewd:figtype CDATA #IMPLIED
		ewd:code CDATA #IMPLIED
		ewd:figID CDATA #IMPLIED
		ewd:pinNo CDATA #IMPLIED
		ewd:comment CDATA #IMPLIED >
	<!ATTLIST text
		ewd:textID CDATA #IMPLIED >
	<!ATTLIST title
		ewd:textID CDATA #IMPLIED >
]>
<!-- Generator: Shintec Hozumi YS   -->
<svg onload="call_execInitLoadProc_svg('system')" style="overflow:visible;  enable-background:new 0 0 2439.801 710.000" viewBox="0 0 2439.801 710.000" height="710.000" width="2439.801" xml:space="preserve" ewd:ver="L2.3.0.14" xmlns="&ns_svg;" xmlns:a="http://ns.adobe.com/AdobeSVGViewerExtensions/3.0/" xmlns:ewd="http://shcl.co.jp/ewd" xmlns:xlink="&ns_xlink;">
<path d=" M  1412.89,   103.77  L  1408.64,   103.77  " style="stroke-width: 1.42 ;&st7;  " /><path d=" M  1412.89,    95.27  L  1408.64,    95.27  " style="stroke-width: 1.42 ;&st7;  " /><path d=" M  1410.76,    69.77  L  1410.76,    78.27  " style="stroke-width: 0.85 ;&st7;  " /><path d=" M  1487.25,    69.77  L  1487.25,    78.27  " style="stroke-width: 0.85 ;&st7;  " /><path d=" M  1489.38,    95.27  L  1485.13,    95.27  " style="stroke-width: 1.42 ;&st7;  " /><path d=" M  1489.38,   103.77  L  1485.13,   103.77  " style="stroke-width: 1.42 ;&st7;  " /><path d=" M  1487.25,    78.27  L  1487.25,    95.27  " style="stroke-width: 0.85 ;&st7;  " /><path d=" M  1419.26,   188.75  L  1410.76,   188.75  " style="stroke-width: 1.42 ;&st7;  " /><path d=" M  1019.83,   401.22  L  1011.33,   401.22  " style="stroke-width: 1.42 ;&st7;  " /><path d=" M  1478.75,   265.24  L  1487.25,   265.24  " style="stroke-width: 1.42 ;&st7;  " /><path d=" M  1402.27,   265.24  L  1410.76,   265.24  " style="stroke-width: 1.42 ;&st7;  " /><path d=" M  1155.81,   197.25  L  1147.31,   197.25  " style="stroke-width: 1.42 ;&st7;  " /><path d=" M  1317.28,   197.25  L  1308.78,   197.25  " style="stroke-width: 1.42 ;&st7;  " /><path d=" M  1266.29,   197.25  L  1257.79,   197.25  " style="stroke-width: 1.42 ;&st7;  " /><path d=" M  1317.28,   146.26  L  1308.78,   146.26  " style="stroke-width: 1.42 ;&st7;  " /><path d=" M  1138.81,   239.75  L  1147.31,   239.75  " style="stroke-width: 1.42 ;&st7;  " /><path d=" M  1087.82,   239.75  L  1096.32,   239.75  " style="stroke-width: 1.42 ;&st7;  " /><path d=" M  1155.81,   146.26  L  1147.31,   146.26  " style="stroke-width: 1.42 ;&st7;  " /><path d=" M  1266.29,   146.26  L  1257.79,   146.26  " style="stroke-width: 1.42 ;&st7;  " /><path d=" M  1249.29,   239.75  L  1257.79,   239.75  " style="stroke-width: 1.42 ;&st7;  " /><path d=" M  1300.28,   239.75  L  1308.78,   239.75  " style="stroke-width: 1.42 ;&st7;  " /><path d=" M  1294.62,   388.47  L  1294.62,   379.97  " style="stroke-width: 1.42 ;&st7;  " /><path d=" M  1290.65,   388.47  L  1294.62,   388.47  " style="stroke-width: 1.42 ;&st7;  " /><path d=" M  1294.62,   379.97  L  1290.65,   379.97  " style="stroke-width: 1.42 ;&st7;  " /><path d=" M  1271.95,   388.47  L  1271.95,   379.97  " style="stroke-width: 1.42 ;&st7;  " /><path d=" M  1133.14,   388.47  L  1133.14,   379.97  " style="stroke-width: 1.42 ;&st7;  " /><path d=" M  1129.18,   388.47  L  1133.14,   388.47  " style="stroke-width: 1.42 ;&st7;  " /><path d=" M  1133.14,   379.97  L  1129.18,   379.97  " style="stroke-width: 1.42 ;&st7;  " /><path d=" M  1110.48,   388.47  L  1110.48,   379.97  " style="stroke-width: 1.42 ;&st7;  " /><path d=" M  1114.45,   388.47  L  1110.48,   388.47  " style="stroke-width: 1.42 ;&st7;  " /><path d=" M  1110.48,   379.97  L  1114.45,   379.97  " style="stroke-width: 1.42 ;&st7;  " /><path d=" M  1271.95,   379.97  L  1275.92,   379.97  " style="stroke-width: 1.42 ;&st7;  " /><path d=" M  1275.92,   388.47  L  1271.95,   388.47  " style="stroke-width: 1.42 ;&st7;  " /><path d=" M  1104.82,   146.26  L  1096.32,   146.26  " style="stroke-width: 1.42 ;&st7;  " /><path d=" M  1104.82,   197.25  L  1096.32,   197.25  " style="stroke-width: 1.42 ;&st7;  " /><path d=" M  1410.76,    78.27  L  1410.76,    95.27  " style="stroke-width: 0.85 ;&st7;  " /><path d=" M  1313.03,   234.08  L  1308.78,   238.33  L  1304.53,   234.08  " style="stroke-width: 1.42 ;&st7;  " /><path d=" M  1304.53,   230.68  L  1308.78,   234.93  L  1313.03,   230.68  " style="stroke-width: 1.42 ;&st7;  " /><path d=" M  1324.59,   298.23  L  1324.31,   298.70  L  1324.22,   299.24  L  1324.31,   299.77  L  1324.59,   300.24  L  1325.00,   300.58  L  1325.51,   300.77  L  1326.05,   300.77  L  1326.56,   300.58  L  1326.97,   300.24  L  1327.24,   299.77  L  1327.34,   299.24  L  1327.24,   298.70  L  1326.97,   298.23  L  1326.56,   297.89  L  1326.05,   297.70  L  1325.51,   297.70  L  1325.00,   297.89  L  1324.59,   298.23  L  1324.98,   298.94  L  1324.98,   299.53  L  1325.35,   299.97  L  1325.93,   300.07  L  1326.43,   299.78  L  1326.63,   299.24  L  1326.43,   298.69  L  1325.93,   298.40  L  1325.35,   298.50  L  1325.78,   299.24  " style="stroke-width: 0.85 ;&st7;  " /><path d=" M  1249.29,   323.31  L  1256.88,   305.61  " style="stroke-width: 1.42 ;&st7;  " /><path d=" M  1317.28,   323.31  L  1309.69,   305.61  " style="stroke-width: 1.42 ;&st7;  " /><path d=" M  1317.28,   326.15  L  1317.28,   341.73  " style="stroke-width: 0.85 ;&st7;  " /><path d=" M  1308.78,   306.32  L  1308.78,   282.24  " style="stroke-width: 0.85 ;&st7;  " /><path d=" M  1257.79,   306.32  L  1257.79,   282.24  " style="stroke-width: 0.85 ;&st7;  " /><path d=" M  1249.29,   341.73  L  1249.29,   326.15  " style="stroke-width: 0.85 ;&st7;  " /><path d=" M  1325.78,   299.24  L  1325.78,   306.32  " style="stroke-width: 0.85 ;&st7;  " /><path d=" M  1232.29,   282.24  L  1368.27,   282.24  L  1368.27,   341.73  L  1232.29,   341.73  L  1232.29,   282.24  " style="stroke-width: 1.42 ;&st7;  " /><path d=" M  1070.82,   282.24  L  1206.80,   282.24  L  1206.80,   341.73  L  1070.82,   341.73  L  1070.82,   282.24  " style="stroke-width: 1.42 ;&st7;  " /><path d=" M  1164.30,   299.24  L  1164.30,   306.32  " style="stroke-width: 0.85 ;&st7;  " /><path d=" M  1087.82,   341.73  L  1087.82,   326.15  " style="stroke-width: 0.85 ;&st7;  " /><path d=" M  1096.32,   306.32  L  1096.32,   282.24  " style="stroke-width: 0.85 ;&st7;  " /><path d=" M  1147.31,   306.32  L  1147.31,   282.24  " style="stroke-width: 0.85 ;&st7;  " /><path d=" M  1155.81,   326.15  L  1155.81,   341.73  " style="stroke-width: 0.85 ;&st7;  " /><path d=" M  1155.81,   323.31  L  1148.22,   305.61  " style="stroke-width: 1.42 ;&st7;  " /><path d=" M  1087.82,   323.31  L  1095.41,   305.61  " style="stroke-width: 1.42 ;&st7;  " /><path d=" M  1163.11,   298.23  L  1162.84,   298.70  L  1162.75,   299.24  L  1162.84,   299.77  L  1163.11,   300.24  L  1163.53,   300.58  L  1164.03,   300.77  L  1164.58,   300.77  L  1165.08,   300.58  L  1165.50,   300.24  L  1165.77,   299.77  L  1165.86,   299.24  L  1165.77,   298.70  L  1165.50,   298.23  L  1165.08,   297.89  L  1164.58,   297.70  L  1164.03,   297.70  L  1163.53,   297.89  L  1163.11,   298.23  L  1163.51,   298.94  L  1163.51,   299.53  L  1163.88,   299.97  L  1164.45,   300.07  L  1164.96,   299.78  L  1165.15,   299.24  L  1164.96,   298.69  L  1164.45,   298.40  L  1163.88,   298.50  L  1164.30,   299.24  " style="stroke-width: 0.85 ;&st7;  " /><path d=" M  1079.32,   306.32  L  1079.32,   299.24  L  1198.30,   299.24  L  1198.30,   341.73  " style="stroke-width: 0.85 ;&st7;  " /><path d=" M  1240.79,   306.32  L  1240.79,   299.24  L  1359.77,   299.24  L  1359.77,   341.73  " style="stroke-width: 0.85 ;&st7;  " /><path d=" M  1100.57,   155.33  L  1096.32,   151.08  L  1092.07,   155.33  " style="stroke-width: 1.42 ;&st7;  " /><path d=" M  1100.57,   151.93  L  1096.32,   147.68  L  1092.07,   151.93  " style="stroke-width: 1.42 ;&st7;  " /><path d=" M  1262.04,   234.08  L  1257.79,   238.33  L  1253.54,   234.08  " style="stroke-width: 1.42 ;&st7;  " /><path d=" M  1253.54,   230.68  L  1257.79,   234.93  L  1262.04,   230.68  " style="stroke-width: 1.42 ;&st7;  " /><path d=" M  1262.04,   155.33  L  1257.79,   151.08  L  1253.54,   155.33  " style="stroke-width: 1.42 ;&st7;  " /><path d=" M  1262.04,   151.93  L  1257.79,   147.68  L  1253.54,   151.93  " style="stroke-width: 1.42 ;&st7;  " /><path d=" M  1151.56,   155.33  L  1147.31,   151.08  L  1143.06,   155.33  " style="stroke-width: 1.42 ;&st7;  " /><path d=" M  1151.56,   151.93  L  1147.31,   147.68  L  1143.06,   151.93  " style="stroke-width: 1.42 ;&st7;  " /><path d=" M  1100.57,   234.08  L  1096.32,   238.33  L  1092.07,   234.08  " style="stroke-width: 1.42 ;&st7;  " /><path d=" M  1092.07,   230.68  L  1096.32,   234.93  L  1100.57,   230.68  " style="stroke-width: 1.42 ;&st7;  " /><path d=" M  1151.56,   234.08  L  1147.31,   238.33  L  1143.06,   234.08  " style="stroke-width: 1.42 ;&st7;  " /><path d=" M  1143.06,   230.68  L  1147.31,   234.93  L  1151.56,   230.68  " style="stroke-width: 1.42 ;&st7;  " /><path d=" M  1313.03,   155.33  L  1308.78,   151.08  L  1304.53,   155.33  " style="stroke-width: 1.42 ;&st7;  " /><path d=" M  1313.03,   151.93  L  1308.78,   147.68  L  1304.53,   151.93  " style="stroke-width: 1.42 ;&st7;  " /><path d=" M  1262.04,   206.32  L  1257.79,   202.07  L  1253.54,   206.32  " style="stroke-width: 1.42 ;&st7;  " /><path d=" M  1262.04,   202.92  L  1257.79,   198.67  L  1253.54,   202.92  " style="stroke-width: 1.42 ;&st7;  " /><path d=" M  1313.03,   206.32  L  1308.78,   202.07  L  1304.53,   206.32  " style="stroke-width: 1.42 ;&st7;  " /><path d=" M  1313.03,   202.92  L  1308.78,   198.67  L  1304.53,   202.92  " style="stroke-width: 1.42 ;&st7;  " /><path d=" M  1151.56,   206.32  L  1147.31,   202.07  L  1143.06,   206.32  " style="stroke-width: 1.42 ;&st7;  " /><path d=" M  1151.56,   202.92  L  1147.31,   198.67  L  1143.06,   202.92  " style="stroke-width: 1.42 ;&st7;  " /><path d=" M  1100.57,   206.32  L  1096.32,   202.07  L  1092.07,   206.32  " style="stroke-width: 1.42 ;&st7;  " /><path d=" M  1100.57,   202.92  L  1096.32,   198.67  L  1092.07,   202.92  " style="stroke-width: 1.42 ;&st7;  " /><path d=" M  1398.02,    35.78  L  1398.02,    78.27  L  1423.51,    78.27  L  1423.51,    35.78  L  1398.02,    35.78  " style="stroke-width: 1.42 ;&st7;  " /><path d=" M  1410.76,    90.37  L  1407.93,    87.54  L  1407.93,    91.79  L  1410.76,    94.62  L  1413.60,    91.79  L  1413.60,    87.54  L  1410.76,    90.37  " style="stroke-width: 0.28 ;&st9;  " /><path d=" M  1487.25,    90.37  L  1484.42,    87.54  L  1484.42,    91.79  L  1487.25,    94.62  L  1490.08,    91.79  L  1490.08,    87.54  L  1487.25,    90.37  " style="stroke-width: 0.28 ;&st9;  " /><path d=" M  1474.50,    35.78  L  1474.50,    78.27  L  1500.00,    78.27  L  1500.00,    35.78  L  1474.50,    35.78  " style="stroke-width: 1.42 ;&st7;  " /><path d=" M  1415.01,   197.82  L  1410.76,   193.57  L  1406.51,   197.82  " style="stroke-width: 1.42 ;&st7;  " /><path d=" M  1415.01,   194.42  L  1410.76,   190.17  L  1406.51,   194.42  " style="stroke-width: 1.42 ;&st7;  " /><path d=" M  1015.58,   410.28  L  1011.33,   406.03  L  1007.08,   410.28  " style="stroke-width: 1.42 ;&st7;  " /><path d=" M  1015.58,   406.88  L  1011.33,   402.63  L  1007.08,   406.88  " style="stroke-width: 1.42 ;&st7;  " /><path d=" M  1491.50,   259.58  L  1487.25,   263.82  L  1483.00,   259.58  " style="stroke-width: 1.42 ;&st7;  " /><path d=" M  1483.00,   256.18  L  1487.25,   260.43  L  1491.50,   256.18  " style="stroke-width: 1.42 ;&st7;  " /><path d=" M  1415.01,   259.58  L  1410.76,   263.82  L  1406.51,   259.58  " style="stroke-width: 1.42 ;&st7;  " /><path d=" M  1406.51,   256.18  L  1410.76,   260.43  L  1415.01,   256.18  " style="stroke-width: 1.42 ;&st7;  " /><path d=" M  1404.39,    99.52  C  1404.39    101.87   1406.29    103.77   1408.64    103.77  " style="stroke-width: 1.42 ;&st7;   " /><path d=" M  1408.64,    95.27  C  1406.29     95.27   1404.39     97.17   1404.39     99.52  " style="stroke-width: 1.42 ;&st7;   " /><path d=" M  1485.13,    95.27  C  1482.78     95.27   1480.88     97.17   1480.88     99.52  " style="stroke-width: 1.42 ;&st7;   " /><path d=" M  1480.88,    99.52  C  1480.88    101.87   1482.78    103.77   1485.13    103.77  " style="stroke-width: 1.42 ;&st7;   " /><path d=" M  1489.38,   103.77  C  1491.72    103.77   1493.63    101.87   1493.63     99.52  " style="stroke-width: 1.42 ;&st7;   " /><path d=" M  1493.63,    99.52  C  1493.63     97.17   1491.72     95.27   1489.38     95.27  " style="stroke-width: 1.42 ;&st7;   " /><path d=" M  1410.76,    47.11  C  1408.03     48.72   1407.11     52.25   1408.73     54.99  " style="stroke-width: 1.42 ;&st7;   " /><path d=" M  1408.73,    54.99  C  1409.25     55.87   1409.88     56.51   1410.76     57.03  " style="stroke-width: 1.42 ;&st7;   " /><path d=" M  1410.76,    66.94  C  1413.50     65.33   1414.41     61.80   1412.80     59.06  " style="stroke-width: 1.42 ;&st7;   " /><path d=" M  1412.80,    59.06  C  1412.28     58.18   1411.65     57.55   1410.76     57.03  " style="stroke-width: 1.42 ;&st7;   " /><path d=" M  1412.18,    45.69  C  1412.18     44.91   1411.55     44.28   1410.76     44.28  " style="stroke-width: 0.85 ;&st7;   " /><path d=" M  1410.76,    44.28  C  1409.98     44.28   1409.35     44.91   1409.35     45.69  " style="stroke-width: 0.85 ;&st7;   " /><path d=" M  1409.35,    45.69  C  1409.35     46.48   1409.98     47.11   1410.76     47.11  " style="stroke-width: 0.85 ;&st7;   " /><path d=" M  1410.76,    47.11  C  1411.55     47.11   1412.18     46.48   1412.18     45.69  " style="stroke-width: 0.85 ;&st7;   " /><path d=" M  1412.18,    68.36  C  1412.18     67.57   1411.55     66.94   1410.76     66.94  " style="stroke-width: 0.85 ;&st7;   " /><path d=" M  1410.76,    66.94  C  1409.98     66.94   1409.35     67.57   1409.35     68.36  " style="stroke-width: 0.85 ;&st7;   " /><path d=" M  1409.35,    68.36  C  1409.35     69.14   1409.98     69.77   1410.76     69.77  " style="stroke-width: 0.85 ;&st7;   " /><path d=" M  1410.76,    69.77  C  1411.55     69.77   1412.18     69.14   1412.18     68.36  " style="stroke-width: 0.85 ;&st7;   " /><path d=" M  1487.25,    47.11  C  1484.51     48.72   1483.60     52.25   1485.21     54.99  " style="stroke-width: 1.42 ;&st7;   " /><path d=" M  1485.21,    54.99  C  1485.73     55.87   1486.37     56.51   1487.25     57.03  " style="stroke-width: 1.42 ;&st7;   " /><path d=" M  1487.25,    66.94  C  1489.99     65.33   1490.90     61.80   1489.29     59.06  " style="stroke-width: 1.42 ;&st7;   " /><path d=" M  1489.29,    59.06  C  1488.77     58.18   1488.13     57.55   1487.25     57.03  " style="stroke-width: 1.42 ;&st7;   " /><path d=" M  1488.67,    45.69  C  1488.67     44.91   1488.03     44.28   1487.25     44.28  " style="stroke-width: 0.85 ;&st7;   " /><path d=" M  1487.25,    44.28  C  1486.47     44.28   1485.84     44.91   1485.84     45.69  " style="stroke-width: 0.85 ;&st7;   " /><path d=" M  1485.84,    45.69  C  1485.84     46.48   1486.47     47.11   1487.25     47.11  " style="stroke-width: 0.85 ;&st7;   " /><path d=" M  1487.25,    47.11  C  1488.03     47.11   1488.67     46.48   1488.67     45.69  " style="stroke-width: 0.85 ;&st7;   " /><path d=" M  1488.67,    68.36  C  1488.67     67.57   1488.03     66.94   1487.25     66.94  " style="stroke-width: 0.85 ;&st7;   " /><path d=" M  1487.25,    66.94  C  1486.47     66.94   1485.84     67.57   1485.84     68.36  " style="stroke-width: 0.85 ;&st7;   " /><path d=" M  1485.84,    68.36  C  1485.84     69.14   1486.47     69.77   1487.25     69.77  " style="stroke-width: 0.85 ;&st7;   " /><path d=" M  1487.25,    69.77  C  1488.03     69.77   1488.67     69.14   1488.67     68.36  " style="stroke-width: 0.85 ;&st7;   " /><path d=" M  1121.81,   392.72  C  1126.51    392.72   1130.31    388.91   1130.31    384.22  " style="stroke-width: 1.42 ;&st7;   " /><path d=" M  1130.31,   384.22  C  1130.31    379.53   1126.51    375.72   1121.81    375.72  " style="stroke-width: 1.42 ;&st7;   " /><path d=" M  1121.81,   375.72  C  1117.12    375.72   1113.31    379.53   1113.31    384.22  " style="stroke-width: 1.42 ;&st7;   " /><path d=" M  1113.31,   384.22  C  1113.31    388.91   1117.12    392.72   1121.81    392.72  " style="stroke-width: 1.42 ;&st7;   " /><path d=" M  1283.29,   392.72  C  1287.98    392.72   1291.78    388.91   1291.78    384.22  " style="stroke-width: 1.42 ;&st7;   " /><path d=" M  1291.78,   384.22  C  1291.78    379.53   1287.98    375.72   1283.29    375.72  " style="stroke-width: 1.42 ;&st7;   " /><path d=" M  1089.23,   324.73  C  1089.23    323.95   1088.60    323.31   1087.82    323.31  " style="stroke-width: 0.85 ;&st7;   " /><path d=" M  1087.82,   323.31  C  1087.04    323.31   1086.40    323.95   1086.40    324.73  " style="stroke-width: 0.85 ;&st7;   " /><path d=" M  1086.40,   324.73  C  1086.40    325.51   1087.04    326.15   1087.82    326.15  " style="stroke-width: 0.85 ;&st7;   " /><path d=" M  1087.82,   326.15  C  1088.60    326.15   1089.23    325.51   1089.23    324.73  " style="stroke-width: 0.85 ;&st7;   " /><path d=" M  1157.22,   324.73  C  1157.22    323.95   1156.59    323.31   1155.81    323.31  " style="stroke-width: 0.85 ;&st7;   " /><path d=" M  1155.81,   323.31  C  1155.02    323.31   1154.39    323.95   1154.39    324.73  " style="stroke-width: 0.85 ;&st7;   " /><path d=" M  1154.39,   324.73  C  1154.39    325.51   1155.02    326.15   1155.81    326.15  " style="stroke-width: 0.85 ;&st7;   " /><path d=" M  1155.81,   326.15  C  1156.59    326.15   1157.22    325.51   1157.22    324.73  " style="stroke-width: 0.85 ;&st7;   " /><path d=" M  1165.72,   307.73  C  1165.72    306.95   1165.09    306.32   1164.31    306.32  " style="stroke-width: 0.85 ;&st7;   " /><path d=" M  1164.31,   306.32  C  1163.52    306.32   1162.89    306.95   1162.89    307.73  " style="stroke-width: 0.85 ;&st7;   " /><path d=" M  1162.89,   307.73  C  1162.89    308.52   1163.52    309.15   1164.31    309.15  " style="stroke-width: 0.85 ;&st7;   " /><path d=" M  1164.31,   309.15  C  1165.09    309.15   1165.72    308.52   1165.72    307.73  " style="stroke-width: 0.85 ;&st7;   " /><path d=" M  1148.72,   307.73  C  1148.72    306.95   1148.09    306.32   1147.31    306.32  " style="stroke-width: 0.85 ;&st7;   " /><path d=" M  1147.31,   306.32  C  1146.53    306.32   1145.89    306.95   1145.89    307.73  " style="stroke-width: 0.85 ;&st7;   " /><path d=" M  1145.89,   307.73  C  1145.89    308.52   1146.53    309.15   1147.31    309.15  " style="stroke-width: 0.85 ;&st7;   " /><path d=" M  1147.31,   309.15  C  1148.09    309.15   1148.72    308.52   1148.72    307.73  " style="stroke-width: 0.85 ;&st7;   " /><path d=" M  1080.74,   307.73  C  1080.74    306.95   1080.10    306.32   1079.32    306.32  " style="stroke-width: 0.85 ;&st7;   " /><path d=" M  1079.32,   306.32  C  1078.54    306.32   1077.90    306.95   1077.90    307.73  " style="stroke-width: 0.85 ;&st7;   " /><path d=" M  1077.90,   307.73  C  1077.90    308.52   1078.54    309.15   1079.32    309.15  " style="stroke-width: 0.85 ;&st7;   " /><path d=" M  1079.32,   309.15  C  1080.10    309.15   1080.74    308.52   1080.74    307.73  " style="stroke-width: 0.85 ;&st7;   " /><path d=" M  1097.73,   307.73  C  1097.73    306.95   1097.10    306.32   1096.32    306.32  " style="stroke-width: 0.85 ;&st7;   " /><path d=" M  1096.32,   306.32  C  1095.53    306.32   1094.90    306.95   1094.90    307.73  " style="stroke-width: 0.85 ;&st7;   " /><path d=" M  1094.90,   307.73  C  1094.90    308.52   1095.53    309.15   1096.32    309.15  " style="stroke-width: 0.85 ;&st7;   " /><path d=" M  1096.32,   309.15  C  1097.10    309.15   1097.73    308.52   1097.73    307.73  " style="stroke-width: 0.85 ;&st7;   " /><path d=" M  1259.21,   307.73  C  1259.21    306.95   1258.57    306.32   1257.79    306.32  " style="stroke-width: 0.85 ;&st7;   " /><path d=" M  1257.79,   306.32  C  1257.01    306.32   1256.37    306.95   1256.37    307.73  " style="stroke-width: 0.85 ;&st7;   " /><path d=" M  1256.37,   307.73  C  1256.37    308.52   1257.01    309.15   1257.79    309.15  " style="stroke-width: 0.85 ;&st7;   " /><path d=" M  1257.79,   309.15  C  1258.57    309.15   1259.21    308.52   1259.21    307.73  " style="stroke-width: 0.85 ;&st7;   " /><path d=" M  1242.21,   307.73  C  1242.21    306.95   1241.57    306.32   1240.79    306.32  " style="stroke-width: 0.85 ;&st7;   " /><path d=" M  1240.79,   306.32  C  1240.01    306.32   1239.38    306.95   1239.38    307.73  " style="stroke-width: 0.85 ;&st7;   " /><path d=" M  1239.38,   307.73  C  1239.38    308.52   1240.01    309.15   1240.79    309.15  " style="stroke-width: 0.85 ;&st7;   " /><path d=" M  1240.79,   309.15  C  1241.57    309.15   1242.21    308.52   1242.21    307.73  " style="stroke-width: 0.85 ;&st7;   " /><path d=" M  1310.20,   307.73  C  1310.20    306.95   1309.56    306.32   1308.78    306.32  " style="stroke-width: 0.85 ;&st7;   " /><path d=" M  1308.78,   306.32  C  1308.00    306.32   1307.36    306.95   1307.36    307.73  " style="stroke-width: 0.85 ;&st7;   " /><path d=" M  1307.36,   307.73  C  1307.36    308.52   1308.00    309.15   1308.78    309.15  " style="stroke-width: 0.85 ;&st7;   " /><path d=" M  1308.78,   309.15  C  1309.56    309.15   1310.20    308.52   1310.20    307.73  " style="stroke-width: 0.85 ;&st7;   " /><path d=" M  1327.19,   307.73  C  1327.19    306.95   1326.56    306.32   1325.78    306.32  " style="stroke-width: 0.85 ;&st7;   " /><path d=" M  1325.78,   306.32  C  1325.00    306.32   1324.36    306.95   1324.36    307.73  " style="stroke-width: 0.85 ;&st7;   " /><path d=" M  1324.36,   307.73  C  1324.36    308.52   1325.00    309.15   1325.78    309.15  " style="stroke-width: 0.85 ;&st7;   " /><path d=" M  1325.78,   309.15  C  1326.56    309.15   1327.19    308.52   1327.19    307.73  " style="stroke-width: 0.85 ;&st7;   " /><path d=" M  1318.70,   324.73  C  1318.70    323.95   1318.06    323.31   1317.28    323.31  " style="stroke-width: 0.85 ;&st7;   " /><path d=" M  1317.28,   323.31  C  1316.50    323.31   1315.86    323.95   1315.86    324.73  " style="stroke-width: 0.85 ;&st7;   " /><path d=" M  1315.86,   324.73  C  1315.86    325.51   1316.50    326.15   1317.28    326.15  " style="stroke-width: 0.85 ;&st7;   " /><path d=" M  1317.28,   326.15  C  1318.06    326.15   1318.70    325.51   1318.70    324.73  " style="stroke-width: 0.85 ;&st7;   " /><path d=" M  1250.71,   324.73  C  1250.71    323.95   1250.07    323.31   1249.29    323.31  " style="stroke-width: 0.85 ;&st7;   " /><path d=" M  1249.29,   323.31  C  1248.51    323.31   1247.87    323.95   1247.87    324.73  " style="stroke-width: 0.85 ;&st7;   " /><path d=" M  1247.87,   324.73  C  1247.87    325.51   1248.51    326.15   1249.29    326.15  " style="stroke-width: 0.85 ;&st7;   " /><path d=" M  1249.29,   326.15  C  1250.07    326.15   1250.71    325.51   1250.71    324.73  " style="stroke-width: 0.85 ;&st7;   " /><path d=" M  1283.29,   375.72  C  1278.59    375.72   1274.79    379.53   1274.79    384.22  " style="stroke-width: 1.42 ;&st7;   " /><path d=" M  1274.79,   384.22  C  1274.79    388.91   1278.59    392.72   1283.29    392.72  " style="stroke-width: 1.42 ;&st7;   " /><path d=" M  1417.14,    99.52  C  1417.14     97.17   1415.24     95.27   1412.89     95.27  " style="stroke-width: 1.42 ;&st7;   " /><path d=" M  1412.89,   103.77  C  1415.24    103.77   1417.14    101.87   1417.14     99.52  " style="stroke-width: 1.42 ;&st7;   " /><text style="&st18;" transform="matrix(&st16;  1130.56  143.98 )">10</text><text style="&st18;" transform="matrix(&st16;  1079.56  245.96 )">13</text><text style="&st18;" transform="matrix(&st17;  1092.62  225.23 )">LA-G</text><text style="&st18;" transform="matrix(&st17;  1143.61  224.92 )">LA-B</text><text style="&st18;" transform="matrix(&st17;  1254.09  224.92 )">LA-P</text><text style="&st18;" transform="matrix(&st17;  1305.09  226.9 )">LA-LG</text><text style="&st18;" transform="matrix(&st17;  1092.62  263.07 )">G</text><text style="&st18;" transform="matrix(&st17;  1143.61  262.76 )">B</text><text style="&st18;" transform="matrix(&st17;  1254.09  262.76 )">P</text><text style="&st18;" transform="matrix(&st17;  1305.09  264.74 )">LG</text><text style="&st18;" transform="matrix(&st17;  1054.07  344.63 )">J23</text><text style="&st18;" transform="matrix(&st17;  1215.54  344.63 )">J21</text><text style="&st18;" transform="matrix(&st16;  1295.36  143.98 )">9</text><text style="&st18;" transform="matrix(&st16;  1241.04  194.97 )">43</text><text style="&st18;" transform="matrix(&st16;  1292.03  194.97 )">42</text><text style="&st18;" transform="matrix(&st16;  1130.56  194.97 )">28</text><text style="&st18;" transform="matrix(&st17;  1092.62  169.58 )">G</text><text style="&st18;" transform="matrix(&st17;  1143.61  169.27 )">B</text><text style="&st18;" transform="matrix(&st17;  1254.09  169.27 )">P</text><text style="&st18;" transform="matrix(&st17;  1305.09  171.25 )">LG</text><text style="&st18;" transform="matrix(&st17;  1313.58  365.05 )">G</text><text style="&st18;" transform="matrix(&st17;  1245.6  364.9 )">R</text><text style="&st18;" transform="matrix(&st17;  1152.11  364.74 )">B</text><text style="&st18;" transform="matrix(&st17;  1084.12  364.35 )">L</text><text style="&st18;" transform="matrix(&st16;  1092.9  400.33 )">J22</text><text style="&st18;" transform="matrix(&st16;  1254.38  400.33 )">J20</text><text style="&st18;" transform="matrix(&st16;  1004.22  338.04 )">B</text><text style="&st18;" transform="matrix(&st16;  1004.99  349.92 )">3</text><text ewd:textID="17" style="&st18;" transform="matrix(&st17;  1222.65  344.63 )">Rear Power Window Regulator <tspan dy="6.0" x="0 ">Switch Assembly RH</tspan></text><text ewd:textID="15" style="&st18;" transform="matrix(&st16;  1254.38  407.44 )">Rear Power Window <tspan dy="6.0" x="0 ">Regulator Motor </tspan><tspan dy="6.0" x="0 ">Assembly RH</tspan></text><text ewd:textID="16" style="&st18;" transform="matrix(&st17;  1061.18  344.63 )">Rear Power Window Regulator <tspan dy="6.0" x="0 ">Switch Assembly LH</tspan></text><text ewd:textID="14" style="&st18;" transform="matrix(&st16;  1092.91  407.44 )">Rear Power Window <tspan dy="6.0" x="0 ">Regulator Motor </tspan><tspan dy="6.0" x="0 ">Assembly LH</tspan></text><text style="&st18;" transform="matrix(&st17;  1305.09  124.51 )">LG</text><text style="&st18;" transform="matrix(&st16;  1299.11  94.96 )">15</text><text style="&st18;" transform="matrix(&st16;  1248.12  94.96 )">16</text><text style="&st18;" transform="matrix(&st16;  1137.63  94.96 )">10</text><text style="&st18;" transform="matrix(&st16;  1086.64  94.96 )">18</text><text style="&st18;" transform="matrix(&st17;  1254.09  122.53 )">P</text><text style="&st18;" transform="matrix(&st17;  1143.61  122.53 )">B</text><text style="&st18;" transform="matrix(&st17;  1092.62  122.84 )">G</text><text style="&st18;" transform="matrix(&st16;  1079.56  194.97 )">27</text><text style="&st18;" transform="matrix(&st17;  1194.6  368.6 )">L</text><text style="&st18;" transform="matrix(&st17;  1356.08  368.6 )">L</text><text style="&st18;" transform="matrix(&st17;  1407.07  233.07 )">LA-L</text><text style="&st18;" transform="matrix(&st16;  1402.68  32.08 )">(BAT)</text><text style="&st18;" transform="matrix(&st16;  1399.47  101.49 )">2</text><text style="&st18;" transform="matrix(&st16;  1408.03  101.49 )">2I</text><text style="&st18;" transform="matrix(&st16;  1427.19  53.34 )">30A <tspan dy="6.0" x="0 ">DOOR </tspan><tspan dy="6.0" x="0 ">R/R</tspan></text><text style="&st18;" transform="matrix(&st16;  1483.36  101.49 )">2K</text><text style="&st18;" transform="matrix(&st16;  1475.96  101.49 )">5</text><text style="&st18;" transform="matrix(&st16;  1479.17  32.08 )">(BAT)</text><text style="&st18;" transform="matrix(&st17;  1407.07  152.33 )">LA-L</text><text style="&st18;" transform="matrix(&st17;  1483.56  152.33 )">LA-L</text><text style="&st18;" transform="matrix(&st16;  1394.01  186.47 )">44</text><text ewd:textID="12" style="&st18;" transform="matrix(&st16;  1135.4  49.08 )">Multiplex Network Master Switch Assembly</text><text style="&st18;" transform="matrix(&st16;  1135.4  41.97 )">I26</text><text style="&st18;" transform="matrix(&st17;  1007.64  369.92 )">W</text><text style="&st18;" transform="matrix(&st17;  1007.64  437.91 )">W</text><text style="&st18;" transform="matrix(&st16;  1394.01  271.46 )">17</text><text style="&st18;" transform="matrix(&st16;  1470.5  271.46 )">17</text><text style="&st18;" transform="matrix(&st17;  1407.07  309.11 )">L</text><text style="&st18;" transform="matrix(&st17;  1483.56  309.11 )">L</text><text style="&st18;" transform="matrix(&st16;  1082.9  143.98 )">8</text><text style="&st18;" transform="matrix(&st16;  1295.36  245.96 )">5</text><text style="&st18;" transform="matrix(&st16;  1280.55  386.19 )">M</text><text style="&st18;" transform="matrix(&st16;  1306.36  83.07 )">D</text><text style="&st18;" transform="matrix(&st16;  1265.61  380.53 )">1</text><text style="&st18;" transform="matrix(&st16;  1297.2  380.53 )">2</text><text style="&st18;" transform="matrix(&st16;  1297.32  290.43 )">SD</text><text style="&st18;" transform="matrix(&st16;  1246.33  290.43 )">SU</text><text style="&st18;" transform="matrix(&st16;  1309.85  338.04 )">D</text><text style="&st18;" transform="matrix(&st16;  1241.87  338.04 )">U</text><text ewd:textID="4" style="&st18;" transform="matrix(&st17;  1327.75  325.75 )">Down</text><text ewd:textID="18" style="&st18;" transform="matrix(&st17;  1242.76  318.22 )">Up</text><text style="&st18;" transform="matrix(&st16;  1310.94  349.92 )">1</text><text style="&st18;" transform="matrix(&st16;  1242.95  349.92 )">4</text><text style="&st18;" transform="matrix(&st16;  1302.44  278.55 )">2</text><text style="&st18;" transform="matrix(&st16;  1251.45  278.55 )">5</text><text style="&st18;" transform="matrix(&st16;  1255.37  83.07 )">U</text><text style="&st18;" transform="matrix(&st16;  1089.98  278.55 )">5</text><text style="&st18;" transform="matrix(&st16;  1140.97  278.55 )">2</text><text style="&st18;" transform="matrix(&st16;  1081.48  349.92 )">4</text><text style="&st18;" transform="matrix(&st16;  1149.47  349.92 )">1</text><text ewd:textID="18" style="&st18;" transform="matrix(&st17;  1081.29  318.22 )">Up</text><text ewd:textID="4" style="&st18;" transform="matrix(&st17;  1166.28  325.75 )">Down</text><text style="&st18;" transform="matrix(&st16;  1080.39  338.04 )">U</text><text style="&st18;" transform="matrix(&st16;  1148.38  338.04 )">D</text><text style="&st18;" transform="matrix(&st16;  1084.86  290.43 )">SU</text><text style="&st18;" transform="matrix(&st16;  1135.85  290.43 )">SD</text><text style="&st18;" transform="matrix(&st16;  1135.73  380.53 )">2</text><text style="&st18;" transform="matrix(&st16;  1104.14  380.53 )">1</text><text style="&st18;" transform="matrix(&st16;  1119.08  386.19 )">M</text><text style="&st18;" transform="matrix(&st16;  1191.18  338.04 )">B</text><text style="&st18;" transform="matrix(&st16;  1191.96  349.92 )">3</text><text style="&st18;" transform="matrix(&st16;  1352.66  338.04 )">B</text><text style="&st18;" transform="matrix(&st16;  1353.43  349.92 )">3</text><text style="&st18;" transform="matrix(&st16;  1241.04  245.96 )">13</text><text style="&st18;" transform="matrix(&st16;  1133.89  245.96 )">5</text><text style="&st18;" transform="matrix(&st16;  1144.89  83.07 )">D</text><text style="&st18;" transform="matrix(&st16;  1093.9  83.07 )">U</text><text style="&st18;" transform="matrix(&st16;  1244.37  143.98 )">7</text><text style="&st18;" transform="matrix(&st16;  1059.13  635.48 )">W</text><text style="&st18;" transform="matrix(&st16;  1008.13  635.48 )">W</text><text style="&st18;" transform="matrix(&st16;  1059.75  618.48 )">G</text><text style="&st18;" transform="matrix(&st16;  1008.76  618.48 )">G</text></svg>