﻿<?xml version="1.0" encoding="utf-8"?>
<!DOCTYPE svg PUBLIC "-//W3C//DTD SVG 1.0//EN" "http://www.w3.org/TR/2001/REC-SVG-20010904/DTD/svg10.dtd"[
	<!ENTITY ns_flows "http://ns.adobe.com/Flows/1.0/">
	<!ENTITY ns_svg "http://www.w3.org/2000/svg">
	<!ENTITY ns_xlink "http://www.w3.org/1999/xlink">
	<!ENTITY st0 "font-size:7px;font-family:'MS-PGothic';adobe-font-script:japanese;">
	<!ENTITY st1 "font-size:6px;font-family:'ArialMT';">
	<!-- White fill  -->
	<!ENTITY st2 "fill:#FFFFFF;stroke:#000000; stroke-width:1.41;stroke-linecap:round;stroke-linejoin:round;">
	<!-- Yellow fill  -->
	<!ENTITY st3 "fill:#FFFFCC;stroke:#FFFFCC; stroke-width:0.1;stroke-linecap:round;stroke-linejoin:round;">
	<!-- Gray fill  -->
	<!ENTITY st4 "fill:#CCCCCC;stroke:#CCCCCC; stroke-width:0.1;stroke-linecap:round;stroke-linejoin:round;">
	<!-- Light-blue fill -->
	<!ENTITY st5 "fill:#CCECF4;stroke:#000000; stroke-width:1.133;stroke-linecap:round;stroke-linejoin:round;">
	<!ENTITY st6 "fill:none;stroke-linecap:butt; stroke-linejoin:round;">
	<!ENTITY st7 "fill:none;stroke:#000000;stroke-linecap:round;stroke-linejoin:round;">
	<!ENTITY st8 "enable-background:new    ;">
	<!-- Black fill -->
	<!ENTITY st9 "fill:#000000;stroke:#000000; stroke-linecap:round;stroke-linejoin:round;">
	<!-- SRS note   -->
	<!ENTITY st10 "font-size:9px;font-family:'ArialMT';">
	<!ENTITY st11 "font-size:9px;font-family:'Svg Symbol';">
	<!ENTITY st12 "font-size:6px;font-family:'Svg Symbol';">
	<!ENTITY st13 "fill:none;stroke:#ff0000;stroke-linecap:round;stroke-linejoin:round;">
	<!-- Yellow fill  -->
	<!ENTITY st14 "fill:#FFFF00;stroke:#FFFF00; stroke-width:0.1;stroke-linecap:round;stroke-linejoin:round;">
	<!ENTITY st15 "font-size:6px;font-family:'MS-PGothic';adobe-font-script:japanese;">
	<!ENTITY st16 "1.00 0.00 0.00 1.00">
	<!ENTITY st17 "0.00 -1.00 1.00 0.00">
	<!ENTITY st18 "font-size:6px;font-family:'Arial';">
	<!ENTITY st19 "font-size:9px;font-family:'Arial';">
	<!ENTITY st20 "font-size:6px;font-family:'MS-PGothic','MS PGothic';adobe-font-script:japanese;">
	<!ENTITY st21 "font-size:7px;font-family:'MS-PGothic','MS PGothic';adobe-font-script:japanese;">
	<!ATTLIST svg
		xmlns:ewd CDATA #FIXED "http://shcl.co.jp/ewd"
		xmlns:a CDATA #FIXED "http://ns.adobe.com/AdobeSVGViewerExtensions/3.0/"
		ewd:ver CDATA #IMPLIED
	>
	<!ATTLIST a
		ewd:lineID CDATA #IMPLIED
		ewd:groupID CDATA #IMPLIED
		ewd:figtype CDATA #IMPLIED
		ewd:code CDATA #IMPLIED
		ewd:figID CDATA #IMPLIED
		ewd:pinNo CDATA #IMPLIED
		ewd:comment CDATA #IMPLIED >
	<!ATTLIST g
		ewd:lineID CDATA #IMPLIED
		ewd:groupID CDATA #IMPLIED
		ewd:figtype CDATA #IMPLIED
		ewd:code CDATA #IMPLIED
		ewd:figID CDATA #IMPLIED
		ewd:pinNo CDATA #IMPLIED
		ewd:comment CDATA #IMPLIED >
	<!ATTLIST text
		ewd:textID CDATA #IMPLIED >
	<!ATTLIST title
		ewd:textID CDATA #IMPLIED >
]>
<!-- Generator: Shintec Hozumi YS   -->
<svg onload="call_execInitLoadProc_svg('system')" style="overflow:visible;  enable-background:new 0 0 3494.504 710.000" viewBox="0 0 3494.504 710.000" height="710.000" width="3494.504" xml:space="preserve" ewd:ver="L2.3.0.14" xmlns="&ns_svg;" xmlns:a="http://ns.adobe.com/AdobeSVGViewerExtensions/3.0/" xmlns:ewd="http://shcl.co.jp/ewd" xmlns:xlink="&ns_xlink;">
<path d=" M  2770.54,   375.72  L  2770.54,   401.22  L  2906.51,   401.22  L  2906.51,   375.72  L  2770.54,   375.72  " style="stroke-width: 1.42 ;&st7;  " /><path d=" M  2864.02,   375.72  L  2864.02,   401.22  " style="stroke-width: 0.85 ;&st7;  " /><path d=" M  2898.01,   375.72  L  2898.01,   401.22  " style="stroke-width: 0.85 ;&st7;  " /><path d=" M  2770.54,   205.75  L  2770.54,   231.25  L  2991.50,   231.25  L  2991.50,   205.75  L  2770.54,   205.75  " style="stroke-width: 1.42 ;&st7;  " /><path d=" M  2864.02,   205.75  L  2864.02,   231.25  " style="stroke-width: 0.85 ;&st7;  " /><path d=" M  2898.01,   205.75  L  2898.01,   231.25  " style="stroke-width: 0.85 ;&st7;  " /><path d=" M  2864.02,   222.75  L  2949.01,   222.75  L  2949.01,   231.25  " style="stroke-width: 0.85 ;&st7;  " /><path d=" M  2898.01,   214.25  L  2983.00,   214.25  L  2983.00,   231.25  " style="stroke-width: 0.85 ;&st7;  " /><path d=" M  2862.83,   221.75  L  2862.56,   222.22  L  2862.46,   222.75  L  2862.56,   223.28  L  2862.83,   223.75  L  2863.24,   224.10  L  2863.75,   224.28  L  2864.29,   224.28  L  2864.80,   224.10  L  2865.21,   223.75  L  2865.48,   223.28  L  2865.58,   222.75  L  2865.48,   222.22  L  2865.21,   221.75  L  2864.80,   221.40  L  2864.29,   221.21  L  2863.75,   221.21  L  2863.24,   221.40  L  2862.83,   221.75  L  2863.22,   222.46  L  2863.22,   223.04  L  2863.60,   223.48  L  2864.17,   223.58  L  2864.67,   223.30  L  2864.87,   222.75  L  2864.67,   222.20  L  2864.17,   221.91  L  2863.60,   222.01  L  2864.02,   222.75  " style="stroke-width: 0.85 ;&st7;  " /><path d=" M  2896.82,   213.25  L  2896.55,   213.72  L  2896.46,   214.25  L  2896.55,   214.78  L  2896.82,   215.25  L  2897.24,   215.60  L  2897.74,   215.79  L  2898.29,   215.79  L  2898.79,   215.60  L  2899.21,   215.25  L  2899.48,   214.78  L  2899.57,   214.25  L  2899.48,   213.72  L  2899.21,   213.25  L  2898.79,   212.90  L  2898.29,   212.71  L  2897.74,   212.71  L  2897.24,   212.90  L  2896.82,   213.25  L  2897.22,   213.96  L  2897.22,   214.54  L  2897.59,   214.99  L  2898.16,   215.09  L  2898.67,   214.80  L  2898.86,   214.25  L  2898.67,   213.70  L  2898.16,   213.41  L  2897.59,   213.51  L  2898.01,   214.25  " style="stroke-width: 0.85 ;&st7;  " /><path d=" M  2862.83,   391.72  L  2862.56,   392.19  L  2862.46,   392.72  L  2862.56,   393.25  L  2862.83,   393.72  L  2863.24,   394.07  L  2863.75,   394.26  L  2864.29,   394.26  L  2864.80,   394.07  L  2865.21,   393.72  L  2865.48,   393.25  L  2865.58,   392.72  L  2865.48,   392.19  L  2865.21,   391.72  L  2864.80,   391.37  L  2864.29,   391.18  L  2863.75,   391.18  L  2863.24,   391.37  L  2862.83,   391.72  L  2863.22,   392.43  L  2863.22,   393.01  L  2863.60,   393.46  L  2864.17,   393.56  L  2864.67,   393.27  L  2864.87,   392.72  L  2864.67,   392.17  L  2864.17,   391.88  L  2863.60,   391.98  L  2864.02,   392.72  " style="stroke-width: 0.85 ;&st7;  " /><path d=" M  2779.03,   401.22  L  2779.03,   384.22  L  2898.01,   384.22  " style="stroke-width: 0.85 ;&st7;  " /><path d=" M  2813.03,   401.22  L  2813.03,   392.72  L  2864.02,   392.72  " style="stroke-width: 0.85 ;&st7;  " /><path d=" M  2896.82,   383.22  L  2896.55,   383.69  L  2896.46,   384.22  L  2896.55,   384.75  L  2896.82,   385.22  L  2897.24,   385.57  L  2897.74,   385.76  L  2898.29,   385.76  L  2898.79,   385.57  L  2899.21,   385.22  L  2899.48,   384.75  L  2899.57,   384.22  L  2899.48,   383.69  L  2899.21,   383.22  L  2898.79,   382.87  L  2898.29,   382.69  L  2897.74,   382.69  L  2897.24,   382.87  L  2896.82,   383.22  L  2897.22,   383.93  L  2897.22,   384.51  L  2897.59,   384.96  L  2898.16,   385.06  L  2898.67,   384.77  L  2898.86,   384.22  L  2898.67,   383.67  L  2898.16,   383.39  L  2897.59,   383.48  L  2898.01,   384.22  " style="stroke-width: 0.85 ;&st7;  " /><path d=" M  2813.03,   231.25  L  2813.03,   222.75  L  2864.02,   222.75  " style="stroke-width: 0.85 ;&st7;  " /><path d=" M  2779.03,   231.25  L  2779.03,   214.25  L  2898.01,   214.25  " style="stroke-width: 0.85 ;&st7;  " /><path d=" M  2503.12,   380.26  C  2503.12    377.75   2501.09    375.72   2498.58    375.72  " style="stroke-width: 1.42 ;&st7;   " /><path d=" M  2503.12,   389.32  C  2503.12    386.82   2501.09    384.79   2498.58    384.79  " style="stroke-width: 1.42 ;&st7;   " /><path d=" M  2698.58,   210.28  C  2698.58    207.78   2696.55    205.75   2694.05    205.75  " style="stroke-width: 1.42 ;&st7;   " /><path d=" M  2694.05,   205.75  C  2691.55    205.75   2689.52    207.78   2689.52    210.28  " style="stroke-width: 1.42 ;&st7;   " /><path d=" M  2689.52,   210.28  C  2689.52    212.79   2691.55    214.82   2694.05    214.82  " style="stroke-width: 1.42 ;&st7;   " /><path d=" M  2694.05,   214.82  C  2696.55    214.82   2698.58    212.79   2698.58    210.28  " style="stroke-width: 1.42 ;&st7;   " /><path d=" M  2656.09,   210.28  C  2656.09    207.78   2654.06    205.75   2651.56    205.75  " style="stroke-width: 1.42 ;&st7;   " /><path d=" M  2651.56,   205.75  C  2649.05    205.75   2647.02    207.78   2647.02    210.28  " style="stroke-width: 1.42 ;&st7;   " /><path d=" M  2647.02,   210.28  C  2647.02    212.79   2649.05    214.82   2651.56    214.82  " style="stroke-width: 1.42 ;&st7;   " /><path d=" M  2651.56,   214.82  C  2654.06    214.82   2656.09    212.79   2656.09    210.28  " style="stroke-width: 1.42 ;&st7;   " /><path d=" M  2503.12,   398.39  C  2503.12    395.88   2501.09    393.85   2498.58    393.85  " style="stroke-width: 1.42 ;&st7;   " /><path d=" M  2902.55,    91.30  C  2902.55     88.80   2900.52     86.77   2898.02     86.77  " style="stroke-width: 1.42 ;&st7;   " /><path d=" M  2898.02,    86.77  C  2895.51     86.77   2893.48     88.80   2893.48     91.30  " style="stroke-width: 1.42 ;&st7;   " /><path d=" M  2893.48,    91.30  C  2893.48     93.81   2895.51     95.84   2898.02     95.84  " style="stroke-width: 1.42 ;&st7;   " /><path d=" M  2898.02,    95.84  C  2900.52     95.84   2902.55     93.81   2902.55     91.30  " style="stroke-width: 1.42 ;&st7;   " /><path d=" M  2868.55,    91.30  C  2868.55     88.80   2866.52     86.77   2864.02     86.77  " style="stroke-width: 1.42 ;&st7;   " /><path d=" M  2864.02,    86.77  C  2861.52     86.77   2859.49     88.80   2859.49     91.30  " style="stroke-width: 1.42 ;&st7;   " /><path d=" M  2859.49,    91.30  C  2859.49     93.81   2861.52     95.84   2864.02     95.84  " style="stroke-width: 1.42 ;&st7;   " /><path d=" M  2864.02,    95.84  C  2866.52     95.84   2868.55     93.81   2868.55     91.30  " style="stroke-width: 1.42 ;&st7;   " /><text ewd:textID="28" style="&st18;" transform="matrix(&st17;  2921.23  404.12 )">Junction <tspan dy="6.0" x="0 ">Connector</tspan></text><text style="&st18;" transform="matrix(&st16;  2895.75  93.27 )">B</text><text style="&st18;" transform="matrix(&st16;  2885.2  93.27 )">13</text><text style="&st18;" transform="matrix(&st16;  2861.76  93.27 )">B</text><text style="&st18;" transform="matrix(&st16;  2851.21  93.27 )">14</text><text style="&st18;" transform="matrix(&st16;  2855.24  83.07 )">CANH</text><text style="&st18;" transform="matrix(&st16;  2889.74  83.07 )">CANL</text><text style="&st18;" transform="matrix(&st17;  2860.33  148.34 )">G</text><text style="&st18;" transform="matrix(&st17;  2894.32  148.96 )">W</text><text style="&st18;" transform="matrix(&st17;  2914.41  404.12 )">E135</text><text style="&st18;" transform="matrix(&st16;  2888.34  372.03 )">11</text><text style="&st18;" transform="matrix(&st16;  2857.68  372.03 )">1</text><text style="&st18;" transform="matrix(&st16;  2857.68  409.41 )">7</text><text style="&st18;" transform="matrix(&st16;  2888.34  409.41 )">17</text><text style="&st18;" transform="matrix(&st17;  2999.39  234.15 )">E133</text><text style="&st18;" transform="matrix(&st17;  2860.33  303.02 )">SB</text><text style="&st18;" transform="matrix(&st17;  2894.32  301.93 )">W</text><text style="&st18;" transform="matrix(&st16;  2857.68  202.06 )">2</text><text style="&st18;" transform="matrix(&st17;  2945.31  303.02 )">BE</text><text style="&st18;" transform="matrix(&st17;  2956.64  306.97 )">(LHD)</text><text style="&st18;" transform="matrix(&st17;  2979.31  301.93 )">W</text><text style="&st18;" transform="matrix(&st17;  2990.64  306.97 )">(LHD)</text><text style="&st18;" transform="matrix(&st16;  2888.34  202.06 )">12</text><text style="&st18;" transform="matrix(&st16;  2857.68  239.44 )">1</text><text style="&st18;" transform="matrix(&st16;  2888.34  239.44 )">11</text><text style="&st18;" transform="matrix(&st16;  2942.67  239.44 )">7</text><text style="&st18;" transform="matrix(&st16;  2973.33  239.44 )">17</text><text style="&st18;" transform="matrix(&st17;  2871.66  307.48 )">(RHD)</text><text style="&st18;" transform="matrix(&st17;  2905.65  307.48 )">(RHD)</text><text ewd:textID="23" style="&st18;" transform="matrix(&st17;  2544.46  375.8 )">Electrical Key &amp;<tspan dy="6.0" x="0 ">TPMS Receiver Assembly</tspan></text><text style="&st18;" transform="matrix(&st16;  2503.68  382.22 )">(*8)</text><text style="&st18;" transform="matrix(&st16;  2503.68  391.29 )">(*7 *11)</text><text style="&st18;" transform="matrix(&st16;  2509.33  659.54 )">L70</text><text style="&st18;" transform="matrix(&st17;  2523.47  375.79 )">L64(A)</text><text style="&st18;" transform="matrix(&st17;  2537.64  375.79 )">L65(B)</text><text ewd:textID="21" style="&st18;" transform="matrix(&st17;  2530.3  375.8 )">Door Control Receiver</text><text ewd:textID="28" style="&st18;" transform="matrix(&st16;  2509.34  666.64 )">Junction <tspan dy="6.0" x="0 ">Connector</tspan></text><text style="&st18;" transform="matrix(&st16;  2769.36  239.44 )">16</text><text style="&st18;" transform="matrix(&st16;  2806.69  239.44 )">6</text><text style="&st18;" transform="matrix(&st16;  2769.36  409.41 )">18</text><text style="&st18;" transform="matrix(&st16;  2806.69  409.41 )">8</text><text style="&st18;" transform="matrix(&st16;  2642.78  202.05 )">CANH</text><text style="&st18;" transform="matrix(&st16;  2685.77  202.05 )">CANL</text><text style="&st18;" transform="matrix(&st16;  2684.57  212.25 )">8</text><text style="&st18;" transform="matrix(&st16;  2691.63  212.25 )">C</text><text style="&st18;" transform="matrix(&st16;  2642.08  212.25 )">7</text><text style="&st18;" transform="matrix(&st16;  2649.14  212.25 )">C</text><text style="&st18;" transform="matrix(&st16;  2742.78  278.54 )">B</text><text style="&st18;" transform="matrix(&st16;  2736.8  289.87 )">(LHD)</text><text style="&st18;" transform="matrix(&st16;  2741.85  253.05 )">W</text><text style="&st18;" transform="matrix(&st16;  2736.8  264.38 )">(LHD)</text><text style="&st18;" transform="matrix(&st17;  2690.35  267.94 )">W</text><text style="&st18;" transform="matrix(&st17;  2701.69  273.48 )">(RHD)</text><text style="&st18;" transform="matrix(&st17;  2647.86  267.01 )">B</text><text style="&st18;" transform="matrix(&st17;  2659.19  273.48 )">(RHD)</text><text style="&st18;" transform="matrix(&st16;  2741.85  448.51 )">W</text><text style="&st18;" transform="matrix(&st16;  2736.3  459.84 )">(RHD)</text><text style="&st18;" transform="matrix(&st16;  2742.78  474.01 )">B</text><text style="&st18;" transform="matrix(&st16;  2736.3  485.34 )">(RHD)</text><text style="&st18;" transform="matrix(&st16;  2690.64  24.98 )">E118(B)</text><text ewd:textID="31" style="&st18;" transform="matrix(&st16;  2690.64  32.08 )">Main Body ECU</text><text style="&st18;" transform="matrix(&st16;  2503.68  400.35 )">(*7 *12)</text><text ewd:textID="37" style="&st18;" transform="matrix(&st17;  2564.58  375.8 )">Tire Pressure Monitor <tspan dy="6.0" x="0 ">Receiver Assembly</tspan></text><text style="&st18;" transform="matrix(&st17;  2557.75  375.79 )">L75(C)</text><text ewd:textID="18" style="&st18;" transform="matrix(&st16;  2614.16  159.56 )">Certification ECU Assembly</text><text style="&st18;" transform="matrix(&st16;  2614.15  152.74 )">E129(B),E130(C)</text></svg>