﻿<?xml version="1.0" encoding="utf-8"?>
<!DOCTYPE svg PUBLIC "-//W3C//DTD SVG 1.0//EN" "http://www.w3.org/TR/2001/REC-SVG-20010904/DTD/svg10.dtd"[
	<!ENTITY ns_flows "http://ns.adobe.com/Flows/1.0/">
	<!ENTITY ns_svg "http://www.w3.org/2000/svg">
	<!ENTITY ns_xlink "http://www.w3.org/1999/xlink">
	<!ENTITY st0 "font-size:7px;font-family:'MS-PGothic';adobe-font-script:japanese;">
	<!ENTITY st1 "font-size:6px;font-family:'ArialMT';">
	<!-- White fill  -->
	<!ENTITY st2 "fill:#FFFFFF;stroke:#000000; stroke-width:1.41;stroke-linecap:round;stroke-linejoin:round;">
	<!-- Yellow fill  -->
	<!ENTITY st3 "fill:#FFFFCC;stroke:#FFFFCC; stroke-width:0.1;stroke-linecap:round;stroke-linejoin:round;">
	<!-- Gray fill  -->
	<!ENTITY st4 "fill:#CCCCCC;stroke:#CCCCCC; stroke-width:0.1;stroke-linecap:round;stroke-linejoin:round;">
	<!-- Light-blue fill -->
	<!ENTITY st5 "fill:#CCECF4;stroke:#000000; stroke-width:1.133;stroke-linecap:round;stroke-linejoin:round;">
	<!ENTITY st6 "fill:none;stroke-linecap:butt; stroke-linejoin:round;">
	<!ENTITY st7 "fill:none;stroke:#000000;stroke-linecap:round;stroke-linejoin:round;">
	<!ENTITY st8 "enable-background:new    ;">
	<!-- Black fill -->
	<!ENTITY st9 "fill:#000000;stroke:#000000; stroke-linecap:round;stroke-linejoin:round;">
	<!-- SRS note   -->
	<!ENTITY st10 "font-size:9px;font-family:'ArialMT';">
	<!ENTITY st11 "font-size:9px;font-family:'Svg Symbol';">
	<!ENTITY st12 "font-size:6px;font-family:'Svg Symbol';">
	<!ENTITY st13 "fill:none;stroke:#ff0000;stroke-linecap:round;stroke-linejoin:round;">
	<!-- Yellow fill  -->
	<!ENTITY st14 "fill:#FFFF00;stroke:#FFFF00; stroke-width:0.1;stroke-linecap:round;stroke-linejoin:round;">
	<!ENTITY st15 "font-size:6px;font-family:'MS-PGothic';adobe-font-script:japanese;">
	<!ENTITY st16 "1.00 0.00 0.00 1.00">
	<!ENTITY st17 "0.00 -1.00 1.00 0.00">
	<!ENTITY st18 "font-size:6px;font-family:'Arial';">
	<!ENTITY st19 "font-size:9px;font-family:'Arial';">
	<!ENTITY st20 "font-size:6px;font-family:'MS-PGothic','MS PGothic';adobe-font-script:japanese;">
	<!ENTITY st21 "font-size:7px;font-family:'MS-PGothic','MS PGothic';adobe-font-script:japanese;">
	<!ATTLIST svg
		xmlns:ewd CDATA #FIXED "http://shcl.co.jp/ewd"
		xmlns:a CDATA #FIXED "http://ns.adobe.com/AdobeSVGViewerExtensions/3.0/"
		ewd:ver CDATA #IMPLIED
	>
	<!ATTLIST a
		ewd:lineID CDATA #IMPLIED
		ewd:groupID CDATA #IMPLIED
		ewd:figtype CDATA #IMPLIED
		ewd:code CDATA #IMPLIED
		ewd:figID CDATA #IMPLIED
		ewd:pinNo CDATA #IMPLIED
		ewd:comment CDATA #IMPLIED >
	<!ATTLIST g
		ewd:lineID CDATA #IMPLIED
		ewd:groupID CDATA #IMPLIED
		ewd:figtype CDATA #IMPLIED
		ewd:code CDATA #IMPLIED
		ewd:figID CDATA #IMPLIED
		ewd:pinNo CDATA #IMPLIED
		ewd:comment CDATA #IMPLIED >
	<!ATTLIST text
		ewd:textID CDATA #IMPLIED >
	<!ATTLIST title
		ewd:textID CDATA #IMPLIED >
]>
<!-- Generator: Shintec Hozumi YS   -->
<svg onload="call_execInitLoadProc_svg('system')" style="overflow:visible;  enable-background:new 0 0 3494.504 710.000" viewBox="0 0 3494.504 710.000" height="710.000" width="3494.504" xml:space="preserve" ewd:ver="L2.3.0.14" xmlns="&ns_svg;" xmlns:a="http://ns.adobe.com/AdobeSVGViewerExtensions/3.0/" xmlns:ewd="http://shcl.co.jp/ewd" xmlns:xlink="&ns_xlink;">
<path d=" M  3254.96,    69.77  L  3254.96,    95.27  " style="stroke-width: 0.85 ;&st7;  " /><path d=" M  3257.08,    95.27  L  3252.83,    95.27  " style="stroke-width: 1.42 ;&st7;  " /><path d=" M  3257.08,   103.77  L  3252.83,   103.77  " style="stroke-width: 1.42 ;&st7;  " /><path d=" M  3246.46,   146.26  L  3254.96,   146.26  " style="stroke-width: 1.42 ;&st7;  " /><path d=" M  3325.07,   103.77  L  3320.82,   103.77  " style="stroke-width: 1.42 ;&st7;  " /><path d=" M  3325.07,    95.27  L  3320.82,    95.27  " style="stroke-width: 1.42 ;&st7;  " /><path d=" M  3322.94,    69.77  L  3322.94,    95.27  " style="stroke-width: 0.85 ;&st7;  " /><path d=" M  3293.20,   222.75  L  3284.70,   222.75  " style="stroke-width: 0.85 ;&st7;  " /><path d=" M  3327.19,   222.75  L  3318.70,   222.75  " style="stroke-width: 0.85 ;&st7;  " /><path d=" M  3259.21,   222.75  L  3250.71,   222.75  " style="stroke-width: 0.85 ;&st7;  " /><path d=" M  3416.43,   503.20  L  3407.93,   503.20  " style="stroke-width: 1.42 ;&st7;  " /><path d=" M  3259.21,   273.74  L  3250.71,   273.74  " style="stroke-width: 0.85 ;&st7;  " /><path d=" M  3267.69,   264.08  L  3260.33,   268.33  " style="stroke-width: 0.85 ;&st7;  " /><path d=" M  3262.33,   271.79  L  3269.69,   267.54  " style="stroke-width: 0.85 ;&st7;  " /><path d=" M  3348.44,   375.72  L  3348.44,   384.22  " style="stroke-width: 0.85 ;&st7;  " /><path d=" M  3457.50,   710.00  L  3460.34,   710.00  " style="stroke-width: 0.85 ;&st7;  " /><path d=" M  3456.09,   707.17  L  3461.75,   707.17  " style="stroke-width: 0.85 ;&st7;  " /><path d=" M  3454.67,   704.33  L  3463.17,   704.33  " style="stroke-width: 0.85 ;&st7;  " /><path d=" M  3450.42,   701.50  L  3467.42,   701.50  " style="stroke-width: 0.85 ;&st7;  " /><path d=" M  3458.92,   697.25  L  3458.92,   701.50  " style="stroke-width: 0.85 ;&st7;  " /><path d=" M  3355.52,   710.00  L  3358.35,   710.00  " style="stroke-width: 0.85 ;&st7;  " /><path d=" M  3354.10,   707.17  L  3359.77,   707.17  " style="stroke-width: 0.85 ;&st7;  " /><path d=" M  3352.69,   704.33  L  3361.19,   704.33  " style="stroke-width: 0.85 ;&st7;  " /><path d=" M  3348.44,   701.50  L  3365.44,   701.50  " style="stroke-width: 0.85 ;&st7;  " /><path d=" M  3356.94,   697.25  L  3356.94,   701.50  " style="stroke-width: 0.85 ;&st7;  " /><path d=" M  3412.18,   512.27  L  3407.93,   508.02  L  3403.68,   512.27  " style="stroke-width: 1.42 ;&st7;  " /><path d=" M  3412.18,   508.87  L  3407.93,   504.62  L  3403.68,   508.87  " style="stroke-width: 1.42 ;&st7;  " /><path d=" M  3219.77,   391.72  L  3219.50,   392.19  L  3219.40,   392.72  L  3219.50,   393.25  L  3219.77,   393.72  L  3220.18,   394.07  L  3220.69,   394.26  L  3221.23,   394.26  L  3221.74,   394.07  L  3222.15,   393.72  L  3222.43,   393.25  L  3222.52,   392.72  L  3222.43,   392.19  L  3222.15,   391.72  L  3221.74,   391.37  L  3221.23,   391.18  L  3220.69,   391.18  L  3220.18,   391.37  L  3219.77,   391.72  L  3220.16,   392.43  L  3220.16,   393.01  L  3220.54,   393.46  L  3221.11,   393.56  L  3221.61,   393.27  L  3221.81,   392.72  L  3221.61,   392.17  L  3221.11,   391.88  L  3220.54,   391.98  L  3220.96,   392.72  " style="stroke-width: 0.85 ;&st7;  " /><path d=" M  3185.77,   391.72  L  3185.50,   392.19  L  3185.41,   392.72  L  3185.50,   393.25  L  3185.77,   393.72  L  3186.19,   394.07  L  3186.70,   394.26  L  3187.24,   394.26  L  3187.75,   394.07  L  3188.16,   393.72  L  3188.43,   393.25  L  3188.52,   392.72  L  3188.43,   392.19  L  3188.16,   391.72  L  3187.75,   391.37  L  3187.24,   391.18  L  3186.70,   391.18  L  3186.19,   391.37  L  3185.77,   391.72  L  3186.17,   392.43  L  3186.17,   393.01  L  3186.54,   393.46  L  3187.11,   393.56  L  3187.62,   393.27  L  3187.82,   392.72  L  3187.62,   392.17  L  3187.11,   391.88  L  3186.54,   391.98  L  3186.97,   392.72  " style="stroke-width: 0.85 ;&st7;  " /><path d=" M  3186.97,   392.72  L  3195.46,   392.72  L  3196.88,   389.89  L  3199.71,   395.55  L  3202.55,   389.89  L  3205.38,   395.55  L  3208.21,   389.89  L  3211.05,   395.55  L  3212.46,   392.72  L  3220.96,   392.72  " style="stroke-width: 0.85 ;&st7;  " /><path d=" M  3254.95,    90.37  L  3252.12,    87.54  L  3252.12,    91.79  L  3254.95,    94.62  L  3257.79,    91.79  L  3257.79,    87.54  L  3254.95,    90.37  " style="stroke-width: 0.28 ;&st9;  " /><path d=" M  3242.21,    35.78  L  3242.21,    78.27  L  3267.70,    78.27  L  3267.70,    35.78  L  3242.21,    35.78  " style="stroke-width: 1.42 ;&st7;  " /><path d=" M  3310.20,    35.78  L  3310.20,    78.27  L  3335.69,    78.27  L  3335.69,    35.78  L  3310.20,    35.78  " style="stroke-width: 1.42 ;&st7;  " /><path d=" M  3322.94,    90.37  L  3320.11,    87.54  L  3320.11,    91.79  L  3322.94,    94.62  L  3325.78,    91.79  L  3325.78,    87.54  L  3322.94,    90.37  " style="stroke-width: 0.28 ;&st9;  " /><path d=" M  3259.20,   140.60  L  3254.95,   144.84  L  3250.71,   140.60  " style="stroke-width: 1.42 ;&st7;  " /><path d=" M  3250.71,   137.20  L  3254.95,   141.45  L  3259.20,   137.20  " style="stroke-width: 1.42 ;&st7;  " /><path d=" M  3407.93,   697.25  L  3407.93,   701.50  " style="stroke-width: 0.85 ;&st7;  " /><path d=" M  3399.43,   701.50  L  3416.43,   701.50  " style="stroke-width: 0.85 ;&st7;  " /><path d=" M  3403.68,   704.33  L  3412.18,   704.33  " style="stroke-width: 0.85 ;&st7;  " /><path d=" M  3152.97,   197.25  L  3152.97,   418.22  L  3484.42,   418.22  L  3484.42,   197.25  L  3152.97,   197.25  " style="stroke-width: 1.42 ;&st7;  " /><path d=" M  3169.97,   375.72  L  3467.42,   375.72  L  3467.42,   316.23  L  3169.97,   316.23  L  3169.97,   375.72  " style="stroke-width: 1.42 ;&st7;  " /><path d=" M  3254.95,   392.72  L  3254.95,   409.72  L  3305.95,   409.72  L  3305.95,   384.22  L  3254.95,   384.22  L  3254.95,   392.72  " style="stroke-width: 1.42 ;&st7;  " /><path d=" M  3424.93,   392.72  L  3424.93,   384.22  L  3407.93,   384.22  " style="stroke-width: 0.85 ;&st7;  " /><path d=" M  3407.93,   375.72  L  3407.93,   418.22  " style="stroke-width: 0.85 ;&st7;  " /><path d=" M  3416.43,   392.72  L  3433.42,   392.72  " style="stroke-width: 0.85 ;&st7;  " /><path d=" M  3420.68,   395.55  L  3429.18,   395.55  " style="stroke-width: 0.85 ;&st7;  " /><path d=" M  3422.09,   398.39  L  3427.76,   398.39  " style="stroke-width: 0.85 ;&st7;  " /><path d=" M  3423.51,   401.22  L  3426.34,   401.22  " style="stroke-width: 0.85 ;&st7;  " /><path d=" M  3406.74,   383.22  L  3406.46,   383.69  L  3406.37,   384.22  L  3406.46,   384.75  L  3406.74,   385.22  L  3407.15,   385.57  L  3407.66,   385.76  L  3408.20,   385.76  L  3408.71,   385.57  L  3409.12,   385.22  L  3409.39,   384.75  L  3409.49,   384.22  L  3409.39,   383.69  L  3409.12,   383.22  L  3408.71,   382.87  L  3408.20,   382.69  L  3407.66,   382.69  L  3407.15,   382.87  L  3406.74,   383.22  L  3407.13,   383.93  L  3407.13,   384.51  L  3407.50,   384.96  L  3408.08,   385.06  L  3408.58,   384.77  L  3408.78,   384.22  L  3408.58,   383.67  L  3408.08,   383.39  L  3407.50,   383.48  L  3407.93,   384.22  " style="stroke-width: 0.85 ;&st7;  " /><path d=" M  3322.94,   205.75  L  3288.95,   205.75  L  3288.95,   231.25  L  3229.46,   231.25  " style="stroke-width: 0.85 ;&st7;  " /><path d=" M  3254.95,   222.75  L  3249.29,   214.25  L  3260.62,   214.25  L  3254.95,   222.75  " style="stroke-width: 0.28 ;&st9;  " /><path d=" M  3254.95,   197.25  L  3254.95,   231.25  " style="stroke-width: 0.85 ;&st7;  " /><path d=" M  3322.94,   222.75  L  3317.28,   214.25  L  3328.61,   214.25  L  3322.94,   222.75  " style="stroke-width: 0.28 ;&st9;  " /><path d=" M  3322.94,   197.25  L  3322.94,   316.23  " style="stroke-width: 0.85 ;&st7;  " /><path d=" M  3169.97,   222.75  L  3229.46,   222.75  L  3229.46,   256.74  L  3169.97,   256.74  L  3169.97,   222.75  " style="stroke-width: 1.42 ;&st7;  " /><path d=" M  3253.76,   230.24  L  3253.49,   230.71  L  3253.40,   231.25  L  3253.49,   231.78  L  3253.76,   232.25  L  3254.18,   232.60  L  3254.69,   232.78  L  3255.22,   232.78  L  3255.73,   232.60  L  3256.15,   232.25  L  3256.42,   231.78  L  3256.51,   231.25  L  3256.42,   230.71  L  3256.15,   230.24  L  3255.73,   229.90  L  3255.22,   229.71  L  3254.69,   229.71  L  3254.18,   229.90  L  3253.76,   230.24  L  3254.16,   230.96  L  3254.16,   231.54  L  3254.53,   231.98  L  3255.10,   232.08  L  3255.61,   231.79  L  3255.80,   231.25  L  3255.61,   230.70  L  3255.10,   230.41  L  3254.53,   230.51  L  3254.95,   231.25  " style="stroke-width: 0.85 ;&st7;  " /><path d=" M  3288.95,   222.75  L  3283.28,   214.25  L  3294.61,   214.25  L  3288.95,   222.75  " style="stroke-width: 0.28 ;&st9;  " /><path d=" M  3321.75,   204.75  L  3321.48,   205.22  L  3321.39,   205.75  L  3321.48,   206.28  L  3321.75,   206.75  L  3322.16,   207.10  L  3322.67,   207.29  L  3323.21,   207.29  L  3323.72,   207.10  L  3324.14,   206.75  L  3324.41,   206.28  L  3324.50,   205.75  L  3324.41,   205.22  L  3324.14,   204.75  L  3323.72,   204.40  L  3323.21,   204.22  L  3322.67,   204.22  L  3322.16,   204.40  L  3321.75,   204.75  L  3322.14,   205.46  L  3322.14,   206.04  L  3322.52,   206.49  L  3323.09,   206.59  L  3323.59,   206.30  L  3323.79,   205.75  L  3323.59,   205.20  L  3323.09,   204.92  L  3322.52,   205.01  L  3322.94,   205.75  " style="stroke-width: 0.85 ;&st7;  " /><path d=" M  3321.75,   247.24  L  3321.48,   247.71  L  3321.39,   248.24  L  3321.48,   248.78  L  3321.75,   249.25  L  3322.16,   249.59  L  3322.67,   249.78  L  3323.21,   249.78  L  3323.72,   249.59  L  3324.14,   249.25  L  3324.41,   248.78  L  3324.50,   248.24  L  3324.41,   247.71  L  3324.14,   247.24  L  3323.72,   246.90  L  3323.21,   246.71  L  3322.67,   246.71  L  3322.16,   246.90  L  3321.75,   247.24  L  3322.14,   247.95  L  3322.14,   248.54  L  3322.52,   248.98  L  3323.09,   249.08  L  3323.59,   248.79  L  3323.79,   248.24  L  3323.59,   247.70  L  3323.09,   247.41  L  3322.52,   247.51  L  3322.94,   248.24  " style="stroke-width: 0.85 ;&st7;  " /><path d=" M  3405.10,   707.17  L  3410.76,   707.17  " style="stroke-width: 0.85 ;&st7;  " /><path d=" M  3406.51,   710.00  L  3409.35,   710.00  " style="stroke-width: 0.85 ;&st7;  " /><path d=" M  3399.43,   571.19  L  3399.43,   596.69  L  3416.43,   596.69  L  3416.43,   571.19  L  3399.43,   571.19  " style="stroke-width: 1.42 ;&st7;  " /><path d=" M  3399.43,   579.69  L  3416.43,   579.69  " style="stroke-width: 1.13 ;&st7; stroke-dasharray:3, 3;" /><path d=" M  3399.43,   588.19  L  3416.43,   588.19  " style="stroke-width: 1.13 ;&st7; stroke-dasharray:3, 3;" /><path d=" M  3407.93,   571.19  L  3407.93,   596.69  " style="stroke-width: 0.85 ;&st7;  " /><path d=" M  3186.97,   375.72  L  3186.97,   418.22  " style="stroke-width: 0.85 ;&st7;  " /><path d=" M  3220.96,   375.72  L  3220.96,   418.22  " style="stroke-width: 0.85 ;&st7;  " /><path d=" M  3280.45,   375.72  L  3280.45,   384.22  " style="stroke-width: 0.85 ;&st7;  " /><path d=" M  3254.95,   273.74  L  3249.29,   265.24  L  3260.62,   265.24  L  3254.95,   273.74  " style="stroke-width: 0.28 ;&st9;  " /><path d=" M  3267.69,   264.08  L  3265.35,   267.12  L  3263.89,   264.58  L  3267.69,   264.08  L  3266.41,   264.82  L  3265.42,   266.10  L  3264.80,   265.03  L  3266.41,   264.82  L  3265.76,   265.19  L  3265.45,   265.59  L  3265.26,   265.25  L  3265.76,   265.19  " style="stroke-width: 0.85 ;&st7;  " /><path d=" M  3269.69,   267.54  L  3267.36,   270.59  L  3265.89,   268.05  L  3269.69,   267.54  L  3268.41,   268.29  L  3267.43,   269.57  L  3266.80,   268.50  L  3268.41,   268.29  L  3267.77,   268.65  L  3267.46,   269.06  L  3267.26,   268.72  L  3267.77,   268.65  " style="stroke-width: 0.85 ;&st7;  " /><path d=" M  3254.95,   316.23  L  3254.95,   299.24  L  3252.12,   297.82  L  3257.79,   294.99  L  3252.12,   292.15  L  3257.79,   289.32  L  3252.12,   286.49  L  3257.79,   283.65  L  3254.95,   282.24  L  3254.95,   231.25  " style="stroke-width: 0.85 ;&st7;  " /><path d=" M  3322.94,   392.72  L  3322.94,   409.72  L  3373.93,   409.72  L  3373.93,   384.22  L  3322.94,   384.22  L  3322.94,   392.72  " style="stroke-width: 1.42 ;&st7;  " /><path d=" M  3237.96,   316.23  L  3237.96,   375.72  " style="stroke-width: 1.42 ;&st7;  " /><path d=" M  3229.46,   248.24  L  3322.94,   248.24  " style="stroke-width: 0.85 ;&st7;  " /><path d=" M  3412.46,   610.28  C  3412.46    607.78   3410.43    605.75   3407.93    605.75  " style="stroke-width: 1.42 ;&st7;   " /><path d=" M  3407.93,   605.75  C  3405.43    605.75   3403.40    607.78   3403.40    610.28  " style="stroke-width: 1.42 ;&st7;   " /><path d=" M  3403.40,   610.28  C  3403.40    612.79   3405.43    614.82   3407.93    614.82  " style="stroke-width: 1.42 ;&st7;   " /><path d=" M  3407.93,   614.82  C  3410.43    614.82   3412.46    612.79   3412.46    610.28  " style="stroke-width: 1.42 ;&st7;   " /><path d=" M  3254.96,    47.11  C  3252.22     48.72   3251.31     52.25   3252.92     54.99  " style="stroke-width: 1.42 ;&st7;   " /><path d=" M  3252.92,    54.99  C  3253.44     55.87   3254.07     56.51   3254.96     57.03  " style="stroke-width: 1.42 ;&st7;   " /><path d=" M  3254.96,    66.94  C  3257.69     65.33   3258.61     61.80   3256.99     59.06  " style="stroke-width: 1.42 ;&st7;   " /><path d=" M  3256.99,    59.06  C  3256.47     58.18   3255.84     57.55   3254.96     57.03  " style="stroke-width: 1.42 ;&st7;   " /><path d=" M  3256.37,    45.69  C  3256.37     44.91   3255.74     44.28   3254.96     44.28  " style="stroke-width: 0.85 ;&st7;   " /><path d=" M  3254.96,    44.28  C  3254.17     44.28   3253.54     44.91   3253.54     45.69  " style="stroke-width: 0.85 ;&st7;   " /><path d=" M  3253.54,    45.69  C  3253.54     46.48   3254.17     47.11   3254.96     47.11  " style="stroke-width: 0.85 ;&st7;   " /><path d=" M  3254.96,    47.11  C  3255.74     47.11   3256.37     46.48   3256.37     45.69  " style="stroke-width: 0.85 ;&st7;   " /><path d=" M  3256.37,    68.36  C  3256.37     67.57   3255.74     66.94   3254.96     66.94  " style="stroke-width: 0.85 ;&st7;   " /><path d=" M  3254.96,    66.94  C  3254.17     66.94   3253.54     67.57   3253.54     68.36  " style="stroke-width: 0.85 ;&st7;   " /><path d=" M  3253.54,    68.36  C  3253.54     69.14   3254.17     69.77   3254.96     69.77  " style="stroke-width: 0.85 ;&st7;   " /><path d=" M  3254.96,    69.77  C  3255.74     69.77   3256.37     69.14   3256.37     68.36  " style="stroke-width: 0.85 ;&st7;   " /><path d=" M  3252.83,    95.27  C  3250.48     95.27   3248.58     97.17   3248.58     99.52  " style="stroke-width: 1.42 ;&st7;   " /><path d=" M  3248.58,    99.52  C  3248.58    101.87   3250.48    103.77   3252.83    103.77  " style="stroke-width: 1.42 ;&st7;   " /><path d=" M  3257.08,   103.77  C  3259.43    103.77   3261.33    101.87   3261.33     99.52  " style="stroke-width: 1.42 ;&st7;   " /><path d=" M  3261.33,    99.52  C  3261.33     97.17   3259.43     95.27   3257.08     95.27  " style="stroke-width: 1.42 ;&st7;   " /><path d=" M  3329.32,    99.52  C  3329.32     97.17   3327.42     95.27   3325.07     95.27  " style="stroke-width: 1.42 ;&st7;   " /><path d=" M  3325.07,   103.77  C  3327.42    103.77   3329.32    101.87   3329.32     99.52  " style="stroke-width: 1.42 ;&st7;   " /><path d=" M  3316.57,    99.52  C  3316.57    101.87   3318.47    103.77   3320.82    103.77  " style="stroke-width: 1.42 ;&st7;   " /><path d=" M  3320.82,    95.27  C  3318.47     95.27   3316.57     97.17   3316.57     99.52  " style="stroke-width: 1.42 ;&st7;   " /><path d=" M  3324.36,    68.36  C  3324.36     67.57   3323.73     66.94   3322.94     66.94  " style="stroke-width: 0.85 ;&st7;   " /><path d=" M  3322.94,    66.94  C  3322.16     66.94   3321.53     67.57   3321.53     68.36  " style="stroke-width: 0.85 ;&st7;   " /><path d=" M  3321.53,    68.36  C  3321.53     69.14   3322.16     69.77   3322.94     69.77  " style="stroke-width: 0.85 ;&st7;   " /><path d=" M  3322.94,    69.77  C  3323.73     69.77   3324.36     69.14   3324.36     68.36  " style="stroke-width: 0.85 ;&st7;   " /><path d=" M  3324.36,    45.69  C  3324.36     44.91   3323.73     44.28   3322.94     44.28  " style="stroke-width: 0.85 ;&st7;   " /><path d=" M  3322.94,    44.28  C  3322.16     44.28   3321.53     44.91   3321.53     45.69  " style="stroke-width: 0.85 ;&st7;   " /><path d=" M  3321.53,    45.69  C  3321.53     46.48   3322.16     47.11   3322.94     47.11  " style="stroke-width: 0.85 ;&st7;   " /><path d=" M  3322.94,    47.11  C  3323.73     47.11   3324.36     46.48   3324.36     45.69  " style="stroke-width: 0.85 ;&st7;   " /><path d=" M  3322.94,    66.94  C  3325.68     65.33   3326.59     61.80   3324.98     59.06  " style="stroke-width: 1.42 ;&st7;   " /><path d=" M  3324.98,    59.06  C  3324.46     58.18   3323.83     57.55   3322.94     57.03  " style="stroke-width: 1.42 ;&st7;   " /><path d=" M  3322.94,    47.11  C  3320.21     48.72   3319.29     52.25   3320.91     54.99  " style="stroke-width: 1.42 ;&st7;   " /><path d=" M  3320.91,    54.99  C  3321.43     55.87   3322.06     56.51   3322.94     57.03  " style="stroke-width: 1.42 ;&st7;   " /><path d=" M  3412.46,   601.22  C  3412.46    598.71   3410.43    596.69   3407.93    596.69  " style="stroke-width: 1.42 ;&st7;   " /><path d=" M  3407.93,   596.69  C  3405.43    596.69   3403.40    598.71   3403.40    601.22  " style="stroke-width: 1.42 ;&st7;   " /><path d=" M  3403.40,   601.22  C  3403.40    603.72   3405.43    605.75   3407.93    605.75  " style="stroke-width: 1.42 ;&st7;   " /><path d=" M  3407.93,   605.75  C  3410.43    605.75   3412.46    603.72   3412.46    601.22  " style="stroke-width: 1.42 ;&st7;   " /><path d=" M  3412.46,   422.75  C  3412.46    420.24   3410.43    418.22   3407.93    418.22  " style="stroke-width: 1.42 ;&st7;   " /><path d=" M  3407.93,   418.22  C  3405.43    418.22   3403.40    420.24   3403.40    422.75  " style="stroke-width: 1.42 ;&st7;   " /><path d=" M  3403.40,   422.75  C  3403.40    425.25   3405.43    427.28   3407.93    427.28  " style="stroke-width: 1.42 ;&st7;   " /><path d=" M  3407.93,   427.28  C  3410.43    427.28   3412.46    425.25   3412.46    422.75  " style="stroke-width: 1.42 ;&st7;   " /><path d=" M  3327.48,   192.72  C  3327.48    190.22   3325.45    188.19   3322.94    188.19  " style="stroke-width: 1.42 ;&st7;   " /><path d=" M  3322.94,   188.19  C  3320.44    188.19   3318.41    190.22   3318.41    192.72  " style="stroke-width: 1.42 ;&st7;   " /><path d=" M  3318.41,   192.72  C  3318.41    195.22   3320.44    197.25   3322.94    197.25  " style="stroke-width: 1.42 ;&st7;   " /><path d=" M  3322.94,   197.25  C  3325.45    197.25   3327.48    195.22   3327.48    192.72  " style="stroke-width: 1.42 ;&st7;   " /><path d=" M  3259.49,   192.72  C  3259.49    190.22   3257.46    188.19   3254.96    188.19  " style="stroke-width: 1.42 ;&st7;   " /><path d=" M  3254.96,   188.19  C  3252.45    188.19   3250.42    190.22   3250.42    192.72  " style="stroke-width: 1.42 ;&st7;   " /><path d=" M  3250.42,   192.72  C  3250.42    195.22   3252.45    197.25   3254.96    197.25  " style="stroke-width: 1.42 ;&st7;   " /><path d=" M  3254.96,   197.25  C  3257.46    197.25   3259.49    195.22   3259.49    192.72  " style="stroke-width: 1.42 ;&st7;   " /><path d=" M  3191.50,   422.75  C  3191.50    420.24   3189.47    418.22   3186.97    418.22  " style="stroke-width: 1.42 ;&st7;   " /><path d=" M  3186.97,   418.22  C  3184.46    418.22   3182.43    420.24   3182.43    422.75  " style="stroke-width: 1.42 ;&st7;   " /><path d=" M  3182.43,   422.75  C  3182.43    425.25   3184.46    427.28   3186.97    427.28  " style="stroke-width: 1.42 ;&st7;   " /><path d=" M  3186.97,   427.28  C  3189.47    427.28   3191.50    425.25   3191.50    422.75  " style="stroke-width: 1.42 ;&st7;   " /><path d=" M  3225.49,   422.75  C  3225.49    420.24   3223.47    418.22   3220.96    418.22  " style="stroke-width: 1.42 ;&st7;   " /><path d=" M  3220.96,   418.22  C  3218.46    418.22   3216.43    420.24   3216.43    422.75  " style="stroke-width: 1.42 ;&st7;   " /><path d=" M  3216.43,   422.75  C  3216.43    425.25   3218.46    427.28   3220.96    427.28  " style="stroke-width: 1.42 ;&st7;   " /><path d=" M  3220.96,   427.28  C  3223.47    427.28   3225.49    425.25   3225.49    422.75  " style="stroke-width: 1.42 ;&st7;   " /><path d=" M  3412.46,   557.59  C  3412.46    555.09   3410.43    553.06   3407.93    553.06  " style="stroke-width: 1.42 ;&st7;   " /><path d=" M  3407.93,   553.06  C  3405.43    553.06   3403.40    555.09   3403.40    557.59  " style="stroke-width: 1.42 ;&st7;   " /><path d=" M  3403.40,   557.59  C  3403.40    560.10   3405.43    562.12   3407.93    562.12  " style="stroke-width: 1.42 ;&st7;   " /><path d=" M  3407.93,   562.12  C  3410.43    562.12   3412.46    560.10   3412.46    557.59  " style="stroke-width: 1.42 ;&st7;   " /><path d=" M  3412.46,   566.66  C  3412.46    564.15   3410.43    562.12   3407.93    562.12  " style="stroke-width: 1.42 ;&st7;   " /><path d=" M  3407.93,   562.12  C  3405.43    562.12   3403.40    564.15   3403.40    566.66  " style="stroke-width: 1.42 ;&st7;   " /><path d=" M  3403.40,   566.66  C  3403.40    569.16   3405.43    571.19   3407.93    571.19  " style="stroke-width: 1.42 ;&st7;   " /><path d=" M  3407.93,   571.19  C  3410.43    571.19   3412.46    569.16   3412.46    566.66  " style="stroke-width: 1.42 ;&st7;   " /><text ewd:textID="28" style="&st18;" transform="matrix(&st17;  3006.22  234.15 )">Junction <tspan dy="6.0" x="0 ">Connector</tspan></text><text style="&st18;" transform="matrix(&st16;  3132.78  499.5 )">W</text><text style="&st18;" transform="matrix(&st16;  3131.69  525.0 )">BE</text><text style="&st18;" transform="matrix(&st16;  3080.7  525.0 )">BE</text><text style="&st18;" transform="matrix(&st16;  3081.79  499.5 )">W</text><text style="&st18;" transform="matrix(&st16;  3395.12  612.25 )">14</text><text style="&st18;" transform="matrix(&st16;  3405.66  612.25 )">B</text><text style="&st18;" transform="matrix(&st16;  3413.02  612.25 )">(*4)</text><text style="&st18;" transform="matrix(&st16;  3405.66  559.56 )">A</text><text style="&st18;" transform="matrix(&st16;  3413.02  559.56 )">(*3)</text><text style="&st18;" transform="matrix(&st16;  3395.12  568.63 )">19</text><text style="&st18;" transform="matrix(&st16;  3405.66  568.63 )">A</text><text style="&st18;" transform="matrix(&st16;  3413.02  568.63 )">(*4)</text><text style="&st18;" transform="matrix(&st16;  3274.7  398.94 )">TFT</text><text style="&st18;" transform="matrix(&st17;  3466.56  668.1 )">(RHD *6)</text><text style="&st18;" transform="matrix(&st16;  3274.0  372.03 )">SUB</text><text ewd:textID="5" style="&st18;" transform="matrix(&st16;  3387.53  37.75 )">* 5 :Gasoline</text><text style="&st18;" transform="matrix(&st16;  3387.53  46.25 )">* 6 :1VD-FTV</text><text style="&st18;" transform="matrix(&st17;  3455.23  660.11 )">BR</text><text style="&st18;" transform="matrix(&st16;  3391.18  500.92 )">67</text><text style="&st18;" transform="matrix(&st16;  3391.18  492.42 )">67</text><text style="&st18;" transform="matrix(&st16;  3416.96  492.42 )">(LHD)</text><text style="&st18;" transform="matrix(&st16;  3416.96  500.92 )">(RHD)</text><text style="&st18;" transform="matrix(&st17;  3380.13  599.58 )">A37(A),C44(B)</text><text style="&st18;" transform="matrix(&st17;  3404.23  536.88 )">BR</text><text style="&st18;" transform="matrix(&st17;  3404.23  464.65 )">BR</text><text style="&st18;" transform="matrix(&st16;  3398.45  603.19 )">1</text><text style="&st18;" transform="matrix(&st16;  3405.66  603.19 )">B</text><text style="&st18;" transform="matrix(&st16;  3308.32  101.49 )">49</text><text style="&st18;" transform="matrix(&st16;  3339.37  56.17 )">5A <tspan dy="6.0" x="0 ">METER</tspan></text><text style="&st18;" transform="matrix(&st16;  3320.21  101.49 )">2I</text><text style="&st18;" transform="matrix(&st16;  3319.55  323.87 )">IG</text><text style="&st18;" transform="matrix(&st16;  3218.63  233.22 )">+B</text><text style="&st18;" transform="matrix(&st16;  3405.66  424.72 )">A</text><text style="&st18;" transform="matrix(&st16;  3395.12  424.72 )">20</text><text ewd:textID="19" style="&st18;" transform="matrix(&st16;  3353.53  193.56 )">Combination Meter Assembly</text><text style="&st18;" transform="matrix(&st17;  3415.57  660.73 )">(*5)</text><text style="&st18;" transform="matrix(&st16;  3353.53  186.45 )">E119(A)</text><text ewd:textID="34" style="&st18;" transform="matrix(&st16;  3190.35  236.06 )">Power <tspan dy="6.0" x="0 ">Supply </tspan><tspan dy="6.0" x="0 ">Circuit</tspan></text><text style="&st18;" transform="matrix(&st16;  3242.14  194.69 )">21</text><text style="&st18;" transform="matrix(&st16;  3216.3  250.21 )">IG+</text><text style="&st18;" transform="matrix(&st16;  3252.69  194.69 )">A</text><text style="&st18;" transform="matrix(&st17;  3404.23  660.11 )">BR</text><text style="&st18;" transform="matrix(&st16;  3310.13  194.69 )">22</text><text style="&st18;" transform="matrix(&st16;  3320.68  194.69 )">A</text><text style="&st18;" transform="matrix(&st16;  3257.54  205.45 )">B</text><text style="&st18;" transform="matrix(&st17;  3364.58  667.56 )">(LHD *6)</text><text style="&st18;" transform="matrix(&st16;  3325.53  205.45 )">IG+</text><text style="&st18;" transform="matrix(&st16;  3410.51  414.53 )">ET</text><text style="&st18;" transform="matrix(&st16;  3187.47  347.95 )">CAN INPUT</text><text style="&st18;" transform="matrix(&st16;  3184.7  424.72 )">A</text><text style="&st18;" transform="matrix(&st16;  3174.15  424.72 )">40</text><text style="&st18;" transform="matrix(&st16;  3189.55  414.53 )">CANL</text><text style="&st18;" transform="matrix(&st16;  3218.7  424.72 )">A</text><text style="&st18;" transform="matrix(&st16;  3208.15  424.72 )">39</text><text style="&st18;" transform="matrix(&st16;  3223.54  414.53 )">CANH</text><text ewd:textID="3" style="&st18;" transform="matrix(&st16;  3387.53  20.75 )">* 3 :1VD-FTV w/ DPF</text><text ewd:textID="4" style="&st18;" transform="matrix(&st16;  3387.53  29.25 )">* 4 :Except 1VD-FTV w/ DPF</text><text ewd:textID="28" style="&st18;" transform="matrix(&st17;  3386.95  599.59 )">Junction <tspan dy="6.0" x="0 ">Connector</tspan></text><text style="&st18;" transform="matrix(&st17;  3319.25  158.54 )">BE</text><text style="&st18;" transform="matrix(&st16;  3271.38  53.34 )">10A <tspan dy="6.0" x="0 ">MPX-B </tspan><tspan dy="6.0" x="0 ">NO.2</tspan></text><text style="&st18;" transform="matrix(&st16;  3253.08  101.49 )">1</text><text style="&st18;" transform="matrix(&st16;  3248.62  86.47 )">2</text><text style="&st18;" transform="matrix(&st16;  3246.87  32.08 )">(BAT)</text><text style="&st18;" transform="matrix(&st16;  3238.2  152.48 )">46</text><text style="&st18;" transform="matrix(&st17;  3251.26  122.53 )">V</text><text style="&st18;" transform="matrix(&st17;  3251.26  173.52 )">V</text><text style="&st18;" transform="matrix(&st16;  3317.58  32.08 )">(IG)</text><text style="&st18;" transform="matrix(&st17;  3353.24  660.11 )">BR</text><text style="&st18;" transform="matrix(&st16;  3395.12  559.56 )">10</text><text ewd:textID="32" style="&st18;" transform="matrix(&st17;  3241.08  278.35 )">Master <tspan dy="6.0" x="0 ">(*13)</tspan></text><text ewd:textID="17" style="&st18;" transform="matrix(&st16;  3338.96  398.94 )">Buzzer</text><text style="&st18;" transform="matrix(&st16;  3413.02  603.19 )">(*3)</text><text style="&st18;" transform="matrix(&st16;  3081.79  448.51 )">W</text><text style="&st18;" transform="matrix(&st16;  3076.75  459.84 )">(LHD)</text><text style="&st18;" transform="matrix(&st16;  3080.7  474.01 )">BE</text><text style="&st18;" transform="matrix(&st16;  3076.75  485.34 )">(LHD)</text><text style="&st18;" transform="matrix(&st16;  3132.78  448.51 )">W</text><text style="&st18;" transform="matrix(&st16;  3127.74  459.84 )">(LHD)</text><text style="&st18;" transform="matrix(&st16;  3131.69  474.01 )">BE</text><text style="&st18;" transform="matrix(&st16;  3127.74  485.34 )">(LHD)</text><text style="&st18;" transform="matrix(&st16;  3076.24  510.84 )">(RHD)</text><text style="&st18;" transform="matrix(&st16;  3076.24  536.33 )">(RHD)</text><text style="&st18;" transform="matrix(&st16;  3127.23  536.33 )">(RHD)</text><text style="&st18;" transform="matrix(&st16;  3127.23  510.84 )">(RHD)</text><text ewd:textID="12" style="&st18;" transform="matrix(&st16;  3387.53  54.75 )">*13 :Option Meter</text></svg>