﻿<?xml version="1.0" encoding="utf-8"?>
<!DOCTYPE svg PUBLIC "-//W3C//DTD SVG 1.0//EN" "http://www.w3.org/TR/2001/REC-SVG-20010904/DTD/svg10.dtd"[
	<!ENTITY ns_flows "http://ns.adobe.com/Flows/1.0/">
	<!ENTITY ns_svg "http://www.w3.org/2000/svg">
	<!ENTITY ns_xlink "http://www.w3.org/1999/xlink">
	<!ENTITY st0 "font-size:7px;font-family:'MS-PGothic';adobe-font-script:japanese;">
	<!ENTITY st1 "font-size:6px;font-family:'ArialMT';">
	<!-- White fill  -->
	<!ENTITY st2 "fill:#FFFFFF;stroke:#000000; stroke-width:1.41;stroke-linecap:round;stroke-linejoin:round;">
	<!-- Yellow fill  -->
	<!ENTITY st3 "fill:#FFFFCC;stroke:#FFFFCC; stroke-width:0.1;stroke-linecap:round;stroke-linejoin:round;">
	<!-- Gray fill  -->
	<!ENTITY st4 "fill:#CCCCCC;stroke:#CCCCCC; stroke-width:0.1;stroke-linecap:round;stroke-linejoin:round;">
	<!-- Light-blue fill -->
	<!ENTITY st5 "fill:#CCECF4;stroke:#000000; stroke-width:1.133;stroke-linecap:round;stroke-linejoin:round;">
	<!ENTITY st6 "fill:none;stroke-linecap:butt; stroke-linejoin:round;">
	<!ENTITY st7 "fill:none;stroke:#000000;stroke-linecap:round;stroke-linejoin:round;">
	<!ENTITY st8 "enable-background:new    ;">
	<!-- Black fill -->
	<!ENTITY st9 "fill:#000000;stroke:#000000; stroke-linecap:round;stroke-linejoin:round;">
	<!-- SRS note   -->
	<!ENTITY st10 "font-size:9px;font-family:'ArialMT';">
	<!ENTITY st11 "font-size:9px;font-family:'Svg Symbol';">
	<!ENTITY st12 "font-size:6px;font-family:'Svg Symbol';">
	<!ENTITY st13 "fill:none;stroke:#ff0000;stroke-linecap:round;stroke-linejoin:round;">
	<!-- Yellow fill  -->
	<!ENTITY st14 "fill:#FFFF00;stroke:#FFFF00; stroke-width:0.1;stroke-linecap:round;stroke-linejoin:round;">
	<!ENTITY st15 "font-size:6px;font-family:'MS-PGothic';adobe-font-script:japanese;">
	<!ENTITY st16 "1.00 0.00 0.00 1.00">
	<!ENTITY st17 "0.00 -1.00 1.00 0.00">
	<!ENTITY st18 "font-size:6px;font-family:'Arial';">
	<!ENTITY st19 "font-size:9px;font-family:'Arial';">
	<!ENTITY st20 "font-size:6px;font-family:'MS-PGothic','MS PGothic';adobe-font-script:japanese;">
	<!ENTITY st21 "font-size:7px;font-family:'MS-PGothic','MS PGothic';adobe-font-script:japanese;">
	<!ATTLIST svg
		xmlns:ewd CDATA #FIXED "http://shcl.co.jp/ewd"
		xmlns:a CDATA #FIXED "http://ns.adobe.com/AdobeSVGViewerExtensions/3.0/"
		ewd:ver CDATA #IMPLIED
	>
	<!ATTLIST a
		ewd:lineID CDATA #IMPLIED
		ewd:groupID CDATA #IMPLIED
		ewd:figtype CDATA #IMPLIED
		ewd:code CDATA #IMPLIED
		ewd:figID CDATA #IMPLIED
		ewd:pinNo CDATA #IMPLIED
		ewd:comment CDATA #IMPLIED >
	<!ATTLIST g
		ewd:lineID CDATA #IMPLIED
		ewd:groupID CDATA #IMPLIED
		ewd:figtype CDATA #IMPLIED
		ewd:code CDATA #IMPLIED
		ewd:figID CDATA #IMPLIED
		ewd:pinNo CDATA #IMPLIED
		ewd:comment CDATA #IMPLIED >
	<!ATTLIST text
		ewd:textID CDATA #IMPLIED >
	<!ATTLIST title
		ewd:textID CDATA #IMPLIED >
]>
<!-- Generator: Shintec Hozumi YS   -->
<svg onload="call_execInitLoadProc_svg('system')" style="overflow:visible;  enable-background:new 0 0 3092.762 710.000" viewBox="0 0 3092.762 710.000" height="710.000" width="3092.762" xml:space="preserve" ewd:ver="L2.3.0.14" xmlns="&ns_svg;" xmlns:a="http://ns.adobe.com/AdobeSVGViewerExtensions/3.0/" xmlns:ewd="http://shcl.co.jp/ewd" xmlns:xlink="&ns_xlink;">
<path d=" M  1385.27,   341.73  L  1376.77,   341.73  " style="stroke-width: 1.42 ;&st7;  " /><path d=" M  1385.27,   656.18  L  1380.21,   644.81  " style="stroke-width: 1.42 ;&st7;  " /><path d=" M  1249.29,   656.18  L  1254.35,   644.81  " style="stroke-width: 1.42 ;&st7;  " /><path d=" M  1317.28,   656.18  L  1312.22,   644.81  " style="stroke-width: 1.42 ;&st7;  " /><path d=" M  1385.27,   656.18  L  1390.33,   644.81  " style="stroke-width: 1.42 ;&st7;  " /><path d=" M  1215.30,   639.18  L  1220.36,   650.54  " style="stroke-width: 1.42 ;&st7;  " /><path d=" M  1215.30,   639.18  L  1210.24,   650.54  " style="stroke-width: 1.42 ;&st7;  " /><path d=" M  1283.29,   639.18  L  1288.35,   650.54  " style="stroke-width: 1.42 ;&st7;  " /><path d=" M  1283.29,   639.18  L  1278.23,   650.54  " style="stroke-width: 1.42 ;&st7;  " /><path d=" M  1181.30,   656.18  L  1176.24,   644.81  " style="stroke-width: 1.42 ;&st7;  " /><path d=" M  1351.27,   639.18  L  1356.33,   650.54  " style="stroke-width: 1.42 ;&st7;  " /><path d=" M  1351.27,   639.18  L  1346.21,   650.54  " style="stroke-width: 1.42 ;&st7;  " /><path d=" M  1181.30,   656.18  L  1186.36,   644.81  " style="stroke-width: 1.42 ;&st7;  " /><path d=" M  1419.26,   639.18  L  1424.32,   650.54  " style="stroke-width: 1.42 ;&st7;  " /><path d=" M  1419.26,   639.18  L  1414.20,   650.54  " style="stroke-width: 1.42 ;&st7;  " /><path d=" M  1249.29,   656.18  L  1244.23,   644.81  " style="stroke-width: 1.42 ;&st7;  " /><path d=" M  1317.28,   656.18  L  1322.34,   644.81  " style="stroke-width: 1.42 ;&st7;  " /><path d=" M  1410.76,   409.72  L  1419.26,   409.72  " style="stroke-width: 1.42 ;&st7;  " /><path d=" M  1368.27,   409.72  L  1376.77,   409.72  " style="stroke-width: 1.42 ;&st7;  " /><path d=" M  1444.76,   333.23  L  1453.26,   333.23  " style="stroke-width: 1.42 ;&st7;  " /><path d=" M  1334.28,   333.23  L  1342.78,   333.23  " style="stroke-width: 1.42 ;&st7;  " /><path d=" M  1427.76,   341.73  L  1419.26,   341.73  " style="stroke-width: 1.42 ;&st7;  " /><path d=" M  1423.51,   660.42  L  1419.26,   664.67  L  1302.41,   664.67  L  1300.28,   668.92  L  1298.16,   664.67  L  1181.30,   664.67  L  1177.05,   660.42  " style="stroke-width: 0.85 ;&st7;  " /><path d=" M  1164.30,   537.20  L  1164.30,   588.19  L  1436.26,   588.19  L  1436.26,   537.20  L  1164.30,   537.20  " style="stroke-width: 1.42 ;&st7;  " /><path d=" M  1418.07,   255.74  L  1417.80,   256.21  L  1417.70,   256.74  L  1417.80,   257.28  L  1418.07,   257.75  L  1418.48,   258.09  L  1418.99,   258.28  L  1419.53,   258.28  L  1420.04,   258.09  L  1420.45,   257.75  L  1420.73,   257.28  L  1420.82,   256.74  L  1420.73,   256.21  L  1420.45,   255.74  L  1420.04,   255.39  L  1419.53,   255.21  L  1418.99,   255.21  L  1418.48,   255.39  L  1418.07,   255.74  L  1418.46,   256.45  L  1418.46,   257.03  L  1418.84,   257.48  L  1419.41,   257.58  L  1419.91,   257.29  L  1420.11,   256.74  L  1419.91,   256.20  L  1419.41,   255.91  L  1418.84,   256.01  L  1419.26,   256.74  " style="stroke-width: 0.85 ;&st7;  " /><path d=" M  1274.79,   222.75  L  1274.79,   273.74  " style="stroke-width: 0.85 ;&st7;  " /><path d=" M  1423.51,   404.05  L  1419.26,   408.30  L  1415.01,   404.05  " style="stroke-width: 1.42 ;&st7;  " /><path d=" M  1415.01,   400.65  L  1419.26,   404.90  L  1423.51,   400.65  " style="stroke-width: 1.42 ;&st7;  " /><path d=" M  1381.02,   404.05  L  1376.77,   408.30  L  1372.52,   404.05  " style="stroke-width: 1.42 ;&st7;  " /><path d=" M  1372.52,   400.65  L  1376.77,   404.90  L  1381.02,   400.65  " style="stroke-width: 1.42 ;&st7;  " /><path d=" M  1375.58,   238.74  L  1375.30,   239.21  L  1375.21,   239.75  L  1375.30,   240.28  L  1375.58,   240.75  L  1375.99,   241.09  L  1376.50,   241.28  L  1377.04,   241.28  L  1377.55,   241.09  L  1377.96,   240.75  L  1378.23,   240.28  L  1378.33,   239.75  L  1378.23,   239.21  L  1377.96,   238.74  L  1377.55,   238.40  L  1377.04,   238.21  L  1376.50,   238.21  L  1375.99,   238.40  L  1375.58,   238.74  L  1375.97,   239.45  L  1375.97,   240.04  L  1376.34,   240.48  L  1376.92,   240.58  L  1377.42,   240.29  L  1377.62,   239.75  L  1377.42,   239.20  L  1376.92,   238.91  L  1376.34,   239.01  L  1376.77,   239.75  " style="stroke-width: 0.85 ;&st7;  " /><path d=" M  1266.29,   222.75  L  1266.29,   273.74  L  1427.76,   273.74  L  1427.76,   222.75  L  1266.29,   222.75  " style="stroke-width: 1.42 ;&st7;  " /><path d=" M  1376.77,   222.75  L  1376.77,   273.74  " style="stroke-width: 0.85 ;&st7;  " /><path d=" M  1419.26,   273.74  L  1419.26,   222.75  " style="stroke-width: 0.85 ;&st7;  " /><path d=" M  1317.28,   222.75  L  1317.28,   273.74  " style="stroke-width: 0.85 ;&st7;  " /><path d=" M  1457.51,   327.56  L  1453.26,   331.81  L  1449.01,   327.56  " style="stroke-width: 1.42 ;&st7;  " /><path d=" M  1449.01,   324.16  L  1453.26,   328.41  L  1457.51,   324.16  " style="stroke-width: 1.42 ;&st7;  " /><path d=" M  1347.02,   327.56  L  1342.78,   331.81  L  1338.53,   327.56  " style="stroke-width: 1.42 ;&st7;  " /><path d=" M  1338.53,   324.16  L  1342.78,   328.41  L  1347.02,   324.16  " style="stroke-width: 1.42 ;&st7;  " /><path d=" M  1423.51,   347.39  L  1419.26,   343.14  L  1415.01,   347.39  " style="stroke-width: 1.42 ;&st7;  " /><path d=" M  1423.51,   350.79  L  1419.26,   346.54  L  1415.01,   350.79  " style="stroke-width: 1.42 ;&st7;  " /><path d=" M  1381.02,   347.39  L  1376.77,   343.14  L  1372.52,   347.39  " style="stroke-width: 1.42 ;&st7;  " /><path d=" M  1381.02,   350.79  L  1376.77,   346.54  L  1372.52,   350.79  " style="stroke-width: 1.42 ;&st7;  " /><path d=" M  1316.09,   255.74  L  1315.81,   256.21  L  1315.72,   256.74  L  1315.81,   257.28  L  1316.09,   257.75  L  1316.50,   258.09  L  1317.01,   258.28  L  1317.55,   258.28  L  1318.06,   258.09  L  1318.47,   257.75  L  1318.74,   257.28  L  1318.84,   256.74  L  1318.74,   256.21  L  1318.47,   255.74  L  1318.06,   255.39  L  1317.55,   255.21  L  1317.01,   255.21  L  1316.50,   255.39  L  1316.09,   255.74  L  1316.48,   256.45  L  1316.48,   257.03  L  1316.85,   257.48  L  1317.43,   257.58  L  1317.93,   257.29  L  1318.13,   256.74  L  1317.93,   256.20  L  1317.43,   255.91  L  1316.85,   256.01  L  1317.28,   256.74  " style="stroke-width: 0.85 ;&st7;  " /><path d=" M  1317.28,   256.74  L  1419.26,   256.74  " style="stroke-width: 0.85 ;&st7;  " /><path d=" M  1274.79,   239.75  L  1376.77,   239.75  " style="stroke-width: 0.85 ;&st7;  " /><path d=" M  1273.59,   238.74  L  1273.32,   239.21  L  1273.23,   239.75  L  1273.32,   240.28  L  1273.59,   240.75  L  1274.01,   241.09  L  1274.51,   241.28  L  1275.06,   241.28  L  1275.57,   241.09  L  1275.98,   240.75  L  1276.25,   240.28  L  1276.34,   239.75  L  1276.25,   239.21  L  1275.98,   238.74  L  1275.57,   238.40  L  1275.06,   238.21  L  1274.51,   238.21  L  1274.01,   238.40  L  1273.59,   238.74  L  1273.99,   239.45  L  1273.99,   240.04  L  1274.36,   240.48  L  1274.93,   240.58  L  1275.44,   240.29  L  1275.64,   239.75  L  1275.44,   239.20  L  1274.93,   238.91  L  1274.36,   239.01  L  1274.79,   239.75  " style="stroke-width: 0.85 ;&st7;  " /><path d=" M  1185.84,   592.72  C  1185.84    590.22   1183.81    588.19   1181.30    588.19  " style="stroke-width: 1.42 ;&st7;   " /><path d=" M  1181.30,   588.19  C  1178.80    588.19   1176.77    590.22   1176.77    592.72  " style="stroke-width: 1.42 ;&st7;   " /><path d=" M  1176.77,   592.72  C  1176.77    595.22   1178.80    597.25   1181.30    597.25  " style="stroke-width: 1.42 ;&st7;   " /><path d=" M  1181.30,   597.25  C  1183.81    597.25   1185.84    595.22   1185.84    592.72  " style="stroke-width: 1.42 ;&st7;   " /><path d=" M  1219.83,   592.72  C  1219.83    590.22   1217.80    588.19   1215.30    588.19  " style="stroke-width: 1.42 ;&st7;   " /><path d=" M  1215.30,   588.19  C  1212.79    588.19   1210.76    590.22   1210.76    592.72  " style="stroke-width: 1.42 ;&st7;   " /><path d=" M  1210.76,   592.72  C  1210.76    595.22   1212.79    597.25   1215.30    597.25  " style="stroke-width: 1.42 ;&st7;   " /><path d=" M  1215.30,   597.25  C  1217.80    597.25   1219.83    595.22   1219.83    592.72  " style="stroke-width: 1.42 ;&st7;   " /><path d=" M  1253.82,   592.72  C  1253.82    590.22   1251.79    588.19   1249.29    588.19  " style="stroke-width: 1.42 ;&st7;   " /><path d=" M  1249.29,   588.19  C  1246.79    588.19   1244.76    590.22   1244.76    592.72  " style="stroke-width: 1.42 ;&st7;   " /><path d=" M  1244.76,   592.72  C  1244.76    595.22   1246.79    597.25   1249.29    597.25  " style="stroke-width: 1.42 ;&st7;   " /><path d=" M  1249.29,   597.25  C  1251.79    597.25   1253.82    595.22   1253.82    592.72  " style="stroke-width: 1.42 ;&st7;   " /><path d=" M  1287.82,   592.72  C  1287.82    590.22   1285.79    588.19   1283.29    588.19  " style="stroke-width: 1.42 ;&st7;   " /><path d=" M  1283.29,   588.19  C  1280.78    588.19   1278.75    590.22   1278.75    592.72  " style="stroke-width: 1.42 ;&st7;   " /><path d=" M  1278.75,   592.72  C  1278.75    595.22   1280.78    597.25   1283.29    597.25  " style="stroke-width: 1.42 ;&st7;   " /><path d=" M  1283.29,   597.25  C  1285.79    597.25   1287.82    595.22   1287.82    592.72  " style="stroke-width: 1.42 ;&st7;   " /><path d=" M  1321.81,   592.72  C  1321.81    590.22   1319.78    588.19   1317.28    588.19  " style="stroke-width: 1.42 ;&st7;   " /><path d=" M  1317.28,   588.19  C  1314.78    588.19   1312.75    590.22   1312.75    592.72  " style="stroke-width: 1.42 ;&st7;   " /><path d=" M  1312.75,   592.72  C  1312.75    595.22   1314.78    597.25   1317.28    597.25  " style="stroke-width: 1.42 ;&st7;   " /><path d=" M  1317.28,   597.25  C  1319.78    597.25   1321.81    595.22   1321.81    592.72  " style="stroke-width: 1.42 ;&st7;   " /><path d=" M  1355.81,   592.72  C  1355.81    590.22   1353.78    588.19   1351.27    588.19  " style="stroke-width: 1.42 ;&st7;   " /><path d=" M  1351.27,   588.19  C  1348.77    588.19   1346.74    590.22   1346.74    592.72  " style="stroke-width: 1.42 ;&st7;   " /><path d=" M  1346.74,   592.72  C  1346.74    595.22   1348.77    597.25   1351.27    597.25  " style="stroke-width: 1.42 ;&st7;   " /><path d=" M  1351.27,   597.25  C  1353.78    597.25   1355.81    595.22   1355.81    592.72  " style="stroke-width: 1.42 ;&st7;   " /><path d=" M  1389.80,   592.72  C  1389.80    590.22   1387.77    588.19   1385.27    588.19  " style="stroke-width: 1.42 ;&st7;   " /><path d=" M  1385.27,   588.19  C  1382.77    588.19   1380.74    590.22   1380.74    592.72  " style="stroke-width: 1.42 ;&st7;   " /><path d=" M  1380.74,   592.72  C  1380.74    595.22   1382.77    597.25   1385.27    597.25  " style="stroke-width: 1.42 ;&st7;   " /><path d=" M  1385.27,   597.25  C  1387.77    597.25   1389.80    595.22   1389.80    592.72  " style="stroke-width: 1.42 ;&st7;   " /><path d=" M  1423.80,   592.72  C  1423.80    590.22   1421.77    588.19   1419.26    588.19  " style="stroke-width: 1.42 ;&st7;   " /><path d=" M  1419.26,   588.19  C  1416.76    588.19   1414.73    590.22   1414.73    592.72  " style="stroke-width: 1.42 ;&st7;   " /><path d=" M  1414.73,   592.72  C  1414.73    595.22   1416.76    597.25   1419.26    597.25  " style="stroke-width: 1.42 ;&st7;   " /><path d=" M  1419.26,   597.25  C  1421.77    597.25   1423.80    595.22   1423.80    592.72  " style="stroke-width: 1.42 ;&st7;   " /><path d=" M  1381.30,   532.66  C  1381.30    530.16   1379.27    528.13   1376.77    528.13  " style="stroke-width: 1.42 ;&st7;   " /><path d=" M  1376.77,   528.13  C  1374.27    528.13   1372.24    530.16   1372.24    532.66  " style="stroke-width: 1.42 ;&st7;   " /><path d=" M  1372.24,   532.66  C  1372.24    535.17   1374.27    537.20   1376.77    537.20  " style="stroke-width: 1.42 ;&st7;   " /><path d=" M  1376.77,   537.20  C  1379.27    537.20   1381.30    535.17   1381.30    532.66  " style="stroke-width: 1.42 ;&st7;   " /><path d=" M  1423.80,   532.66  C  1423.80    530.16   1421.77    528.13   1419.26    528.13  " style="stroke-width: 1.42 ;&st7;   " /><path d=" M  1419.26,   528.13  C  1416.76    528.13   1414.73    530.16   1414.73    532.66  " style="stroke-width: 1.42 ;&st7;   " /><path d=" M  1414.73,   532.66  C  1414.73    535.17   1416.76    537.20   1419.26    537.20  " style="stroke-width: 1.42 ;&st7;   " /><path d=" M  1419.26,   537.20  C  1421.77    537.20   1423.80    535.17   1423.80    532.66  " style="stroke-width: 1.42 ;&st7;   " /><text style="&st18;" transform="matrix(&st16;  1374.5  534.63 )">A</text><text style="&st18;" transform="matrix(&st16;  1363.96  534.63 )">25</text><text style="&st18;" transform="matrix(&st16;  1417.0  534.63 )">A</text><text style="&st18;" transform="matrix(&st16;  1406.45  534.63 )">11</text><text style="&st18;" transform="matrix(&st16;  1368.49  544.83 )">CANL</text><text style="&st18;" transform="matrix(&st16;  1410.48  544.83 )">CANH</text><text ewd:textID="17" style="&st18;" transform="matrix(&st16;  1279.56  676.56 )">Speed Sensors</text><text style="&st18;" transform="matrix(&st16;  1417.0  594.69 )">A</text><text style="&st18;" transform="matrix(&st16;  1406.45  594.69 )">19</text><text style="&st18;" transform="matrix(&st16;  1383.0  594.69 )">A</text><text style="&st18;" transform="matrix(&st16;  1375.79  594.69 )">5</text><text style="&st18;" transform="matrix(&st16;  1349.01  594.69 )">A</text><text style="&st18;" transform="matrix(&st16;  1341.79  594.69 )">6</text><text style="&st18;" transform="matrix(&st16;  1315.01  594.69 )">A</text><text style="&st18;" transform="matrix(&st16;  1304.47  594.69 )">20</text><text style="&st18;" transform="matrix(&st16;  1281.02  594.69 )">A</text><text style="&st18;" transform="matrix(&st16;  1270.47  594.69 )">17</text><text style="&st18;" transform="matrix(&st16;  1247.03  594.69 )">A</text><text style="&st18;" transform="matrix(&st16;  1239.81  594.69 )">3</text><text style="&st18;" transform="matrix(&st16;  1213.03  594.69 )">A</text><text style="&st18;" transform="matrix(&st16;  1205.82  594.69 )">4</text><text style="&st18;" transform="matrix(&st16;  1179.04  594.69 )">A</text><text style="&st18;" transform="matrix(&st16;  1168.49  594.69 )">18</text><text style="&st18;" transform="matrix(&st17;  1415.57  624.26 )">G</text><text style="&st18;" transform="matrix(&st16;  1413.7  584.49 )">RR-</text><text style="&st18;" transform="matrix(&st17;  1381.57  624.1 )">R</text><text style="&st18;" transform="matrix(&st16;  1378.93  584.49 )">RR+</text><text style="&st18;" transform="matrix(&st17;  1347.58  624.88 )">W</text><text style="&st18;" transform="matrix(&st16;  1346.22  584.49 )">RL-</text><text style="&st18;" transform="matrix(&st17;  1313.58  623.95 )">B</text><text style="&st18;" transform="matrix(&st16;  1311.49  584.49 )">RL+</text><text style="&st18;" transform="matrix(&st17;  1279.59  623.56 )">L</text><text style="&st18;" transform="matrix(&st16;  1278.07  584.49 )">FR-</text><text ewd:textID="16" style="&st18;" transform="matrix(&st16;  1211.89  563.24 )">Skid Control ECU with Actuator Assembly</text><text style="&st18;" transform="matrix(&st16;  1211.88  556.14 )">A24(A)</text><text style="&st18;" transform="matrix(&st17;  1245.6  623.95 )">B</text><text style="&st18;" transform="matrix(&st16;  1243.34  584.49 )">FR+</text><text style="&st18;" transform="matrix(&st17;  1211.6  625.93 )">LG</text><text style="&st18;" transform="matrix(&st16;  1210.59  584.49 )">FL-</text><text style="&st18;" transform="matrix(&st17;  1177.61  623.95 )">V</text><text style="&st18;" transform="matrix(&st16;  1175.86  584.49 )">FL+</text><text style="&st18;" transform="matrix(&st17;  1460.89  375.47 )">(RHD)</text><text style="&st18;" transform="matrix(&st17;  1460.89  315.98 )">(RHD)</text><text style="&st18;" transform="matrix(&st17;  1426.9  315.47 )">(LHD)</text><text style="&st18;" transform="matrix(&st17;  1426.9  374.96 )">(LHD)</text><text style="&st18;" transform="matrix(&st17;  1384.41  374.96 )">(LHD)</text><text style="&st18;" transform="matrix(&st17;  1350.41  375.47 )">(RHD)</text><text style="&st18;" transform="matrix(&st17;  1384.41  315.47 )">(LHD)</text><text style="&st18;" transform="matrix(&st17;  1350.41  315.98 )">(RHD)</text><text style="&st18;" transform="matrix(&st17;  1449.56  368.99 )">V</text><text style="&st18;" transform="matrix(&st17;  1449.56  309.5 )">V</text><text style="&st18;" transform="matrix(&st17;  1339.08  309.11 )">L</text><text style="&st18;" transform="matrix(&st17;  1324.92  315.98 )">(RHD)</text><text style="&st18;" transform="matrix(&st17;  1282.42  315.98 )">(RHD)</text><text style="&st18;" transform="matrix(&st17;  1339.08  368.6 )">L</text><text style="&st18;" transform="matrix(&st16;  1405.84  415.94 )">4</text><text style="&st18;" transform="matrix(&st16;  1363.35  415.94 )">3</text><text style="&st18;" transform="matrix(&st17;  1373.07  436.59 )">L</text><text style="&st18;" transform="matrix(&st17;  1415.57  436.98 )">V</text><text style="&st18;" transform="matrix(&st16;  1412.92  281.93 )">5</text><text ewd:textID="11" style="&st18;" transform="matrix(&st17;  1442.48  276.65 )">Junction Connector</text><text style="&st18;" transform="matrix(&st17;  1435.37  276.64 )">E74</text><text style="&st18;" transform="matrix(&st16;  1367.1  219.06 )">13</text><text style="&st18;" transform="matrix(&st16;  1367.1  281.93 )">16</text><text style="&st18;" transform="matrix(&st16;  1412.92  219.06 )">2</text><text style="&st18;" transform="matrix(&st17;  1415.57  309.5 )">V</text><text style="&st18;" transform="matrix(&st17;  1373.07  309.11 )">L</text><text style="&st18;" transform="matrix(&st17;  1373.07  368.6 )">L</text><text style="&st18;" transform="matrix(&st17;  1415.57  368.99 )">V</text><text style="&st18;" transform="matrix(&st16;  1439.84  339.45 )">1</text><text style="&st18;" transform="matrix(&st16;  1329.36  339.45 )">2</text><text style="&st18;" transform="matrix(&st16;  1402.51  339.45 )">31</text><text style="&st18;" transform="matrix(&st16;  1360.02  339.45 )">32</text><text style="&st18;" transform="matrix(&st16;  1265.11  281.93 )">12</text><text style="&st18;" transform="matrix(&st17;  1313.58  310.43 )">W</text><text style="&st18;" transform="matrix(&st17;  1271.09  309.11 )">L</text><text style="&st18;" transform="matrix(&st16;  1310.94  281.93 )">1</text><text style="&st18;" transform="matrix(&st16;  1009.45  193.56 )">L</text><text style="&st18;" transform="matrix(&st16;  1007.09  176.56 )">LG</text><text style="&st18;" transform="matrix(&st16;  1060.44  193.56 )">L</text><text style="&st18;" transform="matrix(&st16;  1058.08  176.56 )">LG</text><text style="&st18;" transform="matrix(&st16;  1265.11  219.06 )">14</text><text style="&st18;" transform="matrix(&st16;  1310.94  219.06 )">3</text></svg>