﻿<?xml version="1.0"?>
<!-- Generator: Adobe Illustrator 10.0, SVG Export Plug-In . SVG Version: 3.0.0 Build 77)  -->
<!DOCTYPE svg PUBLIC "-//W3C//DTD SVG 1.0//EN" "http://www.w3.org/TR/2001/REC-SVG-20010904/DTD/svg10.dtd"[
	<!ENTITY ns_flows "http://ns.adobe.com/Flows/1.0/">
	<!ENTITY ns_svg "http://www.w3.org/2000/svg">
	<!ENTITY ns_xlink "http://www.w3.org/1999/xlink">
	<!ENTITY st0 "fill:none;stroke:#000000;stroke-linecap:round;stroke-linejoin:round;">
	<!ENTITY st1 "fill:none;stroke:#000000;stroke-width:0.6;stroke-linecap:round;stroke-linejoin:round;">
	<!ENTITY st2 "font-size:6px;">
	<!ENTITY st3 "font-family:'Arial';">
	<!ATTLIST svg
		ewd:ver CDATA #IMPLIED
		xmlns:ewd CDATA #FIXED "http://shcl.co.jp/ewd"
		xmlns:a CDATA #FIXED "http://ns.adobe.com/AdobeSVGViewerExtensions/3.0/">
	<!ATTLIST g
		ewd:pinNo CDATA #IMPLIED>
]>
<svg width="166.722" height="70.405" viewBox="0 0 166.722 70.405" style="overflow:visible;enable-background:new 0 0 166.722 70.405" xml:space="preserve" onload="call_execInitLoadProc_svg('connector')" ewd:ver="L2.3.0.14" xmlns="&ns_svg;" xmlns:a="http://ns.adobe.com/AdobeSVGViewerExtensions/3.0/" xmlns:ewd="http://shcl.co.jp/ewd" xmlns:xlink="&ns_xlink;">
<script type="text/javascript" xlink:href="../../../../../system/js/ewd/fig/svgfig.js"/>
<g id="レイヤー_1">
	<path style="&st0;" d="M160.273,3.899c-1.663-2.216-4.028-3.399-6.799-3.399"/>
	<path style="&st1;" d="M118.063,8.489c0-1.095-0.888-1.983-1.983-1.983"/>
	<path style="&st1;" d="M60.557,6.506c-1.095,0-1.983,0.888-1.983,1.983"/>
	<path style="&st0;" d="M13.248,0.5c-2.771,0-5.137,1.183-6.799,3.399"/>
	<path style="&st1;" d="M121.973,4.75c0-2.347-1.903-4.25-4.25-4.25"/>
	<path style="&st1;" d="M58.928,0.5c-2.347,0-4.25,1.903-4.25,4.25"/>
	<path style="&st0;" d="M160.557,61.407h5.666v-5.666"/>
	<path style="&st1;" d="M68.489,21.747h39.66"/>
	<path style="&st1;" d="M118.063,21.747V8.489"/>
	<path style="&st1;" d="M0.5,55.741h165.722"/>
	<path style="&st1;" d="M83.361,6.506h32.719"/>
	<path style="&st0;" d="M160.273,3.899l5.949,10.765"/>
	<path style="&st1;" d="M166.222,17.498h-8.499v4.249"/>
	<path style="&st0;" d="M166.222,55.741V14.665"/>
	<path style="&st0;" d="M160.557,61.407l-22.663,8.499"/>
	<path style="&st1;" d="M58.574,30.954h9.915"/>
	<path style="&st1;" d="M0.5,17.498h8.499v4.249"/>
	<path style="&st1;" d="M108.12,30.954h9.943"/>
	<path style="&st1;" d="M99.65,19.622h-5.651"/>
	<path style="&st1;" d="M113.078,10.416v11.331h-4.958v9.207"/>
	<path style="&st1;" d="M82.639,21.747v-8.499H93.97v8.499"/>
	<path style="&st1;" d="M63.531,10.416v11.331h4.958v9.207"/>
	<path style="&st1;" d="M8.999,24.58v25.496h148.725V24.58h-39.66v12.748h-59.49V24.58H8.999"/>
	<path style="&st1;" d="M8.999,37.327h49.575"/>
	<path style="&st1;" d="M78.404,21.747l-2.833-4.249h-7.082v4.249"/>
	<path style="&st1;" d="M118.063,37.327h39.66"/>
	<path style="&st1;" d="M58.574,50.075V37.327"/>
	<path style="&st1;" d="M118.063,50.075V37.327"/>
	<path style="&st1;" d="M76.987,19.622h5.651"/>
	<path style="&st1;" d="M18.914,50.075V24.58"/>
	<path style="&st1;" d="M28.829,50.075V24.58"/>
	<path style="&st1;" d="M38.744,50.075V24.58"/>
	<path style="&st1;" d="M48.659,50.075V24.58"/>
	<path style="&st1;" d="M98.233,21.747l2.833-4.249h7.082v4.249"/>
	<path style="&st1;" d="M68.489,50.075V37.327"/>
	<path style="&st1;" d="M78.404,50.075V37.327"/>
	<path style="&st1;" d="M88.319,50.075V37.327"/>
	<path style="&st1;" d="M98.233,50.075V37.327"/>
	<path style="&st1;" d="M108.148,50.075V37.327"/>
	<path style="&st1;" d="M127.979,50.075V24.58"/>
	<path style="&st1;" d="M137.894,50.075V24.58"/>
	<path style="&st1;" d="M147.809,50.075V24.58"/>
	<path style="&st0;" d="M13.248,0.5h140.226"/>
	<path style="&st0;" d="M6.449,3.899L0.5,14.665"/>
	<path style="&st0;" d="M0.5,55.741V14.665"/>
	<path style="&st1;" d="M160.557,61.407v-5.666"/>
	<path style="&st1;" d="M58.574,21.747V8.489"/>
	<path style="&st0;" d="M6.166,61.407l22.663,8.499"/>
	<path style="&st1;" d="M166.222,21.747h-48.159"/>
	<path style="&st1;" d="M83.361,6.506H60.557"/>
	<path style="&st1;" d="M121.973,21.747V4.75"/>
	<path style="&st0;" d="M28.829,69.905h109.065"/>
	<path style="&st0;" d="M6.166,61.407H0.5v-5.666"/>
	<path style="&st1;" d="M6.166,61.407v-5.666"/>
	<path style="&st1;" d="M0.5,21.747h58.074"/>
	<path style="&st1;" d="M54.678,21.747V4.75"/>
	<path style="&st1;" d="M63.531,10.416h49.546"/>
	<g ewd:pinNo="1">
		<text transform="matrix(1 0 0 1 12.209 33.4688)"><tspan x="0" y="0" style="&st3; &st2;">1</tspan></text>
	</g>
	<g ewd:pinNo="10">
		<text transform="matrix(1 0 0 1 10.3613 46.2163)"><tspan x="0" y="0" style="&st3; &st2;">10</tspan></text>
	</g>
	<g ewd:pinNo="2">
		<text transform="matrix(1 0 0 1 22.124 33.4688)"><tspan x="0" y="0" style="&st3; &st2;">2</tspan></text>
	</g>
	<g ewd:pinNo="11">
		<text transform="matrix(1 0 0 1 20.499 46.2163)"><tspan x="0" y="0" style="&st3; &st2;">11</tspan></text>
	</g>
	<g ewd:pinNo="3">
		<text transform="matrix(1 0 0 1 32.0386 33.4688)"><tspan x="0" y="0" style="&st3; &st2;">3</tspan></text>
	</g>
	<g ewd:pinNo="12">
		<text transform="matrix(1 0 0 1 30.1914 46.2163)"><tspan x="0" y="0" style="&st3; &st2;">12</tspan></text>
	</g>
	<g ewd:pinNo="4">
		<text transform="matrix(1 0 0 1 41.9536 33.4688)"><tspan x="0" y="0" style="&st3; &st2;">4</tspan></text>
	</g>
	<g ewd:pinNo="13">
		<text transform="matrix(1 0 0 1 40.1064 46.2163)"><tspan x="0" y="0" style="&st3; &st2;">13</tspan></text>
	</g>
	<g ewd:pinNo="5">
		<text transform="matrix(1 0 0 1 51.8687 33.4688)"><tspan x="0" y="0" style="&st3; &st2;">5</tspan></text>
	</g>
	<g ewd:pinNo="14">
		<text transform="matrix(1 0 0 1 50.0215 46.2163)"><tspan x="0" y="0" style="&st3; &st2;">14</tspan></text>
	</g>
	<g ewd:pinNo="15">
		<text transform="matrix(1 0 0 1 59.9365 46.2163)"><tspan x="0" y="0" style="&st3; &st2;">15</tspan></text>
	</g>
	<g ewd:pinNo="16">
		<text transform="matrix(1 0 0 1 69.8516 46.2163)"><tspan x="0" y="0" style="&st3; &st2;">16</tspan></text>
	</g>
	<g ewd:pinNo="17">
		<text transform="matrix(1 0 0 1 79.7666 46.2163)"><tspan x="0" y="0" style="&st3; &st2;">17</tspan></text>
	</g>
	<g ewd:pinNo="18">
		<text transform="matrix(1 0 0 1 89.6816 46.2163)"><tspan x="0" y="0" style="&st3; &st2;">18</tspan></text>
	</g>
	<g ewd:pinNo="19">
		<text transform="matrix(1 0 0 1 99.5967 46.2163)"><tspan x="0" y="0" style="&st3; &st2;">19</tspan></text>
	</g>
	<g ewd:pinNo="20">
		<text transform="matrix(1 0 0 1 109.6904 46.2163)"><tspan x="0" y="0" style="&st3; &st2;">20</tspan></text>
	</g>
	<g ewd:pinNo="6">
		<text transform="matrix(1 0 0 1 121.2739 33.4688)"><tspan x="0" y="0" style="&st3; &st2;">6</tspan></text>
	</g>
	<g ewd:pinNo="21">
		<text transform="matrix(1 0 0 1 119.606 46.2163)"><tspan x="0" y="0" style="&st3; &st2;">21</tspan></text>
	</g>
	<g ewd:pinNo="7">
		<text transform="matrix(1 0 0 1 131.189 33.4688)"><tspan x="0" y="0" style="&st3; &st2;">7</tspan></text>
	</g>
	<g ewd:pinNo="22">
		<text transform="matrix(1 0 0 1 129.5205 46.2163)"><tspan x="0" y="0" style="&st3; &st2;">22</tspan></text>
	</g>
	<g ewd:pinNo="8">
		<text transform="matrix(1 0 0 1 141.104 33.4688)"><tspan x="0" y="0" style="&st3; &st2;">8</tspan></text>
	</g>
	<g ewd:pinNo="23">
		<text transform="matrix(1 0 0 1 139.4355 46.2163)"><tspan x="0" y="0" style="&st3; &st2;">23</tspan></text>
	</g>
	<g ewd:pinNo="9">
		<text transform="matrix(1 0 0 1 151.019 33.4688)"><tspan x="0" y="0" style="&st3; &st2;">9</tspan></text>
	</g>
	<g ewd:pinNo="24">
		<text transform="matrix(1 0 0 1 149.3506 46.2163)"><tspan x="0" y="0" style="&st3; &st2;">24</tspan></text>
	</g>
</g>
</svg>