﻿<?xml version="1.0"?>
<!-- Generator: Adobe Illustrator 10.0, SVG Export Plug-In . SVG Version: 3.0.0 Build 77)  -->
<!DOCTYPE svg PUBLIC "-//W3C//DTD SVG 1.0//EN" "http://www.w3.org/TR/2001/REC-SVG-20010904/DTD/svg10.dtd"[
	<!ENTITY ns_flows "http://ns.adobe.com/Flows/1.0/">
	<!ENTITY ns_svg "http://www.w3.org/2000/svg">
	<!ENTITY ns_xlink "http://www.w3.org/1999/xlink">
	<!ENTITY st0 "fill:none;">
	<!ENTITY st1 "stroke:#000000;">
	<!ENTITY st2 "stroke-linecap:round;">
	<!ENTITY st3 "stroke-linejoin:round;">
	<!ENTITY st4 "stroke-width:0.6;">
	<!ENTITY st5 "font-size:6px;">
	<!ENTITY st6 "font-family:'Arial';">
	<!ENTITY st7 "stroke-width:1.4;">
	<!ATTLIST svg
		ewd:ver CDATA #IMPLIED
		xmlns:ewd CDATA #FIXED "http://shcl.co.jp/ewd"
		xmlns:a CDATA #FIXED "http://ns.adobe.com/AdobeSVGViewerExtensions/3.0/">
	<!ATTLIST g
		ewd:pinNo CDATA #IMPLIED>
]>
<svg width="268.3" height="111.49" viewBox="0 0 268.3 111.49" style="overflow:visible;enable-background:new 0 0 112.898 68.989" xml:space="preserve" onload="call_execInitLoadProc_svg('connector')" ewd:ver="L2.3.0.14" xmlns="&ns_svg;" xmlns:a="http://ns.adobe.com/AdobeSVGViewerExtensions/3.0/" xmlns:ewd="http://shcl.co.jp/ewd" xmlns:xlink="&ns_xlink;">
<script type="text/javascript" xlink:href="../../../../../system/js/ewd/fig/svgfig.js"/>
<g id="レイヤー_1" transform="translate(0,17.008)">
	<path style="&st0;&st1;&st2;&st3;" d="M99.203,68.489c1.757,0,3.252-0.453,4.714-1.427"/>
	<path style="&st0;&st1;&st2;&st3;" d="M8.981,67.061c1.462,0.975,2.957,1.427,4.714,1.427"/>
	<path style="&st0;&st1;&st4;&st2;&st3;" d="M86.902,3.333c0-1.564-1.269-2.833-2.833-2.833"/>
	<path style="&st0;&st1;&st2;&st3;" d="M0.5,59.891c0,0.979,0.446,1.813,1.261,2.357"/>
	<path style="&st0;&st1;&st4;&st2;&st3;" d="M28.829,0.5c-1.564,0-2.833,1.269-2.833,2.833"/>
	<path style="&st0;&st1;&st2;&st3;" d="M111.137,62.248c0.814-0.543,1.261-1.378,1.261-2.357"/>
	<path style="&st0;&st1;&st4;&st2;&st3;" d="M34.494,5.458c-1.564,0-2.833,1.269-2.833,2.833"/>
	<path style="&st0;&st1;&st4;&st2;&st3;" d="M81.236,8.291c0-1.564-1.268-2.833-2.833-2.833"/>
	<path style="&st0;&st1;&st2;&st3;" d="M13.695,68.489h85.507"/>
	<path style="&st0;&st1;&st4;&st2;&st3;" d="M0.5,58.574h111.898"/>
	<path style="&st0;&st1;&st2;&st3;" d="M103.917,67.061l7.221-4.813"/>
	<path style="&st0;&st1;&st2;&st3;" d="M8.981,67.061l-7.221-4.813"/>
	<path style="&st0;&st1;&st2;&st3;" d="M0.5,59.891V2.39"/>
	<path style="&st0;&st1;&st2;&st3;" d="M112.398,59.891V2.39"/>
	<path style="&st0;&st1;&st2;&st3;" d="M4.276,0.5h104.346"/>
	<path style="&st0;&st1;&st4;&st2;&st3;" d="M25.996,10.416V3.333"/>
	<path style="&st0;&st1;&st4;&st2;&st3;" d="M86.902,10.416V3.333"/>
	<path style="&st0;&st1;&st4;&st2;&st3;" d="M50.429,16.081V8.999h12.04v7.082"/>
	<path style="&st0;&st1;&st4;&st2;&st3;" d="M31.662,30.245v25.496h49.575V30.245H31.662"/>
	<path style="&st0;&st1;&st4;&st2;&st3;" d="M61.406,55.741V30.245"/>
	<path style="&st0;&st1;&st4;&st2;&st3;" d="M41.577,55.741V30.245"/>
	<path style="&st0;&st1;&st4;&st2;&st3;" d="M51.491,55.741V30.245"/>
	<path style="&st0;&st1;&st4;&st2;&st3;" d="M71.321,55.741V30.245"/>
	<path style="&st0;&st1;&st4;&st2;&st3;" d="M31.662,42.993h49.575"/>
	<path style="&st0;&st1;&st4;&st2;&st3;" d="M28.829,45.826H3.333V14.665h25.496V45.826"/>
	<path style="&st0;&st1;&st4;&st2;&st3;" d="M3.333,30.245h25.496"/>
	<path style="&st0;&st1;&st4;&st2;&st3;" d="M16.081,45.826V14.665"/>
	<path style="&st0;&st1;&st4;&st2;&st3;" d="M84.069,45.826h25.496V14.665H84.069V45.826"/>
	<path style="&st0;&st1;&st4;&st2;&st3;" d="M109.565,30.245H84.069"/>
	<path style="&st0;&st1;&st4;&st2;&st3;" d="M96.817,45.826V14.665"/>
	<path style="&st0;&st1;&st4;&st2;&st3;" d="M37.327,16.081v-5.666h4.25l2.833,2.833v2.833"/>
	<path style="&st0;&st1;&st4;&st2;&st3;" d="M75.571,16.081v-5.666h-4.25l-2.833,2.833v2.833"/>
	<path style="&st0;&st1;&st4;&st2;&st3;" d="M37.327,25.996v-9.915h38.244v9.915"/>
	<path style="&st0;&st1;&st4;&st2;&st3;" d="M81.236,10.416h25.496"/>
	<path style="&st0;&st1;&st4;&st2;&st3;" d="M6.166,10.416h25.496"/>
	<path style="&st0;&st1;&st4;&st2;&st3;" d="M37.327,25.996h-5.666v-15.58"/>
	<path style="&st0;&st1;&st4;&st2;&st3;" d="M81.236,10.416v15.58"/>
	<path style="&st0;&st1;&st4;&st2;&st3;" d="M75.571,25.996h5.666"/>
	<path style="&st0;&st1;&st2;&st3;" d="M0.5,2.39L2.39,0.5h1.886"/>
	<path style="&st0;&st1;&st4;&st2;&st3;" d="M4.276,0.5l1.89,1.89v8.026"/>
	<path style="&st0;&st1;&st2;&st3;" d="M112.398,2.39l-1.89-1.89h-1.887"/>
	<path style="&st0;&st1;&st4;&st2;&st3;" d="M108.622,0.5l-1.889,1.89v8.026"/>
	<path style="&st0;&st1;&st4;&st2;&st3;" d="M2.625,62.823h107.649"/>
	<path style="&st0;&st1;&st4;&st2;&st3;" d="M28.829,62.823v-4.25"/>
	<path style="&st0;&st1;&st4;&st2;&st3;" d="M18.914,62.823v-4.25"/>
	<path style="&st0;&st1;&st4;&st2;&st3;" d="M38.744,58.574v1.417h9.915v-1.417"/>
	<path style="&st0;&st1;&st4;&st2;&st3;" d="M74.154,58.574v1.417h-9.915v-1.417"/>
	<path style="&st0;&st1;&st4;&st2;&st3;" d="M93.984,62.823v-4.25"/>
	<path style="&st0;&st1;&st4;&st2;&st3;" d="M84.069,62.823v-4.25"/>
	<path style="&st0;&st1;&st4;&st2;&st3;" d="M18.914,60.698h9.915"/>
	<path style="&st0;&st1;&st4;&st2;&st3;" d="M84.069,60.698h9.915"/>
	<path style="&st0;&st1;&st4;&st2;&st3;" d="M31.662,10.416V8.291"/>
	<path style="&st0;&st1;&st4;&st2;&st3;" d="M81.236,10.416V8.291"/>
	<path style="&st0;&st1;&st4;&st2;&st3;" d="M34.494,5.458h43.91"/>
	<g ewd:pinNo="4">
		<text transform="matrix(1 0 0 1 44.77 38.792)"><tspan x="0" y="0" style="&st6; &st5;">4</tspan></text>
	</g>
	<g ewd:pinNo="9">
		<text transform="matrix(1 0 0 1 101.4272 24.6279)"><tspan x="0" y="0" style="&st6; &st5;">9</tspan></text>
	</g>
	<g ewd:pinNo="5">
		<text transform="matrix(1 0 0 1 54.6851 38.792)"><tspan x="0" y="0" style="&st6; &st5;">5</tspan></text>
	</g>
	<g ewd:pinNo="3">
		<text transform="matrix(1 0 0 1 34.855 38.792)"><tspan x="0" y="0" style="&st6; &st5;">3</tspan></text>
	</g>
	<g ewd:pinNo="6">
		<text transform="matrix(1 0 0 1 64.6001 38.792)"><tspan x="0" y="0" style="&st6; &st5;">6</tspan></text>
	</g>
	<g ewd:pinNo="7">
		<text transform="matrix(1 0 0 1 74.5151 38.792)"><tspan x="0" y="0" style="&st6; &st5;">7</tspan></text>
	</g>
	<g ewd:pinNo="13">
		<text transform="matrix(1 0 0 1 43.0776 51.54)"><tspan x="0" y="0" style="&st6; &st5;">13</tspan></text>
	</g>
	<g ewd:pinNo="14">
		<text transform="matrix(1 0 0 1 52.9927 51.54)"><tspan x="0" y="0" style="&st6; &st5;">14</tspan></text>
	</g>
	<g ewd:pinNo="12">
		<text transform="matrix(1 0 0 1 33.1626 51.54)"><tspan x="0" y="0" style="&st6; &st5;">12</tspan></text>
	</g>
	<g ewd:pinNo="15">
		<text transform="matrix(1 0 0 1 62.9077 51.54)"><tspan x="0" y="0" style="&st6; &st5;">15</tspan></text>
	</g>
	<g ewd:pinNo="16">
		<text transform="matrix(1 0 0 1 72.8228 51.54)"><tspan x="0" y="0" style="&st6; &st5;">16</tspan></text>
	</g>
	<g ewd:pinNo="8">
		<text transform="matrix(1 0 0 1 88.6792 24.6279)"><tspan x="0" y="0" style="&st6; &st5;">8</tspan></text>
	</g>
	<g ewd:pinNo="2">
		<text transform="matrix(1 0 0 1 20.6909 24.6279)"><tspan x="0" y="0" style="&st6; &st5;">2</tspan></text>
	</g>
	<g ewd:pinNo="18">
		<text transform="matrix(1 0 0 1 99.7349 40.2085)"><tspan x="0" y="0" style="&st6; &st5;">18</tspan></text>
	</g>
	<g ewd:pinNo="1">
		<text transform="matrix(1 0 0 1 7.9429 24.6279)"><tspan x="0" y="0" style="&st6; &st5;">1</tspan></text>
	</g>
	<g ewd:pinNo="17">
		<text transform="matrix(1 0 0 1 86.9868 40.2085)"><tspan x="0" y="0" style="&st6; &st5;">17</tspan></text>
	</g>
	<g ewd:pinNo="11">
		<text transform="matrix(1 0 0 1 19.2207 40.2085)"><tspan x="0" y="0" style="&st6; &st5;">11</tspan></text>
	</g>
	<g ewd:pinNo="10">
		<text transform="matrix(1 0 0 1 6.25 40.2085)"><tspan x="0" y="0" style="&st6; &st5;">10</tspan></text>
	</g>
</g>
<g id="レイヤー_1" transform="translate(132.739,17.008)">
	<path style="&st0;&st1;&st2;&st3;" d="M0.5,67.072c0,4.694,3.805,8.499,8.499,8.499"/>
	<path style="&st0;&st1;&st2;&st3;" d="M126.562,75.571c4.694,0,8.499-3.805,8.499-8.499"/>
	<path style="&st0;&st1;&st2;&st3;" d="M25.996,89.735c0,2.347,1.902,4.249,4.25,4.249"/>
	<path style="&st0;&st1;&st2;&st3;" d="M105.316,93.984c2.347,0,4.249-1.902,4.249-4.249"/>
	<path style="&st0;&st1;&st2;&st3;" d="M6.166,0.5C3.037,0.5,0.5,3.037,0.5,6.166"/>
	<path style="&st0;&st1;&st2;&st3;" d="M21.747,3.333c0-1.564-1.269-2.833-2.833-2.833"/>
	<path style="&st0;&st1;&st2;&st3;" d="M21.747,5.6c0,1.095,0.888,1.983,1.983,1.983"/>
	<path style="&st0;&st1;&st2;&st3;" d="M111.832,7.583c1.095,0,1.983-0.888,1.983-1.983"/>
	<path style="&st0;&st1;&st2;&st3;" d="M116.647,0.5c-1.564,0-2.833,1.269-2.833,2.833"/>
	<path style="&st0;&st1;&st2;&st3;" d="M135.061,6.166c0-3.129-2.537-5.666-5.666-5.666"/>
	<path style="&st0;&st1;&st4;&st2;&st3;" d="M42.993,40.16v25.496h49.575V40.16H42.993"/>
	<path style="&st0;&st1;&st4;&st2;&st3;" d="M52.908,65.656V40.16"/>
	<path style="&st0;&st1;&st4;&st2;&st3;" d="M62.823,65.656V40.16"/>
	<path style="&st0;&st1;&st4;&st2;&st3;" d="M72.738,65.656V40.16"/>
	<path style="&st0;&st1;&st4;&st2;&st3;" d="M82.653,65.656V40.16"/>
	<path style="&st0;&st1;&st4;&st2;&st3;" d="M60.698,86.194v-5.666h14.164v5.666"/>
	<path style="&st0;&st1;&st4;&st2;&st3;" d="M63.531,86.194v4.249h8.499v-4.249"/>
	<path style="&st0;&st1;&st4;&st2;&st3;" d="M54.324,21.747l2.833,2.833h21.247l2.833-2.833"/>
	<path style="&st0;&st1;&st4;&st2;&st3;" d="M59.99,24.58v2.833h15.581V24.58"/>
	<path style="&st0;&st1;&st4;&st2;&st3;" d="M48.659,33.078V21.747h38.244v11.332"/>
	<path style="&st0;&st1;&st4;&st2;&st3;" d="M7.582,68.489h120.396"/>
	<path style="&st0;&st1;&st4;&st2;&st3;" d="M94.338,83.361H78.758l-1.983-7.791"/>
	<path style="&st0;&st1;&st4;&st2;&st3;" d="M41.222,83.361h15.581l1.983-7.791"/>
	<path style="&st0;&st1;&st4;&st2;&st3;" d="M7.582,31.662h3.399V44.41H7.582"/>
	<path style="&st0;&st1;&st4;&st2;&st3;" d="M127.979,31.662h-3.399V44.41h3.399"/>
	<path style="&st0;&st1;&st4;&st2;&st3;" d="M94.338,83.361v10.623"/>
	<path style="&st0;&st1;&st4;&st2;&st3;" d="M41.222,83.361v10.623"/>
	<path style="&st0;&st1;&st2;&st3;" d="M0.5,6.166v60.906"/>
	<path style="&st0;&st1;&st2;&st3;" d="M135.061,6.166v60.906"/>
	<path style="&st0;&st1;&st2;&st3;" d="M30.245,93.984h75.071"/>
	<path style="&st0;&st1;&st2;&st3;" d="M25.996,75.571v14.165"/>
	<path style="&st0;&st1;&st4;&st2;&st3;" d="M41.222,86.194h53.116"/>
	<path style="&st0;&st1;&st2;&st3;" d="M109.565,75.571v14.165"/>
	<path style="&st0;&st1;&st4;&st2;&st3;" d="M42.993,52.908h49.575"/>
	<path style="&st0;&st1;&st4;&st2;&st3;" d="M7.582,52.908h3.399v9.915H7.582"/>
	<path style="&st0;&st1;&st4;&st2;&st3;" d="M127.979,52.908h-3.399v9.915h3.399"/>
	<path style="&st0;&st1;&st4;&st2;&st3;" d="M40.16,55.741H14.664V24.58H40.16V55.741"/>
	<path style="&st0;&st1;&st4;&st2;&st3;" d="M14.664,40.16H40.16"/>
	<path style="&st0;&st1;&st4;&st2;&st3;" d="M27.412,55.741V24.58"/>
	<path style="&st0;&st1;&st4;&st2;&st3;" d="M48.659,33.078h-4.25V16.081H14.664"/>
	<path style="&st0;&st1;&st4;&st2;&st3;" d="M7.582,7.583v60.906"/>
	<path style="&st0;&st1;&st4;&st2;&st3;" d="M7.582,7.583h7.082v8.499"/>
	<path style="&st0;&st1;&st4;&st2;&st3;" d="M95.401,55.741h25.496V24.58H95.401V55.741"/>
	<path style="&st0;&st1;&st4;&st2;&st3;" d="M120.896,40.16H95.401"/>
	<path style="&st0;&st1;&st4;&st2;&st3;" d="M108.148,55.741V24.58"/>
	<path style="&st0;&st1;&st4;&st2;&st3;" d="M86.902,33.078h4.249V16.081h29.745"/>
	<path style="&st0;&st1;&st4;&st2;&st3;" d="M127.979,7.583v60.906"/>
	<path style="&st0;&st1;&st4;&st2;&st3;" d="M120.896,16.081V7.583h7.082"/>
	<path style="&st0;&st1;&st2;&st3;" d="M8.999,75.571h16.997"/>
	<path style="&st0;&st1;&st4;&st2;&st3;" d="M25.996,75.571h83.569"/>
	<path style="&st0;&st1;&st2;&st3;" d="M109.565,75.571h16.997"/>
	<path style="&st0;&st1;&st2;&st3;" d="M6.166,0.5h12.748"/>
	<path style="&st0;&st1;&st2;&st3;" d="M21.747,5.6V3.333"/>
	<path style="&st0;&st1;&st2;&st3;" d="M23.729,7.583h26.346l1.416,7.082h32.578l1.417-7.082h26.346"/>
	<path style="&st0;&st1;&st2;&st3;" d="M129.395,0.5h-12.748"/>
	<path style="&st0;&st1;&st2;&st3;" d="M113.814,5.6V3.333"/>
	<g ewd:pinNo="7">
		<text transform="matrix(1 0 0 1 46.272 48.7739)"><tspan x="0" y="0" style="&st6; &st5;">7</tspan></text>
	</g>
	<g ewd:pinNo="6">
		<text transform="matrix(1 0 0 1 56.187 48.7739)"><tspan x="0" y="0" style="&st6; &st5;">6</tspan></text>
	</g>
	<g ewd:pinNo="5">
		<text transform="matrix(1 0 0 1 66.1021 48.7739)"><tspan x="0" y="0" style="&st6; &st5;">5</tspan></text>
	</g>
	<g ewd:pinNo="4">
		<text transform="matrix(1 0 0 1 76.0171 48.7739)"><tspan x="0" y="0" style="&st6; &st5;">4</tspan></text>
	</g>
	<g ewd:pinNo="3">
		<text transform="matrix(1 0 0 1 85.9321 48.7739)"><tspan x="0" y="0" style="&st6; &st5;">3</tspan></text>
	</g>
	<g ewd:pinNo="15">
		<text transform="matrix(1 0 0 1 54.3218 61.522)"><tspan x="0" y="0" style="&st6; &st5;">15</tspan></text>
	</g>
	<g ewd:pinNo="14">
		<text transform="matrix(1 0 0 1 64.2363 61.522)"><tspan x="0" y="0" style="&st6; &st5;">14</tspan></text>
	</g>
	<g ewd:pinNo="16">
		<text transform="matrix(1 0 0 1 44.4067 61.522)"><tspan x="0" y="0" style="&st6; &st5;">16</tspan></text>
	</g>
	<g ewd:pinNo="13">
		<text transform="matrix(1 0 0 1 74.1514 61.522)"><tspan x="0" y="0" style="&st6; &st5;">13</tspan></text>
	</g>
	<g ewd:pinNo="12">
		<text transform="matrix(1 0 0 1 84.0664 61.522)"><tspan x="0" y="0" style="&st6; &st5;">12</tspan></text>
	</g>
	<g ewd:pinNo="1">
		<text transform="matrix(1 0 0 1 112.8442 34.6094)"><tspan x="0" y="0" style="&st6; &st5;">1</tspan></text>
	</g>
	<g ewd:pinNo="2">
		<text transform="matrix(1 0 0 1 100.0962 34.6094)"><tspan x="0" y="0" style="&st6; &st5;">2</tspan></text>
	</g>
	<g ewd:pinNo="8">
		<text transform="matrix(1 0 0 1 32.1074 34.6094)"><tspan x="0" y="0" style="&st6; &st5;">8</tspan></text>
	</g>
	<g ewd:pinNo="9">
		<text transform="matrix(1 0 0 1 19.3599 34.6094)"><tspan x="0" y="0" style="&st6; &st5;">9</tspan></text>
	</g>
	<g ewd:pinNo="10">
		<text transform="matrix(1 0 0 1 110.9785 50.1904)"><tspan x="0" y="0" style="&st6; &st5;">10</tspan></text>
	</g>
	<g ewd:pinNo="11">
		<text transform="matrix(1 0 0 1 98.4536 50.1904)"><tspan x="0" y="0" style="&st6; &st5;">11</tspan></text>
	</g>
	<g ewd:pinNo="17">
		<text transform="matrix(1 0 0 1 30.2422 50.1904)"><tspan x="0" y="0" style="&st6; &st5;">17</tspan></text>
	</g>
	<g ewd:pinNo="18">
		<text transform="matrix(1 0 0 1 17.4941 50.1904)"><tspan x="0" y="0" style="&st6; &st5;">18</tspan></text>
	</g>
</g>
<path d="M56.449,9.069v-8.504h144.0705v8.504" style="&st0;&st1;&st7;&st2;&st3;"/>
</svg>