﻿<?xml version="1.0"?>
<!-- Generator: Adobe Illustrator 10.0, SVG Export Plug-In . SVG Version: 3.0.0 Build 77)  -->
<!DOCTYPE svg PUBLIC "-//W3C//DTD SVG 1.0//EN" "http://www.w3.org/TR/2001/REC-SVG-20010904/DTD/svg10.dtd"[
	<!ENTITY ns_flows "http://ns.adobe.com/Flows/1.0/">
	<!ENTITY ns_svg "http://www.w3.org/2000/svg">
	<!ENTITY ns_xlink "http://www.w3.org/1999/xlink">
	<!ENTITY st0 "fill:none;stroke:#000000;stroke-linecap:round;stroke-linejoin:round;">
	<!ENTITY st1 "fill:none;stroke:#000000;stroke-width:0.6;stroke-linecap:round;stroke-linejoin:round;">
	<!ENTITY st2 "font-size:6px;">
	<!ENTITY st3 "font-family:'Arial';">
	<!ATTLIST svg
		ewd:ver CDATA #IMPLIED
		xmlns:ewd CDATA #FIXED "http://shcl.co.jp/ewd"
		xmlns:a CDATA #FIXED "http://ns.adobe.com/AdobeSVGViewerExtensions/3.0/">
	<!ATTLIST g
		ewd:pinNo CDATA #IMPLIED>
]>
<svg width="40.284" height="41.793" viewBox="0 0 40.284 41.793" style="overflow:visible;enable-background:new 0 0 40.284 41.793" xml:space="preserve" onload="call_execInitLoadProc_svg('connector')" ewd:ver="L2.3.0.14" xmlns="&ns_svg;" xmlns:a="http://ns.adobe.com/AdobeSVGViewerExtensions/3.0/" xmlns:ewd="http://shcl.co.jp/ewd" xmlns:xlink="&ns_xlink;">
<script type="text/javascript" xlink:href="../../../../../system/js/ewd/fig/svgfig.js"/>
<g id="レイヤー_1">
	<path style="&st1;" d="M13.696,37.044h12.748"/>
	<path style="&st1;" d="M13.696,33.645h12.748"/>
	<path style="&st0;" d="M14.353,41.293h11.433"/>
	<path style="&st1;" d="M18.653,32.228h2.833"/>
	<path style="&st1;" d="M18.653,14.948h2.833"/>
	<path style="&st1;" d="M22.902,16.364v14.448"/>
	<path style="&st1;" d="M17.237,16.364v14.448"/>
	<path style="&st1;" d="M15.82,7.299h8.499"/>
	<path style="&st0;" d="M29.135,6.158v4.246"/>
	<path style="&st0;" d="M11.004,6.158v4.246"/>
	<path style="&st1;" d="M13.696,10.132h0.708"/>
	<path style="&st1;" d="M25.735,10.132h0.708"/>
	<path style="&st0;" d="M10.155,36.571l0.873,2.394"/>
	<path style="&st0;" d="M29.112,38.965l0.873-2.394"/>
	<path style="&st1;" d="M25.735,13.531h0.708"/>
	<path style="&st1;" d="M15.82,13.531h8.499"/>
	<path style="&st1;" d="M13.696,13.531h0.708"/>
	<path style="&st1;" d="M13.696,13.531c-5.554,0-10.057,4.503-10.057,10.057"/>
	<path style="&st1;" d="M3.639,23.588c0,5.554,4.502,10.057,10.057,10.057"/>
	<path style="&st1;" d="M26.444,33.645c5.554,0,10.057-4.502,10.057-10.057"/>
	<path style="&st1;" d="M36.5,23.588c0-5.554-4.503-10.057-10.057-10.057"/>
	<path style="&st1;" d="M18.653,14.948c-0.782,0-1.417,0.634-1.417,1.417"/>
	<path style="&st1;" d="M22.902,16.364c0-0.782-0.634-1.417-1.416-1.417"/>
	<path style="&st1;" d="M17.237,30.812c0,0.782,0.634,1.416,1.417,1.416"/>
	<path style="&st1;" d="M21.486,32.228c0.782,0,1.416-0.634,1.416-1.416"/>
	<path style="&st1;" d="M13.696,10.132c-0.953,0-1.758,0.082-2.691,0.272"/>
	<path style="&st1;" d="M26.444,37.044c1.259,0,2.325-0.143,3.541-0.474"/>
	<path style="&st0;" d="M14.404,6.158c-0.004-0.939-0.77-1.696-1.708-1.691"/>
	<path style="&st0;" d="M12.696,4.466C11.757,4.471,11,5.236,11.004,6.174"/>
	<path style="&st0;" d="M29.135,6.158c-0.004-0.939-0.77-1.696-1.708-1.691"/>
	<path style="&st0;" d="M27.427,4.466c-0.933,0.004-1.687,0.758-1.691,1.691"/>
	<path style="&st0;" d="M11.027,38.965c0.521,1.428,1.806,2.327,3.326,2.327"/>
	<path style="&st0;" d="M25.786,41.293c1.521,0,2.807-0.9,3.327-2.328"/>
	<path style="&st0;" d="M11.004,10.404C3.723,11.89-0.975,18.998,0.512,26.279"/>
	<path style="&st0;" d="M0.512,26.279c1.044,5.114,4.608,8.917,9.643,10.291"/>
	<path style="&st1;" d="M29.135,10.404c-0.933-0.19-1.738-0.271-2.691-0.271"/>
	<path style="&st1;" d="M10.155,36.571c1.215,0.332,2.281,0.475,3.541,0.475"/>
	<path style="&st0;" d="M29.985,36.571c7.17-1.956,11.397-9.354,9.442-16.524"/>
	<path style="&st0;" d="M39.427,20.047c-1.374-5.036-5.178-8.601-10.292-9.644"/>
	<path style="&st1;" d="M32.817,17.781h-8.499v11.615h8.499V17.781"/>
	<path style="&st1;" d="M15.82,17.781H7.322v11.615h8.499V17.781"/>
	<path style="&st0;" d="M25.735,6.158v7.374h-1.417V0.5H15.82v13.031h-1.417V6.158"/>
	<g ewd:pinNo="1">
		<text transform="matrix(1 0 0 1 9.8374 25.7358)"><tspan x="0" y="0" style="&st3; &st2;">1</tspan></text>
	</g>
	<g ewd:pinNo="2">
		<text transform="matrix(1 0 0 1 27.1675 25.7358)"><tspan x="0" y="0" style="&st3; &st2;">2</tspan></text>
	</g>
</g>
</svg>