﻿<?xml version="1.0"?>
<!-- Generator: Adobe Illustrator 10.0, SVG Export Plug-In . SVG Version: 3.0.0 Build 77)  -->
<!DOCTYPE svg PUBLIC "-//W3C//DTD SVG 1.0//EN" "http://www.w3.org/TR/2001/REC-SVG-20010904/DTD/svg10.dtd"[
	<!ENTITY ns_flows "http://ns.adobe.com/Flows/1.0/">
	<!ENTITY ns_svg "http://www.w3.org/2000/svg">
	<!ENTITY ns_xlink "http://www.w3.org/1999/xlink">
	<!ENTITY st0 "fill:none;stroke:#000000;stroke-linecap:round;stroke-linejoin:round;">
	<!ENTITY st1 "fill:none;stroke:#000000;stroke-width:0.6;stroke-linecap:round;stroke-linejoin:round;">
	<!ENTITY st2 "font-size:6px;">
	<!ENTITY st3 "font-family:'Arial';">
	<!ATTLIST svg
		ewd:ver CDATA #IMPLIED
		xmlns:ewd CDATA #FIXED "http://shcl.co.jp/ewd"
		xmlns:a CDATA #FIXED "http://ns.adobe.com/AdobeSVGViewerExtensions/3.0/">
	<!ATTLIST g
		ewd:pinNo CDATA #IMPLIED>
]>
<svg width="63.266" height="53.833" viewBox="0 0 63.266 53.833" style="overflow:visible;enable-background:new 0 0 63.266 53.833" xml:space="preserve" onload="call_execInitLoadProc_svg('connector')" ewd:ver="L2.3.0.14" xmlns="&ns_svg;" xmlns:a="http://ns.adobe.com/AdobeSVGViewerExtensions/3.0/" xmlns:ewd="http://shcl.co.jp/ewd" xmlns:xlink="&ns_xlink;">
<script type="text/javascript" xlink:href="../../../../../system/js/ewd/fig/svgfig.js"/>
<g id="レイヤー_1">
	<path style="&st1;" d="M34.438,34.353h8.499"/>
	<path style="&st1;" d="M34.438,25.288v9.773"/>
	<path style="&st1;" d="M42.936,25.288h-8.499"/>
	<path style="&st1;" d="M51.435,34.353h-8.499"/>
	<path style="&st1;" d="M51.435,25.288v9.773"/>
	<path style="&st1;" d="M42.936,25.288h8.499"/>
	<path style="&st1;" d="M34.438,43.418h5.844"/>
	<path style="&st1;" d="M34.438,34.353v9.065"/>
	<path style="&st1;" d="M45.593,43.418h5.841"/>
	<path style="&st1;" d="M42.936,25.288V42.71"/>
	<path style="&st1;" d="M51.435,43.418v-9.065"/>
	<path style="&st1;" d="M58.517,26.704v13.881"/>
	<path style="&st1;" d="M27.355,26.704v13.881"/>
	<path style="&st1;" d="M30.188,49.084h25.496"/>
	<path style="&st1;" d="M55.684,18.206h-6.198"/>
	<path style="&st1;" d="M40.282,42.71v2.125"/>
	<path style="&st1;" d="M45.593,42.71v2.125"/>
	<path style="&st1;" d="M40.282,42.71h5.312"/>
	<path style="&st1;" d="M40.282,44.834h5.312"/>
	<path style="&st1;" d="M36.384,18.206h-6.195"/>
	<path style="&st1;" d="M28.772,25.288l-1.417,1.417"/>
	<path style="&st1;" d="M27.355,40.585l1.417,1.417"/>
	<path style="&st1;" d="M57.101,42.001l1.417-1.417"/>
	<path style="&st1;" d="M58.517,26.704l-1.417-1.417"/>
	<path style="&st1;" d="M57.101,19.622v5.666"/>
	<path style="&st1;" d="M57.101,42.001v5.666"/>
	<path style="&st1;" d="M28.772,42.001v5.666"/>
	<path style="&st1;" d="M28.772,25.288v-5.666"/>
	<path style="&st0;" d="M30.188,53.333h25.496"/>
	<path style="&st1;" d="M51.472,13.956v4.25"/>
	<path style="&st1;" d="M34.404,13.956v4.25"/>
	<path style="&st0;" d="M62.766,19.622v26.629"/>
	<path style="&st0;" d="M30.188,12.54h2.125"/>
	<path style="&st1;" d="M52.885,12.54h0.674"/>
	<path style="&st0;" d="M35.146,0.5h15.581"/>
	<path style="&st0;" d="M32.313,3.333v9.207"/>
	<path style="&st0;" d="M53.56,3.333v9.207"/>
	<path style="&st1;" d="M37.803,4.75v12.04"/>
	<path style="&st1;" d="M48.072,4.75v12.04"/>
	<path style="&st1;" d="M37.803,4.75h10.266"/>
	<path style="&st1;" d="M37.803,6.166h10.266"/>
	<path style="&st1;" d="M50.619,21.747H35.25"/>
	<path style="&st1;" d="M50.619,19.622H35.25"/>
	<path style="&st1;" d="M34.401,20.896v-0.425"/>
	<path style="&st1;" d="M51.469,20.472v0.425"/>
	<path style="&st1;" d="M33.021,43.418v5.666"/>
	<path style="&st1;" d="M52.851,49.084v-5.666"/>
	<path style="&st0;" d="M23.106,19.588v0.703"/>
	<path style="&st1;" d="M32.313,12.54h0.674"/>
	<path style="&st0;" d="M53.56,12.54h2.125"/>
	<path style="&st1;" d="M23.106,20.291v13.258"/>
	<path style="&st0;" d="M23.106,33.548v12.703"/>
	<path style="&st1;" d="M52.885,12.54c-0.782,0-1.417,0.634-1.417,1.416"/>
	<path style="&st1;" d="M34.401,13.956c0-0.782-0.634-1.416-1.417-1.416"/>
	<path style="&st0;" d="M55.684,53.333c3.911,0,7.082-3.171,7.082-7.082"/>
	<path style="&st0;" d="M23.106,46.251c0,3.911,3.171,7.082,7.083,7.082"/>
	<path style="&st0;" d="M62.766,19.622c0-1.98-0.71-3.671-2.124-5.057"/>
	<path style="&st0;" d="M35.146,0.5c-1.564,0-2.833,1.269-2.833,2.833"/>
	<path style="&st0;" d="M53.56,3.333c0-1.564-1.269-2.833-2.833-2.833"/>
	<path style="&st0;" d="M30.188,12.54c-1.931,0-3.58,0.673-4.958,2.025"/>
	<path style="&st0;" d="M25.231,14.565c-1.414,1.386-2.124,3.076-2.124,5.057"/>
	<path style="&st0;" d="M60.642,14.565c-1.379-1.352-3.027-2.025-4.958-2.025"/>
	<path style="&st1;" d="M36.384,18.206c0.782,0.001,1.417-0.631,1.419-1.414"/>
	<path style="&st1;" d="M37.803,16.792c0-0.001,0-0.002,0-0.003"/>
	<path style="&st1;" d="M30.188,18.206c-0.782,0-1.417,0.634-1.417,1.417"/>
	<path style="&st1;" d="M57.101,19.622c0-0.782-0.634-1.417-1.417-1.417"/>
	<path style="&st1;" d="M48.069,16.789c0,0.782,0.634,1.417,1.417,1.417"/>
	<path style="&st1;" d="M34.401,20.896c0,0.47,0.38,0.85,0.85,0.85"/>
	<path style="&st1;" d="M35.25,19.622c-0.469,0-0.85,0.38-0.85,0.85"/>
	<path style="&st1;" d="M50.619,21.747c0.469,0,0.85-0.38,0.85-0.85"/>
	<path style="&st1;" d="M51.469,20.472c0-0.469-0.38-0.85-0.85-0.85"/>
	<path style="&st1;" d="M28.772,47.667c0,0.782,0.634,1.417,1.417,1.417"/>
	<path style="&st1;" d="M55.684,49.084c0.782,0,1.417-0.634,1.417-1.417"/>
	<path style="&st1;" d="M34.438,42.001c-0.782,0-1.417,0.634-1.417,1.417"/>
	<path style="&st1;" d="M52.851,43.418c0-0.782-0.634-1.417-1.417-1.417"/>
	<path style="&st0;" d="M21.8,18.58c-0.39-2.334-1.221-4.233-2.672-6.101"/>
	<path style="&st0;" d="M19.826,18.662c-0.389-2.333-1.221-4.233-2.672-6.102"/>
	<path style="&st0;" d="M6.488,21.735c-0.587,0.503-0.891,1.164-0.891,1.938"/>
	<path style="&st0;" d="M17.004,18.396c-0.095-0.24-0.347-0.37-0.598-0.308"/>
	<path style="&st0;" d="M13.39,18.072c0.053,0.373,0.398,0.631,0.771,0.578"/>
	<path style="&st0;" d="M14.16,18.65c0.024-0.003,0.044-0.007,0.068-0.014"/>
	<path style="&st0;" d="M22.086,20.291c0,0.282,0.228,0.51,0.51,0.51"/>
	<path style="&st0;" d="M22.596,20.801c0.282,0,0.51-0.229,0.51-0.51"/>
	<path style="&st0;" d="M19.129,41.361c1.452-1.87,2.284-3.77,2.673-6.104"/>
	<path style="&st0;" d="M17.154,41.279c1.452-1.87,2.283-3.77,2.672-6.104"/>
	<path style="&st0;" d="M5.599,30.166c0,0.772,0.303,1.432,0.889,1.935"/>
	<path style="&st0;" d="M16.406,35.747c0.25,0.062,0.5-0.068,0.595-0.307"/>
	<path style="&st0;" d="M14.228,35.203c-0.365-0.091-0.734,0.131-0.824,0.496"/>
	<path style="&st0;" d="M13.404,35.698c-0.006,0.023-0.01,0.042-0.013,0.065"/>
	<path style="&st0;" d="M23.106,33.548c0-0.282-0.228-0.51-0.51-0.51"/>
	<path style="&st0;" d="M22.596,33.039c-0.282,0-0.51,0.228-0.51,0.51"/>
	<path style="&st0;" d="M15.896,8.316c0.192-0.627-0.16-1.292-0.788-1.484"/>
	<path style="&st0;" d="M15.109,6.832c-0.627-0.192-1.292,0.16-1.484,0.788"/>
	<path style="&st0;" d="M13.625,7.619c-0.192,0.627,0.16,1.292,0.788,1.484"/>
	<path style="&st0;" d="M14.412,9.104c0.026,0.008,0.048,0.014,0.074,0.021"/>
	<path style="&st0;" d="M14.486,44.712c-0.64,0.152-1.036,0.794-0.884,1.434"/>
	<path style="&st0;" d="M13.602,46.146c0.151,0.64,0.793,1.036,1.433,0.884"/>
	<path style="&st0;" d="M15.035,47.03c0.64-0.151,1.036-0.793,0.884-1.433"/>
	<path style="&st0;" d="M15.919,45.597c-0.006-0.026-0.013-0.049-0.021-0.075"/>
	<path style="&st0;" d="M20.217,30.319c0-0.938-0.761-1.7-1.7-1.7"/>
	<path style="&st0;" d="M18.517,25.22c0.938,0,1.7-0.761,1.7-1.7"/>
	<path style="&st0;" d="M8.551,24.05c-0.411-0.226-0.927-0.074-1.153,0.337"/>
	<path style="&st0;" d="M7.398,24.387c-0.147,0.269-0.144,0.567,0.009,0.833"/>
	<path style="&st0;" d="M7.407,28.619c-0.235,0.407-0.095,0.927,0.312,1.162"/>
	<path style="&st0;" d="M7.718,29.781c0.265,0.153,0.564,0.156,0.833,0.009"/>
	<path style="&st0;" d="M3.899,21.82C2.606,21.79,1.492,22.18,0.5,23.011"/>
	<path style="&st0;" d="M0.5,30.829c0.992,0.832,2.105,1.222,3.399,1.191"/>
	<path style="&st0;" d="M15.896,8.316l3.232,4.162"/>
	<path style="&st0;" d="M21.8,18.58l0.286,1.711"/>
	<path style="&st0;" d="M14.486,9.126l2.668,3.433"/>
	<path style="&st0;" d="M19.826,18.662l0.391,2.349"/>
	<path style="&st0;" d="M8.551,24.05l8.626-5.218"/>
	<path style="&st0;" d="M13.098,16.07l0.292,2.002"/>
	<path style="&st0;" d="M13.098,16.07l-6.609,5.666"/>
	<path style="&st0;" d="M14.228,18.636l2.178-0.547"/>
	<path style="&st0;" d="M17.004,18.396l0.173,0.436"/>
	<path style="&st0;" d="M20.217,32.829v-2.51"/>
	<path style="&st1;" d="M13.39,18.072l0.408,2.805"/>
	<path style="&st0;" d="M15.896,45.523l3.232-4.162"/>
	<path style="&st0;" d="M21.8,35.257l0.286-1.708"/>
	<path style="&st0;" d="M14.486,44.712l2.668-3.433"/>
	<path style="&st0;" d="M19.826,35.174l0.391-2.346"/>
	<path style="&st0;" d="M8.551,29.789l8.626,5.215"/>
	<path style="&st0;" d="M13.098,37.767l0.292-2.003"/>
	<path style="&st0;" d="M13.098,37.767l-6.609-5.666"/>
	<path style="&st0;" d="M14.228,35.203l2.178,0.544"/>
	<path style="&st0;" d="M17.004,35.441l0.173-0.437"/>
	<path style="&st1;" d="M13.39,35.764l0.408-2.802"/>
	<path style="&st0;" d="M20.217,21.01v2.51"/>
	<path style="&st0;" d="M3.899,21.82v3.399h1.7"/>
	<path style="&st0;" d="M5.599,28.619h-1.7v3.399"/>
	<path style="&st0;" d="M0.5,23.01v7.818"/>
	<path style="&st0;" d="M5.599,23.673v1.547"/>
	<path style="&st0;" d="M5.599,28.619v1.547"/>
	<path style="&st0;" d="M18.517,25.22H7.407"/>
	<path style="&st1;" d="M7.407,25.22H5.599"/>
	<path style="&st0;" d="M18.517,28.619H7.407"/>
	<path style="&st1;" d="M7.407,28.619H5.599"/>
	<path style="&st1;" d="M3.899,28.619L0.5,30.829"/>
	<path style="&st1;" d="M3.899,25.22L0.5,23.01"/>
	<path style="&st1;" d="M10.019,28.619V25.22"/>
	<g ewd:pinNo="2">
		<text transform="matrix(1 0 0 1 37.0859 31.9746)"><tspan x="0" y="0" style="&st3; &st2;">2</tspan></text>
	</g>
	<g ewd:pinNo="1">
		<text transform="matrix(1 0 0 1 45.5845 31.9746)"><tspan x="0" y="0" style="&st3; &st2;">1</tspan></text>
	</g>
	<g ewd:pinNo="4">
		<text transform="matrix(1 0 0 1 37.0859 41.0396)"><tspan x="0" y="0" style="&st3; &st2;">4</tspan></text>
	</g>
	<g ewd:pinNo="3">
		<text transform="matrix(1 0 0 1 45.5845 41.0396)"><tspan x="0" y="0" style="&st3; &st2;">3</tspan></text>
	</g>
</g>
</svg>